# vtk DataFile Version 3.0
Mixed element cube mesh
ASCII
DATASET UNSTRUCTURED_GRID

POINTS 216 float
0.000000 0.000000 0.000000 
0.168676 0.000000 0.000000 
0.436466 0.000000 0.000000 
0.613409 0.000000 0.000000 
0.788889 0.000000 0.000000 
1.000000 0.000000 0.000000 
0.000000 0.174845 0.000000 
0.179464 0.161911 0.000000 
0.374572 0.171308 0.000000 
0.575721 0.199348 0.000000 
0.794511 0.167833 0.000000 
1.000000 0.183962 0.000000 
0.000000 0.395648 0.000000 
0.208730 0.420517 0.000000 
0.375494 0.388159 0.000000 
0.620971 0.419743 0.000000 
0.788299 0.369146 0.000000 
1.000000 0.430797 0.000000 
0.000000 0.635661 0.000000 
0.185902 0.567691 0.000000 
0.397210 0.562027 0.000000 
0.603442 0.607689 0.000000 
0.764391 0.586044 0.000000 
1.000000 0.599199 0.000000 
0.000000 0.797476 0.000000 
0.238825 0.836088 0.000000 
0.410667 0.821590 0.000000 
0.569590 0.779499 0.000000 
0.821264 0.801571 0.000000 
1.000000 0.762727 0.000000 
0.000000 1.000000 0.000000 
0.211372 1.000000 0.000000 
0.374401 1.000000 0.000000 
0.572486 1.000000 0.000000 
0.782396 1.000000 0.000000 
1.000000 1.000000 0.000000 
0.000000 0.000000 0.186787 
0.235735 0.000000 0.214014 
0.438259 0.000000 0.223546 
0.565653 0.000000 0.182418 
0.784063 0.000000 0.167409 
1.000000 0.000000 0.163561 
0.000000 0.208633 0.238010 
0.194094 0.164758 0.174357 
0.375216 0.188758 0.168560 
0.582119 0.190956 0.192499 
0.822258 0.216660 0.206784 
1.000000 0.204127 0.205043 
0.000000 0.430419 0.239390 
0.227378 0.415328 0.229991 
0.411766 0.409290 0.223380 
0.606096 0.429286 0.205019 
0.806564 0.429803 0.202981 
1.000000 0.402101 0.220863 
0.000000 0.609602 0.231912 
0.173737 0.561304 0.174422 
0.403739 0.605396 0.220808 
0.602796 0.608186 0.218457 
0.822933 0.630223 0.202078 
1.000000 0.560000 0.191827 
0.000000 0.805019 0.239912 
0.165178 0.797107 0.199834 
0.376244 0.792785 0.193475 
0.636521 0.832788 0.214364 
0.823177 0.818103 0.227495 
1.000000 0.821232 0.230292 
0.000000 1.000000 0.160311 
0.235105 1.000000 0.229912 
0.401417 1.000000 0.229912 
0.637015 1.000000 0.234931 
0.839177 1.000000 0.229752 
1.000000 1.000000 0.239344 
0.000000 0.000000 0.419890 
0.166800 0.000000 0.364442 
0.374012 0.000000 0.390078 
0.609165 0.000000 0.428025 
0.786849 0.000000 0.390743 
1.000000 0.000000 0.374677 
0.000000 0.173955 0.379573 
0.211202 0.221844 0.428771 
0.418859 0.223702 0.437773 
0.586546 0.166093 0.382619 
0.813798 0.223939 0.433330 
1.000000 0.227019 0.419318 
0.000000 0.412198 0.428483 
0.175127 0.398365 0.383441 
0.373043 0.374494 0.386115 
0.575636 0.374914 0.370771 
0.770382 0.391911 0.363163 
1.000000 0.426125 0.410291 
0.000000 0.596494 0.389580 
0.227445 0.603750 0.404451 
0.376932 0.576272 0.373338 
0.568969 0.588465 0.386814 
0.839375 0.600143 0.433096 
1.000000 0.592472 0.382540 
0.000000 0.836757 0.430595 
0.195154 0.772569 0.384647 
0.362278 0.763349 0.365523 
0.568254 0.778078 0.388108 
0.763614 0.765041 0.380074 
1.000000 0.806510 0.410956 
0.000000 1.000000 0.419696 
0.233958 1.000000 0.419839 
0.392783 1.000000 0.372633 
0.594438 1.000000 0.375876 
0.833525 1.000000 0.428970 
1.000000 1.000000 0.408879 
0.000000 0.000000 0.604850 
0.214418 0.000000 0.612992 
0.363661 0.000000 0.575116 
0.567275 0.000000 0.580157 
0.784227 0.000000 0.573647 
1.000000 0.000000 0.589644 
0.000000 0.197098 0.595686 
0.214544 0.211531 0.613255 
0.382907 0.162620 0.576657 
0.573650 0.169529 0.580503 
0.835321 0.225027 0.620709 
1.000000 0.222302 0.617048 
0.000000 0.384224 0.590227 
0.229174 0.425546 0.639394 
0.435902 0.405443 0.616432 
0.631331 0.430975 0.611747 
0.834621 0.428840 0.601966 
1.000000 0.360541 0.571684 
0.000000 0.618956 0.634607 
0.203982 0.615316 0.612071 
0.432364 0.605268 0.602060 
0.581691 0.568765 0.572317 
0.795236 0.576415 0.576855 
1.000000 0.576198 0.585523 
0.000000 0.764451 0.580937 
0.175611 0.778970 0.575243 
0.390654 0.766808 0.597196 
0.563051 0.793214 0.580731 
0.766929 0.788367 0.585712 
1.000000 0.786230 0.567404 
0.000000 1.000000 0.601453 
0.231130 1.000000 0.625039 
0.412326 1.000000 0.608840 
0.624498 1.000000 0.604389 
0.831290 1.000000 0.628778 
1.000000 1.000000 0.583952 
0.000000 0.000000 0.782640 
0.184570 0.000000 0.778686 
0.377784 0.000000 0.799417 
0.584713 0.000000 0.787784 
0.810418 0.000000 0.825986 
1.000000 0.000000 0.763216 
0.000000 0.167609 0.772086 
0.174164 0.199760 0.778682 
0.375262 0.174292 0.779259 
0.614486 0.228755 0.832076 
0.793885 0.198684 0.797458 
1.000000 0.207505 0.824758 
0.000000 0.377287 0.799955 
0.212210 0.410463 0.826215 
0.407246 0.413654 0.826694 
0.573868 0.387471 0.764599 
0.806286 0.420138 0.833158 
1.000000 0.363833 0.792356 
0.000000 0.628243 0.834757 
0.229558 0.637299 0.809325 
0.422058 0.637337 0.819776 
0.562435 0.568014 0.767434 
0.773712 0.560188 0.762566 
1.000000 0.565028 0.776434 
0.000000 0.769627 0.768983 
0.189489 0.775825 0.781177 
0.368180 0.765397 0.765079 
0.583501 0.775521 0.776124 
0.821542 0.805934 0.823161 
1.000000 0.828036 0.820726 
0.000000 1.000000 0.779398 
0.180408 1.000000 0.779586 
0.367426 1.000000 0.784614 
0.581915 1.000000 0.794241 
0.790119 1.000000 0.783729 
1.000000 1.000000 0.771296 
0.000000 0.000000 1.000000 
0.223307 0.000000 1.000000 
0.380906 0.000000 1.000000 
0.602349 0.000000 1.000000 
0.825631 0.000000 1.000000 
1.000000 0.000000 1.000000 
0.000000 0.208792 1.000000 
0.236941 0.229518 1.000000 
0.417542 0.234023 1.000000 
0.637956 0.235963 1.000000 
0.786657 0.178530 1.000000 
1.000000 0.180898 1.000000 
0.000000 0.381353 1.000000 
0.238691 0.407351 1.000000 
0.431209 0.430658 1.000000 
0.610303 0.430464 1.000000 
0.813274 0.416095 1.000000 
1.000000 0.422178 1.000000 
0.000000 0.592359 1.000000 
0.214404 0.626155 1.000000 
0.391572 0.575738 1.000000 
0.595609 0.585058 1.000000 
0.825861 0.623708 1.000000 
1.000000 0.576146 1.000000 
0.000000 0.822435 1.000000 
0.209705 0.800756 1.000000 
0.399637 0.763052 1.000000 
0.569173 0.764512 1.000000 
0.793077 0.782081 1.000000 
1.000000 0.831809 1.000000 
0.000000 1.000000 1.000000 
0.193787 1.000000 1.000000 
0.364712 1.000000 1.000000 
0.635977 1.000000 1.000000 
0.780968 1.000000 1.000000 
1.000000 1.000000 1.000000 

CELLS 250 1750
6 36 37 42 0 1 6 

6 42 37 43 6 1 7 

6 42 43 48 6 7 12 

6 48 43 49 12 7 13 

6 48 49 54 12 13 18 

6 54 49 55 18 13 19 

6 54 55 60 18 19 24 

6 60 55 61 24 19 25 

6 60 61 66 24 25 30 

6 66 61 67 30 25 31 

6 37 38 43 1 2 7 

6 43 38 44 7 2 8 

6 43 44 49 7 8 13 

6 49 44 50 13 8 14 

6 49 50 55 13 14 19 

6 55 50 56 19 14 20 

6 55 56 61 19 20 25 

6 61 56 62 25 20 26 

6 61 62 67 25 26 31 

6 67 62 68 31 26 32 

6 38 39 44 2 3 8 

6 44 39 45 8 3 9 

6 44 45 50 8 9 14 

6 50 45 51 14 9 15 

6 50 51 56 14 15 20 

6 56 51 57 20 15 21 

6 56 57 62 20 21 26 

6 62 57 63 26 21 27 

6 62 63 68 26 27 32 

6 68 63 69 32 27 33 

6 39 40 45 3 4 9 

6 45 40 46 9 4 10 

6 45 46 51 9 10 15 

6 51 46 52 15 10 16 

6 51 52 57 15 16 21 

6 57 52 58 21 16 22 

6 57 58 63 21 22 27 

6 63 58 64 27 22 28 

6 63 64 69 27 28 33 

6 69 64 70 33 28 34 

6 40 41 46 4 5 10 

6 46 41 47 10 5 11 

6 46 47 52 10 11 16 

6 52 47 53 16 11 17 

6 52 53 58 16 17 22 

6 58 53 59 22 17 23 

6 58 59 64 22 23 28 

6 64 59 65 28 23 29 

6 64 65 70 28 29 34 

6 70 65 71 34 29 35 

6 72 73 78 36 37 42 

6 78 73 79 42 37 43 

6 78 79 84 42 43 48 

6 84 79 85 48 43 49 

6 84 85 90 48 49 54 

6 90 85 91 54 49 55 

6 90 91 96 54 55 60 

6 96 91 97 60 55 61 

6 96 97 102 60 61 66 

6 102 97 103 66 61 67 

6 73 74 79 37 38 43 

6 79 74 80 43 38 44 

6 79 80 85 43 44 49 

6 85 80 86 49 44 50 

6 85 86 91 49 50 55 

6 91 86 92 55 50 56 

6 91 92 97 55 56 61 

6 97 92 98 61 56 62 

6 97 98 103 61 62 67 

6 103 98 104 67 62 68 

6 74 75 80 38 39 44 

6 80 75 81 44 39 45 

6 80 81 86 44 45 50 

6 86 81 87 50 45 51 

6 86 87 92 50 51 56 

6 92 87 93 56 51 57 

6 92 93 98 56 57 62 

6 98 93 99 62 57 63 

6 98 99 104 62 63 68 

6 104 99 105 68 63 69 

6 75 76 81 39 40 45 

6 81 76 82 45 40 46 

6 81 82 87 45 46 51 

6 87 82 88 51 46 52 

6 87 88 93 51 52 57 

6 93 88 94 57 52 58 

6 93 94 99 57 58 63 

6 99 94 100 63 58 64 

6 99 100 105 63 64 69 

6 105 100 106 69 64 70 

6 76 77 82 40 41 46 

6 82 77 83 46 41 47 

6 82 83 88 46 47 52 

6 88 83 89 52 47 53 

6 88 89 94 52 53 58 

6 94 89 95 58 53 59 

6 94 95 100 58 59 64 

6 100 95 101 64 59 65 

6 100 101 106 64 65 70 

6 106 101 107 70 65 71 

6 108 109 114 72 73 78 

6 114 109 115 78 73 79 

6 114 115 120 78 79 84 

6 120 115 121 84 79 85 

6 120 121 126 84 85 90 

6 126 121 127 90 85 91 

6 126 127 132 90 91 96 

6 132 127 133 96 91 97 

6 132 133 138 96 97 102 

6 138 133 139 102 97 103 

6 109 110 115 73 74 79 

6 115 110 116 79 74 80 

6 115 116 121 79 80 85 

6 121 116 122 85 80 86 

6 121 122 127 85 86 91 

6 127 122 128 91 86 92 

6 127 128 133 91 92 97 

6 133 128 134 97 92 98 

6 133 134 139 97 98 103 

6 139 134 140 103 98 104 

6 110 111 116 74 75 80 

6 116 111 117 80 75 81 

6 116 117 122 80 81 86 

6 122 117 123 86 81 87 

6 122 123 128 86 87 92 

6 128 123 129 92 87 93 

6 128 129 134 92 93 98 

6 134 129 135 98 93 99 

6 134 135 140 98 99 104 

6 140 135 141 104 99 105 

6 111 112 117 75 76 81 

6 117 112 118 81 76 82 

6 117 118 123 81 82 87 

6 123 118 124 87 82 88 

6 123 124 129 87 88 93 

6 129 124 130 93 88 94 

6 129 130 135 93 94 99 

6 135 130 136 99 94 100 

6 135 136 141 99 100 105 

6 141 136 142 105 100 106 

6 112 113 118 76 77 82 

6 118 113 119 82 77 83 

6 118 119 124 82 83 88 

6 124 119 125 88 83 89 

6 124 125 130 88 89 94 

6 130 125 131 94 89 95 

6 130 131 136 94 95 100 

6 136 131 137 100 95 101 

6 136 137 142 100 101 106 

6 142 137 143 106 101 107 

6 144 145 150 108 109 114 

6 150 145 151 114 109 115 

6 150 151 156 114 115 120 

6 156 151 157 120 115 121 

6 156 157 162 120 121 126 

6 162 157 163 126 121 127 

6 162 163 168 126 127 132 

6 168 163 169 132 127 133 

6 168 169 174 132 133 138 

6 174 169 175 138 133 139 

6 145 146 151 109 110 115 

6 151 146 152 115 110 116 

6 151 152 157 115 116 121 

6 157 152 158 121 116 122 

6 157 158 163 121 122 127 

6 163 158 164 127 122 128 

6 163 164 169 127 128 133 

6 169 164 170 133 128 134 

6 169 170 175 133 134 139 

6 175 170 176 139 134 140 

6 146 147 152 110 111 116 

6 152 147 153 116 111 117 

6 152 153 158 116 117 122 

6 158 153 159 122 117 123 

6 158 159 164 122 123 128 

6 164 159 165 128 123 129 

6 164 165 170 128 129 134 

6 170 165 171 134 129 135 

6 170 171 176 134 135 140 

6 176 171 177 140 135 141 

6 147 148 153 111 112 117 

6 153 148 154 117 112 118 

6 153 154 159 117 118 123 

6 159 154 160 123 118 124 

6 159 160 165 123 124 129 

6 165 160 166 129 124 130 

6 165 166 171 129 130 135 

6 171 166 172 135 130 136 

6 171 172 177 135 136 141 

6 177 172 178 141 136 142 

6 148 149 154 112 113 118 

6 154 149 155 118 113 119 

6 154 155 160 118 119 124 

6 160 155 161 124 119 125 

6 160 161 166 124 125 130 

6 166 161 167 130 125 131 

6 166 167 172 130 131 136 

6 172 167 173 136 131 137 

6 172 173 178 136 137 142 

6 178 173 179 142 137 143 

6 180 181 186 144 145 150 

6 186 181 187 150 145 151 

6 186 187 192 150 151 156 

6 192 187 193 156 151 157 

6 192 193 198 156 157 162 

6 198 193 199 162 157 163 

6 198 199 204 162 163 168 

6 204 199 205 168 163 169 

6 204 205 210 168 169 174 

6 210 205 211 174 169 175 

6 181 182 187 145 146 151 

6 187 182 188 151 146 152 

6 187 188 193 151 152 157 

6 193 188 194 157 152 158 

6 193 194 199 157 158 163 

6 199 194 200 163 158 164 

6 199 200 205 163 164 169 

6 205 200 206 169 164 170 

6 205 206 211 169 170 175 

6 211 206 212 175 170 176 

6 182 183 188 146 147 152 

6 188 183 189 152 147 153 

6 188 189 194 152 153 158 

6 194 189 195 158 153 159 

6 194 195 200 158 159 164 

6 200 195 201 164 159 165 

6 200 201 206 164 165 170 

6 206 201 207 170 165 171 

6 206 207 212 170 171 176 

6 212 207 213 176 171 177 

6 183 184 189 147 148 153 

6 189 184 190 153 148 154 

6 189 190 195 153 154 159 

6 195 190 196 159 154 160 

6 195 196 201 159 160 165 

6 201 196 202 165 160 166 

6 201 202 207 165 166 171 

6 207 202 208 171 166 172 

6 207 208 213 171 172 177 

6 213 208 214 177 172 178 

6 184 185 190 148 149 154 

6 190 185 191 154 149 155 

6 190 191 196 154 155 160 

6 196 191 197 160 155 161 

6 196 197 202 160 161 166 

6 202 197 203 166 161 167 

6 202 203 208 166 167 172 

6 208 203 209 172 167 173 

6 208 209 214 172 173 178 

6 214 209 215 178 173 179 

CELL_TYPES 250 
13 
13 
13 
13 
13 
13 
13 
13 
13 
13 
13 
13 
13 
13 
13 
13 
13 
13 
13 
13 
13 
13 
13 
13 
13 
13 
13 
13 
13 
13 
13 
13 
13 
13 
13 
13 
13 
13 
13 
13 
13 
13 
13 
13 
13 
13 
13 
13 
13 
13 
13 
13 
13 
13 
13 
13 
13 
13 
13 
13 
13 
13 
13 
13 
13 
13 
13 
13 
13 
13 
13 
13 
13 
13 
13 
13 
13 
13 
13 
13 
13 
13 
13 
13 
13 
13 
13 
13 
13 
13 
13 
13 
13 
13 
13 
13 
13 
13 
13 
13 
13 
13 
13 
13 
13 
13 
13 
13 
13 
13 
13 
13 
13 
13 
13 
13 
13 
13 
13 
13 
13 
13 
13 
13 
13 
13 
13 
13 
13 
13 
13 
13 
13 
13 
13 
13 
13 
13 
13 
13 
13 
13 
13 
13 
13 
13 
13 
13 
13 
13 
13 
13 
13 
13 
13 
13 
13 
13 
13 
13 
13 
13 
13 
13 
13 
13 
13 
13 
13 
13 
13 
13 
13 
13 
13 
13 
13 
13 
13 
13 
13 
13 
13 
13 
13 
13 
13 
13 
13 
13 
13 
13 
13 
13 
13 
13 
13 
13 
13 
13 
13 
13 
13 
13 
13 
13 
13 
13 
13 
13 
13 
13 
13 
13 
13 
13 
13 
13 
13 
13 
13 
13 
13 
13 
13 
13 
13 
13 
13 
13 
13 
13 
13 
13 
13 
13 
13 
13 
13 
13 
13 
13 
13 
13 
13 
13 
13 
13 
13 
13 
CELL_DATA 250
SCALARS elem_id int
LOOKUP_TABLE default
0
1
2
3
4
5
6
7
8
9
10
11
12
13
14
15
16
17
18
19
20
21
22
23
24
25
26
27
28
29
30
31
32
33
34
35
36
37
38
39
40
41
42
43
44
45
46
47
48
49
50
51
52
53
54
55
56
57
58
59
60
61
62
63
64
65
66
67
68
69
70
71
72
73
74
75
76
77
78
79
80
81
82
83
84
85
86
87
88
89
90
91
92
93
94
95
96
97
98
99
100
101
102
103
104
105
106
107
108
109
110
111
112
113
114
115
116
117
118
119
120
121
122
123
124
125
126
127
128
129
130
131
132
133
134
135
136
137
138
139
140
141
142
143
144
145
146
147
148
149
150
151
152
153
154
155
156
157
158
159
160
161
162
163
164
165
166
167
168
169
170
171
172
173
174
175
176
177
178
179
180
181
182
183
184
185
186
187
188
189
190
191
192
193
194
195
196
197
198
199
200
201
202
203
204
205
206
207
208
209
210
211
212
213
214
215
216
217
218
219
220
221
222
223
224
225
226
227
228
229
230
231
232
233
234
235
236
237
238
239
240
241
242
243
244
245
246
247
248
249
SCALARS is_bdry int
LOOKUP_TABLE default
1
1
1
1
1
1
1
1
1
1
1
1
1
1
1
1
1
1
1
1
1
1
1
1
1
1
1
1
1
1
1
1
1
1
1
1
1
1
1
1
1
1
1
1
1
1
1
1
1
1
1
0
1
0
1
0
1
0
1
1
1
0
0
0
0
0
0
0
0
1
1
0
0
0
0
0
0
0
0
1
1
0
0
0
0
0
0
0
0
1
1
1
0
1
0
1
0
1
0
1
1
0
1
0
1
0
1
0
1
1
1
0
0
0
0
0
0
0
0
1
1
0
0
0
0
0
0
0
0
1
1
0
0
0
0
0
0
0
0
1
1
1
0
1
0
1
0
1
0
1
1
0
1
0
1
0
1
0
1
1
1
0
0
0
0
0
0
0
0
1
1
0
0
0
0
0
0
0
0
1
1
0
0
0
0
0
0
0
0
1
1
1
0
1
0
1
0
1
0
1
1
1
1
1
1
1
1
1
1
1
1
1
1
1
1
1
1
1
1
1
1
1
1
1
1
1
1
1
1
1
1
1
1
1
1
1
1
1
1
1
1
1
1
1
1
1
1
1
1
1
