%!PS-Adobe-3.0 EPSF-3.0
%%Title: bump_9
%%Creator: GL2PS 1.3.8, (C) 1999-2012 C. Geuzaine
%%For: Gmsh
%%CreationDate: Tue Apr  4 15:30:40 2017
%%LanguageLevel: 3
%%DocumentData: Clean7Bit
%%Pages: 1
%%BoundingBox: 330 100 1050 640
%%EndComments
%%BeginProlog
/gl2psdict 64 dict def gl2psdict begin
0 setlinecap 0 setlinejoin
/tryPS3shading false def % set to false to force subdivision
/rThreshold 0.0666667 def % red component subdivision threshold
/gThreshold 0.05 def % green component subdivision threshold
/bThreshold 0.1 def % blue component subdivision threshold
/BD { bind def } bind def
/C  { setrgbcolor } BD
/G  { 0.082 mul exch 0.6094 mul add exch 0.3086 mul add neg 1.0 add setgray } BD
/W  { setlinewidth } BD
/FC { findfont exch /SH exch def SH scalefont setfont } BD
/SW { dup stringwidth pop } BD
/S  { FC moveto show } BD
/SBC{ FC moveto SW -2 div 0 rmoveto show } BD
/SBR{ FC moveto SW neg 0 rmoveto show } BD
/SCL{ FC moveto 0 SH -2 div rmoveto show } BD
/SCC{ FC moveto SW -2 div SH -2 div rmoveto show } BD
/SCR{ FC moveto SW neg SH -2 div rmoveto show } BD
/STL{ FC moveto 0 SH neg rmoveto show } BD
/STC{ FC moveto SW -2 div SH neg rmoveto show } BD
/STR{ FC moveto SW neg SH neg rmoveto show } BD
/FCT { FC translate 0 0 } BD
/SR  { gsave FCT moveto rotate show grestore } BD
/SBCR{ gsave FCT moveto rotate SW -2 div 0 rmoveto show grestore } BD
/SBRR{ gsave FCT moveto rotate SW neg 0 rmoveto show grestore } BD
/SCLR{ gsave FCT moveto rotate 0 SH -2 div rmoveto show grestore} BD
/SCCR{ gsave FCT moveto rotate SW -2 div SH -2 div rmoveto show grestore} BD
/SCRR{ gsave FCT moveto rotate SW neg SH -2 div rmoveto show grestore} BD
/STLR{ gsave FCT moveto rotate 0 SH neg rmoveto show grestore } BD
/STCR{ gsave FCT moveto rotate SW -2 div SH neg rmoveto show grestore } BD
/STRR{ gsave FCT moveto rotate SW neg SH neg rmoveto show grestore } BD
/P  { newpath 0.0 360.0 arc closepath fill } BD
/LS { newpath moveto } BD
/L  { lineto } BD
/LE { lineto stroke } BD
/T  { newpath moveto lineto lineto closepath fill } BD
/STshfill {
      /b1 exch def /g1 exch def /r1 exch def /y1 exch def /x1 exch def
      /b2 exch def /g2 exch def /r2 exch def /y2 exch def /x2 exch def
      /b3 exch def /g3 exch def /r3 exch def /y3 exch def /x3 exch def
      gsave << /ShadingType 4 /ColorSpace [/DeviceRGB]
      /DataSource [ 0 x1 y1 r1 g1 b1 0 x2 y2 r2 g2 b2 0 x3 y3 r3 g3 b3 ] >>
      shfill grestore } BD
/Tm { 3 -1 roll 8 -1 roll 13 -1 roll add add 3 div
      3 -1 roll 7 -1 roll 11 -1 roll add add 3 div
      3 -1 roll 6 -1 roll 9 -1 roll add add 3 div C T } BD
/STsplit {
      4 index 15 index add 0.5 mul
      4 index 15 index add 0.5 mul
      4 index 15 index add 0.5 mul
      4 index 15 index add 0.5 mul
      4 index 15 index add 0.5 mul
      5 copy 5 copy 25 15 roll
      9 index 30 index add 0.5 mul
      9 index 30 index add 0.5 mul
      9 index 30 index add 0.5 mul
      9 index 30 index add 0.5 mul
      9 index 30 index add 0.5 mul
      5 copy 5 copy 35 5 roll 25 5 roll 15 5 roll
      4 index 10 index add 0.5 mul
      4 index 10 index add 0.5 mul
      4 index 10 index add 0.5 mul
      4 index 10 index add 0.5 mul
      4 index 10 index add 0.5 mul
      5 copy 5 copy 40 5 roll 25 5 roll 15 5 roll 25 5 roll
      STnoshfill STnoshfill STnoshfill STnoshfill } BD
/STnoshfill {
      2 index 8 index sub abs rThreshold gt
      { STsplit }
      { 1 index 7 index sub abs gThreshold gt
        { STsplit }
        { dup 6 index sub abs bThreshold gt
          { STsplit }
          { 2 index 13 index sub abs rThreshold gt
            { STsplit }
            { 1 index 12 index sub abs gThreshold gt
              { STsplit }
              { dup 11 index sub abs bThreshold gt
                { STsplit }
                { 7 index 13 index sub abs rThreshold gt
                  { STsplit }
                  { 6 index 12 index sub abs gThreshold gt
                    { STsplit }
                    { 5 index 11 index sub abs bThreshold gt
                      { STsplit }
                      { Tm }
                      ifelse }
                    ifelse }
                  ifelse }
                ifelse }
              ifelse }
            ifelse }
          ifelse }
        ifelse }
      ifelse } BD
tryPS3shading
{ /shfill where
  { /ST { STshfill } BD }
  { /ST { STnoshfill } BD }
  ifelse }
{ /ST { STnoshfill } BD }
ifelse
end
%%EndProlog
%%BeginSetup
/DeviceRGB setcolorspace
gl2psdict begin
%%EndSetup
%%Page: 1 1
%%BeginPageSetup
%%EndPageSetup
mark
gsave
1.0 1.0 scale
0 0 0 C
(2.5) 1012.15 331.448 15 /Helvetica S
(1.2) 345.623 203.624 15 /Helvetica S
(0) 658.867 117.081 15 /Helvetica S
(0) 635.397 116.267 15 /Helvetica S
(0) 653.556 122.494 15 /Helvetica S
(0.83) 658.466 336.594 15 /Helvetica S
1.3 W
0 0.0352941 0.368627 C
746.653 430.897 LS
746.632 430.222 L
746.653 430.897 LE
746.682 431.842 LS
746.653 430.897 L
746.682 431.842 LE
746.723 433.164 LS
746.682 431.842 L
746.723 433.164 LE
746.78 435.017 LS
746.723 433.164 L
746.78 435.017 LE
746.86 437.611 LS
746.78 435.017 L
746.86 437.611 LE
746.972 441.246 LS
746.86 437.611 L
746.972 441.246 LE
747.129 446.338 LS
746.972 441.246 L
747.129 446.338 LE
747.35 453.475 LS
747.129 446.338 L
747.35 453.475 LE
747.659 463.483 LS
747.35 453.475 L
747.659 463.483 LE
746.632 430.222 LS
726.569 419.546 L
746.632 430.222 LE
746.653 430.897 LS
726.589 420.224 LE
746.682 431.842 LS
726.617 421.174 LE
746.723 433.164 LS
726.655 422.504 LE
746.78 435.017 LS
726.71 424.366 LE
748.093 477.525 LS
747.659 463.483 L
748.093 477.525 LE
746.86 437.611 LS
726.785 426.974 LE
746.972 441.246 LS
726.892 430.627 LE
746.632 430.222 LS
809.613 412.983 L
746.632 430.222 LE
746.653 430.897 LS
809.638 413.662 LE
746.682 431.842 LS
809.673 414.613 LE
746.723 433.164 LS
809.722 415.945 LE
747.129 446.338 LS
727.04 435.746 LE
746.78 435.017 LS
809.79 417.811 LE
746.86 437.611 LS
809.886 420.423 LE
747.35 453.475 LS
727.249 442.921 LE
748.702 497.244 LS
748.093 477.525 L
748.702 497.244 LE
746.972 441.246 LS
810.021 424.083 LE
747.129 446.338 LS
810.209 429.21 LE
747.659 463.483 LS
727.541 452.981 LE
726.569 419.546 LS
726.589 420.224 L
726.617 421.174 LE
747.35 453.475 LS
810.473 436.396 LE
726.617 421.174 LS
726.655 422.504 L
726.71 424.366 L
726.785 426.974 L
726.892 430.627 LE
747.659 463.483 LS
810.843 446.474 LE
749.558 524.971 LS
748.702 497.244 L
749.558 524.971 LE
726.892 430.627 LS
727.04 435.746 LE
748.093 477.525 LS
727.952 467.096 LE
727.04 435.746 LS
727.249 442.921 LE
809.638 413.662 LS
809.613 412.983 LE
809.673 414.613 LS
809.638 413.662 LE
748.093 477.525 LS
811.363 460.613 LE
1 W
0 0 0 C
746.632 430.222 LS
752.467 619.172 LE
1.3 W
0 0.0352941 0.368627 C
809.722 415.945 LS
809.673 414.613 LE
727.249 442.921 LS
727.541 452.981 LE
809.79 417.811 LS
809.722 415.945 LE
809.886 420.423 LS
809.79 417.811 LE
748.702 497.244 LS
728.528 486.92 LE
726.569 419.546 LS
706.257 408.737 L
726.569 419.546 LE
810.021 424.083 LS
809.886 420.423 LE
726.589 420.224 LS
706.276 409.419 LE
726.617 421.174 LS
706.302 410.374 LE
726.655 422.504 LS
706.338 411.71 LE
810.209 429.21 LS
810.021 424.083 LE
726.71 424.366 LS
706.389 413.582 LE
727.541 452.981 LS
727.952 467.096 LE
726.785 426.974 LS
706.461 416.204 LE
810.473 436.396 LS
810.209 429.21 LE
726.892 430.627 LS
706.56 419.876 LE
748.702 497.244 LS
812.092 480.47 LE
726.569 419.546 LS
789.773 402.108 LE
750.764 564.026 LS
749.558 524.971 L
750.764 564.026 LE
727.04 435.746 LS
706.701 425.022 LE
810.843 446.474 LS
810.473 436.396 LE
727.249 442.921 LS
706.897 432.234 LE
727.952 467.096 LS
728.528 486.92 LE
809.613 412.983 LS
789.773 402.108 LE
749.558 524.971 LS
729.338 514.794 LE
811.363 460.613 LS
810.843 446.474 LE
727.541 452.981 LS
707.172 442.347 LE
706.257 408.737 LS
706.276 409.419 L
706.302 410.374 L
706.338 411.71 LE
809.613 412.983 LS
873.672 395.449 L
809.613 412.983 LE
706.338 411.71 LS
706.389 413.582 LE
809.638 413.662 LS
873.701 396.133 LE
809.673 414.613 LS
873.742 397.09 LE
749.558 524.971 LS
813.118 508.392 LE
706.389 413.582 LS
706.461 416.204 LE
809.722 415.945 LS
873.8 398.432 LE
809.79 417.811 LS
873.88 400.31 LE
706.461 416.204 LS
706.56 419.876 LE
809.886 420.423 LS
873.992 402.94 LE
728.528 486.92 LS
729.338 514.794 LE
706.56 419.876 LS
706.701 425.022 LE
727.952 467.096 LS
707.559 456.537 LE
812.092 480.47 LS
811.363 460.613 LE
810.021 424.083 LS
874.149 406.625 LE
706.701 425.022 LS
706.897 432.234 LE
810.209 429.21 LS
874.37 411.788 LE
752.467 619.172 LS
750.764 564.026 L
752.467 619.172 LE
810.473 436.396 LS
874.679 419.025 LE
706.897 432.234 LS
707.172 442.347 LE
750.764 564.026 LS
730.479 554.057 LE
728.528 486.92 LS
708.101 476.466 LE
706.257 408.737 LS
685.69 397.793 L
706.257 408.737 LE
706.276 409.419 LS
685.708 398.478 LE
706.302 410.374 LS
685.732 399.438 LE
706.338 411.71 LS
685.766 400.781 LE
810.843 446.474 LS
875.112 429.172 LE
813.118 508.392 LS
812.092 480.47 LE
706.389 413.582 LS
685.814 402.663 LE
707.172 442.347 LS
707.559 456.537 LE
706.461 416.204 LS
685.881 405.298 LE
750.764 564.026 LS
814.562 547.722 LE
706.56 419.876 LS
685.974 408.99 LE
706.257 408.737 LS
769.683 391.097 LE
729.338 514.794 LS
730.479 554.057 LE
873.701 396.133 LS
873.672 395.449 LE
706.701 425.022 LS
686.105 414.163 LE
873.742 397.09 LS
873.701 396.133 LE
811.363 460.613 LS
875.72 443.411 LE
873.8 398.432 LS
873.742 397.09 LE
1 W
0 0 0 C
1005.14 359.464 LS
746.632 430.222 LE
1.3 W
0 0.0352941 0.368627 C
873.88 400.31 LS
873.8 398.432 LE
873.992 402.94 LS
873.88 400.31 LE
706.897 432.234 LS
686.289 421.413 LE
707.559 456.537 LS
708.101 476.466 LE
789.773 402.108 LS
769.683 391.097 LE
874.149 406.625 LS
873.992 402.94 LE
729.338 514.794 LS
708.864 504.488 LE
874.37 411.788 LS
874.149 406.625 LE
707.172 442.347 LS
686.547 431.58 LE
685.69 397.793 LS
685.708 398.478 L
685.732 399.438 LE
874.679 419.025 LS
874.37 411.788 LE
685.732 399.438 LS
685.766 400.781 LE
812.092 480.47 LS
876.574 463.407 LE
789.773 402.108 LS
854.065 384.37 LE
814.562 547.722 LS
813.118 508.392 LE
685.766 400.781 LS
685.814 402.663 L
685.881 405.298 L
685.974 408.99 LE
875.112 429.172 LS
874.679 419.025 LE
708.101 476.466 LS
708.864 504.488 LE
685.974 408.99 LS
686.105 414.163 LE
707.559 456.537 LS
686.909 445.845 LE
873.672 395.449 LS
854.065 384.37 LE
732.091 609.5 LS
752.467 619.172 LE
686.105 414.163 LS
686.289 421.413 LE
875.72 443.411 LS
875.112 429.172 LE
730.479 554.057 LS
732.091 609.5 LE
873.672 395.449 LS
938.837 377.612 L
873.672 395.449 LE
686.289 421.413 LS
686.547 431.58 LE
873.701 396.133 LS
938.871 378.301 LE
873.742 397.09 LS
938.918 379.265 LE
813.118 508.392 LS
877.775 491.526 LE
752.467 619.172 LS
816.602 603.262 LE
873.8 398.432 LS
938.984 380.616 LE
730.479 554.057 LS
709.939 543.961 LE
873.88 400.31 LS
939.076 382.507 LE
708.101 476.466 LS
687.417 465.88 LE
685.69 397.793 LS
664.864 386.71 L
685.69 397.793 LE
685.708 398.478 LS
664.88 387.399 LE
685.732 399.438 LS
664.903 388.364 LE
873.992 402.94 LS
939.205 385.156 LE
685.766 400.781 LS
664.934 389.714 LE
685.814 402.663 LS
664.979 391.606 LE
876.574 463.407 LS
875.72 443.411 LE
874.149 406.625 LS
939.386 388.866 LE
686.547 431.58 LS
686.909 445.845 LE
685.881 405.298 LS
665.041 394.256 LE
874.37 411.788 LS
939.64 394.066 LE
685.974 408.99 LS
665.128 397.967 LE
685.69 397.793 LS
749.34 379.946 LE
708.864 504.488 LS
709.939 543.961 LE
686.105 414.163 LS
665.25 403.167 LE
816.602 603.262 LS
814.562 547.722 LE
874.679 419.025 LS
939.995 401.353 LE
686.289 421.413 LS
665.421 410.456 LE
686.909 445.845 LS
687.417 465.88 LE
769.683 391.097 LS
749.34 379.946 LE
708.864 504.488 LS
688.131 494.052 LE
875.112 429.172 LS
940.494 411.571 LE
877.775 491.526 LS
876.574 463.407 LE
686.547 431.58 LS
665.661 420.676 LE
664.864 386.71 LS
664.88 387.399 L
664.903 388.364 LE
814.562 547.722 LS
879.466 531.136 LE
664.903 388.364 LS
664.934 389.714 LE
769.683 391.097 LS
834.208 373.151 LE
664.934 389.714 LS
664.979 391.606 L
665.041 394.256 LE
938.871 378.301 LS
938.837 377.612 LE
938.918 379.265 LS
938.871 378.301 LE
875.72 443.411 LS
941.194 425.91 LE
938.984 380.616 LS
938.918 379.265 LE
665.041 394.256 LS
665.128 397.967 LE
939.076 382.507 LS
938.984 380.616 LE
939.205 385.156 LS
939.076 382.507 LE
687.417 465.88 LS
688.131 494.052 LE
665.128 397.967 LS
665.25 403.167 LE
686.909 445.845 LS
665.997 435.018 LE
854.065 384.37 LS
834.208 373.151 LE
939.386 388.866 LS
939.205 385.156 LE
711.456 599.705 LS
732.091 609.5 LE
665.25 403.167 LS
665.421 410.456 LE
939.64 394.066 LS
939.386 388.866 LE
709.939 543.961 LS
711.456 599.705 LE
939.995 401.353 LS
939.64 394.066 LE
876.574 463.407 LS
942.176 446.047 LE
665.421 410.456 LS
665.661 420.676 LE
854.065 384.37 LS
919.473 366.323 LE
879.466 531.136 LS
877.775 491.526 LE
709.939 543.961 LS
689.137 533.738 LE
687.417 465.88 LS
666.47 455.159 LE
664.864 386.71 LS
643.773 375.487 L
664.864 386.71 LE
664.88 387.399 LS
643.788 376.179 LE
940.494 411.571 LS
939.995 401.353 LE
664.903 388.364 LS
643.809 377.149 LE
664.934 389.714 LS
643.838 378.507 LE
664.979 391.606 LS
643.879 380.409 LE
665.661 420.676 LS
665.997 435.018 LE
938.837 377.612 LS
919.473 366.323 LE
665.041 394.256 LS
643.937 383.072 LE
665.128 397.967 LS
644.017 386.803 LE
664.864 386.71 LS
728.737 368.654 LE
688.131 494.052 LS
689.137 533.738 LE
941.194 425.91 LS
940.494 411.571 LE
665.25 403.167 LS
644.129 392.031 LE
938.837 377.612 LS
1005.14 359.464 L
938.837 377.612 LE
938.871 378.301 LS
1005.17 360.158 LE
938.918 379.265 LS
1005.23 361.129 LE
877.775 491.526 LS
943.558 474.366 LE
816.602 603.262 LS
881.855 587.075 LE
938.984 380.616 LS
1005.3 362.489 LE
665.421 410.456 LS
644.287 399.359 LE
665.997 435.018 LS
666.47 455.159 LE
939.076 382.507 LS
1005.41 364.394 LE
749.34 379.946 LS
728.737 368.654 LE
939.205 385.156 LS
1005.55 367.061 LE
688.131 494.052 LS
667.134 483.483 LE
942.176 446.047 LS
941.194 425.91 LE
939.386 388.866 LS
1005.76 370.798 LE
665.661 420.676 LS
644.508 409.634 LE
643.773 375.487 LS
643.788 376.179 L
643.773 375.487 LE
643.788 376.179 LS
643.809 377.149 L
643.788 376.179 LE
939.64 394.066 LS
1006.05 376.034 LE
643.809 377.149 LS
643.838 378.507 L
643.809 377.149 LE
749.34 379.946 LS
814.099 361.788 LE
643.838 378.507 LS
643.879 380.409 L
643.838 378.507 LE
643.879 380.409 LS
643.937 383.072 L
643.879 380.409 LE
881.855 587.075 LS
879.466 531.136 LE
939.995 401.353 LS
1006.45 383.372 LE
643.937 383.072 LS
644.017 386.803 L
643.937 383.072 LE
643.773 375.487 LS
638.903 376.933 L
643.773 375.487 LE
643.788 376.179 LS
638.916 377.611 LE
643.809 377.149 LS
638.934 378.561 LE
643.838 378.507 LS
638.96 379.892 LE
666.47 455.159 LS
667.134 483.483 LE
644.017 386.803 LS
644.129 392.031 L
644.017 386.803 LE
665.997 435.018 LS
644.819 424.052 LE
643.879 380.409 LS
638.996 381.754 LE
834.208 373.151 LS
814.099 361.788 LE
643.937 383.072 LS
639.046 384.363 LE
690.558 589.785 LS
711.456 599.705 LE
940.494 411.571 LS
1007.02 393.663 LE
644.129 392.031 LS
644.287 399.359 L
644.129 392.031 LE
638.903 376.933 LS
638.916 377.611 LE
943.558 474.366 LS
942.176 446.047 LE
638.916 377.611 LS
638.934 378.561 LE
644.017 386.803 LS
639.116 388.018 LE
638.934 378.561 LS
638.96 379.892 L
638.996 381.754 LE
689.137 533.738 LS
690.558 589.785 LE
638.996 381.754 LS
639.046 384.363 LE
644.129 392.031 LS
639.214 393.139 LE
879.466 531.136 LS
945.504 514.26 LE
644.287 399.359 LS
644.508 409.634 L
644.287 399.359 LE
834.208 373.151 LS
899.861 354.891 LE
639.046 384.363 LS
639.116 388.018 LE
638.903 376.933 LS
633.759 377.396 L
638.903 376.933 LE
638.916 377.611 LS
633.771 378.064 LE
638.934 378.561 LS
633.788 378.999 LE
1005.17 360.158 LS
1005.14 359.464 LE
689.137 533.738 LS
668.07 523.384 LE
638.96 379.892 LS
633.812 380.308 LE
1 W
0 0 0 C
1005.14 359.464 LS
1010.75 351.452 LE
1.3 W
0 0.0352941 0.368627 C
1005.23 361.129 LS
1005.17 360.158 LE
644.287 399.359 LS
639.352 400.317 LE
941.194 425.91 LS
1007.81 408.103 LE
639.116 388.018 LS
639.214 393.139 LE
666.47 455.159 LS
645.255 444.302 LE
1005.3 362.489 LS
1005.23 361.129 LE
638.996 381.754 LS
633.845 382.142 LE
1005.41 364.394 LS
1005.3 362.489 LE
639.046 384.363 LS
633.891 384.71 LE
1 W
0 0 0 C
1015.83 553.84 LS
752.467 619.172 LE
1.3 W
0 0.0352941 0.368627 C
1005.55 367.061 LS
1005.41 364.394 LE
639.214 393.139 LS
639.352 400.317 LE
633.759 377.396 LS
633.771 378.064 LE
639.116 388.018 LS
633.956 388.307 LE
644.508 409.634 LS
644.819 424.052 L
644.508 409.634 LE
633.771 378.064 LS
633.788 378.999 LE
919.473 366.323 LS
899.861 354.891 LE
1005.76 370.798 LS
1005.55 367.061 LE
633.788 378.999 LS
633.812 380.308 LE
644.508 409.634 LS
639.545 410.381 LE
633.812 380.308 LS
633.845 382.142 LE
1006.05 376.034 LS
1005.76 370.798 LE
633.845 382.142 LS
633.891 384.71 LE
639.214 393.139 LS
634.047 393.347 LE
643.773 375.487 LS
707.871 357.216 L
643.773 375.487 LE
667.134 483.483 LS
668.07 523.384 LE
639.352 400.317 LS
639.545 410.381 LE
633.891 384.71 LS
633.956 388.307 LE
633.759 377.396 LS
628.397 376.866 L
633.759 377.396 LE
633.771 378.064 LS
628.408 377.527 LE
633.788 378.999 LS
628.425 378.452 LE
1006.45 383.372 LS
1006.05 376.034 LE
633.812 380.308 LS
628.448 379.747 LE
639.352 400.317 LS
634.174 400.411 LE
633.956 388.307 LS
634.047 393.347 LE
942.176 446.047 LS
1008.93 428.384 LE
919.473 366.323 LS
986.028 347.961 LE
945.504 514.26 LS
943.558 474.366 LE
633.845 382.142 LS
628.48 381.561 LE
633.891 384.71 LS
628.525 384.101 LE
644.819 424.052 LS
639.816 424.503 LE
644.819 424.052 LS
645.255 444.302 L
644.819 424.052 LE
634.047 393.347 LS
634.174 400.411 LE
728.737 368.654 LS
707.871 357.216 LE
628.397 376.866 LS
628.408 377.527 LE
639.545 410.381 LS
639.816 424.503 LE
633.956 388.307 LS
628.589 387.659 LE
628.408 377.527 LS
628.425 378.452 LE
1007.02 393.663 LS
1006.45 383.372 LE
628.425 378.452 LS
628.448 379.747 LE
667.134 483.483 LS
645.868 472.778 LE
639.545 410.381 LS
634.352 410.316 LE
628.448 379.747 LS
628.48 381.561 L
628.525 384.101 LE
634.047 393.347 LS
628.677 392.645 LE
1005.14 359.464 LS
986.028 347.961 LE
634.174 400.411 LS
634.352 410.316 LE
628.525 384.101 LS
628.589 387.659 LE
628.397 376.866 LS
622.874 375.343 L
628.397 376.866 LE
628.408 377.527 LS
622.886 376 LE
628.425 378.452 LS
622.902 376.92 LE
638.903 376.933 LS
701.076 359.236 LE
628.448 379.747 LS
622.926 378.208 LE
728.737 368.654 LS
793.731 350.28 LE
634.174 400.411 LS
628.802 399.633 LE
628.589 387.659 LS
628.677 392.645 LE
1007.81 408.103 LS
1007.02 393.663 LE
628.48 381.561 LS
622.959 380.011 LE
628.525 384.101 LS
623.005 382.537 LE
639.816 424.503 LS
634.603 424.215 LE
639.816 424.503 LS
640.196 444.336 LE
645.255 444.302 LS
640.196 444.336 LE
628.677 392.645 LS
628.802 399.633 LE
622.874 375.343 LS
622.886 376 LE
634.352 410.316 LS
634.603 424.215 LE
622.886 376 LS
622.902 376.92 LE
628.589 387.659 LS
623.07 386.076 LE
622.902 376.92 LS
622.926 378.208 LE
943.558 474.366 LS
1010.5 456.905 LE
881.855 587.075 LS
948.253 570.603 LE
645.255 444.302 LS
645.868 472.778 L
645.255 444.302 LE
622.926 378.208 LS
622.959 380.011 LE
634.352 410.316 LS
628.976 409.431 LE
622.959 380.011 LS
623.005 382.537 LE
814.099 361.788 LS
793.731 350.28 LE
628.677 392.645 LS
623.16 391.033 LE
628.802 399.633 LS
628.976 409.431 LE
669.392 579.738 LS
690.558 589.785 LE
623.005 382.537 LS
623.07 386.076 LE
622.874 375.343 LS
617.251 372.839 L
622.874 375.343 LE
622.886 376 LS
617.264 373.496 LE
622.902 376.92 LS
617.281 374.415 LE
1008.93 428.384 LS
1007.81 408.103 LE
622.926 378.208 LS
617.306 375.702 LE
628.802 399.633 LS
623.287 397.982 LE
623.07 386.076 LS
623.16 391.033 LE
622.959 380.011 LS
617.34 377.505 LE
668.07 523.384 LS
669.392 579.738 LE
623.005 382.537 LS
617.388 380.03 LE
633.759 377.396 LS
693.878 359.852 LE
634.603 424.215 LS
629.221 423.178 LE
634.603 424.215 LS
634.954 443.733 LE
640.196 444.336 LS
634.954 443.733 LE
814.099 361.788 LS
879.997 343.311 LE
617.251 372.839 LS
617.264 373.496 LE
623.16 391.033 LS
623.287 397.982 LE
617.264 373.496 LS
617.281 374.415 LE
623.07 386.076 LS
617.456 383.567 LE
628.976 409.431 LS
629.221 423.178 LE
617.281 374.415 LS
617.306 375.702 L
617.34 377.505 LE
640.196 444.336 LS
640.731 472.225 LE
668.07 523.384 LS
646.732 512.897 LE
948.253 570.603 LS
945.504 514.26 LE
628.976 409.431 LS
623.465 407.724 LE
617.34 377.505 LS
617.388 380.03 LE
623.16 391.033 LS
617.55 388.522 LE
645.868 472.778 LS
640.731 472.225 LE
617.251 372.839 LS
611.592 369.377 L
617.251 372.839 LE
617.388 380.03 LS
617.456 383.567 LE
623.287 397.982 LS
623.465 407.724 LE
617.264 373.496 LS
611.605 370.036 LE
617.281 374.415 LS
611.623 370.96 LE
701.076 359.236 LS
707.871 357.216 LE
617.306 375.702 LS
611.649 372.253 LE
899.861 354.891 LS
879.997 343.311 LE
617.456 383.567 LS
617.55 388.522 LE
623.287 397.982 LS
617.683 395.467 LE
617.34 377.505 LS
611.685 374.064 LE
617.388 380.03 LS
611.735 376.601 LE
1010.5 456.905 LS
1008.93 428.384 LE
611.592 369.377 LS
611.605 370.036 LE
629.221 423.178 LS
623.715 421.394 LE
629.221 423.178 LS
629.565 442.484 LE
634.954 443.733 LS
629.565 442.484 LE
611.605 370.036 LS
611.623 370.96 LE
645.868 472.778 LS
646.732 512.897 L
645.868 472.778 LE
617.55 388.522 LS
617.683 395.467 LE
617.456 383.567 LS
611.806 380.154 LE
611.623 370.96 LS
611.649 372.253 LE
623.465 407.724 LS
623.715 421.394 LE
611.649 372.253 LS
611.685 374.064 LE
628.397 376.866 LS
686.354 359.047 LE
634.954 443.733 LS
635.448 471.177 LE
623.465 407.724 LS
617.869 405.206 LE
611.685 374.064 LS
611.735 376.601 LE
945.504 514.26 LS
1012.71 497.086 LE
617.55 388.522 LS
611.905 385.133 LE
899.861 354.891 LS
966.672 336.309 LE
611.592 369.377 LS
605.959 364.99 L
611.592 369.377 LE
611.605 370.036 LS
605.972 365.656 LE
611.735 376.601 LS
611.806 380.154 LE
640.731 472.225 LS
635.448 471.177 LE
617.683 395.467 LS
617.869 405.206 LE
611.623 370.96 LS
605.991 366.588 LE
611.649 372.253 LS
606.018 367.894 LE
611.685 374.064 LS
606.055 369.722 LE
611.806 380.154 LS
611.905 385.133 LE
1 W
0 0 0 C
1005.14 359.464 LS
1015.83 553.84 LE
1.3 W
0 0.0352941 0.368627 C
617.683 395.467 LS
612.044 392.11 LE
611.735 376.601 LS
606.107 372.283 LE
605.959 364.99 LS
605.972 365.656 L
605.991 366.588 L
606.018 367.894 LE
611.806 380.154 LS
606.18 375.87 LE
623.715 421.394 LS
618.13 418.869 LE
611.905 385.133 LS
612.044 392.11 LE
623.715 421.394 LS
624.066 440.589 LE
640.731 472.225 LS
641.485 511.513 LE
629.565 442.484 LS
624.066 440.589 LE
606.018 367.894 LS
606.055 369.722 LE
986.028 347.961 LS
966.672 336.309 LE
617.869 405.206 LS
618.13 418.869 LE
693.878 359.852 LS
701.076 359.236 LE
606.055 369.722 LS
606.107 372.283 LE
617.869 405.206 LS
612.239 401.894 LE
611.905 385.133 LS
606.283 380.896 LE
629.565 442.484 LS
630.048 469.628 LE
605.959 364.99 LS
600.416 359.725 L
605.959 364.99 LE
605.972 365.656 LS
600.43 360.4 LE
606.107 372.283 LS
606.18 375.87 LE
605.991 366.588 LS
600.449 361.346 LE
707.871 357.216 LS
773.1 338.623 L
707.871 357.216 LE
606.018 367.894 LS
600.476 362.67 LE
612.044 392.11 LS
612.239 401.894 LE
622.874 375.343 LS
678.585 356.818 LE
635.448 471.177 LS
630.048 469.628 LE
606.055 369.722 LS
600.513 364.523 LE
606.18 375.87 LS
606.283 380.896 LE
646.732 512.897 LS
641.485 511.513 LE
612.044 392.11 LS
606.426 387.94 LE
606.107 372.283 LS
600.566 367.12 LE
600.416 359.725 LS
600.43 360.4 L
600.449 361.346 LE
1012.71 497.086 LS
1010.5 456.905 LE
600.449 361.346 LS
600.476 362.67 LE
606.18 375.87 LS
600.639 370.757 LE
600.476 362.67 LS
600.513 364.523 LE
606.283 380.896 LS
606.426 387.94 LE
618.13 418.869 LS
612.512 415.621 LE
618.13 418.869 LS
618.496 438.055 LE
600.513 364.523 LS
600.566 367.12 LE
624.066 440.589 LS
618.496 438.055 LE
635.448 471.177 LS
636.145 509.835 LE
600.416 359.725 LS
595.028 353.638 L
600.416 359.725 LE
612.239 401.894 LS
612.512 415.621 LE
793.731 350.28 LS
773.1 338.623 LE
600.43 360.4 LS
595.041 354.325 LE
606.283 380.896 LS
600.742 375.853 LE
600.449 361.346 LS
595.059 355.288 LE
612.239 401.894 LS
606.628 397.817 LE
600.566 367.12 LS
600.639 370.757 LE
600.476 362.67 LS
595.085 356.635 LE
647.952 569.561 LS
669.392 579.738 LE
624.066 440.589 LS
624.559 467.577 LE
600.513 364.523 LS
595.121 358.522 LE
606.426 387.94 LS
606.628 397.817 LE
600.639 370.757 LS
600.742 375.853 LE
595.028 353.638 LS
595.041 354.325 LE
600.566 367.12 LS
595.171 361.165 LE
595.041 354.325 LS
595.059 355.288 LE
630.048 469.628 LS
624.559 467.577 LE
606.426 387.94 LS
600.886 382.995 LE
595.059 355.288 LS
595.085 356.635 LE
641.485 511.513 LS
636.145 509.835 LE
646.732 512.897 LS
647.952 569.561 L
646.732 512.897 LE
595.085 356.635 LS
595.121 358.522 LE
600.639 370.757 LS
595.241 364.868 LE
686.354 359.047 LS
693.878 359.852 LE
617.251 372.839 LS
670.655 353.18 LE
600.742 375.853 LS
600.886 382.995 LE
595.028 353.638 LS
589.856 346.795 L
595.028 353.638 LE
595.121 358.522 LS
595.171 361.165 LE
793.731 350.28 LS
859.876 331.581 LE
595.041 354.325 LS
589.867 347.497 LE
595.059 355.288 LS
589.884 348.48 LE
612.512 415.621 LS
606.91 411.674 LE
595.085 356.635 LS
589.906 349.856 LE
600.742 375.853 LS
595.34 370.055 LE
595.171 361.165 LS
595.241 364.868 LE
612.512 415.621 LS
612.896 434.896 LE
606.628 397.817 LS
606.91 411.674 LE
618.496 438.055 LS
612.896 434.896 LE
595.121 358.522 LS
589.938 351.783 LE
630.048 469.628 LS
630.729 507.86 LE
606.628 397.817 LS
601.088 393.01 LE
589.856 346.795 LS
589.867 347.497 L
589.856 346.795 LE
589.867 347.497 LS
589.884 348.48 L
589.867 347.497 LE
595.171 361.165 LS
589.983 354.483 LE
595.241 364.868 LS
595.34 370.055 LE
701.076 359.236 LS
764.449 341.198 LE
600.886 382.995 LS
601.088 393.01 LE
589.884 348.48 LS
589.906 349.856 L
589.884 348.48 LE
618.496 438.055 LS
619.011 465.03 LE
589.906 349.856 LS
589.938 351.783 L
589.906 349.856 LE
600.886 382.995 LS
595.478 377.326 LE
948.253 570.603 LS
1015.83 553.84 LE
595.241 364.868 LS
590.046 358.264 LE
589.938 351.783 LS
589.983 354.483 L
589.938 351.783 LE
879.997 343.311 LS
859.876 331.581 LE
624.559 467.577 LS
619.011 465.03 LE
595.34 370.055 LS
595.478 377.326 LE
636.145 509.835 LS
630.729 507.86 LE
641.485 511.513 LS
642.549 566.996 LE
589.983 354.483 LS
590.046 358.264 L
589.983 354.483 LE
595.34 370.055 LS
590.134 363.562 LE
606.91 411.674 LS
601.371 407.062 LE
601.088 393.01 LS
601.371 407.062 LE
590.046 358.264 LS
590.134 363.562 L
590.046 358.264 LE
601.088 393.01 LS
595.672 387.521 LE
606.91 411.674 LS
607.307 431.134 LE
611.592 369.377 LS
662.655 348.163 LE
612.896 434.896 LS
607.307 431.134 LE
595.478 377.326 LS
595.672 387.521 LE
624.559 467.577 LS
625.253 505.587 LE
595.478 377.326 LS
590.257 370.989 LE
879.997 343.311 LS
947.066 324.506 LE
590.134 363.562 LS
590.257 370.989 L
590.134 363.562 LE
612.896 434.896 LS
613.435 461.996 LE
678.585 356.818 LS
686.354 359.047 LE
1015.83 553.84 LS
1012.71 497.086 LE
619.011 465.03 LS
613.435 461.996 LE
636.145 509.835 LS
637.128 564.423 LE
630.729 507.86 LS
625.253 505.587 LE
642.549 566.996 LS
647.952 569.561 LE
595.672 387.521 LS
590.43 381.403 LE
601.371 407.062 LS
595.943 401.827 LE
595.672 387.521 LS
595.943 401.827 LE
590.257 370.989 LS
590.43 381.403 L
590.257 370.989 LE
601.371 407.062 LS
601.769 426.796 LE
607.307 431.134 LS
601.769 426.796 LE
966.672 336.309 LS
947.066 324.506 LE
605.959 364.99 LS
654.675 341.814 LE
764.449 341.198 LS
773.1 338.623 LE
693.878 359.852 LS
755.257 341.941 LE
619.011 465.03 LS
619.736 503.02 LE
607.307 431.134 LS
607.864 458.493 LE
589.856 346.795 LS
564.558 333.333 L
589.856 346.795 LE
564.568 334.039 LS
589.867 347.497 LE
564.582 335.028 LS
589.884 348.48 LE
590.43 381.403 LS
590.672 396.016 L
590.43 381.403 LE
595.943 401.827 LS
590.672 396.016 LE
613.435 461.996 LS
607.864 458.493 LE
564.602 336.413 LS
589.906 349.856 LE
630.729 507.86 LS
631.69 561.841 LE
625.253 505.587 LS
619.736 503.02 LE
564.63 338.352 LS
589.938 351.783 LE
637.128 564.423 LS
642.549 566.996 LE
595.943 401.827 LS
596.325 421.918 LE
564.668 341.068 LS
589.983 354.483 LE
670.655 353.18 LS
678.585 356.818 LE
601.769 426.796 LS
596.325 421.918 LE
564.723 344.873 LS
590.046 358.264 LE
613.435 461.996 LS
614.195 500.163 LE
600.416 359.725 LS
646.807 334.199 LE
601.769 426.796 LS
602.329 454.542 LE
564.799 350.204 LS
590.134 363.562 LE
590.672 396.016 LS
591.013 416.542 L
590.672 396.016 LE
607.864 458.493 LS
602.329 454.542 LE
596.325 421.918 LS
591.013 416.542 LE
625.253 505.587 LS
626.234 559.251 LE
619.736 503.02 LS
614.195 500.163 LE
631.69 561.841 LS
637.128 564.423 LE
773.1 338.623 LS
839.493 319.698 L
773.1 338.623 LE
564.905 357.677 LS
590.257 370.989 LE
686.354 359.047 LS
745.62 340.825 LE
596.325 421.918 LS
596.861 450.17 LE
607.864 458.493 LS
608.65 497.027 LE
595.028 353.638 LS
639.141 325.397 LE
755.257 341.941 LS
764.449 341.198 LE
662.655 348.163 LS
670.655 353.18 LE
565.055 368.156 LS
590.43 381.403 LE
602.329 454.542 LS
596.861 450.17 LE
859.876 331.581 LS
839.493 319.698 LE
614.195 500.163 LS
608.65 497.027 LE
626.234 559.251 LS
631.69 561.841 LE
619.736 503.02 LS
620.76 556.653 LE
564.568 334.039 LS
564.558 333.333 LE
564.582 335.028 LS
564.568 334.039 LE
564.602 336.413 LS
564.582 335.028 LE
591.013 416.542 LS
591.492 445.408 L
591.013 416.542 LE
564.63 338.352 LS
564.602 336.413 LE
589.856 346.795 LS
631.769 315.504 L
589.856 346.795 LE
564.668 341.068 LS
564.63 338.352 LE
602.329 454.542 LS
603.117 493.624 LE
565.265 382.861 LS
590.672 396.016 LE
564.723 344.873 LS
564.668 341.068 LE
1 W
0 0 0 C
376.344 233.177 LS
746.632 430.222 LE
1.3 W
0 0.0352941 0.368627 C
859.876 331.581 LS
927.203 312.548 LE
596.861 450.17 LS
591.492 445.408 LE
564.799 350.204 LS
564.723 344.873 LE
608.65 497.027 LS
603.117 493.624 LE
620.76 556.653 LS
626.234 559.251 LE
614.195 500.163 LS
615.268 554.046 LE
654.675 341.814 LS
662.655 348.163 LE
678.585 356.818 LS
735.643 337.845 LE
564.905 357.677 LS
564.799 350.204 LE
596.861 450.17 LS
597.617 489.968 LE
947.066 324.506 LS
927.203 312.548 LE
764.449 341.198 LS
829.058 322.807 LE
565.055 368.156 LS
564.905 357.677 LE
745.62 340.825 LS
755.257 341.941 LE
565.559 403.515 LS
591.013 416.542 LE
603.117 493.624 LS
597.617 489.968 LE
608.65 497.027 LS
609.758 551.43 LE
615.268 554.046 LS
620.76 556.653 LE
591.492 445.408 LS
592.167 486.079 L
591.492 445.408 LE
564.558 333.333 LS
538.881 319.669 L
564.558 333.333 LE
646.807 334.199 LS
654.675 341.814 LE
538.889 320.38 LS
564.568 334.039 LE
538.901 321.375 LS
564.582 335.028 LE
565.265 382.861 LS
565.055 368.156 LE
538.917 322.768 LS
564.602 336.413 LE
538.941 324.719 LS
564.63 338.352 LE
538.973 327.452 LS
564.668 341.068 LE
670.655 353.18 LS
725.434 333.015 LE
597.617 489.968 LS
592.167 486.079 LE
539.019 331.281 LS
564.723 344.873 LE
603.117 493.624 LS
604.23 548.806 LE
609.758 551.43 LS
615.268 554.046 LE
829.058 322.807 LS
839.493 319.698 LE
539.083 336.645 LS
564.799 350.204 LE
565.974 432.563 LS
591.492 445.408 LE
565.559 403.515 LS
565.265 382.861 LE
639.141 325.397 LS
646.807 334.199 LE
539.172 344.165 LS
564.905 357.677 LE
735.643 337.845 LS
745.62 340.825 LE
755.257 341.941 LS
817.936 323.65 LE
597.617 489.968 LS
598.685 546.174 LE
604.23 548.806 LS
609.758 551.43 LE
539.298 354.709 LS
565.055 368.156 LE
662.655 348.163 LS
715.108 326.371 LE
631.769 315.504 LS
639.141 325.397 LE
839.493 319.698 LS
907.079 300.433 L
839.493 319.698 LE
609.29 303.183 LS
564.558 333.333 LE
538.889 320.38 LS
538.881 319.669 LE
538.901 321.375 LS
538.889 320.38 LE
538.917 322.768 LS
538.901 321.375 LE
565.974 432.563 LS
565.559 403.515 LE
538.941 324.719 LS
538.917 322.768 LE
592.167 486.079 LS
593.12 543.533 L
592.167 486.079 LE
538.973 327.452 LS
538.941 324.719 LE
598.685 546.174 LS
604.23 548.806 LE
539.474 369.507 LS
565.265 382.861 LE
539.019 331.281 LS
538.973 327.452 LE
927.203 312.548 LS
907.079 300.433 LE
539.083 336.645 LS
539.019 331.281 LE
566.558 473.493 LS
592.167 486.079 LE
539.172 344.165 LS
539.083 336.645 LE
725.434 333.015 LS
735.643 337.845 LE
817.936 323.65 LS
829.058 322.807 LE
593.12 543.533 LS
598.685 546.174 LE
654.675 341.814 LS
704.785 317.976 LE
745.62 340.825 LS
806.24 322.188 LE
539.298 354.709 LS
539.172 344.165 LE
539.721 390.291 LS
565.559 403.515 LE
566.558 473.493 LS
565.974 432.563 LE
538.881 319.669 LS
512.815 305.799 L
538.881 319.669 LE
512.822 306.514 LS
538.889 320.38 LE
512.831 307.515 LS
538.901 321.375 LE
539.474 369.507 LS
539.298 354.709 LE
512.845 308.917 LS
538.917 322.768 LE
609.29 303.183 LS
631.769 315.504 LE
512.863 310.88 LS
538.941 324.719 LE
512.889 313.631 LS
538.973 327.452 LE
829.058 322.807 LS
894.939 304.055 LE
646.807 334.199 LS
694.583 307.91 LE
512.926 317.483 LS
539.019 331.281 LE
715.108 326.371 LS
725.434 333.015 LE
512.977 322.881 LS
539.083 336.645 LE
540.069 419.524 LS
565.974 432.563 LE
539.721 390.291 LS
539.474 369.507 LE
513.049 330.448 LS
539.172 344.165 LE
806.24 322.188 LS
817.936 323.65 LE
735.643 337.845 LS
794.097 318.407 LE
639.141 325.397 LS
684.624 296.279 LE
567.383 531.315 LS
593.12 543.533 LE
907.079 300.433 LS
894.939 304.055 LE
513.15 341.059 LS
539.298 354.709 LE
586.508 290.695 LS
538.881 319.669 LE
512.822 306.514 LS
512.815 305.799 LE
512.831 307.515 LS
512.822 306.514 LE
512.845 308.917 LS
512.831 307.515 LE
540.069 419.524 LS
539.721 390.291 LE
512.863 310.88 LS
512.845 308.917 LE
704.785 317.976 LS
715.108 326.371 LE
567.383 531.315 LS
566.558 473.493 LE
512.889 313.631 LS
512.863 310.88 LE
513.291 355.95 LS
539.474 369.507 LE
512.926 317.483 LS
512.889 313.631 LE
631.769 315.504 LS
675.027 283.209 L
631.769 315.504 LE
512.977 322.881 LS
512.926 317.483 LE
540.559 460.715 LS
566.558 473.493 LE
817.936 323.65 LS
881.955 304.967 LE
513.049 330.448 LS
512.977 322.881 LE
725.434 333.015 LS
781.64 312.324 LE
513.15 341.059 LS
513.049 330.448 LE
513.49 376.866 LS
539.721 390.291 LE
794.097 318.407 LS
806.24 322.188 LE
586.508 290.695 LS
609.29 303.183 LE
694.583 307.91 LS
704.785 317.976 LE
540.559 460.715 LS
540.069 419.524 LE
512.815 305.799 LS
486.353 291.717 L
512.815 305.799 LE
486.358 292.436 LS
512.822 306.514 LE
486.365 293.444 LS
512.831 307.515 LE
513.291 355.95 LS
513.15 341.059 LE
486.375 294.855 LS
512.845 308.917 LE
1 W
0 0 0 C
375.677 440.315 LS
752.467 619.172 LE
1.3 W
0 0.0352941 0.368627 C
486.389 296.831 LS
512.863 310.88 LE
486.408 299.598 LS
512.889 313.631 LE
894.939 304.055 LS
881.955 304.967 LE
486.435 303.475 LS
512.926 317.483 LE
486.474 308.907 LS
512.977 322.881 LE
513.769 406.285 LS
540.069 419.524 LE
513.49 376.866 LS
513.291 355.95 LE
684.624 296.279 LS
694.583 307.91 LE
715.108 326.371 LS
769.008 303.979 LE
486.527 316.522 LS
513.049 330.448 LE
806.24 322.188 LS
868.261 303.119 LE
563.416 278.038 LS
512.815 305.799 LE
781.64 312.324 LS
794.097 318.407 LE
541.252 518.911 LS
567.383 531.315 LE
486.602 327.2 LS
513.15 341.059 LE
655.387 272.112 LS
609.29 303.183 LE
486.358 292.436 LS
486.353 291.717 LE
486.365 293.444 LS
486.358 292.436 LE
486.375 294.855 LS
486.365 293.444 LE
513.769 406.285 LS
513.49 376.866 LE
486.389 296.831 LS
486.375 294.855 LE
675.027 283.209 LS
684.624 296.279 LE
541.252 518.911 LS
540.559 460.715 LE
486.408 299.598 LS
486.389 296.831 LE
486.708 342.186 LS
513.291 355.95 LE
486.435 303.475 LS
486.408 299.598 LE
486.474 308.907 LS
486.435 303.475 LE
704.785 317.976 LS
756.348 293.446 LE
514.162 447.742 LS
540.559 460.715 LE
486.527 316.522 LS
486.474 308.907 LE
881.955 304.967 LS
868.261 303.119 LE
563.416 278.038 LS
586.508 290.695 LE
486.602 327.2 LS
486.527 316.522 LE
486.856 363.235 LS
513.49 376.866 LE
769.008 303.979 LS
781.64 312.324 LE
794.097 318.407 LS
854.001 298.488 LE
514.162 447.742 LS
513.769 406.285 LE
486.353 291.717 LS
459.484 277.419 L
486.353 291.717 LE
459.487 278.143 LS
486.358 292.436 LE
459.492 279.157 LS
486.365 293.444 LE
486.708 342.186 LS
486.602 327.2 LE
459.498 280.577 LS
486.375 294.855 LE
459.507 282.565 LS
486.389 296.831 LE
655.387 272.112 LS
675.027 283.209 LE
459.52 285.35 LS
486.408 299.598 LE
694.583 307.91 LS
743.809 280.824 LE
459.538 289.252 LS
486.435 303.475 LE
459.562 294.718 LS
486.474 308.907 LE
487.064 392.844 LS
513.769 406.285 LE
486.856 363.235 LS
486.708 342.186 LE
459.597 302.381 LS
486.527 316.522 LE
635.513 260.883 LS
586.508 290.695 LE
540.008 265.208 LS
486.353 291.717 LE
756.348 293.446 LS
769.008 303.979 LE
514.718 506.316 LS
541.252 518.911 LE
459.646 313.128 LS
486.602 327.2 LE
868.261 303.119 LS
854.001 298.488 LE
684.624 296.279 LS
731.541 266.243 LE
459.487 278.143 LS
459.484 277.419 LE
459.492 279.157 LS
459.487 278.143 LE
459.498 280.577 LS
459.492 279.157 LE
781.64 312.324 LS
839.33 291.087 LE
487.064 392.844 LS
486.856 363.235 LE
459.507 282.565 LS
459.498 280.577 LE
514.718 506.316 LS
514.162 447.742 LE
459.52 285.35 LS
459.507 282.565 LE
459.715 328.209 LS
486.708 342.186 LE
459.538 289.252 LS
459.52 285.35 LE
459.562 294.718 LS
459.538 289.252 LE
540.008 265.208 LS
563.416 278.038 LE
487.358 434.568 LS
514.162 447.742 LE
459.597 302.381 LS
459.562 294.718 LE
675.027 283.209 LS
719.695 249.862 L
675.027 283.209 LE
743.809 280.824 LS
756.348 293.446 LE
635.513 260.883 LS
655.387 272.112 LE
459.646 313.128 LS
459.597 302.381 LE
459.811 349.394 LS
486.856 363.235 LE
487.358 434.568 LS
487.064 392.844 LE
459.484 277.419 LS
432.199 262.899 L
459.484 277.419 LE
432.201 263.628 LS
459.487 278.143 LE
432.203 264.649 LS
459.492 279.157 LE
459.715 328.209 LS
459.646 313.128 LE
432.206 266.078 LS
459.498 280.577 LE
432.21 268.079 LS
459.507 282.565 LE
854.001 298.488 LS
839.33 291.087 LE
769.008 303.979 LS
824.415 280.961 LE
432.215 270.881 LS
459.52 285.35 LE
432.223 274.808 LS
459.538 289.252 LE
615.401 249.519 LS
563.416 278.038 LE
432.234 280.31 LS
459.562 294.718 LE
459.946 379.193 LS
487.064 392.844 LE
459.811 349.394 LS
459.715 328.209 LE
516.278 252.202 LS
459.484 277.419 LE
731.541 266.243 LS
743.809 280.824 LE
432.25 288.022 LS
459.597 302.381 LE
1 W
0 0 0 C
651.114 146.342 LS
1005.14 359.464 LE
1.3 W
0 0.0352941 0.368627 C
487.773 493.526 LS
514.718 506.316 LE
432.271 298.837 LS
459.646 313.128 LE
702.914 240.079 LS
655.387 272.112 LE
432.201 263.628 LS
432.199 262.899 LE
432.203 264.649 LS
432.201 263.628 LE
432.206 266.078 LS
432.203 264.649 LE
459.946 379.193 LS
459.811 349.394 LE
432.21 268.079 LS
432.206 266.078 LE
487.773 493.526 LS
487.358 434.568 LE
432.215 270.881 LS
432.21 268.079 LE
516.278 252.202 LS
540.008 265.208 LE
756.348 293.446 LS
809.429 268.193 LE
432.302 314.015 LS
459.715 328.209 LE
432.223 274.808 LS
432.215 270.881 LE
719.695 249.862 LS
731.541 266.243 LE
615.401 249.519 LS
635.513 260.883 LE
432.234 280.31 LS
432.223 274.808 LE
839.33 291.087 LS
824.415 280.961 LE
460.137 421.19 LS
487.358 434.568 LE
432.25 288.022 LS
432.234 280.31 LE
432.271 298.837 LS
432.25 288.022 LE
432.344 335.337 LS
459.811 349.394 LE
460.137 421.19 LS
459.946 379.193 LE
595.045 238.017 LS
540.008 265.208 LE
432.199 262.899 LS
404.49 248.154 L
432.199 262.899 LE
404.489 248.887 LS
432.201 263.628 LE
404.488 249.914 LS
432.203 264.649 LE
432.302 314.015 LS
432.271 298.837 LE
404.488 251.352 LS
432.206 266.078 LE
404.486 253.366 LS
432.21 268.079 LE
743.809 280.824 LS
794.55 252.903 LE
404.485 256.187 LS
432.215 270.881 LE
702.914 240.079 LS
719.695 249.862 LE
404.482 260.139 LS
432.223 274.808 LE
685.959 230.195 LS
635.513 260.883 LE
404.479 265.676 LS
432.234 280.31 LE
492.219 239.015 LS
432.199 262.899 LE
432.404 365.33 LS
459.946 379.193 LE
432.344 335.337 LS
432.302 314.015 LE
824.415 280.961 LS
809.429 268.193 LE
404.475 273.437 LS
432.25 288.022 LE
595.045 238.017 LS
615.401 249.519 LE
460.407 480.535 LS
487.773 493.526 LE
404.468 284.323 LS
432.271 298.837 LE
492.219 239.015 LS
516.278 252.202 LE
731.541 266.243 LS
779.961 235.245 LE
404.489 248.887 LS
404.49 248.154 LE
404.488 249.914 LS
404.489 248.887 LE
404.488 251.352 LS
404.488 249.914 LE
432.404 365.33 LS
432.344 335.337 LE
404.486 253.366 LS
404.488 251.352 LE
460.407 480.535 LS
460.137 421.19 LE
404.485 256.187 LS
404.486 253.366 LE
404.459 299.599 LS
432.302 314.015 LE
404.482 260.139 LS
404.485 256.187 LE
404.479 265.676 LS
404.482 260.139 LE
432.489 407.601 LS
460.137 421.19 LE
404.475 273.437 LS
404.479 265.676 LE
809.429 268.193 LS
794.55 252.903 LE
685.959 230.195 LS
702.914 240.079 LE
574.442 226.376 LS
516.278 252.202 LE
719.695 249.862 LS
765.844 215.409 L
719.695 249.862 LE
404.468 284.323 LS
404.475 273.437 LE
404.447 321.06 LS
432.344 335.337 LE
668.828 220.208 LS
615.401 249.519 LE
432.489 407.601 LS
432.404 365.33 LE
404.49 248.154 LS
376.344 233.177 L
404.49 248.154 LE
376.342 233.915 LS
404.489 248.887 LE
376.339 234.948 LS
404.488 249.914 LE
404.459 299.599 LS
404.468 284.323 LE
376.334 236.396 LS
404.488 251.352 LE
376.327 238.423 LS
404.486 253.366 LE
376.318 241.262 LS
404.485 256.187 LE
376.305 245.239 LS
404.482 260.139 LE
467.825 225.643 LS
404.49 248.154 LE
574.442 226.376 LS
595.045 238.017 LE
376.288 250.812 LS
404.479 265.676 LE
404.429 351.248 LS
432.404 365.33 LE
404.447 321.06 LS
404.459 299.599 LE
794.55 252.903 LS
779.961 235.245 LE
376.262 258.624 LS
404.475 273.437 LE
467.825 225.643 LS
492.219 239.015 LE
432.609 467.34 LS
460.407 480.535 LE
376.227 269.579 LS
404.468 284.323 LE
668.828 220.208 LS
685.959 230.195 LE
751.936 207.037 LS
702.914 240.079 LE
376.344 233.177 LS
376.342 233.915 L
376.339 234.948 L
376.334 236.396 LE
1 W
0 0 0 C
376.344 233.177 LS
371.768 223.936 LE
1.3 W
0 0.0352941 0.368627 C
404.429 351.248 LS
404.447 321.06 LE
376.334 236.396 LS
376.327 238.423 LE
432.609 467.34 LS
432.489 407.601 LE
376.327 238.423 LS
376.318 241.262 LE
376.177 284.955 LS
404.459 299.599 LE
376.318 241.262 LS
376.305 245.239 LE
651.518 210.117 LS
595.045 238.017 LE
553.588 214.593 LS
492.219 239.015 LE
376.305 245.239 LS
376.288 250.812 LE
779.961 235.245 LS
765.844 215.409 LE
404.404 393.798 LS
432.489 407.601 LE
376.288 250.812 LS
376.262 258.624 LE
1 W
0 0 0 C
655.962 359.961 LS
1015.83 553.84 LE
1.3 W
0 0.0352941 0.368627 C
376.262 258.624 LS
376.227 269.579 LE
376.108 306.556 LS
404.447 321.06 LE
553.588 214.593 LS
574.442 226.376 LE
404.404 393.798 LS
404.429 351.248 LE
376.227 269.579 LS
376.177 284.955 LE
737.908 198.592 LS
685.959 230.195 LE
443.087 212.084 LS
376.344 233.177 LE
651.518 210.117 LS
668.828 220.208 LE
765.844 215.409 LS
751.936 207.037 LE
376.01 336.943 LS
404.429 351.248 LE
376.177 284.955 LS
376.108 306.556 LE
443.087 212.084 LS
467.825 225.643 LE
634.026 199.921 LS
574.442 226.376 LE
404.369 453.935 LS
432.609 467.34 LE
532.477 202.665 LS
467.825 225.643 LE
376.108 306.556 LS
376.01 336.943 LE
404.369 453.935 LS
404.404 393.798 LE
723.757 190.073 LS
668.828 220.208 LE
1 W
0 0 0 C
376.344 233.177 LS
375.677 440.315 LE
1.3 W
0 0.0352941 0.368627 C
375.872 379.775 LS
404.404 393.798 LE
751.936 207.037 LS
737.908 198.592 LE
532.477 202.665 LS
553.588 214.593 LE
634.026 199.921 LS
651.518 210.117 LE
376.01 336.943 LS
375.872 379.775 LE
616.351 189.617 LS
553.588 214.593 LE
709.483 181.48 LS
651.518 210.117 LE
737.908 198.592 LS
723.757 190.073 LE
511.104 190.589 LS
443.087 212.084 LE
375.677 440.315 LS
404.369 453.935 LE
616.351 189.617 LS
634.026 199.921 LE
511.104 190.589 LS
532.477 202.665 LE
375.872 379.775 LS
375.677 440.315 LE
598.488 179.203 LS
532.477 202.665 LE
723.757 190.073 LS
709.483 181.48 LE
695.083 172.811 LS
634.026 199.921 LE
1 W
0 0 0 C
651.114 146.342 LS
376.344 233.177 LE
1.3 W
0 0.0352941 0.368627 C
598.488 179.203 LS
616.351 189.617 LE
709.483 181.48 LS
695.083 172.811 LE
680.556 164.066 LS
616.351 189.617 LE
580.434 168.679 LS
511.104 190.589 LE
580.434 168.679 LS
598.488 179.203 LE
695.083 172.811 LS
680.556 164.066 LE
665.901 155.243 LS
598.488 179.203 LE
680.556 164.066 LS
665.901 155.243 LE
651.114 146.342 LS
580.434 168.679 LE
665.901 155.243 LS
651.114 146.342 LE
1 W
0 0 0 C
651.114 146.342 LS
657.316 137.334 LE
651.114 146.342 LS
646.541 136.683 LE
655.962 359.961 LS
375.677 440.315 LE
651.114 146.342 LS
653.067 141.666 LE
651.114 146.342 LS
655.962 359.961 L
657.964 355.67 LE
(X) 980.732 185.188 15 /Helvetica S
(Y) 939.112 183.064 15 /Helvetica S
(Z) 964.798 203.671 15 /Helvetica S
961 173 LS
977.732 182.188 LE
961 173 LS
936.112 180.064 LE
961 173 LS
961.798 200.671 LE
grestore
showpage
cleartomark
%%PageTrailer
%%Trailer
end
%%EOF
