<?xml version="1.0" encoding="UTF-8" standalone="no"?>
<!-- Created with Inkscape (http://www.inkscape.org/) -->

<svg
   xmlns:dc="http://purl.org/dc/elements/1.1/"
   xmlns:cc="http://creativecommons.org/ns#"
   xmlns:rdf="http://www.w3.org/1999/02/22-rdf-syntax-ns#"
   xmlns:svg="http://www.w3.org/2000/svg"
   xmlns="http://www.w3.org/2000/svg"
   xmlns:sodipodi="http://sodipodi.sourceforge.net/DTD/sodipodi-0.dtd"
   xmlns:inkscape="http://www.inkscape.org/namespaces/inkscape"
   id="svg2"
   version="1.1"
   inkscape:version="0.91 r13725"
   width="411.59454"
   height="384.32291"
   viewBox="0 0 411.59454 384.32291"
   sodipodi:docname="nejat_recon_k1.svg">
  <metadata
     id="metadata8">
    <rdf:RDF>
      <cc:Work
         rdf:about="">
        <dc:format>image/svg+xml</dc:format>
        <dc:type
           rdf:resource="http://purl.org/dc/dcmitype/StillImage" />
        <dc:title></dc:title>
      </cc:Work>
    </rdf:RDF>
  </metadata>
  <defs
     id="defs6" />
  <sodipodi:namedview
     pagecolor="#ffffff"
     bordercolor="#666666"
     borderopacity="1"
     objecttolerance="10"
     gridtolerance="10"
     guidetolerance="10"
     inkscape:pageopacity="0"
     inkscape:pageshadow="2"
     inkscape:window-width="1240"
     inkscape:window-height="734"
     id="namedview4"
     showgrid="false"
     fit-margin-top="0"
     fit-margin-left="0"
     fit-margin-right="0"
     fit-margin-bottom="0"
     inkscape:zoom="1.0900693"
     inkscape:cx="190.64634"
     inkscape:cy="273.85331"
     inkscape:window-x="0"
     inkscape:window-y="31"
     inkscape:window-maximized="0"
     inkscape:current-layer="svg2" />
  <path
     style="fill:#000000"
     d="m 235.05528,383.66027 c -0.18134,-0.18134 -50.0425,-0.4464 -110.80257,-0.58901 C 63.492633,382.92864 10.679378,382.63717 6.889922,382.42354 L 0,382.03512 0.619885,341.37664 c 0.340937,-22.36216 0.628902,-58.99598 0.639922,-81.40848 l 0.020036,-40.75 20.75,-0.0221 20.75,-0.0221 4.65886,-7.22791 c 2.56237,-3.97535 11.67487,-17.34299 20.25,-29.70585 l 15.59114,-22.47793 0.11515,-36.52205 c 0.0633,-20.08714 0.0268,-37.358319 -0.0812,-38.380409 -0.108,-1.02209 0.078,-2.95159 0.41338,-4.28777 l 0.60974,-2.42942 17.015087,0.12401 c 16.41588,0.11965 19.92784,-0.42624 19.92784,-3.09751 0,-0.44228 2.31854,-4.54968 5.15232,-9.127555 2.83377,-4.577873 8.75997,-14.623405 13.16933,-22.323405 4.40935,-7.7 10.19081,-17.4626 12.84768,-21.694666 2.65687,-4.232066 4.83067,-7.905036 4.83067,-8.162156 0,-1.498982 8.45014,-14.79275213 8.77792,-13.80942613 0.21876,0.656294 -1.06395,3.77468403 -2.85048,6.92975503 -1.78652,3.1550711 -4.58912,8.2114931 -6.22799,11.2364931 -1.63887,3.025 -3.5347,6.175 -4.21296,7 -0.67826,0.825 -4.27885,6.9 -8.00132,13.5 -3.72247,6.6 -9.84753,17.071462 -13.61126,23.269916 -3.76373,6.198453 -7.52108,12.580884 -8.34966,14.183184 l -1.50651,2.91327 21.99113,0.0945 21.99113,0.0945 0,-30.027687 0,-30.027683 16.25,-0.10395 16.25,-0.103949 -7,-1.822485 c -3.85,-1.002366 -10.825,-2.818189 -15.5,-4.035161 -8.02772,-2.089735 -12.23167,-3.9368981 -8.95,-3.9325211 1.81117,0.0024 17.97249,4.0929551 27.95,7.0743341 6.46226,1.930988 10.6824,2.322894 30.5,2.832403 l 23,0.591329 0.27011,20.064483 0.27012,20.064483 18.63289,0.243508 18.63289,0.243508 -1.83964,-2.807991 c -1.0118,-1.544395 -9.67087,-12.587343 -19.24237,-24.539884 -9.57151,-11.952541 -17.22253,-22.27253 -17.00227,-22.933308 0.22166,-0.6649811 1.7127,0.472088 3.33937,2.546616 9.43961,12.038518 16.81133,21.370585 18.26216,23.118585 3.50524,4.223228 13.80346,17.20191 16.47763,20.766495 l 2.80089,3.733505 20.44911,0 20.44911,0 0,4.545634 c 0,3.848656 1.23491,6.711536 8.05398,18.671446 4.4297,7.76919 8.85614,15.28616 9.83654,16.704359 0.9804,1.41821 5.28802,8.87856 9.57249,16.57856 4.28446,7.7 9.12993,16.1375 10.7677,18.75 l 2.97778,4.75 20.55311,0 20.5531,0 -0.6471,114.25 c -0.3559,62.8375 -0.65171,117.76107 -0.65735,122.05237 l -0.0103,7.80238 -87.44742,-0.16647 c -48.09609,-0.0916 -87.5958,-0.31483 -87.77714,-0.49617 z m 10.45921,-61.64201 c 0.14594,-33.16505 0.26535,-112.2428 0.26535,-175.72832 l 0,-115.42822 -19,-4.785592 -19,-4.785593 -20.25,-0.03619 -20.25,-0.03618 -0.12383,51.75 c -0.0681,28.462499 -0.24892,58.049999 -0.4018,65.749999 -0.19783,9.96453 -0.5993,209.70449 -0.48281,240.20956 0.0101,2.64076 -0.15018,2.63038 47.74309,3.09054 l 31.23465,0.3001 z m 81.77537,-18.5501 c 0.006,-43.3125 0.30191,-104.30491 0.65866,-135.5387 l 0.64864,-56.7887 -3.10342,-3.2113 c -1.70687,-1.76621 -6.16577,-7.11607 -9.90866,-11.888569 -3.74288,-4.77249 -9.18028,-11.52249 -12.08311,-15 -2.90282,-3.4775 -7.73009,-9.32849 -10.72726,-13.002194 l -5.44941,-6.679465 -19.52273,-0.09688 c -10.7375,-0.05329 -19.52964,0.02747 -19.53808,0.179464 -0.008,0.151992 -0.30681,72.388844 -0.66303,160.526344 l -0.64768,160.25 40.16303,0 40.16303,0 0.01,-78.75 z m 81.21229,77 c 0.25057,-0.9625 0.56081,-39.41127 0.68943,-85.4417 l 0.23385,-83.6917 -4.40728,-6.8083 c -2.42401,-3.74457 -5.07545,-8.1583 -5.89208,-9.8083 -1.41067,-2.85024 -9.14044,-16.56528 -12.96275,-23 -0.98012,-1.65 -5.19977,-8.94259 -9.37699,-16.20576 l -7.59495,-13.20577 -17.70577,-0.29423 c -9.73817,-0.16183 -18.71827,-0.12928 -19.95577,0.0723 l -2.25,0.36657 -0.0113,84.13343 c -0.006,46.27338 -0.2649,100.22092 -0.57487,119.88342 l -0.56357,35.75 39.95824,0 c 37.21524,0 39.98951,-0.12013 40.41381,-1.75 z m -326.168847,0.51666 c 0.0294,-0.14666 0.31999,-36.15416 0.64575,-80.01666 l 0.59228,-79.75 -20.00417,0 -20.00416,0 -3.590818,5.25 C 24.667017,248.84527 16.207912,261.26449 9.765367,270.81623 l -7.485524,11.09807 0,49.61231 0,49.61231 40,0.0563 c 22,0.031 40.02406,-0.0637 40.05346,-0.21038 z m 81.949637,-52.51666 c 0.002,-29.0125 0.30075,-96.7375 0.66453,-150.5 l 0.66141,-97.749999 -22.56101,0 -22.56102,0 -4.48093,7.25 c -2.4645,3.9875 -8.21141,13.774999 -12.77089,21.749999 -4.559487,7.975 -8.586427,14.725 -8.948757,15 -0.36233,0.275 -2.48748,3.89456 -4.72255,8.04347 l -4.06376,7.54347 -0.74159,120.70653 -0.74159,120.70653 40.131527,0 40.13153,0 0.003,-52.75 z m -155.438304,-60 c 3.129947,-4.8125 6.008786,-8.975 6.39742,-9.25 0.388634,-0.275 5.068386,-7.025 10.399448,-15 5.331063,-7.975 11.055233,-16.4125 12.72038,-18.75 l 3.027538,-4.25 -19.054789,0 -19.05479,0 -0.123828,11.25 c -0.0681,6.1875 -0.273946,18.7875 -0.457423,28 -0.183478,9.2125 -0.156109,16.75 0.06082,16.75 0.216927,0 2.955279,-3.9375 6.085224,-8.75 z m 74.212667,-90.3655 -0.27746,-14.11549 -3.4704,4.86549 c -1.90871,2.67603 -3.84198,5.3155 -4.29615,5.8655 -0.74264,0.89934 -14.03032,20.48626 -25.43983,37.5 l -4.358942,6.5 18.782662,0.5 18.78266,0.5 0.27746,-13.75 c 0.1526,-7.5625 0.1526,-20.10197 0,-27.8655 z m 326.222537,-3.3845 0,-32.5 -19.08156,0 -19.08156,0 1.95921,3.25 c 1.07756,1.7875 3.42824,5.95 5.22373,9.25 1.7955,3.3 4.69806,8.25 6.45015,11 1.75209,2.75 6.71453,11.3 11.02764,19 7.90771,14.11724 12.79192,22.39624 13.25239,22.46349 0.1375,0.0201 0.25,-14.58849 0.25,-32.46349 z m -44.90626,-40.75 c -3.17496,-5.17589 -15.11982,-25.8753 -21.09806,-36.561099 -3.30237,-5.90283 -11.43978,-19.8053 -12.67888,-21.66141 -1.10223,-1.65108 -1.3168,3.44113 -1.3168,31.249999 l 0,33.22251 19.46379,0 19.46379,0 z m -271.048857,-11.75 c 0.38634,-0.275 2.95814,-4.55 5.7151,-9.5 7.978357,-14.324809 11.635787,-20.596999 15.598397,-26.749999 l 3.70308,-5.75 -16.53073,0 -16.530727,0 0.0154,27.749999 0.0154,27.75 3.6558,-6.5 c 2.01069,-3.575 3.9719,-6.725 4.35824,-7 z M 327.96766,62.572647 c -0.19318,-0.193176 -8.78681,-0.552554 -19.09695,-0.798618 -14.45106,-0.344892 -18.53108,-0.173439 -17.80879,0.748371 0.51531,0.657669 4.59495,5.695761 9.06586,11.195761 4.4709,5.5 10.13861,12.475 12.5949,15.5 2.4563,3.025 6.84901,8.41492 9.76158,11.977589 l 5.29558,6.47759 0.26952,-22.374729 c 0.14824,-12.30611 0.11148,-22.532788 -0.0817,-22.725964 z m -81.68782,-37.354486 0,-4 -15.25,0.09166 -15.25,0.09166 15,3.800831 c 8.25,2.090457 15.1125,3.849211 15.25,3.908342 0.1375,0.05913 0.25,-1.692493 0.25,-3.892493 z"
     id="path4138"
     inkscape:connector-curvature="0"
     sodipodi:nodetypes="ssscsscccsscssccsssssscsssssscccccccssssscccccsssssscccssssscccsscsssscccccsssscscscsssscscsccccccscsssscsccsscscccscccsscccscccscccsssscccccccsssscccssssscssscccssscccsssssssssscccscsscccccsccsssssscssscccscs" />
</svg>
