%!PS-Adobe-3.0 EPSF-3.0
%%Title: plots/cp.eps
%%Creator: matplotlib version 1.5.1, http://matplotlib.org/
%%CreationDate: Wed Jun 14 14:26:06 2017
%%Orientation: portrait
%%BoundingBox: 105 141 506 650
%%EndComments
%%BeginProlog
/mpldict 10 dict def
mpldict begin
/m { moveto } bind def
/l { lineto } bind def
/r { rlineto } bind def
/c { curveto } bind def
/cl { closepath } bind def
/box {
m
1 index 0 r
0 exch r
neg 0 r
cl
} bind def
/clipbox {
box
clip
newpath
} bind def
%!PS-Adobe-3.0 Resource-Font
%%Title: Bitstream Vera Sans
%%Copyright: Copyright (c) 2003 by Bitstream, Inc. All Rights Reserved.
%%Creator: Converted from TrueType to type 3 by PPR
25 dict begin
/_d{bind def}bind def
/_m{moveto}_d
/_l{lineto}_d
/_cl{closepath eofill}_d
/_c{curveto}_d
/_sc{7 -1 roll{setcachedevice}{pop pop pop pop pop pop}ifelse}_d
/_e{exec}_d
/FontName /BitstreamVeraSans-Roman def
/PaintType 0 def
/FontMatrix[.001 0 0 .001 0 0]def
/FontBBox[-183 -236 1287 928]def
/FontType 3 def
/Encoding [ /space /parenleft /parenright /comma /period /zero /one /two /three /four /five /six /eight /D /F /N /U /a /b /c /d /e /h /i /m /x /minus ] def
/FontInfo 10 dict dup begin
/FamilyName (Bitstream Vera Sans) def
/FullName (Bitstream Vera Sans) def
/Notice (Copyright (c) 2003 by Bitstream, Inc. All Rights Reserved. Bitstream Vera is a trademark of Bitstream, Inc.) def
/Weight (Roman) def
/Version (Release 1.10) def
/ItalicAngle 0.0 def
/isFixedPitch false def
/UnderlinePosition -213 def
/UnderlineThickness 143 def
end readonly def
/CharStrings 27 dict dup begin
/space{318 0 0 0 0 0 _sc
}_d
/parenleft{390 0 86 -131 310 759 _sc
310 759 _m
266 683 234 609 213 536 _c
191 463 181 389 181 314 _c
181 238 191 164 213 91 _c
234 17 266 -56 310 -131 _c
232 -131 _l
183 -54 146 20 122 94 _c
98 168 86 241 86 314 _c
86 386 98 459 122 533 _c
146 607 182 682 232 759 _c
310 759 _l
_cl}_d
/parenright{390 0 80 -131 304 759 _sc
80 759 _m
158 759 _l
206 682 243 607 267 533 _c
291 459 304 386 304 314 _c
304 241 291 168 267 94 _c
243 20 206 -54 158 -131 _c
80 -131 _l
123 -56 155 17 177 91 _c
198 164 209 238 209 314 _c
209 389 198 463 177 536 _c
155 609 123 683 80 759 _c
_cl}_d
/comma{318 0 77 -115 220 124 _sc
117 124 _m
220 124 _l
220 40 _l
140 -115 _l
77 -115 _l
117 40 _l
117 124 _l
_cl}_d
/period{318 0 107 0 210 124 _sc
107 124 _m
210 124 _l
210 0 _l
107 0 _l
107 124 _l
_cl}_d
/zero{636 0 66 -13 570 742 _sc
318 664 _m
267 664 229 639 203 589 _c
177 539 165 464 165 364 _c
165 264 177 189 203 139 _c
229 89 267 64 318 64 _c
369 64 407 89 433 139 _c
458 189 471 264 471 364 _c
471 464 458 539 433 589 _c
407 639 369 664 318 664 _c
318 742 _m
399 742 461 709 505 645 _c
548 580 570 486 570 364 _c
570 241 548 147 505 83 _c
461 19 399 -13 318 -13 _c
236 -13 173 19 130 83 _c
87 147 66 241 66 364 _c
66 486 87 580 130 645 _c
173 709 236 742 318 742 _c
_cl}_d
/one{636 0 110 0 544 729 _sc
124 83 _m
285 83 _l
285 639 _l
110 604 _l
110 694 _l
284 729 _l
383 729 _l
383 83 _l
544 83 _l
544 0 _l
124 0 _l
124 83 _l
_cl}_d
/two{{636 0 73 0 536 742 _sc
192 83 _m
536 83 _l
536 0 _l
73 0 _l
73 83 _l
110 121 161 173 226 239 _c
290 304 331 346 348 365 _c
380 400 402 430 414 455 _c
426 479 433 504 433 528 _c
433 566 419 598 392 622 _c
365 646 330 659 286 659 _c
255 659 222 653 188 643 _c
154 632 117 616 78 594 _c
78 694 _l
118 710 155 722 189 730 _c
223 738 255 742 284 742 _c
}_e{359 742 419 723 464 685 _c
509 647 532 597 532 534 _c
532 504 526 475 515 449 _c
504 422 484 390 454 354 _c
446 344 420 317 376 272 _c
332 227 271 164 192 83 _c
_cl}_e}_d
/three{{636 0 76 -13 556 742 _sc
406 393 _m
453 383 490 362 516 330 _c
542 298 556 258 556 212 _c
556 140 531 84 482 45 _c
432 6 362 -13 271 -13 _c
240 -13 208 -10 176 -4 _c
144 1 110 10 76 22 _c
76 117 _l
103 101 133 89 166 81 _c
198 73 232 69 268 69 _c
330 69 377 81 409 105 _c
441 129 458 165 458 212 _c
458 254 443 288 413 312 _c
383 336 341 349 287 349 _c
}_e{202 349 _l
202 430 _l
291 430 _l
339 430 376 439 402 459 _c
428 478 441 506 441 543 _c
441 580 427 609 401 629 _c
374 649 336 659 287 659 _c
260 659 231 656 200 650 _c
169 644 135 635 98 623 _c
98 711 _l
135 721 170 729 203 734 _c
235 739 266 742 296 742 _c
370 742 429 725 473 691 _c
517 657 539 611 539 553 _c
539 513 527 479 504 451 _c
481 423 448 403 406 393 _c
_cl}_e}_d
/four{636 0 49 0 580 729 _sc
378 643 _m
129 254 _l
378 254 _l
378 643 _l
352 729 _m
476 729 _l
476 254 _l
580 254 _l
580 172 _l
476 172 _l
476 0 _l
378 0 _l
378 172 _l
49 172 _l
49 267 _l
352 729 _l
_cl}_d
/five{{636 0 77 -13 549 729 _sc
108 729 _m
495 729 _l
495 646 _l
198 646 _l
198 467 _l
212 472 227 476 241 478 _c
255 480 270 482 284 482 _c
365 482 429 459 477 415 _c
525 370 549 310 549 234 _c
549 155 524 94 475 51 _c
426 8 357 -13 269 -13 _c
238 -13 207 -10 175 -6 _c
143 -1 111 6 77 17 _c
77 116 _l
106 100 136 88 168 80 _c
199 72 232 69 267 69 _c
}_e{323 69 368 83 401 113 _c
433 143 450 183 450 234 _c
450 284 433 324 401 354 _c
368 384 323 399 267 399 _c
241 399 214 396 188 390 _c
162 384 135 375 108 363 _c
108 729 _l
_cl}_e}_d
/six{{636 0 70 -13 573 742 _sc
330 404 _m
286 404 251 388 225 358 _c
199 328 186 286 186 234 _c
186 181 199 139 225 109 _c
251 79 286 64 330 64 _c
374 64 409 79 435 109 _c
461 139 474 181 474 234 _c
474 286 461 328 435 358 _c
409 388 374 404 330 404 _c
526 713 _m
526 623 _l
501 635 476 644 451 650 _c
425 656 400 659 376 659 _c
310 659 260 637 226 593 _c
}_e{192 549 172 482 168 394 _c
187 422 211 444 240 459 _c
269 474 301 482 336 482 _c
409 482 467 459 509 415 _c
551 371 573 310 573 234 _c
573 159 550 99 506 54 _c
462 9 403 -13 330 -13 _c
246 -13 181 19 137 83 _c
92 147 70 241 70 364 _c
70 479 97 571 152 639 _c
206 707 280 742 372 742 _c
396 742 421 739 447 735 _c
472 730 498 723 526 713 _c
_cl}_e}_d
/eight{{636 0 68 -13 568 742 _sc
318 346 _m
271 346 234 333 207 308 _c
180 283 167 249 167 205 _c
167 161 180 126 207 101 _c
234 76 271 64 318 64 _c
364 64 401 76 428 102 _c
455 127 469 161 469 205 _c
469 249 455 283 429 308 _c
402 333 365 346 318 346 _c
219 388 _m
177 398 144 418 120 447 _c
96 476 85 511 85 553 _c
85 611 105 657 147 691 _c
188 725 245 742 318 742 _c
}_e{390 742 447 725 489 691 _c
530 657 551 611 551 553 _c
551 511 539 476 515 447 _c
491 418 459 398 417 388 _c
464 377 501 355 528 323 _c
554 291 568 251 568 205 _c
568 134 546 80 503 43 _c
459 5 398 -13 318 -13 _c
237 -13 175 5 132 43 _c
89 80 68 134 68 205 _c
68 251 81 291 108 323 _c
134 355 171 377 219 388 _c
183 544 _m
183 506 194 476 218 455 _c
}_e{242 434 275 424 318 424 _c
360 424 393 434 417 455 _c
441 476 453 506 453 544 _c
453 582 441 611 417 632 _c
393 653 360 664 318 664 _c
275 664 242 653 218 632 _c
194 611 183 582 183 544 _c
_cl}_e}_d
/D{770 0 98 0 711 729 _sc
197 648 _m
197 81 _l
316 81 _l
416 81 490 103 537 149 _c
583 195 607 267 607 365 _c
607 463 583 534 537 580 _c
490 625 416 648 316 648 _c
197 648 _l
98 729 _m
301 729 _l
442 729 546 699 612 641 _c
678 582 711 490 711 365 _c
711 239 677 147 611 88 _c
545 29 441 0 301 0 _c
98 0 _l
98 729 _l
_cl}_d
/F{575 0 98 0 517 729 _sc
98 729 _m
517 729 _l
517 646 _l
197 646 _l
197 431 _l
486 431 _l
486 348 _l
197 348 _l
197 0 _l
98 0 _l
98 729 _l
_cl}_d
/N{748 0 98 0 650 729 _sc
98 729 _m
231 729 _l
554 119 _l
554 729 _l
650 729 _l
650 0 _l
517 0 _l
194 610 _l
194 0 _l
98 0 _l
98 729 _l
_cl}_d
/U{732 0 87 -13 645 729 _sc
87 729 _m
186 729 _l
186 286 _l
186 208 200 151 228 117 _c
256 83 302 66 366 66 _c
429 66 475 83 503 117 _c
531 151 546 208 546 286 _c
546 729 _l
645 729 _l
645 274 _l
645 178 621 107 574 59 _c
527 11 458 -13 366 -13 _c
274 -13 204 11 157 59 _c
110 107 87 178 87 274 _c
87 729 _l
_cl}_d
/a{{613 0 60 -13 522 560 _sc
343 275 _m
270 275 220 266 192 250 _c
164 233 150 205 150 165 _c
150 133 160 107 181 89 _c
202 70 231 61 267 61 _c
317 61 357 78 387 114 _c
417 149 432 196 432 255 _c
432 275 _l
343 275 _l
522 312 _m
522 0 _l
432 0 _l
432 83 _l
411 49 385 25 355 10 _c
325 -5 287 -13 243 -13 _c
187 -13 142 2 109 33 _c
76 64 60 106 60 159 _c
}_e{60 220 80 266 122 298 _c
163 329 224 345 306 345 _c
432 345 _l
432 354 _l
432 395 418 427 391 450 _c
364 472 326 484 277 484 _c
245 484 215 480 185 472 _c
155 464 127 453 100 439 _c
100 522 _l
132 534 164 544 195 550 _c
226 556 256 560 286 560 _c
365 560 424 539 463 498 _c
502 457 522 395 522 312 _c
_cl}_e}_d
/b{{635 0 91 -13 580 760 _sc
487 273 _m
487 339 473 390 446 428 _c
418 466 381 485 334 485 _c
286 485 249 466 222 428 _c
194 390 181 339 181 273 _c
181 207 194 155 222 117 _c
249 79 286 61 334 61 _c
381 61 418 79 446 117 _c
473 155 487 207 487 273 _c
181 464 _m
199 496 223 520 252 536 _c
281 552 316 560 356 560 _c
422 560 476 533 518 481 _c
559 428 580 359 580 273 _c
}_e{580 187 559 117 518 65 _c
476 13 422 -13 356 -13 _c
316 -13 281 -5 252 10 _c
223 25 199 49 181 82 _c
181 0 _l
91 0 _l
91 760 _l
181 760 _l
181 464 _l
_cl}_e}_d
/c{{550 0 55 -13 488 560 _sc
488 526 _m
488 442 _l
462 456 437 466 411 473 _c
385 480 360 484 334 484 _c
276 484 230 465 198 428 _c
166 391 150 339 150 273 _c
150 206 166 154 198 117 _c
230 80 276 62 334 62 _c
360 62 385 65 411 72 _c
437 79 462 90 488 104 _c
488 21 _l
462 9 436 0 410 -5 _c
383 -10 354 -13 324 -13 _c
242 -13 176 12 128 64 _c
}_e{79 115 55 185 55 273 _c
55 362 79 432 128 483 _c
177 534 244 560 330 560 _c
358 560 385 557 411 551 _c
437 545 463 537 488 526 _c
_cl}_e}_d
/d{{635 0 55 -13 544 760 _sc
454 464 _m
454 760 _l
544 760 _l
544 0 _l
454 0 _l
454 82 _l
435 49 411 25 382 10 _c
353 -5 319 -13 279 -13 _c
213 -13 159 13 117 65 _c
75 117 55 187 55 273 _c
55 359 75 428 117 481 _c
159 533 213 560 279 560 _c
319 560 353 552 382 536 _c
411 520 435 496 454 464 _c
148 273 _m
148 207 161 155 188 117 _c
215 79 253 61 301 61 _c
}_e{348 61 385 79 413 117 _c
440 155 454 207 454 273 _c
454 339 440 390 413 428 _c
385 466 348 485 301 485 _c
253 485 215 466 188 428 _c
161 390 148 339 148 273 _c
_cl}_e}_d
/e{{615 0 55 -13 562 560 _sc
562 296 _m
562 252 _l
149 252 _l
153 190 171 142 205 110 _c
238 78 284 62 344 62 _c
378 62 412 66 444 74 _c
476 82 509 95 541 113 _c
541 28 _l
509 14 476 3 442 -3 _c
408 -9 373 -13 339 -13 _c
251 -13 182 12 131 62 _c
80 112 55 181 55 268 _c
55 357 79 428 127 481 _c
175 533 241 560 323 560 _c
397 560 455 536 498 489 _c
}_e{540 441 562 377 562 296 _c
472 322 _m
471 371 457 410 431 440 _c
404 469 368 484 324 484 _c
274 484 234 469 204 441 _c
174 413 156 373 152 322 _c
472 322 _l
_cl}_e}_d
/h{634 0 91 0 549 760 _sc
549 330 _m
549 0 _l
459 0 _l
459 327 _l
459 379 448 417 428 443 _c
408 469 378 482 338 482 _c
289 482 251 466 223 435 _c
195 404 181 362 181 309 _c
181 0 _l
91 0 _l
91 760 _l
181 760 _l
181 462 _l
202 494 227 519 257 535 _c
286 551 320 560 358 560 _c
420 560 468 540 500 501 _c
532 462 549 405 549 330 _c
_cl}_d
/i{278 0 94 0 184 760 _sc
94 547 _m
184 547 _l
184 0 _l
94 0 _l
94 547 _l
94 760 _m
184 760 _l
184 646 _l
94 646 _l
94 760 _l
_cl}_d
/m{{974 0 91 0 889 560 _sc
520 442 _m
542 482 569 511 600 531 _c
631 550 668 560 711 560 _c
767 560 811 540 842 500 _c
873 460 889 403 889 330 _c
889 0 _l
799 0 _l
799 327 _l
799 379 789 418 771 444 _c
752 469 724 482 686 482 _c
639 482 602 466 575 435 _c
548 404 535 362 535 309 _c
535 0 _l
445 0 _l
445 327 _l
445 379 435 418 417 444 _c
398 469 369 482 331 482 _c
}_e{285 482 248 466 221 435 _c
194 404 181 362 181 309 _c
181 0 _l
91 0 _l
91 547 _l
181 547 _l
181 462 _l
201 495 226 520 255 536 _c
283 552 317 560 357 560 _c
397 560 430 550 458 530 _c
486 510 506 480 520 442 _c
_cl}_e}_d
/x{592 0 29 0 559 547 _sc
549 547 _m
351 281 _l
559 0 _l
453 0 _l
294 215 _l
135 0 _l
29 0 _l
241 286 _l
47 547 _l
153 547 _l
298 352 _l
443 547 _l
549 547 _l
_cl}_d
/minus{838 0 106 272 732 355 _sc
106 355 _m
732 355 _l
732 272 _l
106 272 _l
106 355 _l
_cl}_d
end readonly def

/BuildGlyph
 {exch begin
 CharStrings exch
 2 copy known not{pop /.notdef}if
 true 3 1 roll get exec
 end}_d

/BuildChar {
 1 index /Encoding get exch get
 1 index /BuildGlyph get exec
}_d

FontName currentdict end definefont pop
%!PS-Adobe-3.0 Resource-Font
%%Title: cmr10
%%Copyright: Copyright (C) 1994, Basil K. Malyshev. All Rights Reserved.012BaKoMa Fonts Collection, Level-B.
%%Creator: Converted from TrueType to type 3 by PPR
25 dict begin
/_d{bind def}bind def
/_m{moveto}_d
/_l{lineto}_d
/_cl{closepath eofill}_d
/_c{curveto}_d
/_sc{7 -1 roll{setcachedevice}{pop pop pop pop pop pop}ifelse}_d
/_e{exec}_d
/FontName /Cmr10 def
/PaintType 0 def
/FontMatrix[.001 0 0 .001 0 0]def
/FontBBox[-44 -250 1009 750]def
/FontType 3 def
/Encoding [ /equal /one /three ] def
/FontInfo 10 dict dup begin
/FamilyName (cmr10) def
/FullName (cmr10) def
/Notice (Copyright (C) 1994, Basil K. Malyshev. All Rights Reserved.012BaKoMa Fonts Collection, Level-B. ) def
/Weight (Regular) def
/Version (1.1/12-Nov-94) def
/ItalicAngle 0.0 def
/isFixedPitch false def
/UnderlinePosition -133 def
/UnderlineThickness 20 def
end readonly def
/CharStrings 3 dict dup begin
/equal{{777 0 56 133 721 367 _sc
75 133 _m
69 133 65 135 61 139 _c
57 143 56 148 56 153 _c
56 158 57 163 61 167 _c
65 171 69 173 75 173 _c
703 173 _l
707 173 711 171 715 167 _c
719 163 721 158 721 153 _c
721 148 719 143 715 139 _c
711 135 707 133 703 133 _c
75 133 _l
75 327 _m
69 327 65 329 61 333 _c
57 337 56 341 56 347 _c
56 351 57 356 61 360 _c
}_e{65 364 69 367 75 367 _c
703 367 _l
707 367 711 364 715 360 _c
719 356 721 351 721 347 _c
721 341 719 337 715 333 _c
711 329 707 327 703 327 _c
75 327 _l
_cl}_e}_d
/one{500 0 87 0 421 666 _sc
93 0 _m
93 35 _l
176 35 218 45 218 67 _c
218 592 _l
183 575 139 567 87 567 _c
87 602 _l
168 602 230 623 272 666 _c
286 666 _l
288 666 291 665 293 663 _c
295 661 296 659 296 657 _c
296 67 _l
296 45 337 35 421 35 _c
421 0 _l
93 0 _l
_cl}_d
/three{{500 0 42 -21 457 666 _sc
95 77 _m
111 54 132 37 158 26 _c
184 15 213 10 243 10 _c
281 10 309 26 325 59 _c
341 92 350 130 350 172 _c
350 190 348 209 345 228 _c
341 247 335 265 327 281 _c
319 297 308 310 294 320 _c
280 330 262 335 242 335 _c
176 335 _l
170 335 167 338 167 344 _c
167 353 _l
167 358 170 361 176 361 _c
231 365 _l
254 365 273 373 289 391 _c
}_e{305 409 316 430 323 456 _c
330 481 334 505 334 528 _c
334 560 326 586 311 606 _c
296 626 273 637 243 637 _c
217 637 193 632 170 622 _c
147 612 129 598 115 579 _c
116 579 117 580 118 580 _c
119 580 120 580 122 580 _c
137 580 150 574 160 564 _c
170 554 175 541 175 527 _c
175 512 170 499 160 489 _c
150 479 137 474 122 474 _c
107 474 94 479 84 489 _c
}_e{74 499 69 512 69 527 _c
69 555 77 580 95 601 _c
112 622 134 638 161 649 _c
188 660 215 666 243 666 _c
263 666 284 663 307 657 _c
329 651 350 642 368 631 _c
386 619 401 605 413 588 _c
424 570 430 550 430 528 _c
430 500 423 474 411 450 _c
399 426 382 406 360 389 _c
338 371 314 358 288 350 _c
317 344 345 333 371 317 _c
397 301 417 280 433 255 _c
}_e{449 229 457 202 457 173 _c
457 136 446 103 426 73 _c
406 43 379 19 347 3 _c
314 -13 279 -21 243 -21 _c
211 -21 180 -15 149 -3 _c
117 8 92 25 72 49 _c
52 73 42 101 42 135 _c
42 151 47 165 58 176 _c
69 187 83 193 100 193 _c
110 193 120 190 129 185 _c
138 180 145 173 150 164 _c
155 154 158 145 158 135 _c
158 118 152 104 141 93 _c
}_e{129 82 116 77 100 77 _c
95 77 _l
_cl}_e}_d
end readonly def

/BuildGlyph
 {exch begin
 CharStrings exch
 2 copy known not{pop /.notdef}if
 true 3 1 roll get exec
 end}_d

/BuildChar {
 1 index /Encoding get exch get
 1 index /BuildGlyph get exec
}_d

FontName currentdict end definefont pop
%!PS-Adobe-3.0 Resource-Font
%%Title: cmmi10
%%Copyright: Copyright (C) 1994, Basil K. Malyshev. All Rights Reserved.012BaKoMa Fonts Collection, Level-B.
%%Creator: Converted from TrueType to type 3 by PPR
25 dict begin
/_d{bind def}bind def
/_m{moveto}_d
/_l{lineto}_d
/_cl{closepath eofill}_d
/_c{curveto}_d
/_sc{7 -1 roll{setcachedevice}{pop pop pop pop pop pop}ifelse}_d
/_e{exec}_d
/FontName /Cmmi10 def
/PaintType 0 def
/FontMatrix[.001 0 0 .001 0 0]def
/FontBBox[-34 -250 1048 750]def
/FontType 3 def
/Encoding [ /k /C /p ] def
/FontInfo 10 dict dup begin
/FamilyName (cmmi10) def
/FullName (cmmi10) def
/Notice (Copyright (C) 1994, Basil K. Malyshev. All Rights Reserved.012BaKoMa Fonts Collection, Level-B. ) def
/Weight (Regular) def
/Version (1.1/12-Nov-94) def
/ItalicAngle 0.0 def
/isFixedPitch false def
/UnderlinePosition -133 def
/UnderlineThickness 20 def
end readonly def
/CharStrings 3 dict dup begin
/k{{520 0 53 -10 507 694 _sc
53 18 _m
53 22 53 25 54 27 _c
199 605 _l
201 616 203 625 204 632 _c
204 642 182 648 139 648 _c
132 648 129 652 129 661 _c
129 663 129 666 131 670 _c
132 674 133 677 135 679 _c
137 681 139 683 143 683 _c
278 694 _l
281 694 _l
281 693 282 692 284 691 _c
286 689 288 689 288 689 _c
289 685 290 683 290 681 _c
185 263 _l
209 273 239 297 276 335 _c
}_e{312 373 341 400 362 417 _c
382 433 408 442 440 442 _c
458 442 474 435 487 423 _c
500 410 507 394 507 376 _c
507 364 504 353 499 343 _c
494 333 487 325 479 319 _c
470 313 460 310 448 310 _c
437 310 428 313 421 320 _c
413 326 410 335 410 346 _c
410 362 415 375 427 386 _c
438 397 452 403 468 403 _c
461 411 451 416 438 416 _c
418 416 398 410 380 399 _c
}_e{362 387 342 371 321 350 _c
299 328 280 309 262 291 _c
244 273 228 260 214 251 _c
253 246 287 236 316 220 _c
345 204 360 179 360 146 _c
360 139 358 130 356 120 _c
350 95 347 75 347 60 _c
347 30 357 15 378 15 _c
402 15 420 28 433 54 _c
445 80 456 111 464 147 _c
465 151 468 153 472 153 _c
484 153 _l
486 153 488 152 490 150 _c
492 148 493 146 493 144 _c
}_e{493 143 492 142 492 141 _c
467 40 428 -10 376 -10 _c
357 -10 340 -6 326 2 _c
311 10 300 22 292 38 _c
284 53 281 70 281 89 _c
281 99 282 110 285 122 _c
287 130 288 137 288 144 _c
288 170 276 189 254 203 _c
231 216 205 224 176 227 _c
125 23 _l
122 13 117 5 110 -1 _c
102 -7 94 -10 84 -10 _c
75 -10 68 -7 62 -2 _c
56 3 53 10 53 18 _c
_cl}_e}_d
/C{{714 0 51 -21 760 705 _sc
146 216 _m
146 176 153 140 169 110 _c
184 79 206 55 236 38 _c
266 21 301 13 341 13 _c
383 13 423 23 462 45 _c
501 67 534 96 562 132 _c
589 168 608 206 618 246 _c
619 250 622 252 626 252 _c
638 252 _l
640 252 642 251 644 249 _c
646 247 647 245 647 243 _c
647 242 646 241 646 240 _c
634 194 612 150 580 110 _c
547 69 508 37 462 14 _c
}_e{416 -9 370 -21 322 -21 _c
270 -21 223 -9 182 13 _c
140 36 108 68 85 110 _c
62 152 51 199 51 252 _c
51 308 63 363 88 418 _c
113 472 147 521 189 564 _c
231 607 280 641 334 667 _c
388 692 443 705 499 705 _c
521 705 542 701 562 695 _c
582 688 601 678 619 664 _c
636 650 650 635 661 617 _c
740 703 _l
740 704 741 705 745 705 _c
751 705 _l
753 705 755 703 757 701 _c
}_e{759 699 760 697 760 695 _c
692 425 _l
692 420 689 418 684 418 _c
666 418 _l
660 418 658 421 658 429 _c
660 443 662 461 662 482 _c
662 514 656 545 645 574 _c
634 602 617 625 594 643 _c
570 661 542 670 509 670 _c
454 670 404 656 359 629 _c
314 601 276 565 244 521 _c
212 477 188 427 171 373 _c
154 319 146 266 146 216 _c
_cl}_e}_d
/p{{503 0 -33 -193 491 442 _sc
-24 -193 _m
-30 -193 -33 -188 -33 -180 _c
-31 -165 -26 -158 -20 -158 _c
0 -158 14 -156 22 -152 _c
30 -148 37 -139 42 -124 _c
155 325 _l
159 337 162 353 162 373 _c
162 401 152 416 133 416 _c
112 416 96 403 86 378 _c
76 353 66 322 57 284 _c
57 280 54 278 49 278 _c
37 278 _l
35 278 34 279 32 281 _c
30 283 29 286 29 288 _c
}_e{36 317 43 342 50 362 _c
56 382 67 400 81 417 _c
95 433 112 442 134 442 _c
156 442 176 435 194 422 _c
211 409 222 392 227 370 _c
245 391 265 408 287 422 _c
309 435 332 442 356 442 _c
384 442 408 434 429 419 _c
449 404 465 384 475 360 _c
485 336 491 310 491 282 _c
491 239 480 195 458 149 _c
436 103 406 65 369 35 _c
331 5 291 -10 248 -10 _c
}_e{228 -10 211 -4 195 6 _c
179 16 166 31 158 49 _c
113 -128 _l
111 -138 110 -143 110 -145 _c
110 -153 132 -158 176 -158 _c
182 -158 186 -162 186 -171 _c
184 -179 182 -185 180 -188 _c
178 -191 175 -193 169 -193 _c
-24 -193 _l
249 15 _m
272 15 293 24 313 43 _c
333 62 349 84 362 108 _c
370 126 379 147 387 173 _c
395 199 402 226 408 256 _c
414 285 417 308 417 326 _c
}_e{417 341 415 355 411 369 _c
407 382 400 393 391 402 _c
381 411 369 416 354 416 _c
329 416 306 407 284 390 _c
262 372 243 351 226 325 _c
226 322 _l
171 101 _l
175 77 184 56 197 40 _c
210 23 227 15 249 15 _c
_cl}_e}_d
end readonly def

/BuildGlyph
 {exch begin
 CharStrings exch
 2 copy known not{pop /.notdef}if
 true 3 1 roll get exec
 end}_d

/BuildChar {
 1 index /Encoding get exch get
 1 index /BuildGlyph get exec
}_d

FontName currentdict end definefont pop
end
%%EndProlog
mpldict begin
105.775 141.314 translate
400.45 509.372 0 0 clipbox
100000 setmiterlimit
gsave
0 0 m
400.45 0 l
400.45 509.371875 l
0 509.371875 l
cl
1.000 setgray
fill
grestore
gsave
48.903125 41.371875 m
383.703125 41.371875 l
383.703125 271.771875 l
48.903125 271.771875 l
cl
1.000 setgray
fill
grestore
1.000 setlinewidth
1 setlinejoin
0 setlinecap
[6 6] 0 setdash
0.000 0.000 1.000 setrgbcolor
gsave
334.8 230.4 48.9 41.37 clipbox
383.703125 96.013913 m
383.557487 96.49591 l
383.380378 96.058179 l
383.166106 96.177365 l
382.208913 95.797049 l
381.187103 95.693744 l
378.703557 95.731846 l
366.832218 96.095596 l
348.412527 96.304209 l
314.806307 96.439698 l
290.845006 96.378294 l
262.330759 96.13426 l
230.509359 95.624221 l
197.443171 94.772806 l
181.200015 94.182176 l
165.539075 93.443024 l
150.7071 92.529833 l
136.897605 91.430105 l
124.244508 90.129094 l
112.821802 88.615337 l
102.649573 86.893529 l
93.702713 84.980403 l
85.921626 82.901763 l
79.222948 80.686006 l
73.510155 78.388659 l
68.680431 76.092003 l
58.491462 70.718528 l
56.228281 70.305565 l
54.402784 71.284966 l
52.950757 74.226195 l
51.815333 79.708909 l
50.945924 88.148835 l
50.296599 99.557581 l
49.825255 113.35808 l
49.267334 143.383491 l
48.964913 179.472195 l
48.913246 214.645347 l
49.023077 237.030435 l
49.267334 250.762275 l
49.493491 255.485187 l
49.825255 257.370435 l
50.296599 255.645027 l
50.945924 250.196643 l
52.950757 231.066243 l
54.402784 219.624579 l
56.228281 208.214307 l
58.491462 197.413155 l
61.265213 187.502499 l
64.631359 178.547715 l
68.680431 170.531811 l
73.510155 163.370115 l
79.222948 156.955491 l
85.921626 151.195203 l
93.702713 145.999971 l
102.649573 141.271299 l
112.821802 136.940931 l
124.244508 132.950403 l
136.897605 129.260547 l
150.7071 125.847862 l
165.539075 122.679805 l
181.200015 119.746323 l
197.443171 117.027315 l
213.981957 114.50599 l
230.509359 112.16576 l
262.330759 108.027315 l
290.845006 104.642105 l
314.806307 102.024329 l
369.795533 96.474241 l
378.703557 95.77303 l
383.380378 95.450096 l
383.557487 95.287721 l
383.703125 96.013913 l
383.703125 96.013913 l
stroke
grestore
0.500 setlinewidth
[] 0 setdash
0.000 setgray
gsave
334.8 230.4 48.9 41.37 clipbox
/o {
gsave
newpath
translate
0.5 setlinewidth
1 setlinejoin
0 setlinecap
0 -3 m
0.795609 -3 1.55874 -2.683901 2.12132 -2.12132 c
2.683901 -1.55874 3 -0.795609 3 0 c
3 0.795609 2.683901 1.55874 2.12132 2.12132 c
1.55874 2.683901 0.795609 3 0 3 c
-0.795609 3 -1.55874 2.683901 -2.12132 2.12132 c
-2.683901 1.55874 -3 0.795609 -3 0 c
-3 -0.795609 -2.683901 -1.55874 -2.12132 -2.12132 c
-1.55874 -2.683901 -0.795609 -3 0 -3 c
cl

gsave
0.000 0.000 1.000 setrgbcolor
fill
grestore
stroke
grestore
} bind def
383.703 96.0139 o
383.557 96.4959 o
383.38 96.0582 o
383.166 96.1774 o
382.906 96.0479 o
382.591 95.9068 o
382.209 95.797 o
381.747 95.7288 o
381.187 95.6937 o
380.51 95.6862 o
379.692 95.7003 o
378.704 95.7318 o
377.512 95.7774 o
376.076 95.8338 o
374.349 95.8975 o
372.277 95.9645 o
369.796 96.0315 o
366.832 96.0956 o
363.306 96.1549 o
359.126 96.2091 o
354.196 96.2583 o
348.413 96.3042 o
341.673 96.3479 o
333.878 96.3881 o
324.944 96.4219 o
314.806 96.4397 o
303.435 96.4277 o
290.845 96.3783 o
277.101 96.2847 o
262.331 96.1343 o
246.72 95.9168 o
230.509 95.6242 o
213.982 95.2466 o
197.443 94.7728 o
181.2 94.1822 o
165.539 93.443 o
150.707 92.5298 o
136.898 91.4301 o
124.245 90.1291 o
112.822 88.6153 o
102.65 86.8935 o
93.7027 84.9804 o
85.9216 82.9018 o
79.2229 80.686 o
73.5102 78.3887 o
68.6804 76.092 o
64.6314 73.9188 o
61.2652 72.0447 o
58.4915 70.7185 o
56.2283 70.3056 o
54.4028 71.285 o
52.9508 74.2262 o
51.8153 79.7089 o
50.9459 88.1488 o
50.2966 99.5576 o
49.8253 113.358 o
49.4935 128.416 o
49.2673 143.383 o
49.1181 157.154 o
49.0231 169.156 o
48.9649 179.472 o
48.9312 188.526 o
48.9132 196.43 o
48.9052 203.45 o
48.9031 207.067 o
48.9052 207.969 o
48.9132 214.645 o
48.9312 221.885 o
48.9649 229.445 o
49.0231 237.03 o
49.1181 244.247 o
49.2673 250.762 o
49.4935 255.485 o
49.8253 257.37 o
50.2966 255.645 o
50.9459 250.197 o
51.8153 241.642 o
52.9508 231.066 o
54.4028 219.625 o
56.2283 208.214 o
58.4915 197.413 o
61.2652 187.502 o
64.6314 178.548 o
68.6804 170.532 o
73.5102 163.37 o
79.2229 156.955 o
85.9216 151.195 o
93.7027 146 o
102.65 141.271 o
112.822 136.941 o
124.245 132.95 o
136.898 129.261 o
150.707 125.848 o
165.539 122.68 o
181.2 119.746 o
197.443 117.027 o
213.982 114.506 o
230.509 112.166 o
246.72 110.005 o
262.331 108.027 o
277.101 106.237 o
290.845 104.642 o
303.435 103.243 o
314.806 102.024 o
324.944 100.984 o
333.878 100.096 o
341.673 99.3214 o
348.413 98.64 o
354.196 98.0445 o
359.126 97.5328 o
363.306 97.1041 o
366.832 96.7541 o
369.796 96.4742 o
372.277 96.2541 o
374.349 96.0832 o
376.076 95.9513 o
377.512 95.8499 o
378.704 95.773 o
379.692 95.7165 o
380.51 95.6768 o
381.187 95.65 o
381.747 95.6319 o
382.209 95.6181 o
382.591 95.6066 o
382.906 95.5848 o
383.166 95.6067 o
383.38 95.4501 o
383.557 95.2877 o
383.703 96.0139 o
grestore
1.000 setlinewidth
[6 6] 0 setdash
1.000 0.000 0.000 setrgbcolor
gsave
334.8 230.4 48.9 41.37 clipbox
383.703125 94.456841 m
383.557487 94.955801 l
383.380378 94.456294 l
383.166106 94.475677 l
382.905966 94.693117 l
382.208913 94.434752 l
381.187103 94.380406 l
376.076046 94.79576 l
369.795533 95.199651 l
359.126461 95.612441 l
341.672668 95.949632 l
324.943716 96.070534 l
303.435495 96.060771 l
277.101131 95.889872 l
246.72004 95.520483 l
213.981957 94.872109 l
197.443171 94.401661 l
181.200015 93.803513 l
165.539075 93.05287 l
150.7071 92.126432 l
136.897605 91.005449 l
124.244508 89.677683 l
112.821802 88.13959 l
102.649573 86.396096 l
93.702713 84.461168 l
85.921626 82.358451 l
79.222948 80.129417 l
73.510155 77.835353 l
68.680431 75.562169 l
61.265213 71.636787 l
58.491462 70.439859 l
56.228281 70.21064 l
54.402784 71.440688 l
52.950757 74.678211 l
51.815333 80.482448 l
50.945924 89.287472 l
50.296599 101.129266 l
49.825255 115.407949 l
49.267334 146.225763 l
48.964913 182.704995 l
48.913246 218.416707 l
49.023077 241.211907 l
49.267334 254.576835 l
49.493491 259.149699 l
49.825255 260.911683 l
50.296599 259.024707 l
50.945924 253.375875 l
52.950757 233.748675 l
54.402784 222.101955 l
56.228281 210.544803 l
58.491462 199.580931 l
61.265213 189.453123 l
64.631359 180.280611 l
68.680431 172.074339 l
73.510155 164.743299 l
79.222948 158.198211 l
85.921626 152.333091 l
93.702713 147.045699 l
102.649573 142.241859 l
112.821802 137.844099 l
124.244508 133.794531 l
136.897605 130.049379 l
150.7071 126.580649 l
165.539075 123.370601 l
181.200015 120.409184 l
197.443171 117.68744 l
213.981957 115.193878 l
230.509359 112.917382 l
262.330759 108.944883 l
333.877854 100.464386 l
359.126461 97.213626 l
380.510137 94.398118 l
382.905966 94.219213 l
383.166106 94.274912 l
383.380378 94.020147 l
383.557487 93.140681 l
383.703125 94.456841 l
383.703125 94.456841 l
stroke
grestore
0.500 setlinewidth
0 setlinejoin
[] 0 setdash
0.000 setgray
gsave
334.8 230.4 48.9 41.37 clipbox
/o {
gsave
newpath
translate
0.5 setlinewidth
0 setlinejoin
0 setlinecap
0 3 m
-3 -3 l
3 -3 l
cl

gsave
1.000 0.000 0.000 setrgbcolor
fill
grestore
stroke
grestore
} bind def
383.703 94.4568 o
383.557 94.9558 o
383.38 94.4563 o
383.166 94.4757 o
382.906 94.6931 o
382.591 94.5288 o
382.209 94.4348 o
381.747 94.3889 o
381.187 94.3804 o
380.51 94.4223 o
379.692 94.5038 o
378.704 94.5955 o
377.512 94.6879 o
376.076 94.7958 o
374.349 94.922 o
372.277 95.0589 o
369.796 95.1997 o
366.832 95.3401 o
363.306 95.4785 o
359.126 95.6124 o
354.196 95.7387 o
348.413 95.8528 o
341.673 95.9496 o
333.878 96.0239 o
324.944 96.0705 o
314.806 96.0843 o
303.435 96.0608 o
290.845 95.9973 o
277.101 95.8899 o
262.331 95.7338 o
246.72 95.5205 o
230.509 95.2382 o
213.982 94.8721 o
197.443 94.4017 o
181.2 93.8035 o
165.539 93.0529 o
150.707 92.1264 o
136.898 91.0054 o
124.245 89.6777 o
112.822 88.1396 o
102.65 86.3961 o
93.7027 84.4612 o
85.9216 82.3585 o
79.2229 80.1294 o
73.5102 77.8354 o
68.6804 75.5622 o
64.6314 73.4341 o
61.2652 71.6368 o
58.4915 70.4399 o
56.2283 70.2106 o
54.4028 71.4407 o
52.9508 74.6782 o
51.8153 80.4824 o
50.9459 89.2875 o
50.2966 101.129 o
49.8253 115.408 o
49.4935 130.916 o
49.2673 146.226 o
49.1181 160.205 o
49.0231 172.414 o
48.9649 182.705 o
48.9312 191.964 o
48.9132 199.781 o
48.9052 206.458 o
48.9031 210.364 o
48.9052 211.517 o
48.9132 218.417 o
48.9312 225.65 o
48.9649 233.242 o
49.0231 241.212 o
49.1181 248.051 o
49.2673 254.577 o
49.4935 259.15 o
49.8253 260.912 o
50.2966 259.025 o
50.9459 253.376 o
51.8153 244.574 o
52.9508 233.749 o
54.4028 222.102 o
56.2283 210.545 o
58.4915 199.581 o
61.2652 189.453 o
64.6314 180.281 o
68.6804 172.074 o
73.5102 164.743 o
79.2229 158.198 o
85.9216 152.333 o
93.7027 147.046 o
102.65 142.242 o
112.822 137.844 o
124.245 133.795 o
136.898 130.049 o
150.707 126.581 o
165.539 123.371 o
181.2 120.409 o
197.443 117.687 o
213.982 115.194 o
230.509 112.917 o
246.72 110.84 o
262.331 108.945 o
277.101 107.214 o
290.845 105.623 o
303.435 104.156 o
314.806 102.806 o
324.944 101.574 o
333.878 100.464 o
341.673 99.483 o
348.413 98.6235 o
354.196 97.8715 o
359.126 97.2136 o
363.306 96.6417 o
366.832 96.1513 o
369.796 95.7381 o
372.277 95.3968 o
374.349 95.1204 o
376.076 94.9013 o
377.512 94.731 o
378.704 94.5969 o
379.692 94.487 o
380.51 94.3981 o
381.187 94.3349 o
381.747 94.2964 o
382.209 94.271 o
382.591 94.2607 o
382.906 94.2192 o
383.166 94.2749 o
383.38 94.0201 o
383.557 93.1407 o
383.703 94.4568 o
grestore
1.000 setlinewidth
1 setlinejoin
[1 3] 0 setdash
0.000 0.500 0.000 setrgbcolor
gsave
334.8 230.4 48.9 41.37 clipbox
383.703125 94.469081 m
383.557487 94.830089 l
383.380378 94.268057 l
383.166106 94.136441 l
382.905966 94.517235 l
381.746554 94.703283 l
377.511669 95.172147 l
372.277071 95.516883 l
363.306105 95.839299 l
348.412527 96.107675 l
324.943716 96.243104 l
290.845006 96.132261 l
262.330759 95.879129 l
213.981957 95.033907 l
181.200015 94.134541 l
165.539075 93.583597 l
150.7071 92.842688 l
136.897605 91.897731 l
124.244508 90.755811 l
112.821802 89.371568 l
102.649573 87.725821 l
93.702713 85.799216 l
85.921626 83.665309 l
79.222948 81.357421 l
73.510155 78.894761 l
68.680431 76.345558 l
64.631359 73.781753 l
58.491462 69.633603 l
56.228281 68.600547 l
54.402784 68.913891 l
52.950757 71.214867 l
51.815333 76.185574 l
50.945924 84.329897 l
50.296599 95.669984 l
49.825255 109.533094 l
49.267334 139.590243 l
48.964913 174.794211 l
48.913246 208.135683 l
49.023077 228.732867 l
49.267334 242.819235 l
49.493491 247.783779 l
49.825255 249.936579 l
50.296599 248.558787 l
50.945924 243.635139 l
52.950757 226.436355 l
54.402784 216.299907 l
56.228281 206.284707 l
58.491462 196.768035 l
61.265213 187.927299 l
64.631359 179.866467 l
68.680431 172.326627 l
73.510155 165.661731 l
79.222948 159.466851 l
85.921626 153.800163 l
93.702713 148.600035 l
102.649573 143.687619 l
112.821802 139.244931 l
124.244508 134.958627 l
136.897605 131.047299 l
150.7071 127.349465 l
165.539075 123.883213 l
181.200015 120.737936 l
197.443171 117.78703 l
213.981957 115.132304 l
230.509359 112.734819 l
246.72004 110.554486 l
277.101131 106.996793 l
341.672668 100.062793 l
359.126461 98.181888 l
369.795533 96.755571 l
382.905966 94.932358 l
383.380378 94.998973 l
383.703125 94.469081 l
383.703125 94.469081 l
stroke
grestore
0.500 setlinewidth
0 setlinejoin
[] 0 setdash
0.000 setgray
gsave
334.8 230.4 48.9 41.37 clipbox
/o {
gsave
newpath
translate
0.5 setlinewidth
0 setlinejoin
0 setlinecap
-0 -3 m
3 3 l
-3 3 l
cl

gsave
0.000 0.500 0.000 setrgbcolor
fill
grestore
stroke
grestore
} bind def
383.703 94.4691 o
383.557 94.8301 o
383.38 94.2681 o
383.166 94.1364 o
382.906 94.5172 o
382.591 94.5868 o
382.209 94.6409 o
381.747 94.7033 o
381.187 94.7766 o
380.51 94.8609 o
379.692 94.9559 o
378.704 95.0604 o
377.512 95.1721 o
376.076 95.2878 o
374.349 95.403 o
372.277 95.5169 o
369.796 95.6278 o
366.832 95.7344 o
363.306 95.8393 o
359.126 95.9364 o
354.196 96.0272 o
348.413 96.1077 o
341.673 96.1719 o
333.878 96.2166 o
324.944 96.2431 o
314.806 96.2399 o
303.435 96.2122 o
290.845 96.1323 o
277.101 96.0176 o
262.331 95.8791 o
246.72 95.6341 o
230.509 95.3721 o
213.982 95.0339 o
197.443 94.6289 o
181.2 94.1345 o
165.539 93.5836 o
150.707 92.8427 o
136.898 91.8977 o
124.245 90.7558 o
112.822 89.3716 o
102.65 87.7258 o
93.7027 85.7992 o
85.9216 83.6653 o
79.2229 81.3574 o
73.5102 78.8948 o
68.6804 76.3456 o
64.6314 73.7818 o
61.2652 71.5035 o
58.4915 69.6336 o
56.2283 68.6005 o
54.4028 68.9139 o
52.9508 71.2149 o
51.8153 76.1856 o
50.9459 84.3299 o
50.2966 95.67 o
49.8253 109.533 o
49.4935 124.654 o
49.2673 139.59 o
49.1181 153.231 o
49.0231 164.998 o
48.9649 174.794 o
48.9312 182.88 o
48.9132 189.325 o
48.9052 194.482 o
48.9031 198.59 o
48.9052 203.006 o
48.9132 208.136 o
48.9312 214.292 o
48.9649 221.264 o
49.0231 228.733 o
49.1181 236.102 o
49.2673 242.819 o
49.4935 247.784 o
49.8253 249.937 o
50.2966 248.559 o
50.9459 243.635 o
51.8153 235.9 o
52.9508 226.436 o
54.4028 216.3 o
56.2283 206.285 o
58.4915 196.768 o
61.2652 187.927 o
64.6314 179.866 o
68.6804 172.327 o
73.5102 165.662 o
79.2229 159.467 o
85.9216 153.8 o
93.7027 148.6 o
102.65 143.688 o
112.822 139.245 o
124.245 134.959 o
136.898 131.047 o
150.707 127.349 o
165.539 123.883 o
181.2 120.738 o
197.443 117.787 o
213.982 115.132 o
230.509 112.735 o
246.72 110.554 o
262.331 108.72 o
277.101 106.997 o
290.845 105.5 o
303.435 104.156 o
314.806 102.973 o
324.944 101.847 o
333.878 100.878 o
341.673 100.063 o
348.413 99.3683 o
354.196 98.7512 o
359.126 98.1819 o
363.306 97.6528 o
366.832 97.1743 o
369.796 96.7556 o
372.277 96.3913 o
374.349 96.0809 o
376.076 95.8211 o
377.512 95.6069 o
378.704 95.4351 o
379.692 95.2988 o
380.51 95.1916 o
381.187 95.1081 o
381.747 95.0439 o
382.209 94.995 o
382.591 94.9582 o
382.906 94.9324 o
383.166 94.9082 o
383.38 94.999 o
383.557 94.5855 o
383.703 94.4691 o
grestore
1.000 setlinewidth
1 setlinejoin
[1 3] 0 setdash
0.000 0.750 0.750 setrgbcolor
gsave
334.8 230.4 48.9 41.37 clipbox
383.703125 94.032531 m
383.557487 94.420755 l
383.380378 93.856909 l
383.166106 93.763337 l
382.905966 94.131891 l
381.746554 94.360736 l
379.691886 94.617891 l
376.076046 94.940624 l
369.795533 95.329337 l
359.126461 95.71399 l
341.672668 96.014806 l
314.806307 96.120419 l
277.101131 95.910176 l
246.72004 95.524889 l
213.981957 94.905833 l
181.200015 94.008109 l
165.539075 93.412957 l
150.7071 92.673229 l
136.897605 91.749325 l
124.244508 90.607174 l
112.821802 89.210576 l
102.649573 87.545849 l
93.702713 85.629008 l
85.921626 83.491011 l
79.222948 81.178083 l
73.510155 78.714185 l
68.680431 76.183213 l
64.631359 73.69328 l
58.491462 69.636483 l
56.228281 68.772195 l
54.402784 69.210819 l
52.950757 71.713193 l
51.815333 76.878013 l
50.945924 85.276237 l
50.296599 97.022628 l
49.825255 111.466381 l
49.267334 142.735203 l
48.964913 179.161443 l
48.913246 213.459651 l
49.023077 234.528579 l
49.267334 248.783427 l
49.493491 253.676547 l
49.825255 255.593475 l
50.296599 253.789443 l
50.945924 248.317443 l
52.950757 229.820067 l
54.402784 219.098403 l
56.228281 208.489923 l
58.491462 198.640899 l
61.265213 189.486819 l
64.631359 181.165347 l
68.680431 173.513187 l
73.510155 166.551075 l
79.222948 160.297443 l
85.921626 154.641411 l
93.702713 149.350563 l
102.649573 144.379971 l
112.821802 139.707747 l
124.244508 135.367011 l
136.897605 131.305347 l
150.7071 127.554867 l
165.539075 124.05584 l
181.200015 120.840061 l
197.443171 117.905225 l
213.981957 115.242838 l
230.509359 112.862115 l
246.72004 110.740649 l
277.101131 107.197241 l
314.806307 103.090937 l
333.877854 100.924328 l
363.306105 97.109327 l
378.703557 94.898086 l
383.380378 94.49192 l
383.703125 94.032531 l
383.703125 94.032531 l
stroke
grestore
0.500 setlinewidth
0 setlinejoin
[] 0 setdash
0.000 setgray
gsave
334.8 230.4 48.9 41.37 clipbox
/o {
gsave
newpath
translate
0.5 setlinewidth
0 setlinejoin
0 setlinecap
3 -0 m
-3 3 l
-3 -3 l
cl

gsave
0.000 0.750 0.750 setrgbcolor
fill
grestore
stroke
grestore
} bind def
383.703 94.0325 o
383.557 94.4208 o
383.38 93.8569 o
383.166 93.7633 o
382.906 94.1319 o
382.591 94.2125 o
382.209 94.281 o
381.747 94.3607 o
381.187 94.4542 o
380.51 94.5507 o
379.692 94.6179 o
378.704 94.6793 o
377.512 94.8079 o
376.076 94.9406 o
374.349 95.0711 o
372.277 95.1976 o
369.796 95.3293 o
366.832 95.4608 o
363.306 95.5902 o
359.126 95.714 o
354.196 95.8293 o
348.413 95.9284 o
341.673 96.0148 o
333.878 96.0766 o
324.944 96.1115 o
314.806 96.1204 o
303.435 96.0897 o
290.845 96.0244 o
277.101 95.9102 o
262.331 95.7467 o
246.72 95.5249 o
230.509 95.2464 o
213.982 94.9058 o
197.443 94.4979 o
181.2 94.0081 o
165.539 93.413 o
150.707 92.6732 o
136.898 91.7493 o
124.245 90.6072 o
112.822 89.2106 o
102.65 87.5458 o
93.7027 85.629 o
85.9216 83.491 o
79.2229 81.1781 o
73.5102 78.7142 o
68.6804 76.1832 o
64.6314 73.6933 o
61.2652 71.4189 o
58.4915 69.6365 o
56.2283 68.7722 o
54.4028 69.2108 o
52.9508 71.7132 o
51.8153 76.878 o
50.9459 85.2762 o
50.2966 97.0226 o
49.8253 111.466 o
49.4935 127.212 o
49.2673 142.735 o
49.1181 156.875 o
49.0231 169.047 o
48.9649 179.161 o
48.9312 187.496 o
48.9132 194.131 o
48.9052 199.435 o
48.9031 203.658 o
48.9052 208.192 o
48.9132 213.46 o
48.9312 219.771 o
48.9649 226.905 o
49.0231 234.529 o
49.1181 242.017 o
49.2673 248.783 o
49.4935 253.677 o
49.8253 255.593 o
50.2966 253.789 o
50.9459 248.317 o
51.8153 239.945 o
52.9508 229.82 o
54.4028 219.098 o
56.2283 208.49 o
58.4915 198.641 o
61.2652 189.487 o
64.6314 181.165 o
68.6804 173.513 o
73.5102 166.551 o
79.2229 160.297 o
85.9216 154.641 o
93.7027 149.351 o
102.65 144.38 o
112.822 139.708 o
124.245 135.367 o
136.898 131.305 o
150.707 127.555 o
165.539 124.056 o
181.2 120.84 o
197.443 117.905 o
213.982 115.243 o
230.509 112.862 o
246.72 110.741 o
262.331 108.886 o
277.101 107.197 o
290.845 105.729 o
303.435 104.383 o
314.806 103.091 o
324.944 101.945 o
333.878 100.924 o
341.673 99.9254 o
348.413 99.0952 o
354.196 98.3888 o
359.126 97.7206 o
363.306 97.1093 o
366.832 96.5781 o
369.796 96.1371 o
372.277 95.7785 o
374.349 95.4887 o
376.076 95.2539 o
377.512 95.0674 o
378.704 94.8981 o
379.692 94.8055 o
380.51 94.7062 o
381.187 94.622 o
381.747 94.5544 o
382.209 94.5015 o
382.591 94.4606 o
382.906 94.4325 o
383.166 94.4094 o
383.38 94.4919 o
383.557 94.1164 o
383.703 94.0325 o
grestore
1.000 setlinewidth
1 setlinejoin
2 setlinecap
gsave
334.8 230.4 48.9 41.37 clipbox
383.703125 93.53773 m
383.698974 93.527091 l
383.698974 93.527091 l
383.698974 93.527091 l
383.494948 93.546538 l
380.864556 94.077315 l
377.220038 94.519641 l
371.6234 94.958835 l
363.544661 95.356834 l
351.955286 95.690216 l
335.677754 95.920463 l
313.111044 96.002267 l
283.249272 95.877042 l
250.195177 95.519779 l
220.715116 94.987155 l
196.929366 94.342388 l
177.715143 93.609799 l
161.274473 92.76506 l
147.593429 91.849036 l
135.660767 90.836529 l
124.999759 89.709161 l
115.907976 88.531148 l
107.898453 87.280555 l
100.589317 85.917441 l
94.226892 84.512823 l
88.469537 83.022142 l
83.287635 81.458978 l
78.457019 79.77007 l
74.006628 77.976793 l
69.810737 76.046773 l
65.335695 73.732317 l
59.552293 70.723258 l
57.955423 70.165685 l
56.885246 70.010311 l
56.039592 70.100127 l
55.322186 70.400435 l
54.714799 70.885547 l
54.103898 71.673212 l
53.543864 72.76218 l
52.991048 74.319375 l
52.41815 76.65329 l
51.878005 79.833521 l
51.350345 84.318202 l
50.83107 90.790677 l
50.349288 99.741553 l
49.901896 112.368817 l
49.493491 130.580132 l
49.153749 156.284098 l
48.936098 190.290997 l
48.928951 225.194554 l
49.121875 248.808705 l
49.390626 258.749341 l
49.654547 261.810681 l
49.812963 262.173051 l
49.837682 262.163837 l
49.95583 261.928331 l
50.179678 260.822914 l
50.596466 257.435678 l
51.7537 245.509401 l
53.197264 231.716808 l
54.453875 221.795357 l
55.733515 213.410619 l
57.090979 205.998768 l
58.491456 199.581111 l
59.983831 193.795244 l
61.554282 188.610624 l
63.186807 183.983677 l
64.863451 179.86642 l
66.691342 175.957086 l
68.680439 172.247964 l
70.691418 168.958596 l
72.860289 165.827287 l
75.195687 162.845343 l
77.706305 160.003922 l
80.400785 157.294212 l
83.287635 154.707578 l
86.375108 152.235688 l
89.671081 149.870586 l
93.442197 147.446507 l
97.469289 145.12776 l
101.759426 142.906411 l
106.631929 140.636216 l
111.81511 138.460838 l
117.665384 136.24574 l
124.244503 134.0008 l
131.612383 131.735783 l
139.40211 129.571885 l
148.035177 127.397875 l
158.00612 125.124412 l
168.901946 122.875437 l
181.199986 120.575197 l
194.877907 118.2556 l
209.836062 115.948967 l
226.910722 113.546738 l
246.719963 110.991811 l
272.131568 107.955731 l
335.169065 100.53468 l
353.179804 98.117251 l
371.697675 95.396514 l
383.698974 93.505673 l
383.698974 93.505673 l
stroke
grestore
0 setlinejoin
gsave
48.903125 271.771875 m
383.703125 271.771875 l
stroke
grestore
gsave
383.703125 41.371875 m
383.703125 271.771875 l
stroke
grestore
gsave
48.903125 41.371875 m
383.703125 41.371875 l
stroke
grestore
gsave
48.903125 41.371875 m
48.903125 271.771875 l
stroke
grestore
0.500 setlinewidth
1 setlinejoin
0 setlinecap
gsave
/o {
gsave
newpath
translate
0.5 setlinewidth
1 setlinejoin
0 setlinecap
0 0 m
0 4 l

gsave
0.000 setgray
fill
grestore
stroke
grestore
} bind def
48.9031 41.3719 o
grestore
gsave
/o {
gsave
newpath
translate
0.5 setlinewidth
1 setlinejoin
0 setlinecap
0 0 m
0 -4 l

gsave
0.000 setgray
fill
grestore
stroke
grestore
} bind def
48.9031 271.772 o
grestore
/BitstreamVeraSans-Roman findfont
12.000 scalefont
setfont
gsave
39.356250 28.246875 translate
0.000000 rotate
0.000000 0.000000 m /zero glyphshow
7.634766 0.000000 m /period glyphshow
11.449219 0.000000 m /zero glyphshow
grestore
gsave
/o {
gsave
newpath
translate
0.5 setlinewidth
1 setlinejoin
0 setlinecap
0 0 m
0 4 l

gsave
0.000 setgray
fill
grestore
stroke
grestore
} bind def
115.863 41.3719 o
grestore
gsave
/o {
gsave
newpath
translate
0.5 setlinewidth
1 setlinejoin
0 setlinecap
0 0 m
0 -4 l

gsave
0.000 setgray
fill
grestore
stroke
grestore
} bind def
115.863 271.772 o
grestore
gsave
106.316250 28.246875 translate
0.000000 rotate
0.000000 0.000000 m /zero glyphshow
7.634766 0.000000 m /period glyphshow
11.449219 0.000000 m /two glyphshow
grestore
gsave
/o {
gsave
newpath
translate
0.5 setlinewidth
1 setlinejoin
0 setlinecap
0 0 m
0 4 l

gsave
0.000 setgray
fill
grestore
stroke
grestore
} bind def
182.823 41.3719 o
grestore
gsave
/o {
gsave
newpath
translate
0.5 setlinewidth
1 setlinejoin
0 setlinecap
0 0 m
0 -4 l

gsave
0.000 setgray
fill
grestore
stroke
grestore
} bind def
182.823 271.772 o
grestore
gsave
173.276250 28.246875 translate
0.000000 rotate
0.000000 0.000000 m /zero glyphshow
7.634766 0.000000 m /period glyphshow
11.449219 0.000000 m /four glyphshow
grestore
gsave
/o {
gsave
newpath
translate
0.5 setlinewidth
1 setlinejoin
0 setlinecap
0 0 m
0 4 l

gsave
0.000 setgray
fill
grestore
stroke
grestore
} bind def
249.783 41.3719 o
grestore
gsave
/o {
gsave
newpath
translate
0.5 setlinewidth
1 setlinejoin
0 setlinecap
0 0 m
0 -4 l

gsave
0.000 setgray
fill
grestore
stroke
grestore
} bind def
249.783 271.772 o
grestore
gsave
240.236250 28.246875 translate
0.000000 rotate
0.000000 0.000000 m /zero glyphshow
7.634766 0.000000 m /period glyphshow
11.449219 0.000000 m /six glyphshow
grestore
gsave
/o {
gsave
newpath
translate
0.5 setlinewidth
1 setlinejoin
0 setlinecap
0 0 m
0 4 l

gsave
0.000 setgray
fill
grestore
stroke
grestore
} bind def
316.743 41.3719 o
grestore
gsave
/o {
gsave
newpath
translate
0.5 setlinewidth
1 setlinejoin
0 setlinecap
0 0 m
0 -4 l

gsave
0.000 setgray
fill
grestore
stroke
grestore
} bind def
316.743 271.772 o
grestore
gsave
307.196250 28.246875 translate
0.000000 rotate
0.000000 0.000000 m /zero glyphshow
7.634766 0.000000 m /period glyphshow
11.449219 0.000000 m /eight glyphshow
grestore
gsave
/o {
gsave
newpath
translate
0.5 setlinewidth
1 setlinejoin
0 setlinecap
0 0 m
0 4 l

gsave
0.000 setgray
fill
grestore
stroke
grestore
} bind def
383.703 41.3719 o
grestore
gsave
/o {
gsave
newpath
translate
0.5 setlinewidth
1 setlinejoin
0 setlinecap
0 0 m
0 -4 l

gsave
0.000 setgray
fill
grestore
stroke
grestore
} bind def
383.703 271.772 o
grestore
gsave
374.156250 28.246875 translate
0.000000 rotate
0.000000 0.000000 m /one glyphshow
7.634766 0.000000 m /period glyphshow
11.449219 0.000000 m /zero glyphshow
grestore
/BitstreamVeraSans-Roman findfont
14.000 scalefont
setfont
gsave
212.162500 10.106250 translate
0.000000 rotate
0.000000 0.000000 m /x glyphshow
grestore
gsave
/o {
gsave
newpath
translate
0.5 setlinewidth
1 setlinejoin
0 setlinecap
0 0 m
4 0 l

gsave
0.000 setgray
fill
grestore
stroke
grestore
} bind def
48.9031 271.772 o
grestore
gsave
/o {
gsave
newpath
translate
0.5 setlinewidth
1 setlinejoin
0 setlinecap
0 0 m
-4 0 l

gsave
0.000 setgray
fill
grestore
stroke
grestore
} bind def
383.703 271.772 o
grestore
/BitstreamVeraSans-Roman findfont
12.000 scalefont
setfont
gsave
27.200000 268.459375 translate
0.000000 rotate
0.000000 0.000000 m /minus glyphshow
10.054688 0.000000 m /six glyphshow
grestore
gsave
/o {
gsave
newpath
translate
0.5 setlinewidth
1 setlinejoin
0 setlinecap
0 0 m
4 0 l

gsave
0.000 setgray
fill
grestore
stroke
grestore
} bind def
48.9031 242.972 o
grestore
gsave
/o {
gsave
newpath
translate
0.5 setlinewidth
1 setlinejoin
0 setlinecap
0 0 m
-4 0 l

gsave
0.000 setgray
fill
grestore
stroke
grestore
} bind def
383.703 242.972 o
grestore
gsave
27.200000 239.659375 translate
0.000000 rotate
0.000000 0.000000 m /minus glyphshow
10.054688 0.000000 m /five glyphshow
grestore
gsave
/o {
gsave
newpath
translate
0.5 setlinewidth
1 setlinejoin
0 setlinecap
0 0 m
4 0 l

gsave
0.000 setgray
fill
grestore
stroke
grestore
} bind def
48.9031 214.172 o
grestore
gsave
/o {
gsave
newpath
translate
0.5 setlinewidth
1 setlinejoin
0 setlinecap
0 0 m
-4 0 l

gsave
0.000 setgray
fill
grestore
stroke
grestore
} bind def
383.703 214.172 o
grestore
gsave
27.200000 210.859375 translate
0.000000 rotate
0.000000 0.000000 m /minus glyphshow
10.054688 0.000000 m /four glyphshow
grestore
gsave
/o {
gsave
newpath
translate
0.5 setlinewidth
1 setlinejoin
0 setlinecap
0 0 m
4 0 l

gsave
0.000 setgray
fill
grestore
stroke
grestore
} bind def
48.9031 185.372 o
grestore
gsave
/o {
gsave
newpath
translate
0.5 setlinewidth
1 setlinejoin
0 setlinecap
0 0 m
-4 0 l

gsave
0.000 setgray
fill
grestore
stroke
grestore
} bind def
383.703 185.372 o
grestore
gsave
27.200000 182.059375 translate
0.000000 rotate
0.000000 0.000000 m /minus glyphshow
10.054688 0.000000 m /three glyphshow
grestore
gsave
/o {
gsave
newpath
translate
0.5 setlinewidth
1 setlinejoin
0 setlinecap
0 0 m
4 0 l

gsave
0.000 setgray
fill
grestore
stroke
grestore
} bind def
48.9031 156.572 o
grestore
gsave
/o {
gsave
newpath
translate
0.5 setlinewidth
1 setlinejoin
0 setlinecap
0 0 m
-4 0 l

gsave
0.000 setgray
fill
grestore
stroke
grestore
} bind def
383.703 156.572 o
grestore
gsave
27.200000 153.259375 translate
0.000000 rotate
0.000000 0.000000 m /minus glyphshow
10.054688 0.000000 m /two glyphshow
grestore
gsave
/o {
gsave
newpath
translate
0.5 setlinewidth
1 setlinejoin
0 setlinecap
0 0 m
4 0 l

gsave
0.000 setgray
fill
grestore
stroke
grestore
} bind def
48.9031 127.772 o
grestore
gsave
/o {
gsave
newpath
translate
0.5 setlinewidth
1 setlinejoin
0 setlinecap
0 0 m
-4 0 l

gsave
0.000 setgray
fill
grestore
stroke
grestore
} bind def
383.703 127.772 o
grestore
gsave
27.200000 124.459375 translate
0.000000 rotate
0.000000 0.000000 m /minus glyphshow
10.054688 0.000000 m /one glyphshow
grestore
gsave
/o {
gsave
newpath
translate
0.5 setlinewidth
1 setlinejoin
0 setlinecap
0 0 m
4 0 l

gsave
0.000 setgray
fill
grestore
stroke
grestore
} bind def
48.9031 98.9719 o
grestore
gsave
/o {
gsave
newpath
translate
0.5 setlinewidth
1 setlinejoin
0 setlinecap
0 0 m
-4 0 l

gsave
0.000 setgray
fill
grestore
stroke
grestore
} bind def
383.703 98.9719 o
grestore
gsave
37.262500 95.659375 translate
0.000000 rotate
0.000000 0.000000 m /zero glyphshow
grestore
gsave
/o {
gsave
newpath
translate
0.5 setlinewidth
1 setlinejoin
0 setlinecap
0 0 m
4 0 l

gsave
0.000 setgray
fill
grestore
stroke
grestore
} bind def
48.9031 70.1719 o
grestore
gsave
/o {
gsave
newpath
translate
0.5 setlinewidth
1 setlinejoin
0 setlinecap
0 0 m
-4 0 l

gsave
0.000 setgray
fill
grestore
stroke
grestore
} bind def
383.703 70.1719 o
grestore
gsave
37.262500 66.859375 translate
0.000000 rotate
0.000000 0.000000 m /one glyphshow
grestore
gsave
/o {
gsave
newpath
translate
0.5 setlinewidth
1 setlinejoin
0 setlinecap
0 0 m
4 0 l

gsave
0.000 setgray
fill
grestore
stroke
grestore
} bind def
48.9031 41.3719 o
grestore
gsave
/o {
gsave
newpath
translate
0.5 setlinewidth
1 setlinejoin
0 setlinecap
0 0 m
-4 0 l

gsave
0.000 setgray
fill
grestore
stroke
grestore
} bind def
383.703 41.3719 o
grestore
gsave
37.262500 38.059375 translate
0.000000 rotate
0.000000 0.000000 m /two glyphshow
grestore
gsave
17.200000 148.571875 translate
90.000000 rotate
/Cmmi10 findfont
14.0 scalefont
setfont
0.000000 0.125000 moveto
/C glyphshow

/Cmmi10 findfont
9.8 scalefont
setfont
9.994141 -2.255875 moveto
/p glyphshow


grestore
/BitstreamVeraSans-Roman findfont
15.000 scalefont
setfont
gsave
60.621125 242.971875 translate
0.000000 rotate
0.000000 0.000000 m /parenleft glyphshow
5.852051 0.000000 m /a glyphshow
15.043945 0.000000 m /parenright glyphshow
grestore
gsave
156.039125 152.251875 translate
0.000000 rotate
0.000000 0.000000 m /parenleft glyphshow
5.852051 0.000000 m /b glyphshow
15.373535 0.000000 m /parenright glyphshow
grestore
gsave
74.013125 54.331875 translate
0.000000 rotate
0.000000 0.000000 m /parenleft glyphshow
5.852051 0.000000 m /c glyphshow
14.099121 0.000000 m /parenright glyphshow
grestore
gsave
350.223125 123.451875 translate
0.000000 rotate
0.000000 0.000000 m /parenleft glyphshow
5.852051 0.000000 m /d glyphshow
15.373535 0.000000 m /parenright glyphshow
grestore
1.000 setlinewidth
0 setlinejoin
gsave
239.663125 156.5175 m
376.503125 156.5175 l
376.503125 264.571875 l
239.663125 264.571875 l
cl
gsave
1.000 setgray
fill
grestore
stroke
grestore
1 setlinejoin
2 setlinecap
gsave
249.743125 253.21125 m
269.903125 253.21125 l
stroke
grestore
/BitstreamVeraSans-Roman findfont
14.400 scalefont
setfont
gsave
285.743125 248.171250 translate
0.000000 rotate
0.000000 0.000000 m /F glyphshow
8.268433 0.000000 m /U glyphshow
18.789978 0.000000 m /N glyphshow
29.543152 0.000000 m /three glyphshow
38.688965 0.000000 m /D glyphshow
grestore
0 setlinecap
[6 6] 0 setdash
0.000 0.000 1.000 setrgbcolor
gsave
249.743125 232.464375 m
269.903125 232.464375 l
stroke
grestore
0.500 setlinewidth
[] 0 setdash
0.000 setgray
gsave
/o {
gsave
newpath
translate
0.5 setlinewidth
1 setlinejoin
0 setlinecap
0 -3 m
0.795609 -3 1.55874 -2.683901 2.12132 -2.12132 c
2.683901 -1.55874 3 -0.795609 3 0 c
3 0.795609 2.683901 1.55874 2.12132 2.12132 c
1.55874 2.683901 0.795609 3 0 3 c
-0.795609 3 -1.55874 2.683901 -2.12132 2.12132 c
-2.683901 1.55874 -3 0.795609 -3 0 c
-3 -0.795609 -2.683901 -1.55874 -2.12132 -2.12132 c
-1.55874 -2.683901 -0.795609 -3 0 -3 c
cl

gsave
0.000 0.000 1.000 setrgbcolor
fill
grestore
stroke
grestore
} bind def
249.743 232.464 o
269.903 232.464 o
grestore
gsave
285.743125 227.424375 translate
0.000000 rotate
/Cmmi10 findfont
14.4 scalefont
setfont
0.000000 0.359375 moveto
/k glyphshow

/Cmr10 findfont
14.4 scalefont
setfont
10.010190 0.359375 moveto
/equal glyphshow

23.716409 0.359375 moveto
/three glyphshow

/BitstreamVeraSans-Roman findfont
14.4 scalefont
setfont
30.911722 0.359375 moveto
/comma glyphshow

35.481119 0.359375 moveto
/space glyphshow

40.050516 0.359375 moveto
/h glyphshow

49.161234 0.359375 moveto
/e glyphshow

58.005228 0.359375 moveto
/x glyphshow


grestore
1.000 setlinewidth
[6 6] 0 setdash
1.000 0.000 0.000 setrgbcolor
gsave
249.743125 211.7175 m
269.903125 211.7175 l
stroke
grestore
0.500 setlinewidth
0 setlinejoin
[] 0 setdash
0.000 setgray
gsave
/o {
gsave
newpath
translate
0.5 setlinewidth
0 setlinejoin
0 setlinecap
0 3 m
-3 -3 l
3 -3 l
cl

gsave
1.000 0.000 0.000 setrgbcolor
fill
grestore
stroke
grestore
} bind def
249.743 211.718 o
269.903 211.718 o
grestore
gsave
285.743125 206.677500 translate
0.000000 rotate
/Cmmi10 findfont
14.4 scalefont
setfont
0.000000 0.359375 moveto
/k glyphshow

/Cmr10 findfont
14.4 scalefont
setfont
10.010190 0.359375 moveto
/equal glyphshow

23.716409 0.359375 moveto
/three glyphshow

/BitstreamVeraSans-Roman findfont
14.4 scalefont
setfont
30.911722 0.359375 moveto
/comma glyphshow

35.481119 0.359375 moveto
/space glyphshow

40.050516 0.359375 moveto
/m glyphshow

54.053506 0.359375 moveto
/i glyphshow

58.047342 0.359375 moveto
/x glyphshow

66.554422 0.359375 moveto
/e glyphshow

75.398416 0.359375 moveto
/d glyphshow


grestore
1.000 setlinewidth
1 setlinejoin
[1 3] 0 setdash
0.000 0.500 0.000 setrgbcolor
gsave
249.743125 190.970625 m
269.903125 190.970625 l
stroke
grestore
0.500 setlinewidth
0 setlinejoin
[] 0 setdash
0.000 setgray
gsave
/o {
gsave
newpath
translate
0.5 setlinewidth
0 setlinejoin
0 setlinecap
-0 -3 m
3 3 l
-3 3 l
cl

gsave
0.000 0.500 0.000 setrgbcolor
fill
grestore
stroke
grestore
} bind def
249.743 190.971 o
269.903 190.971 o
grestore
gsave
285.743125 185.930625 translate
0.000000 rotate
/Cmmi10 findfont
14.4 scalefont
setfont
0.000000 0.359375 moveto
/k glyphshow

/Cmr10 findfont
14.4 scalefont
setfont
10.010190 0.359375 moveto
/equal glyphshow

23.716409 0.359375 moveto
/one glyphshow

/BitstreamVeraSans-Roman findfont
14.4 scalefont
setfont
30.911722 0.359375 moveto
/comma glyphshow

35.481119 0.359375 moveto
/space glyphshow

40.050516 0.359375 moveto
/h glyphshow

49.161234 0.359375 moveto
/e glyphshow

58.005228 0.359375 moveto
/x glyphshow


grestore
1.000 setlinewidth
1 setlinejoin
[1 3] 0 setdash
0.000 0.750 0.750 setrgbcolor
gsave
249.743125 170.22375 m
269.903125 170.22375 l
stroke
grestore
0.500 setlinewidth
0 setlinejoin
[] 0 setdash
0.000 setgray
gsave
/o {
gsave
newpath
translate
0.5 setlinewidth
0 setlinejoin
0 setlinecap
3 -0 m
-3 3 l
-3 -3 l
cl

gsave
0.000 0.750 0.750 setrgbcolor
fill
grestore
stroke
grestore
} bind def
249.743 170.224 o
269.903 170.224 o
grestore
gsave
285.743125 165.183750 translate
0.000000 rotate
/Cmmi10 findfont
14.4 scalefont
setfont
0.000000 0.359375 moveto
/k glyphshow

/Cmr10 findfont
14.4 scalefont
setfont
10.010190 0.359375 moveto
/equal glyphshow

23.716409 0.359375 moveto
/one glyphshow

/BitstreamVeraSans-Roman findfont
14.4 scalefont
setfont
30.911722 0.359375 moveto
/comma glyphshow

35.481119 0.359375 moveto
/space glyphshow

40.050516 0.359375 moveto
/m glyphshow

54.053506 0.359375 moveto
/i glyphshow

58.047342 0.359375 moveto
/x glyphshow

66.554422 0.359375 moveto
/e glyphshow

75.398416 0.359375 moveto
/d glyphshow


grestore
1.000 setlinewidth
gsave
334.8 230.4 48.9 41.37 clipbox
48.903125 279.547875 m
58.947125 279.547875 l
58.947125 239.227875 l
48.903125 239.227875 l
48.903125 279.547875 l
cl
stroke
grestore
gsave
334.8 230.4 48.9 41.37 clipbox
82.383125 159.163875 m
149.343125 159.163875 l
149.343125 118.843875 l
82.383125 118.843875 l
82.383125 159.163875 l
cl
stroke
grestore
gsave
334.8 230.4 48.9 41.37 clipbox
52.251125 76.795875 m
65.643125 76.795875 l
65.643125 54.907875 l
52.251125 54.907875 l
52.251125 76.795875 l
cl
stroke
grestore
gsave
334.8 230.4 48.9 41.37 clipbox
356.919125 103.579875 m
383.703125 103.579875 l
383.703125 81.691875 l
356.919125 81.691875 l
356.919125 103.579875 l
cl
stroke
grestore
gsave
48.903125 386.971875 m
216.303125 386.971875 l
216.303125 502.171875 l
48.903125 502.171875 l
cl
1.000 setgray
fill
grestore
1 setlinejoin
[6 6] 0 setdash
0.000 0.000 1.000 setrgbcolor
gsave
167.4 115.2 48.9 387 clipbox
51.788809 -1 m
50.962725 24.116561 l
49.838776 75.851235 l
49.240497 121.017864 l
48.903125 181.799029 l
48.971915 186.955052 l
49.240497 225.106001 l
49.838776 266.475966 l
50.962725 309.674321 l
52.901519 353.020789 l
56.070155 394.259098 l
61.043419 431.488446 l
68.581999 458.476515 l
79.640778 469.249361 l
95.352273 459.389886 l
116.996423 428.256264 l
145.976711 379.373612 l
183.824177 318.939692 l
232.225097 253.558755 l
293.074997 188.357201 l
368.514365 126.636332 l
401.45 106.462697 l
401.45 106.462697 l
stroke
grestore
0.500 setlinewidth
[] 0 setdash
0.000 setgray
gsave
167.4 115.2 48.9 387 clipbox
/o {
gsave
newpath
translate
0.5 setlinewidth
1 setlinejoin
0 setlinecap
0 -3 m
0.795609 -3 1.55874 -2.683901 2.12132 -2.12132 c
2.683901 -1.55874 3 -0.795609 3 0 c
3 0.795609 2.683901 1.55874 2.12132 2.12132 c
1.55874 2.683901 0.795609 3 0 3 c
-0.795609 3 -1.55874 2.683901 -2.12132 2.12132 c
-2.683901 1.55874 -3 0.795609 -3 0 c
-3 -0.795609 -2.683901 -1.55874 -2.12132 -2.12132 c
-1.55874 -2.683901 -0.795609 -3 0 -3 c
cl

gsave
0.000 0.000 1.000 setrgbcolor
fill
grestore
stroke
grestore
} bind def
11208.9 -452.788 o
51.7888 -1 o
50.9627 24.1166 o
49.8388 75.8512 o
49.2405 121.018 o
48.9719 161.135 o
48.9031 181.799 o
48.9719 186.955 o
49.2405 225.106 o
49.8388 266.476 o
50.9627 309.674 o
52.9015 353.021 o
56.0702 394.259 o
61.0434 431.488 o
68.582 458.477 o
79.6408 469.249 o
95.3523 459.39 o
116.996 428.256 o
145.977 379.374 o
183.824 318.94 o
232.225 253.559 o
293.075 188.357 o
368.514 126.636 o
401.45 106.463 o
grestore
1.000 setlinewidth
[6 6] 0 setdash
1.000 0.000 0.000 setrgbcolor
gsave
167.4 115.2 48.9 387 clipbox
52.39984 -1 m
50.962725 42.589704 l
49.838776 95.499418 l
49.240497 140.167395 l
48.903125 200.639166 l
48.971915 207.230252 l
49.240497 246.656629 l
49.838776 287.988744 l
50.962725 331.369772 l
52.901519 376.914915 l
56.070155 415.994046 l
61.043419 453.285932 l
68.581999 479.416584 l
79.640778 489.485064 l
95.352273 478.702344 l
116.996423 446.423304 l
145.976711 396.126984 l
183.824177 334.267875 l
232.225097 267.715189 l
293.074997 201.674321 l
368.514365 139.023624 l
401.45 118.407964 l
401.45 118.407964 l
stroke
grestore
0.500 setlinewidth
0 setlinejoin
[] 0 setdash
0.000 setgray
gsave
167.4 115.2 48.9 387 clipbox
/o {
gsave
newpath
translate
0.5 setlinewidth
0 setlinejoin
0 setlinecap
0 3 m
-3 -3 l
3 -3 l
cl

gsave
1.000 0.000 0.000 setrgbcolor
fill
grestore
stroke
grestore
} bind def
11208.9 -461.685 o
52.3998 -1 o
50.9627 42.5897 o
49.8388 95.4994 o
49.2405 140.167 o
48.9719 178.32 o
48.9031 200.639 o
48.9719 207.23 o
49.2405 246.657 o
49.8388 287.989 o
50.9627 331.37 o
52.9015 376.915 o
56.0702 415.994 o
61.0434 453.286 o
68.582 479.417 o
79.6408 489.485 o
95.3523 478.702 o
116.996 446.423 o
145.977 396.127 o
183.824 334.268 o
232.225 267.715 o
293.075 201.674 o
368.514 139.024 o
401.45 118.408 o
grestore
1.000 setlinewidth
1 setlinejoin
[1 3] 0 setdash
0.000 0.500 0.000 setrgbcolor
gsave
167.4 115.2 48.9 387 clipbox
50.923447 -1 m
49.838776 43.591944 l
49.240497 80.418092 l
48.971915 109.887898 l
48.903125 133.360721 l
48.971915 158.592812 l
49.240497 187.907921 l
49.838776 223.088355 l
50.962725 262.929452 l
52.901519 305.606115 l
56.070155 347.716652 l
61.043419 386.099646 l
68.581999 414.468469 l
79.640778 426.770184 l
95.352273 418.897086 l
116.996423 390.761955 l
145.976711 346.563006 l
183.824177 292.483189 l
232.225097 234.560629 l
293.074997 177.330915 l
368.514365 122.949932 l
401.45 104.954172 l
401.45 104.954172 l
stroke
grestore
0.500 setlinewidth
0 setlinejoin
[] 0 setdash
0.000 setgray
gsave
167.4 115.2 48.9 387 clipbox
/o {
gsave
newpath
translate
0.5 setlinewidth
0 setlinejoin
0 setlinecap
-0 -3 m
3 3 l
-3 3 l
cl

gsave
0.000 0.500 0.000 setrgbcolor
fill
grestore
stroke
grestore
} bind def
11208.9 -461.616 o
50.9234 -1 o
49.8388 43.5919 o
49.2405 80.4181 o
48.9719 109.888 o
48.9031 133.361 o
48.9719 158.593 o
49.2405 187.908 o
49.8388 223.088 o
50.9627 262.929 o
52.9015 305.606 o
56.0702 347.717 o
61.0434 386.1 o
68.582 414.468 o
79.6408 426.77 o
95.3523 418.897 o
116.996 390.762 o
145.977 346.563 o
183.824 292.483 o
232.225 234.561 o
293.075 177.331 o
368.514 122.95 o
401.45 104.954 o
grestore
1.000 setlinewidth
1 setlinejoin
[1 3] 0 setdash
0.000 0.750 0.750 setrgbcolor
gsave
167.4 115.2 48.9 387 clipbox
51.745706 -1 m
50.962725 22.340835 l
49.838776 69.969452 l
49.240497 107.883418 l
48.971915 138.190892 l
48.903125 162.320355 l
48.971915 188.232126 l
49.240497 218.330595 l
49.838776 254.394778 l
50.962725 295.162412 l
52.901519 338.724469 l
56.070155 381.514686 l
61.043419 420.180744 l
68.581999 448.141429 l
79.640778 459.095304 l
95.352273 448.786549 l
116.996423 417.517978 l
145.976711 369.677064 l
183.824177 311.818686 l
232.225097 250.552035 l
293.074997 189.932149 l
368.514365 133.652012 l
401.45 115.018425 l
401.45 115.018425 l
stroke
grestore
0.500 setlinewidth
0 setlinejoin
[] 0 setdash
0.000 setgray
gsave
167.4 115.2 48.9 387 clipbox
/o {
gsave
newpath
translate
0.5 setlinewidth
0 setlinejoin
0 setlinecap
3 -0 m
-3 3 l
-3 -3 l
cl

gsave
0.000 0.750 0.750 setrgbcolor
fill
grestore
stroke
grestore
} bind def
11208.9 -464.11 o
51.7457 -1 o
50.9627 22.3408 o
49.8388 69.9695 o
49.2405 107.883 o
48.9719 138.191 o
48.9031 162.32 o
48.9719 188.232 o
49.2405 218.331 o
49.8388 254.395 o
50.9627 295.162 o
52.9015 338.724 o
56.0702 381.515 o
61.0434 420.181 o
68.582 448.141 o
79.6408 459.095 o
95.3523 448.787 o
116.996 417.518 o
145.977 369.677 o
183.824 311.819 o
232.225 250.552 o
293.075 189.932 o
368.514 133.652 o
401.45 115.018 o
grestore
1.000 setlinewidth
1 setlinejoin
2 setlinecap
gsave
167.4 115.2 48.9 387 clipbox
52.381994 -1 m
51.253599 34.397887 l
50.319516 70.913421 l
49.627312 106.759063 l
49.158942 142.804695 l
48.930782 177.715205 l
48.930782 211.476073 l
49.148466 244.198263 l
49.565068 274.749201 l
50.185476 303.952666 l
50.96273 330.163848 l
51.868229 353.471892 l
52.901522 374.502628 l
54.011907 392.793609 l
55.24551 409.464028 l
56.579387 424.324135 l
57.834262 436.010371 l
59.253295 447.117313 l
60.666273 456.38075 l
62.030176 463.924669 l
63.522623 470.865909 l
64.911395 476.278324 l
66.407875 481.146523 l
67.741907 484.754982 l
69.159137 487.929325 l
70.355507 490.140323 l
71.609774 492.047471 l
72.924076 493.640175 l
74.300594 494.90839 l
75.375148 495.641806 l
76.486898 496.184216 l
77.636805 496.533268 l
78.825849 496.686135 l
80.055017 496.640227 l
81.325303 496.394134 l
82.637726 495.945891 l
83.993296 495.294481 l
85.869635 494.108742 l
87.826999 492.559827 l
89.867892 490.648363 l
91.994853 488.375997 l
94.7785 485.032858 l
97.705727 481.139146 l
100.781675 476.706555 l
104.67649 470.695621 l
109.512863 462.766082 l
115.44387 452.561509 l
123.496244 438.227333 l
149.12338 392.299224 l
157.904982 377.120356 l
166.07062 363.408555 l
174.704218 349.369048 l
182.490491 337.127061 l
190.645299 324.733228 l
199.180459 312.228903 l
206.592335 301.746533 l
214.28384 291.231676 l
222.262238 280.700966 l
230.53495 270.171591 l
239.109533 259.658459 l
247.993657 249.17711 l
257.195221 238.740805 l
264.790378 230.432473 l
272.597999 222.165928 l
280.622305 213.947291 l
288.867641 205.780839 l
297.338351 197.671595 l
306.038904 189.623364 l
314.973832 181.639953 l
324.147707 173.724735 l
333.565229 165.880732 l
343.231094 158.11073 l
353.150146 150.417161 l
363.327271 142.802145 l
373.767415 135.267603 l
384.475608 127.815028 l
395.456966 120.445948 l
401.45 116.5366 l
401.45 116.5366 l
stroke
grestore
0 setlinejoin
gsave
48.903125 502.171875 m
216.303125 502.171875 l
stroke
grestore
gsave
216.303125 386.971875 m
216.303125 502.171875 l
stroke
grestore
gsave
48.903125 386.971875 m
216.303125 386.971875 l
stroke
grestore
gsave
48.903125 386.971875 m
48.903125 502.171875 l
stroke
grestore
/BitstreamVeraSans-Roman findfont
12.000 scalefont
setfont
gsave
132.603125 479.131875 translate
0.000000 rotate
0.000000 0.000000 m /parenleft glyphshow
4.681641 0.000000 m /a glyphshow
12.035156 0.000000 m /parenright glyphshow
grestore
gsave
216.303125 386.971875 m
383.703125 386.971875 l
383.703125 502.171875 l
216.303125 502.171875 l
cl
1.000 setgray
fill
grestore
1 setlinejoin
0 setlinecap
[6 6] 0 setdash
0.000 0.000 1.000 setrgbcolor
gsave
167.4 115.2 216.3 387 clipbox
401.45 135.296864 m
368.496509 130.305946 l
317.635367 120.467043 l
272.901065 109.534892 l
233.995631 97.656949 l
200.502239 84.995482 l
171.938275 71.867784 l
147.789653 58.744035 l
127.544297 46.325804 l
110.713566 35.616648 l
96.844811 28.038462 l
85.528906 25.678673 l
76.401421 31.275253 l
69.141283 48.082275 l
63.464163 79.412067 l
59.11712 127.640218 l
55.870497 192.83305 l
53.513773 271.693045 l
51.854956 357.740698 l
50.724169 443.266824 l
50.088018 510.371875 l
211.134789 510.371875 m
233.995631 487.905178 l
272.901065 458.218138 l
317.635367 431.197155 l
368.496509 406.452195 l
401.45 393.29526 l
401.45 393.29526 l
stroke
grestore
0.500 setlinewidth
[] 0 setdash
0.000 setgray
gsave
167.4 115.2 216.3 387 clipbox
/o {
gsave
newpath
translate
0.5 setlinewidth
1 setlinejoin
0 setlinecap
0 -3 m
0.795609 -3 1.55874 -2.683901 2.12132 -2.12132 c
2.683901 -1.55874 3 -0.795609 3 0 c
3 0.795609 2.683901 1.55874 2.12132 2.12132 c
1.55874 2.683901 0.795609 3 0 3 c
-0.795609 3 -1.55874 2.683901 -2.12132 2.12132 c
-2.683901 1.55874 -3 0.795609 -3 0 c
-3 -0.795609 -2.683901 -1.55874 -2.12132 -2.12132 c
-1.55874 -2.683901 -0.795609 -3 0 -3 c
cl

gsave
0.000 0.000 1.000 setrgbcolor
fill
grestore
stroke
grestore
} bind def
1722.9 172.584 o
401.45 135.297 o
368.497 130.306 o
317.635 120.467 o
272.901 109.535 o
233.996 97.6569 o
200.502 84.9955 o
171.938 71.8678 o
147.79 58.744 o
127.544 46.3258 o
110.714 35.6166 o
96.8448 28.0385 o
85.5289 25.6787 o
76.4014 31.2753 o
69.1413 48.0823 o
63.4642 79.4121 o
59.1171 127.64 o
55.8705 192.833 o
53.5138 271.693 o
51.855 357.741 o
50.7242 443.267 o
50.088 510.372 o
211.135 510.372 o
233.996 487.905 o
272.901 458.218 o
317.635 431.197 o
368.497 406.452 o
401.45 393.295 o
grestore
1.000 setlinewidth
[6 6] 0 setdash
1.000 0.000 0.000 setrgbcolor
gsave
167.4 115.2 216.3 387 clipbox
401.45 132.658546 m
368.496509 127.58739 l
317.635367 117.624565 l
272.901065 106.567834 l
233.995631 94.552309 l
200.502239 81.814974 l
171.938275 68.706037 l
147.789653 55.716414 l
127.544297 43.555738 l
110.713566 33.285658 l
96.844811 26.446069 l
85.528906 25.136245 l
76.401421 32.165091 l
69.141283 50.665224 l
63.464163 83.832291 l
59.11712 134.146714 l
55.870497 201.814108 l
53.513773 283.406581 l
51.854956 372.022206 l
50.724169 459.508378 l
50.249159 510.371875 l
218.04143 510.371875 m
233.995631 494.407395 l
272.901065 464.193726 l
317.635367 436.743212 l
368.496509 411.613155 l
401.45 398.261563 l
401.45 398.261563 l
stroke
grestore
0.500 setlinewidth
0 setlinejoin
[] 0 setdash
0.000 setgray
gsave
167.4 115.2 216.3 387 clipbox
/o {
gsave
newpath
translate
0.5 setlinewidth
0 setlinejoin
0 setlinecap
0 3 m
-3 -3 l
3 -3 l
cl

gsave
1.000 0.000 0.000 setrgbcolor
fill
grestore
stroke
grestore
} bind def
1722.9 163.686 o
401.45 132.659 o
368.497 127.587 o
317.635 117.625 o
272.901 106.568 o
233.996 94.5523 o
200.502 81.815 o
171.938 68.706 o
147.79 55.7164 o
127.544 43.5557 o
110.714 33.2857 o
96.8448 26.4461 o
85.5289 25.1362 o
76.4014 32.1651 o
69.1413 50.6652 o
63.4642 83.8323 o
59.1171 134.147 o
55.8705 201.814 o
53.5138 283.407 o
51.855 372.022 o
50.7242 459.508 o
50.2492 510.372 o
218.041 510.372 o
233.996 494.407 o
272.901 464.194 o
317.635 436.743 o
368.497 411.613 o
401.45 398.262 o
grestore
1.000 setlinewidth
1 setlinejoin
[1 3] 0 setdash
0.000 0.500 0.000 setrgbcolor
gsave
167.4 115.2 216.3 387 clipbox
401.45 139.191169 m
368.496509 134.627262 l
317.635367 125.222993 l
272.901065 114.213822 l
233.995631 102.020067 l
200.502239 88.832136 l
171.938275 74.759797 l
147.789653 60.192922 l
127.544297 45.542609 l
96.844811 21.838892 l
85.528906 15.935715 l
76.401421 17.726252 l
69.141283 30.874686 l
63.464163 59.278728 l
59.11712 105.817717 l
55.870497 170.618211 l
53.513773 249.835985 l
51.854956 336.241086 l
50.724169 421.591121 l
49.901612 510.371875 l
226.153998 510.371875 m
233.995631 502.790664 l
272.901065 473.075646 l
317.635367 445.004698 l
368.496509 419.617909 l
401.45 405.485789 l
401.45 405.485789 l
stroke
grestore
0.500 setlinewidth
0 setlinejoin
[] 0 setdash
0.000 setgray
gsave
167.4 115.2 216.3 387 clipbox
/o {
gsave
newpath
translate
0.5 setlinewidth
0 setlinejoin
0 setlinecap
-0 -3 m
3 3 l
-3 3 l
cl

gsave
0.000 0.500 0.000 setrgbcolor
fill
grestore
stroke
grestore
} bind def
1722.9 163.756 o
401.45 139.191 o
368.497 134.627 o
317.635 125.223 o
272.901 114.214 o
233.996 102.02 o
200.502 88.8321 o
171.938 74.7598 o
147.79 60.1929 o
127.544 45.5426 o
110.714 32.5242 o
96.8448 21.8389 o
85.5289 15.9357 o
76.4014 17.7263 o
69.1413 30.8747 o
63.4642 59.2787 o
59.1171 105.818 o
55.8705 170.618 o
53.5138 249.836 o
51.855 336.241 o
50.7242 421.591 o
49.9782 499.54 o
49.9016 510.372 o
226.154 510.372 o
233.996 502.791 o
272.901 473.076 o
317.635 445.005 o
368.497 419.618 o
401.45 405.486 o
grestore
1.000 setlinewidth
1 setlinejoin
[1 3] 0 setdash
0.000 0.750 0.750 setrgbcolor
gsave
167.4 115.2 216.3 387 clipbox
401.45 138.31195 m
368.496509 133.707308 l
317.635367 124.194586 l
272.901065 113.241205 l
233.995631 101.024081 l
200.502239 87.807349 l
171.938275 73.727934 l
147.789653 59.265233 l
127.544297 45.037045 l
110.713566 32.040675 l
96.844811 21.855349 l
85.528906 16.916561 l
76.401421 19.422984 l
69.141283 33.722266 l
63.464163 63.235518 l
59.11712 111.22537 l
55.870497 178.347604 l
53.513773 260.883336 l
51.854956 350.857662 l
50.724169 439.562321 l
50.0704 510.371875 l
231.120853 510.371875 m
233.995631 507.597795 l
272.901065 477.364378 l
317.635367 448.960995 l
368.496509 422.262572 l
401.45 407.950987 l
401.45 407.950987 l
stroke
grestore
0.500 setlinewidth
0 setlinejoin
[] 0 setdash
0.000 setgray
gsave
167.4 115.2 216.3 387 clipbox
/o {
gsave
newpath
translate
0.5 setlinewidth
0 setlinejoin
0 setlinecap
3 -0 m
-3 3 l
-3 -3 l
cl

gsave
0.000 0.750 0.750 setrgbcolor
fill
grestore
stroke
grestore
} bind def
1722.9 161.261 o
401.45 138.312 o
368.497 133.707 o
317.635 124.195 o
272.901 113.241 o
233.996 101.024 o
200.502 87.8073 o
171.938 73.7279 o
147.79 59.2652 o
127.544 45.037 o
110.714 32.0407 o
96.8448 21.8553 o
85.5289 16.9166 o
76.4014 19.423 o
69.1413 33.7223 o
63.4642 63.2355 o
59.1171 111.225 o
55.8705 178.348 o
53.5138 260.883 o
51.855 350.858 o
50.7242 439.562 o
50.0704 510.372 o
231.121 510.372 o
233.996 507.598 o
272.901 477.364 o
317.635 448.961 o
368.497 422.263 o
401.45 407.951 o
grestore
1.000 setlinewidth
1 setlinejoin
2 setlinecap
gsave
167.4 115.2 216.3 387 clipbox
401.45 132.574746 m
383.927381 129.824862 l
366.812531 126.927522 l
350.309844 123.915257 l
334.417251 120.790152 l
319.130786 117.55485 l
304.444536 114.212549 l
290.351018 110.767025 l
276.841228 107.222684 l
263.904838 103.584581 l
251.530386 99.85847 l
239.705375 96.050903 l
228.416447 92.169266 l
217.649559 88.221878 l
207.390043 84.218137 l
197.622832 80.168586 l
188.332486 76.085056 l
178.645173 71.569744 l
169.494878 67.048978 l
160.860536 62.544819 l
152.005024 57.67971 l
143.044931 52.509465 l
132.872733 46.373415 l
107.441546 30.856089 l
103.004012 28.489713 l
99.238998 26.722375 l
96.066747 25.480734 l
93.420698 24.679115 l
91.245818 24.22485 l
89.154364 24.00426 l
87.143953 24.036022 l
85.528837 24.269305 l
83.967068 24.703088 l
82.457356 25.349438 l
80.998431 26.220791 l
79.589055 27.329861 l
78.228009 28.689654 l
76.914102 30.313384 l
75.646167 32.214431 l
74.423054 34.406272 l
73.012903 37.439401 l
71.663777 40.934015 l
70.37382 44.912998 l
69.141213 49.39848 l
67.773289 55.299708 l
66.478249 61.95139 l
65.253404 69.383033 l
63.936163 78.863636 l
62.703349 89.425264 l
61.412691 102.626299 l
60.218966 117.235059 l
59.000143 135.109972 l
57.88798 154.674489 l
56.779932 178.055675 l
55.699224 205.610797 l
54.667145 237.574928 l
53.63873 276.654288 l
52.660233 322.895115 l
51.770442 375.669502 l
50.934116 438.959619 l
50.213201 510.371875 l
218.373301 510.371875 m
224.04786 504.89548 l
230.632009 498.823121 l
237.405139 492.865765 l
244.370292 487.019841 l
251.530386 481.281976 l
258.888316 475.648795 l
266.446787 470.117061 l
274.208431 464.683636 l
282.175719 459.345477 l
290.351018 454.099603 l
300.154623 448.092318 l
310.247435 442.202469 l
320.632298 436.425956 l
331.311631 430.758816 l
342.287479 425.19734 l
353.561465 419.738018 l
365.134736 414.377514 l
377.00794 409.112728 l
389.181251 403.940718 l
401.45 398.94056 l
401.45 398.94056 l
stroke
grestore
0 setlinejoin
gsave
216.303125 502.171875 m
383.703125 502.171875 l
stroke
grestore
gsave
383.703125 386.971875 m
383.703125 502.171875 l
stroke
grestore
gsave
216.303125 386.971875 m
383.703125 386.971875 l
stroke
grestore
gsave
216.303125 386.971875 m
216.303125 502.171875 l
stroke
grestore
gsave
300.003125 479.131875 translate
0.000000 rotate
0.000000 0.000000 m /parenleft glyphshow
4.681641 0.000000 m /b glyphshow
12.298828 0.000000 m /parenright glyphshow
grestore
gsave
48.903125 271.771875 m
216.303125 271.771875 l
216.303125 386.971875 l
48.903125 386.971875 l
cl
1.000 setgray
fill
grestore
1 setlinejoin
0 setlinecap
[6 6] 0 setdash
0.000 0.000 1.000 setrgbcolor
gsave
167.4 115.2 48.9 271.8 clipbox
401.45 345.192559 m
358.408985 335.465955 l
274.255331 315.738561 l
204.911555 301.778747 l
148.332029 297.431766 l
102.694604 307.741256 l
66.393914 338.701559 l
38.008314 396.414334 l
16.273098 485.255664 l
12.878084 510.371875 l
12.878084 510.371875 l
stroke
grestore
0.500 setlinewidth
[] 0 setdash
0.000 setgray
gsave
167.4 115.2 48.9 271.8 clipbox
/o {
gsave
newpath
translate
0.5 setlinewidth
1 setlinejoin
0 setlinecap
0 -3 m
0.795609 -3 1.55874 -2.683901 2.12132 -2.12132 c
2.683901 -1.55874 3 -0.795609 3 0 c
3 0.795609 2.683901 1.55874 2.12132 2.12132 c
1.55874 2.683901 0.795609 3 0 3 c
-0.795609 3 -1.55874 2.683901 -2.12132 2.12132 c
-2.683901 1.55874 -3 0.795609 -3 0 c
-3 -0.795609 -2.683901 -1.55874 -2.12132 -2.12132 c
-1.55874 -2.683901 -0.795609 -3 0 -3 c
cl

gsave
0.000 0.000 1.000 setrgbcolor
fill
grestore
stroke
grestore
} bind def
8335.2 568.046 o
401.45 345.193 o
358.409 335.466 o
274.255 315.739 o
204.912 301.779 o
148.332 297.432 o
102.695 307.741 o
66.3939 338.702 o
38.0083 396.414 o
16.2731 485.256 o
12.8781 510.372 o
grestore
1.000 setlinewidth
[6 6] 0 setdash
1.000 0.000 0.000 setrgbcolor
gsave
167.4 115.2 48.9 271.8 clipbox
401.45 339.888076 m
358.408985 330.363201 l
274.255331 311.444633 l
204.911555 298.845391 l
148.332029 296.432557 l
102.694604 309.380431 l
66.393914 343.459622 l
38.008314 404.556852 l
16.273098 497.241315 l
14.563118 510.371875 l
14.563118 510.371875 l
stroke
grestore
0.500 setlinewidth
0 setlinejoin
[] 0 setdash
0.000 setgray
gsave
167.4 115.2 48.9 271.8 clipbox
/o {
gsave
newpath
translate
0.5 setlinewidth
0 setlinejoin
0 setlinecap
0 3 m
-3 -3 l
3 -3 l
cl

gsave
1.000 0.000 0.000 setrgbcolor
fill
grestore
stroke
grestore
} bind def
8335.2 551.656 o
401.45 339.888 o
358.409 330.363 o
274.255 311.445 o
204.912 298.845 o
148.332 296.433 o
102.695 309.38 o
66.3939 343.46 o
38.0083 404.557 o
16.2731 497.241 o
14.5631 510.372 o
grestore
1.000 setlinewidth
1 setlinejoin
[1 3] 0 setdash
0.000 0.500 0.000 setrgbcolor
gsave
167.4 115.2 48.9 271.8 clipbox
401.45 345.498114 m
358.408985 334.023227 l
204.911555 290.358486 l
148.332029 279.484212 l
102.694604 282.78257 l
66.393914 307.00337 l
38.008314 359.326603 l
16.273098 445.056321 l
7.390794 510.371875 l
7.390794 510.371875 l
stroke
grestore
0.500 setlinewidth
0 setlinejoin
[] 0 setdash
0.000 setgray
gsave
167.4 115.2 48.9 271.8 clipbox
/o {
gsave
newpath
translate
0.5 setlinewidth
0 setlinejoin
0 setlinecap
-0 -3 m
3 3 l
-3 3 l
cl

gsave
0.000 0.500 0.000 setrgbcolor
fill
grestore
stroke
grestore
} bind def
8335.2 551.785 o
401.45 345.498 o
358.409 334.023 o
274.255 310.042 o
204.912 290.358 o
148.332 279.484 o
102.695 282.783 o
66.3939 307.003 o
38.0083 359.327 o
16.2731 445.056 o
7.39079 510.372 o
grestore
1.000 setlinewidth
1 setlinejoin
[1 3] 0 setdash
0.000 0.750 0.750 setrgbcolor
gsave
167.4 115.2 48.9 271.8 clipbox
401.45 344.236182 m
358.408985 333.091926 l
274.255331 309.151243 l
204.911555 290.388801 l
148.332029 281.291033 l
102.694604 285.908128 l
66.393914 312.248911 l
38.008314 366.615429 l
16.273098 455.017787 l
9.005839 510.371875 l
9.005839 510.371875 l
stroke
grestore
0.500 setlinewidth
0 setlinejoin
[] 0 setdash
0.000 setgray
gsave
167.4 115.2 48.9 271.8 clipbox
/o {
gsave
newpath
translate
0.5 setlinewidth
0 setlinejoin
0 setlinecap
3 -0 m
-3 3 l
-3 -3 l
cl

gsave
0.000 0.750 0.750 setrgbcolor
fill
grestore
stroke
grestore
} bind def
8335.2 547.189 o
401.45 344.236 o
358.409 333.092 o
274.255 309.151 o
204.912 290.389 o
148.332 281.291 o
102.695 285.908 o
66.3939 312.249 o
38.0083 366.615 o
16.2731 455.018 o
9.00584 510.372 o
grestore
1.000 setlinewidth
1 setlinejoin
2 setlinecap
gsave
167.4 115.2 48.9 271.8 clipbox
401.45 339.247001 m
364.211278 330.808812 l
283.920154 312.535079 l
262.498622 307.924941 l
244.418847 304.26606 l
229.314552 301.449855 l
216.882488 299.354376 l
204.911398 297.581475 l
195.278314 296.371244 l
185.949102 295.422535 l
176.916589 294.75367 l
169.89947 294.432826 l
163.064198 294.313422 l
156.407263 294.40583 l
149.925252 294.720748 l
143.614797 295.269269 l
137.472546 296.062633 l
131.49524 297.112406 l
127.118564 298.075101 l
122.831517 299.193737 l
118.632774 300.473427 l
114.521024 301.919376 l
110.494975 303.536842 l
106.553347 305.331083 l
102.694878 307.307448 l
98.918337 309.47132 l
95.22246 311.82805 l
91.606046 314.382968 l
88.067889 317.141512 l
84.606802 320.109031 l
81.221602 323.290874 l
77.911125 326.692318 l
74.67422 330.318601 l
71.509755 334.174802 l
68.416608 338.2658 l
65.393649 342.596491 l
62.439787 347.171935 l
59.553944 351.996831 l
56.735032 357.075424 l
53.981973 362.412593 l
51.293738 368.012566 l
48.669252 373.878886 l
45.267355 382.121848 l
41.974558 390.853142 l
38.788461 400.079544 l
35.706711 409.806709 l
32.726976 420.041015 l
29.846934 430.783982 l
27.064308 442.039186 l
24.376849 453.807459 l
21.782332 466.088267 l
19.278546 478.879597 l
16.863306 492.17796 l
13.965487 509.505992 l
13.828317 510.371875 l
13.828317 510.371875 l
stroke
grestore
0 setlinejoin
gsave
48.903125 386.971875 m
216.303125 386.971875 l
stroke
grestore
gsave
216.303125 271.771875 m
216.303125 386.971875 l
stroke
grestore
gsave
48.903125 271.771875 m
216.303125 271.771875 l
stroke
grestore
gsave
48.903125 271.771875 m
48.903125 386.971875 l
stroke
grestore
gsave
132.603125 363.931875 translate
0.000000 rotate
0.000000 0.000000 m /parenleft glyphshow
4.681641 0.000000 m /c glyphshow
11.279297 0.000000 m /parenright glyphshow
grestore
gsave
216.303125 271.771875 m
383.703125 271.771875 l
383.703125 386.971875 l
216.303125 386.971875 l
cl
1.000 setgray
fill
grestore
1 setlinejoin
0 setlinecap
[6 6] 0 setdash
0.000 0.000 1.000 setrgbcolor
gsave
167.4 115.2 216.3 271.8 clipbox
383.703125 341.822835 m
382.246745 353.872755 l
380.475653 342.929475 l
378.332933 345.909123 l
375.731537 342.671715 l
372.581069 339.145155 l
368.761001 336.401235 l
364.137413 334.694835 l
358.542905 333.818595 l
351.773249 333.630675 l
343.590737 333.982755 l
333.707441 334.771155 l
290.166701 338.911875 l
269.442581 340.588035 l
244.627205 342.263475 l
214.994057 343.864899 l
179.732921 345.348243 l
137.936489 346.702347 l
88.633841 347.933691 l
30.797141 349.080219 l
-1 349.595615 l
-1 415.5117 m
30.797141 407.474739 l
179.732921 369.076707 l
214.994057 360.327555 l
244.627205 353.331027 l
269.442581 347.827491 l
290.166701 343.555155 l
307.432337 340.257555 l
321.788561 337.721715 l
333.707441 335.800755 l
343.590737 334.388115 l
351.773249 333.393795 l
364.137413 332.273475 l
372.581069 331.639875 l
375.731537 331.094115 l
378.332933 331.642035 l
380.475653 327.727395 l
382.246745 323.668035 l
383.703125 341.822835 l
383.703125 341.822835 l
stroke
grestore
0.500 setlinewidth
[] 0 setdash
0.000 setgray
gsave
167.4 115.2 216.3 271.8 clipbox
/o {
gsave
newpath
translate
0.5 setlinewidth
1 setlinejoin
0 setlinecap
0 -3 m
0.795609 -3 1.55874 -2.683901 2.12132 -2.12132 c
2.683901 -1.55874 3 -0.795609 3 0 c
3 0.795609 2.683901 1.55874 2.12132 2.12132 c
1.55874 2.683901 0.795609 3 0 3 c
-0.795609 3 -1.55874 2.683901 -2.12132 2.12132 c
-2.683901 1.55874 -3 0.795609 -3 0 c
-3 -0.795609 -2.683901 -1.55874 -2.12132 -2.12132 c
-1.55874 -2.683901 -0.795609 -3 0 -3 c
cl

gsave
0.000 0.000 1.000 setrgbcolor
fill
grestore
stroke
grestore
} bind def
383.703 341.823 o
375.732 342.672 o
358.543 333.819 o
321.789 335.91 o
244.627 342.263 o
88.6338 347.934 o
-1 349.186 o
-1 415.104 o
88.6338 392.587 o
244.627 353.331 o
321.789 337.722 o
358.543 332.725 o
375.732 331.094 o
383.703 341.823 o
grestore
1.000 setlinewidth
[6 6] 0 setdash
1.000 0.000 0.000 setrgbcolor
gsave
167.4 115.2 216.3 271.8 clipbox
383.703125 302.896035 m
382.246745 315.370035 l
380.475653 302.882355 l
378.332933 303.366915 l
375.731537 308.802915 l
372.581069 304.696035 l
368.761001 302.343795 l
364.137413 301.197555 l
358.542905 300.985155 l
351.773249 302.032035 l
343.590737 304.069635 l
333.707441 306.362835 l
307.432337 311.368995 l
290.166701 314.524755 l
269.442581 317.948355 l
244.627205 321.466275 l
214.994057 324.978435 l
179.732921 328.438035 l
137.936489 331.786035 l
88.633841 334.942515 l
30.797141 337.795155 l
-1 338.937159 l
-1 417.199929 m
30.797141 407.063475 l
88.633841 388.262187 l
137.936489 371.815659 l
179.732921 357.518691 l
269.442581 326.395395 l
290.166701 319.484835 l
307.432337 314.007795 l
321.788561 309.748995 l
351.773249 301.427955 l
358.542905 299.847555 l
364.137413 298.884915 l
368.761001 298.250595 l
372.581069 297.991395 l
375.731537 296.955315 l
378.332933 298.347795 l
380.475653 291.978675 l
382.246745 269.992035 l
383.703125 302.896035 l
383.703125 302.896035 l
stroke
grestore
0.500 setlinewidth
0 setlinejoin
[] 0 setdash
0.000 setgray
gsave
167.4 115.2 216.3 271.8 clipbox
/o {
gsave
newpath
translate
0.5 setlinewidth
0 setlinejoin
0 setlinecap
0 3 m
-3 -3 l
3 -3 l
cl

gsave
1.000 0.000 0.000 setrgbcolor
fill
grestore
stroke
grestore
} bind def
383.703 302.896 o
375.732 308.803 o
358.543 300.985 o
321.789 308.673 o
244.627 321.466 o
88.6338 334.943 o
-1 337.484 o
-1 416.622 o
88.6338 388.262 o
244.627 334.928 o
321.789 309.749 o
358.543 299.848 o
375.732 296.955 o
383.703 302.896 o
grestore
1.000 setlinewidth
1 setlinejoin
[1 3] 0 setdash
0.000 0.500 0.000 setrgbcolor
gsave
167.4 115.2 216.3 271.8 clipbox
383.703125 303.202035 m
382.246745 312.227235 l
380.475653 298.176435 l
378.332933 294.886035 l
375.731537 304.405875 l
372.581069 306.144675 l
364.137413 309.057075 l
351.773249 312.998355 l
343.590737 315.373635 l
333.707441 317.984355 l
321.788561 320.778675 l
307.432337 323.669475 l
290.166701 326.550915 l
269.442581 329.397075 l
244.627205 332.170515 l
214.994057 334.835955 l
179.732921 337.457475 l
137.936489 339.886035 l
88.633841 342.156195 l
30.797141 344.166867 l
-1 344.924557 l
-1 433.873863 m
30.797141 425.682891 l
88.633841 410.256077 l
137.936489 396.022203 l
179.732921 382.793787 l
214.994057 370.832355 l
244.627205 360.364275 l
269.442581 351.256347 l
321.788561 331.647075 l
333.707441 327.351555 l
343.590737 323.945955 l
351.773249 321.263955 l
358.542905 319.176675 l
368.761001 316.349955 l
372.581069 315.429075 l
378.332933 314.180595 l
380.475653 316.449315 l
382.246745 306.113715 l
383.703125 303.202035 l
383.703125 303.202035 l
stroke
grestore
0.500 setlinewidth
0 setlinejoin
[] 0 setdash
0.000 setgray
gsave
167.4 115.2 216.3 271.8 clipbox
/o {
gsave
newpath
translate
0.5 setlinewidth
0 setlinejoin
0 setlinecap
-0 -3 m
3 3 l
-3 3 l
cl

gsave
0.000 0.500 0.000 setrgbcolor
fill
grestore
stroke
grestore
} bind def
383.703 303.202 o
375.732 304.406 o
358.543 310.889 o
321.789 320.779 o
244.627 332.171 o
88.6338 342.156 o
-1 343.81 o
-1 433.973 o
88.6338 410.256 o
244.627 360.364 o
321.789 331.647 o
358.543 319.177 o
375.732 314.784 o
383.703 303.202 o
grestore
1.000 setlinewidth
1 setlinejoin
[1 3] 0 setdash
0.000 0.750 0.750 setrgbcolor
gsave
167.4 115.2 216.3 271.8 clipbox
383.703125 292.288275 m
382.246745 301.993875 l
380.475653 287.897715 l
378.332933 285.558435 l
375.731537 294.772275 l
372.581069 296.788275 l
364.137413 300.493395 l
358.542905 302.829795 l
351.773249 305.242515 l
343.590737 306.922275 l
333.707441 308.457315 l
321.788561 311.672835 l
307.432337 314.990595 l
290.166701 318.253635 l
269.442581 321.415875 l
244.627205 324.708435 l
214.994057 327.995955 l
179.732921 331.230915 l
137.936489 334.324755 l
88.633841 337.206915 l
30.797141 339.685875 l
-1 340.704575 l
-1 428.646282 m
30.797141 418.854389 l
88.633841 401.194971 l
137.936489 384.490755 l
179.732921 369.208179 l
214.994057 355.926411 l
244.627205 344.903499 l
269.442581 335.936835 l
290.166701 328.692195 l
307.432337 322.822035 l
321.788561 318.160035 l
333.707441 313.927155 l
343.590737 311.613075 l
368.761001 304.011315 l
372.581069 302.990355 l
378.332933 301.709475 l
380.475653 303.772995 l
382.246745 294.385635 l
383.703125 292.288275 l
383.703125 292.288275 l
stroke
grestore
0.500 setlinewidth
0 setlinejoin
[] 0 setdash
0.000 setgray
gsave
167.4 115.2 216.3 271.8 clipbox
/o {
gsave
newpath
translate
0.5 setlinewidth
0 setlinejoin
0 setlinecap
3 -0 m
-3 3 l
-3 -3 l
cl

gsave
0.000 0.750 0.750 setrgbcolor
fill
grestore
stroke
grestore
} bind def
383.703 292.288 o
375.732 294.772 o
358.543 302.83 o
321.789 311.673 o
244.627 324.708 o
88.6338 337.207 o
-1 339.369 o
-1 428.436 o
88.6338 401.195 o
244.627 344.903 o
321.789 318.16 o
358.543 307.024 o
375.732 302.288 o
383.703 292.288 o
grestore
1.000 setlinewidth
1 setlinejoin
2 setlinecap
gsave
167.4 115.2 216.3 271.8 clipbox
383.703125 279.918246 m
383.661617 279.652267 l
383.661617 279.652267 l
383.661617 279.652267 l
383.61991 279.734118 l
383.578003 279.693412 l
383.277272 279.49657 l
382.825077 279.537083 l
382.093304 279.863486 l
380.415235 280.911103 l
375.551647 283.973553 l
371.579079 286.185345 l
367.130768 288.406783 l
361.992392 290.717088 l
356.358118 293.007941 l
349.868944 295.400718 l
342.739794 297.788227 l
335.047096 300.135278 l
326.52165 302.508261 l
317.151282 304.886672 l
306.939385 307.24957 l
295.905714 309.576257 l
284.089184 311.847005 l
270.850217 314.160152 l
256.812226 316.385259 l
241.20193 318.624603 l
224.819951 320.746606 l
206.741542 322.855885 l
187.97227 324.823553 l
167.418365 326.754368 l
144.937344 328.634624 l
121.886989 330.345133 l
96.872999 331.985405 l
69.766662 333.542315 l
40.438064 335.002316 l
8.757895 336.351575 l
-1 336.724243 l
-1 421.792025 m
34.681063 409.642402 l
69.766662 397.463245 l
104.908535 385.033513 l
140.759233 372.121764 l
178.53066 358.28307 l
219.974722 342.857654 l
268.732126 324.459395 l
320.553717 304.669456 l
350.111804 293.171287 l
366.847398 286.433503 l
378.478141 281.512175 l
383.189068 279.588045 l
383.61991 279.542983 l
383.661617 279.116813 l
383.661617 279.116813 l
stroke
grestore
0 setlinejoin
gsave
216.303125 386.971875 m
383.703125 386.971875 l
stroke
grestore
gsave
383.703125 271.771875 m
383.703125 386.971875 l
stroke
grestore
gsave
216.303125 271.771875 m
383.703125 271.771875 l
stroke
grestore
gsave
216.303125 271.771875 m
216.303125 386.971875 l
stroke
grestore
gsave
300.003125 363.931875 translate
0.000000 rotate
0.000000 0.000000 m /parenleft glyphshow
4.681641 0.000000 m /d glyphshow
12.298828 0.000000 m /parenright glyphshow
grestore

end
showpage
