%!PS-Adobe-3.0 EPSF-3.0
%%Title: plots/cp_aiaa.eps
%%Creator: matplotlib version 2.0.2, http://matplotlib.org/
%%CreationDate: Mon Nov 13 16:07:20 2017
%%Orientation: portrait
%%BoundingBox: 54 260 557 531
%%EndComments
%%BeginProlog
/mpldict 9 dict def
mpldict begin
/m { moveto } bind def
/l { lineto } bind def
/r { rlineto } bind def
/c { curveto } bind def
/cl { closepath } bind def
/box {
m
1 index 0 r
0 exch r
neg 0 r
cl
} bind def
/clipbox {
box
clip
newpath
} bind def
%!PS-Adobe-3.0 Resource-Font
%%Title: DejaVu Sans Oblique
%%Copyright: Copyright (c) 2003 by Bitstream, Inc. All Rights Reserved. Copyright (c) 2006 by Tavmjong Bah. All Rights Reserved. DejaVu changes are in public domain 
%%Creator: Converted from TrueType to type 3 by PPR
25 dict begin
/_d{bind def}bind def
/_m{moveto}_d
/_l{lineto}_d
/_cl{closepath eofill}_d
/_c{curveto}_d
/_sc{7 -1 roll{setcachedevice}{pop pop pop pop pop pop}ifelse}_d
/_e{exec}_d
/FontName /DejaVuSans-Oblique def
/PaintType 0 def
/FontMatrix[.001 0 0 .001 0 0]def
/FontBBox[-1016 -350 1659 1068]def
/FontType 3 def
/Encoding [ /C /k /p ] def
/FontInfo 10 dict dup begin
/FamilyName (DejaVu Sans) def
/FullName (DejaVu Sans Oblique) def
/Notice (Copyright (c) 2003 by Bitstream, Inc. All Rights Reserved. Copyright (c) 2006 by Tavmjong Bah. All Rights Reserved. DejaVu changes are in public domain ) def
/Weight (Oblique) def
/Version (Version 2.35) def
/ItalicAngle -11.0 def
/isFixedPitch false def
/UnderlinePosition -130 def
/UnderlineThickness 90 def
end readonly def
/CharStrings 3 dict dup begin
/C{{698 0 42 -13 695 742 _sc
695 673 _m
675 569 _l
643 600 610 623 575 639 _c
540 654 502 662 462 662 _c
406 662 357 648 315 622 _c
273 595 236 554 206 500 _c
186 464 171 427 161 388 _c
151 349 146 310 146 270 _c
146 203 163 152 197 118 _c
231 83 281 66 347 66 _c
392 66 435 73 477 87 _c
519 101 559 123 599 153 _c
576 36 _l
537 19 498 7 458 -1 _c
}_e{418 -9 379 -13 340 -13 _c
246 -13 173 12 121 62 _c
68 112 42 183 42 274 _c
42 332 52 389 72 445 _c
92 501 120 552 158 598 _c
198 647 243 683 294 707 _c
345 730 404 742 472 742 _c
514 742 553 736 590 725 _c
627 713 662 696 695 673 _c
_cl}_e}_d
/k{579 0 35 0 612 760 _sc
183 760 _m
273 760 _l
187 317 _l
495 547 _l
612 547 _l
268 285 _l
519 0 _l
410 0 _l
177 267 _l
125 0 _l
35 0 _l
183 760 _l
_cl}_d
/p{{635 0 -2 -207 589 560 _sc
496 337 _m
496 385 485 421 465 447 _c
444 472 414 485 375 485 _c
348 485 322 478 298 464 _c
274 450 252 431 234 405 _c
215 379 200 347 189 311 _c
178 275 173 239 173 203 _c
173 157 183 122 204 98 _c
224 73 254 61 293 61 _c
321 61 347 67 371 81 _c
395 94 416 113 434 139 _c
452 165 467 197 479 233 _c
490 269 496 304 496 337 _c
218 464 _m
}_e{242 495 270 519 303 535 _c
335 551 372 560 412 560 _c
468 560 511 541 542 505 _c
573 468 589 417 589 351 _c
589 297 579 245 560 196 _c
540 147 513 103 477 65 _c
453 39 425 19 395 6 _c
365 -6 333 -13 300 -13 _c
261 -13 228 -5 202 10 _c
176 26 156 50 143 82 _c
87 -207 _l
-2 -207 _l
144 547 _l
234 547 _l
218 464 _l
_cl}_e}_d
end readonly def

/BuildGlyph
 {exch begin
 CharStrings exch
 2 copy known not{pop /.notdef}if
 true 3 1 roll get exec
 end}_d

/BuildChar {
 1 index /Encoding get exch get
 1 index /BuildGlyph get exec
}_d

FontName currentdict end definefont pop
%!PS-Adobe-3.0 Resource-Font
%%Title: DejaVu Sans
%%Copyright: Copyright (c) 2003 by Bitstream, Inc. All Rights Reserved. Copyright (c) 2006 by Tavmjong Bah. All Rights Reserved. DejaVu changes are in public domain 
%%Creator: Converted from TrueType to type 3 by PPR
25 dict begin
/_d{bind def}bind def
/_m{moveto}_d
/_l{lineto}_d
/_cl{closepath eofill}_d
/_c{curveto}_d
/_sc{7 -1 roll{setcachedevice}{pop pop pop pop pop pop}ifelse}_d
/_e{exec}_d
/FontName /DejaVuSans def
/PaintType 0 def
/FontMatrix[.001 0 0 .001 0 0]def
/FontBBox[-1021 -463 1793 1232]def
/FontType 3 def
/Encoding [ /space /parenleft /parenright /comma /period /zero /one /two /three /four /five /six /eight /equal /D /F /N /U /a /b /c /d /e /h /i /m /x /minus ] def
/FontInfo 10 dict dup begin
/FamilyName (DejaVu Sans) def
/FullName (DejaVu Sans) def
/Notice (Copyright (c) 2003 by Bitstream, Inc. All Rights Reserved. Copyright (c) 2006 by Tavmjong Bah. All Rights Reserved. DejaVu changes are in public domain ) def
/Weight (Book) def
/Version (Version 2.35) def
/ItalicAngle 0.0 def
/isFixedPitch false def
/UnderlinePosition -130 def
/UnderlineThickness 90 def
end readonly def
/CharStrings 28 dict dup begin
/space{318 0 0 0 0 0 _sc
}_d
/parenleft{390 0 86 -131 310 759 _sc
310 759 _m
266 683 234 609 213 536 _c
191 463 181 389 181 314 _c
181 238 191 164 213 91 _c
234 17 266 -56 310 -131 _c
232 -131 _l
183 -54 146 20 122 94 _c
98 168 86 241 86 314 _c
86 386 98 459 122 533 _c
146 607 182 682 232 759 _c
310 759 _l
_cl}_d
/parenright{390 0 80 -131 304 759 _sc
80 759 _m
158 759 _l
206 682 243 607 267 533 _c
291 459 304 386 304 314 _c
304 241 291 168 267 94 _c
243 20 206 -54 158 -131 _c
80 -131 _l
123 -56 155 17 177 91 _c
198 164 209 238 209 314 _c
209 389 198 463 177 536 _c
155 609 123 683 80 759 _c
_cl}_d
/comma{318 0 77 -115 220 124 _sc
117 124 _m
220 124 _l
220 40 _l
140 -115 _l
77 -115 _l
117 40 _l
117 124 _l
_cl}_d
/period{318 0 107 0 210 124 _sc
107 124 _m
210 124 _l
210 0 _l
107 0 _l
107 124 _l
_cl}_d
/zero{636 0 66 -13 570 742 _sc
318 664 _m
267 664 229 639 203 589 _c
177 539 165 464 165 364 _c
165 264 177 189 203 139 _c
229 89 267 64 318 64 _c
369 64 407 89 433 139 _c
458 189 471 264 471 364 _c
471 464 458 539 433 589 _c
407 639 369 664 318 664 _c
318 742 _m
399 742 461 709 505 645 _c
548 580 570 486 570 364 _c
570 241 548 147 505 83 _c
461 19 399 -13 318 -13 _c
236 -13 173 19 130 83 _c
87 147 66 241 66 364 _c
66 486 87 580 130 645 _c
173 709 236 742 318 742 _c
_cl}_d
/one{636 0 110 0 544 729 _sc
124 83 _m
285 83 _l
285 639 _l
110 604 _l
110 694 _l
284 729 _l
383 729 _l
383 83 _l
544 83 _l
544 0 _l
124 0 _l
124 83 _l
_cl}_d
/two{{636 0 73 0 536 742 _sc
192 83 _m
536 83 _l
536 0 _l
73 0 _l
73 83 _l
110 121 161 173 226 239 _c
290 304 331 346 348 365 _c
380 400 402 430 414 455 _c
426 479 433 504 433 528 _c
433 566 419 598 392 622 _c
365 646 330 659 286 659 _c
255 659 222 653 188 643 _c
154 632 117 616 78 594 _c
78 694 _l
118 710 155 722 189 730 _c
223 738 255 742 284 742 _c
}_e{359 742 419 723 464 685 _c
509 647 532 597 532 534 _c
532 504 526 475 515 449 _c
504 422 484 390 454 354 _c
446 344 420 317 376 272 _c
332 227 271 164 192 83 _c
_cl}_e}_d
/three{{636 0 76 -13 556 742 _sc
406 393 _m
453 383 490 362 516 330 _c
542 298 556 258 556 212 _c
556 140 531 84 482 45 _c
432 6 362 -13 271 -13 _c
240 -13 208 -10 176 -4 _c
144 1 110 10 76 22 _c
76 117 _l
103 101 133 89 166 81 _c
198 73 232 69 268 69 _c
330 69 377 81 409 105 _c
441 129 458 165 458 212 _c
458 254 443 288 413 312 _c
383 336 341 349 287 349 _c
}_e{202 349 _l
202 430 _l
291 430 _l
339 430 376 439 402 459 _c
428 478 441 506 441 543 _c
441 580 427 609 401 629 _c
374 649 336 659 287 659 _c
260 659 231 656 200 650 _c
169 644 135 635 98 623 _c
98 711 _l
135 721 170 729 203 734 _c
235 739 266 742 296 742 _c
370 742 429 725 473 691 _c
517 657 539 611 539 553 _c
539 513 527 479 504 451 _c
481 423 448 403 406 393 _c
_cl}_e}_d
/four{636 0 49 0 580 729 _sc
378 643 _m
129 254 _l
378 254 _l
378 643 _l
352 729 _m
476 729 _l
476 254 _l
580 254 _l
580 172 _l
476 172 _l
476 0 _l
378 0 _l
378 172 _l
49 172 _l
49 267 _l
352 729 _l
_cl}_d
/five{{636 0 77 -13 549 729 _sc
108 729 _m
495 729 _l
495 646 _l
198 646 _l
198 467 _l
212 472 227 476 241 478 _c
255 480 270 482 284 482 _c
365 482 429 459 477 415 _c
525 370 549 310 549 234 _c
549 155 524 94 475 51 _c
426 8 357 -13 269 -13 _c
238 -13 207 -10 175 -6 _c
143 -1 111 6 77 17 _c
77 116 _l
106 100 136 88 168 80 _c
199 72 232 69 267 69 _c
}_e{323 69 368 83 401 113 _c
433 143 450 183 450 234 _c
450 284 433 324 401 354 _c
368 384 323 399 267 399 _c
241 399 214 396 188 390 _c
162 384 135 375 108 363 _c
108 729 _l
_cl}_e}_d
/six{{636 0 70 -13 573 742 _sc
330 404 _m
286 404 251 388 225 358 _c
199 328 186 286 186 234 _c
186 181 199 139 225 109 _c
251 79 286 64 330 64 _c
374 64 409 79 435 109 _c
461 139 474 181 474 234 _c
474 286 461 328 435 358 _c
409 388 374 404 330 404 _c
526 713 _m
526 623 _l
501 635 476 644 451 650 _c
425 656 400 659 376 659 _c
310 659 260 637 226 593 _c
}_e{192 549 172 482 168 394 _c
187 422 211 444 240 459 _c
269 474 301 482 336 482 _c
409 482 467 459 509 415 _c
551 371 573 310 573 234 _c
573 159 550 99 506 54 _c
462 9 403 -13 330 -13 _c
246 -13 181 19 137 83 _c
92 147 70 241 70 364 _c
70 479 97 571 152 639 _c
206 707 280 742 372 742 _c
396 742 421 739 447 735 _c
472 730 498 723 526 713 _c
_cl}_e}_d
/eight{{636 0 68 -13 568 742 _sc
318 346 _m
271 346 234 333 207 308 _c
180 283 167 249 167 205 _c
167 161 180 126 207 101 _c
234 76 271 64 318 64 _c
364 64 401 76 428 102 _c
455 127 469 161 469 205 _c
469 249 455 283 429 308 _c
402 333 365 346 318 346 _c
219 388 _m
177 398 144 418 120 447 _c
96 476 85 511 85 553 _c
85 611 105 657 147 691 _c
188 725 245 742 318 742 _c
}_e{390 742 447 725 489 691 _c
530 657 551 611 551 553 _c
551 511 539 476 515 447 _c
491 418 459 398 417 388 _c
464 377 501 355 528 323 _c
554 291 568 251 568 205 _c
568 134 546 80 503 43 _c
459 5 398 -13 318 -13 _c
237 -13 175 5 132 43 _c
89 80 68 134 68 205 _c
68 251 81 291 108 323 _c
134 355 171 377 219 388 _c
183 544 _m
183 506 194 476 218 455 _c
}_e{242 434 275 424 318 424 _c
360 424 393 434 417 455 _c
441 476 453 506 453 544 _c
453 582 441 611 417 632 _c
393 653 360 664 318 664 _c
275 664 242 653 218 632 _c
194 611 183 582 183 544 _c
_cl}_e}_d
/equal{838 0 106 172 732 454 _sc
106 454 _m
732 454 _l
732 372 _l
106 372 _l
106 454 _l
106 255 _m
732 255 _l
732 172 _l
106 172 _l
106 255 _l
_cl}_d
/D{770 0 98 0 711 729 _sc
197 648 _m
197 81 _l
316 81 _l
416 81 490 103 537 149 _c
583 195 607 267 607 365 _c
607 463 583 534 537 580 _c
490 625 416 648 316 648 _c
197 648 _l
98 729 _m
301 729 _l
442 729 546 699 612 641 _c
678 582 711 490 711 365 _c
711 239 677 147 611 88 _c
545 29 441 0 301 0 _c
98 0 _l
98 729 _l
_cl}_d
/F{575 0 98 0 517 729 _sc
98 729 _m
517 729 _l
517 646 _l
197 646 _l
197 431 _l
486 431 _l
486 348 _l
197 348 _l
197 0 _l
98 0 _l
98 729 _l
_cl}_d
/N{748 0 98 0 650 729 _sc
98 729 _m
231 729 _l
554 119 _l
554 729 _l
650 729 _l
650 0 _l
517 0 _l
194 610 _l
194 0 _l
98 0 _l
98 729 _l
_cl}_d
/U{732 0 87 -13 645 729 _sc
87 729 _m
186 729 _l
186 286 _l
186 208 200 151 228 117 _c
256 83 302 66 366 66 _c
429 66 475 83 503 117 _c
531 151 546 208 546 286 _c
546 729 _l
645 729 _l
645 274 _l
645 178 621 107 574 59 _c
527 11 458 -13 366 -13 _c
274 -13 204 11 157 59 _c
110 107 87 178 87 274 _c
87 729 _l
_cl}_d
/a{{613 0 60 -13 522 560 _sc
343 275 _m
270 275 220 266 192 250 _c
164 233 150 205 150 165 _c
150 133 160 107 181 89 _c
202 70 231 61 267 61 _c
317 61 357 78 387 114 _c
417 149 432 196 432 255 _c
432 275 _l
343 275 _l
522 312 _m
522 0 _l
432 0 _l
432 83 _l
411 49 385 25 355 10 _c
325 -5 287 -13 243 -13 _c
187 -13 142 2 109 33 _c
76 64 60 106 60 159 _c
}_e{60 220 80 266 122 298 _c
163 329 224 345 306 345 _c
432 345 _l
432 354 _l
432 395 418 427 391 450 _c
364 472 326 484 277 484 _c
245 484 215 480 185 472 _c
155 464 127 453 100 439 _c
100 522 _l
132 534 164 544 195 550 _c
226 556 256 560 286 560 _c
365 560 424 539 463 498 _c
502 457 522 395 522 312 _c
_cl}_e}_d
/b{{635 0 91 -13 580 760 _sc
487 273 _m
487 339 473 390 446 428 _c
418 466 381 485 334 485 _c
286 485 249 466 222 428 _c
194 390 181 339 181 273 _c
181 207 194 155 222 117 _c
249 79 286 61 334 61 _c
381 61 418 79 446 117 _c
473 155 487 207 487 273 _c
181 464 _m
199 496 223 520 252 536 _c
281 552 316 560 356 560 _c
422 560 476 533 518 481 _c
559 428 580 359 580 273 _c
}_e{580 187 559 117 518 65 _c
476 13 422 -13 356 -13 _c
316 -13 281 -5 252 10 _c
223 25 199 49 181 82 _c
181 0 _l
91 0 _l
91 760 _l
181 760 _l
181 464 _l
_cl}_e}_d
/c{{550 0 55 -13 488 560 _sc
488 526 _m
488 442 _l
462 456 437 466 411 473 _c
385 480 360 484 334 484 _c
276 484 230 465 198 428 _c
166 391 150 339 150 273 _c
150 206 166 154 198 117 _c
230 80 276 62 334 62 _c
360 62 385 65 411 72 _c
437 79 462 90 488 104 _c
488 21 _l
462 9 436 0 410 -5 _c
383 -10 354 -13 324 -13 _c
242 -13 176 12 128 64 _c
}_e{79 115 55 185 55 273 _c
55 362 79 432 128 483 _c
177 534 244 560 330 560 _c
358 560 385 557 411 551 _c
437 545 463 537 488 526 _c
_cl}_e}_d
/d{{635 0 55 -13 544 760 _sc
454 464 _m
454 760 _l
544 760 _l
544 0 _l
454 0 _l
454 82 _l
435 49 411 25 382 10 _c
353 -5 319 -13 279 -13 _c
213 -13 159 13 117 65 _c
75 117 55 187 55 273 _c
55 359 75 428 117 481 _c
159 533 213 560 279 560 _c
319 560 353 552 382 536 _c
411 520 435 496 454 464 _c
148 273 _m
148 207 161 155 188 117 _c
215 79 253 61 301 61 _c
}_e{348 61 385 79 413 117 _c
440 155 454 207 454 273 _c
454 339 440 390 413 428 _c
385 466 348 485 301 485 _c
253 485 215 466 188 428 _c
161 390 148 339 148 273 _c
_cl}_e}_d
/e{{615 0 55 -13 562 560 _sc
562 296 _m
562 252 _l
149 252 _l
153 190 171 142 205 110 _c
238 78 284 62 344 62 _c
378 62 412 66 444 74 _c
476 82 509 95 541 113 _c
541 28 _l
509 14 476 3 442 -3 _c
408 -9 373 -13 339 -13 _c
251 -13 182 12 131 62 _c
80 112 55 181 55 268 _c
55 357 79 428 127 481 _c
175 533 241 560 323 560 _c
397 560 455 536 498 489 _c
}_e{540 441 562 377 562 296 _c
472 322 _m
471 371 457 410 431 440 _c
404 469 368 484 324 484 _c
274 484 234 469 204 441 _c
174 413 156 373 152 322 _c
472 322 _l
_cl}_e}_d
/h{634 0 91 0 549 760 _sc
549 330 _m
549 0 _l
459 0 _l
459 327 _l
459 379 448 417 428 443 _c
408 469 378 482 338 482 _c
289 482 251 466 223 435 _c
195 404 181 362 181 309 _c
181 0 _l
91 0 _l
91 760 _l
181 760 _l
181 462 _l
202 494 227 519 257 535 _c
286 551 320 560 358 560 _c
420 560 468 540 500 501 _c
532 462 549 405 549 330 _c
_cl}_d
/i{278 0 94 0 184 760 _sc
94 547 _m
184 547 _l
184 0 _l
94 0 _l
94 547 _l
94 760 _m
184 760 _l
184 646 _l
94 646 _l
94 760 _l
_cl}_d
/m{{974 0 91 0 889 560 _sc
520 442 _m
542 482 569 511 600 531 _c
631 550 668 560 711 560 _c
767 560 811 540 842 500 _c
873 460 889 403 889 330 _c
889 0 _l
799 0 _l
799 327 _l
799 379 789 418 771 444 _c
752 469 724 482 686 482 _c
639 482 602 466 575 435 _c
548 404 535 362 535 309 _c
535 0 _l
445 0 _l
445 327 _l
445 379 435 418 417 444 _c
398 469 369 482 331 482 _c
}_e{285 482 248 466 221 435 _c
194 404 181 362 181 309 _c
181 0 _l
91 0 _l
91 547 _l
181 547 _l
181 462 _l
201 495 226 520 255 536 _c
283 552 317 560 357 560 _c
397 560 430 550 458 530 _c
486 510 506 480 520 442 _c
_cl}_e}_d
/x{592 0 29 0 559 547 _sc
549 547 _m
351 281 _l
559 0 _l
453 0 _l
294 215 _l
135 0 _l
29 0 _l
241 286 _l
47 547 _l
153 547 _l
298 352 _l
443 547 _l
549 547 _l
_cl}_d
/minus{838 0 106 272 732 355 _sc
106 355 _m
732 355 _l
732 272 _l
106 272 _l
106 355 _l
_cl}_d
end readonly def

/BuildGlyph
 {exch begin
 CharStrings exch
 2 copy known not{pop /.notdef}if
 true 3 1 roll get exec
 end}_d

/BuildChar {
 1 index /Encoding get exch get
 1 index /BuildGlyph get exec
}_d

FontName currentdict end definefont pop
end
%%EndProlog
mpldict begin
54.483 260.407 translate
503.034 271.186 0 0 clipbox
gsave
0 0 m
503.034375 0 l
503.034375 271.186264 l
0 271.186264 l
cl
1.000 setgray
fill
grestore
gsave
45.934375 38.5125 m
269.134375 38.5125 l
269.134375 260.2725 l
45.934375 260.2725 l
cl
1.000 setgray
fill
grestore
0.800 setlinewidth
1 setlinejoin
0 setlinecap
[] 0 setdash
0.000 setgray
gsave
/o {
gsave
newpath
translate
0.8 setlinewidth
1 setlinejoin
0 setlinecap
0 0 m
0 -3.5 l

gsave
0.000 setgray
fill
grestore
stroke
grestore
} bind def
56.0798 38.5125 o
grestore
/DejaVuSans findfont
10.000 scalefont
setfont
gsave
48.126705 23.918750 translate
0.000000 rotate
0.000000 0.000000 m /zero glyphshow
6.362305 0.000000 m /period glyphshow
9.541016 0.000000 m /zero glyphshow
grestore
gsave
/o {
gsave
newpath
translate
0.8 setlinewidth
1 setlinejoin
0 setlinecap
0 0 m
0 -3.5 l

gsave
0.000 setgray
fill
grestore
stroke
grestore
} bind def
96.6616 38.5125 o
grestore
gsave
88.708523 23.918750 translate
0.000000 rotate
0.000000 0.000000 m /zero glyphshow
6.362305 0.000000 m /period glyphshow
9.541016 0.000000 m /two glyphshow
grestore
gsave
/o {
gsave
newpath
translate
0.8 setlinewidth
1 setlinejoin
0 setlinecap
0 0 m
0 -3.5 l

gsave
0.000 setgray
fill
grestore
stroke
grestore
} bind def
137.243 38.5125 o
grestore
gsave
129.290341 23.918750 translate
0.000000 rotate
0.000000 0.000000 m /zero glyphshow
6.362305 0.000000 m /period glyphshow
9.541016 0.000000 m /four glyphshow
grestore
gsave
/o {
gsave
newpath
translate
0.8 setlinewidth
1 setlinejoin
0 setlinecap
0 0 m
0 -3.5 l

gsave
0.000 setgray
fill
grestore
stroke
grestore
} bind def
177.825 38.5125 o
grestore
gsave
169.872159 23.918750 translate
0.000000 rotate
0.000000 0.000000 m /zero glyphshow
6.362305 0.000000 m /period glyphshow
9.541016 0.000000 m /six glyphshow
grestore
gsave
/o {
gsave
newpath
translate
0.8 setlinewidth
1 setlinejoin
0 setlinecap
0 0 m
0 -3.5 l

gsave
0.000 setgray
fill
grestore
stroke
grestore
} bind def
218.407 38.5125 o
grestore
gsave
210.453977 23.918750 translate
0.000000 rotate
0.000000 0.000000 m /zero glyphshow
6.362305 0.000000 m /period glyphshow
9.541016 0.000000 m /eight glyphshow
grestore
gsave
/o {
gsave
newpath
translate
0.8 setlinewidth
1 setlinejoin
0 setlinecap
0 0 m
0 -3.5 l

gsave
0.000 setgray
fill
grestore
stroke
grestore
} bind def
258.989 38.5125 o
grestore
gsave
251.035795 23.918750 translate
0.000000 rotate
0.000000 0.000000 m /one glyphshow
6.362305 0.000000 m /period glyphshow
9.541016 0.000000 m /zero glyphshow
grestore
/DejaVuSans findfont
11.000 scalefont
setfont
gsave
154.276563 9.481250 translate
0.000000 rotate
0.000000 0.000000 m /x glyphshow
grestore
gsave
/o {
gsave
newpath
translate
0.8 setlinewidth
1 setlinejoin
0 setlinecap
0 0 m
-3.5 0 l

gsave
0.000 setgray
fill
grestore
stroke
grestore
} bind def
45.9344 260.189 o
grestore
/DejaVuSans findfont
10.000 scalefont
setfont
gsave
24.200000 256.392514 translate
0.000000 rotate
0.000000 0.000000 m /minus glyphshow
8.378906 0.000000 m /six glyphshow
grestore
gsave
/o {
gsave
newpath
translate
0.8 setlinewidth
1 setlinejoin
0 setlinecap
0 0 m
-3.5 0 l

gsave
0.000 setgray
fill
grestore
stroke
grestore
} bind def
45.9344 230.195 o
grestore
gsave
24.200000 226.398171 translate
0.000000 rotate
0.000000 0.000000 m /minus glyphshow
8.378906 0.000000 m /five glyphshow
grestore
gsave
/o {
gsave
newpath
translate
0.8 setlinewidth
1 setlinejoin
0 setlinecap
0 0 m
-3.5 0 l

gsave
0.000 setgray
fill
grestore
stroke
grestore
} bind def
45.9344 200.201 o
grestore
gsave
24.200000 196.403829 translate
0.000000 rotate
0.000000 0.000000 m /minus glyphshow
8.378906 0.000000 m /four glyphshow
grestore
gsave
/o {
gsave
newpath
translate
0.8 setlinewidth
1 setlinejoin
0 setlinecap
0 0 m
-3.5 0 l

gsave
0.000 setgray
fill
grestore
stroke
grestore
} bind def
45.9344 170.206 o
grestore
gsave
24.200000 166.409486 translate
0.000000 rotate
0.000000 0.000000 m /minus glyphshow
8.378906 0.000000 m /three glyphshow
grestore
gsave
/o {
gsave
newpath
translate
0.8 setlinewidth
1 setlinejoin
0 setlinecap
0 0 m
-3.5 0 l

gsave
0.000 setgray
fill
grestore
stroke
grestore
} bind def
45.9344 140.212 o
grestore
gsave
24.200000 136.415144 translate
0.000000 rotate
0.000000 0.000000 m /minus glyphshow
8.378906 0.000000 m /two glyphshow
grestore
gsave
/o {
gsave
newpath
translate
0.8 setlinewidth
1 setlinejoin
0 setlinecap
0 0 m
-3.5 0 l

gsave
0.000 setgray
fill
grestore
stroke
grestore
} bind def
45.9344 110.218 o
grestore
gsave
24.200000 106.420801 translate
0.000000 rotate
0.000000 0.000000 m /minus glyphshow
8.378906 0.000000 m /one glyphshow
grestore
gsave
/o {
gsave
newpath
translate
0.8 setlinewidth
1 setlinejoin
0 setlinecap
0 0 m
-3.5 0 l

gsave
0.000 setgray
fill
grestore
stroke
grestore
} bind def
45.9344 80.2233 o
grestore
gsave
32.575000 76.426459 translate
0.000000 rotate
0.000000 0.000000 m /zero glyphshow
grestore
gsave
/o {
gsave
newpath
translate
0.8 setlinewidth
1 setlinejoin
0 setlinecap
0 0 m
-3.5 0 l

gsave
0.000 setgray
fill
grestore
stroke
grestore
} bind def
45.9344 50.229 o
grestore
gsave
32.575000 46.432116 translate
0.000000 rotate
0.000000 0.000000 m /one glyphshow
grestore
gsave
16.200000 142.892500 translate
90.000000 rotate
/DejaVuSans-Oblique findfont
11.0 scalefont
setfont
0.000000 0.828125 moveto
/C glyphshow

/DejaVuSans-Oblique findfont
7.7 scalefont
setfont
7.680664 -0.976562 moveto
/p glyphshow


grestore
1.500 setlinewidth
[5.55 2.4] 0 setdash
0.000 0.000 1.000 setrgbcolor
gsave
223.2 221.8 45.93 38.51 clipbox
258.98892 77.142705 m
258.900655 77.64469 l
258.793316 77.188806 l
258.663454 77.312935 l
258.083337 76.916848 l
257.464059 76.809258 l
255.958879 76.84894 l
248.764128 77.227775 l
237.600679 77.445039 l
217.233273 77.586147 l
202.711272 77.522196 l
185.429911 77.268042 l
166.144214 76.736851 l
146.1041 75.850129 l
136.259763 75.235005 l
126.768284 74.4652 l
117.779208 73.514139 l
109.409817 72.368805 l
101.741274 71.013841 l
94.818422 69.437308 l
88.653435 67.644097 l
83.231095 65.651632 l
78.515285 63.486791 l
74.45548 61.179146 l
70.993181 58.786527 l
68.066075 56.394628 l
61.890943 50.798314 l
60.519318 50.368225 l
59.412956 51.388243 l
58.53294 54.451445 l
57.844804 60.161528 l
57.31789 68.95146 l
56.92436 80.833329 l
56.437627 110.88895 l
56.152528 153.318347 l
56.085964 200.693811 l
56.210139 231.523196 l
56.437627 243.227288 l
56.638696 245.190718 l
56.92436 243.393757 l
57.844804 228.810208 l
58.53294 217.795685 l
59.412956 205.879533 l
60.519318 193.996074 l
61.890943 182.746996 l
63.572004 172.425343 l
65.612093 163.099202 l
68.066075 154.750877 l
70.993181 147.292183 l
74.45548 140.611544 l
78.515285 134.612375 l
83.231095 129.201696 l
88.653435 124.276925 l
94.818422 119.766975 l
101.741274 115.610959 l
109.409817 111.768084 l
117.779208 108.213874 l
126.768284 104.914437 l
136.259763 101.859303 l
146.1041 99.027537 l
156.127606 96.401652 l
166.144214 93.964372 l
185.429911 89.654305 l
202.711272 86.12871 l
217.233273 83.402374 l
250.560077 77.622122 l
255.958879 76.891832 l
258.793316 76.555506 l
258.900655 76.386398 l
258.98892 77.142705 l
258.98892 77.142705 l
stroke
grestore
1.000 setlinewidth
[] 0 setdash
gsave
223.2 221.8 45.93 38.51 clipbox
/o {
gsave
newpath
translate
1.0 setlinewidth
1 setlinejoin
0 setlinecap
0 -3 m
0.795609 -3 1.55874 -2.683901 2.12132 -2.12132 c
2.683901 -1.55874 3 -0.795609 3 0 c
3 0.795609 2.683901 1.55874 2.12132 2.12132 c
1.55874 2.683901 0.795609 3 0 3 c
-0.795609 3 -1.55874 2.683901 -2.12132 2.12132 c
-2.683901 1.55874 -3 0.795609 -3 0 c
-3 -0.795609 -2.683901 -1.55874 -2.12132 -2.12132 c
-1.55874 -2.683901 -0.795609 -3 0 -3 c
cl

gsave
0.000 0.000 1.000 setrgbcolor
fill
grestore
stroke
grestore
} bind def
258.989 77.1427 o
258.901 77.6447 o
258.793 77.1888 o
258.663 77.3129 o
258.506 77.1781 o
258.315 77.0312 o
258.083 76.9168 o
257.803 76.8458 o
257.464 76.8093 o
257.054 76.8014 o
256.558 76.8161 o
255.959 76.8489 o
255.237 76.8964 o
254.366 76.9551 o
253.32 77.0214 o
252.064 77.0913 o
250.56 77.1611 o
248.764 77.2278 o
246.627 77.2896 o
244.094 77.346 o
241.106 77.3973 o
237.601 77.445 o
233.516 77.4905 o
228.792 77.5324 o
223.377 77.5676 o
217.233 77.5861 o
210.342 77.5736 o
202.711 77.5222 o
194.382 77.4247 o
185.43 77.268 o
175.969 77.0415 o
166.144 76.7369 o
156.128 76.3436 o
146.104 75.8501 o
136.26 75.235 o
126.768 74.4652 o
117.779 73.5141 o
109.41 72.3688 o
101.741 71.0138 o
94.8184 69.4373 o
88.6534 67.6441 o
83.2311 65.6516 o
78.5153 63.4868 o
74.4555 61.1791 o
70.9932 58.7865 o
68.0661 56.3946 o
65.6121 54.1313 o
63.572 52.1795 o
61.8909 50.7983 o
60.5193 50.3682 o
59.413 51.3882 o
58.5329 54.4514 o
57.8448 60.1615 o
57.3179 68.9515 o
56.9244 80.8333 o
56.6387 95.2061 o
56.4376 110.889 o
56.3006 126.477 o
56.2101 140.819 o
56.1525 153.318 o
56.1173 164.062 o
56.0968 173.491 o
56.086 181.723 o
56.0811 189.035 o
56.0798 192.801 o
56.0811 193.741 o
56.086 200.694 o
56.0968 208.234 o
56.1173 216.107 o
56.1525 224.007 o
56.2101 231.523 o
56.3006 238.309 o
56.4376 243.227 o
56.6387 245.191 o
56.9244 243.394 o
57.3179 237.719 o
57.8448 228.81 o
58.5329 217.796 o
59.413 205.88 o
60.5193 193.996 o
61.8909 182.747 o
63.572 172.425 o
65.6121 163.099 o
68.0661 154.751 o
70.9932 147.292 o
74.4555 140.612 o
78.5153 134.612 o
83.2311 129.202 o
88.6534 124.277 o
94.8184 119.767 o
101.741 115.611 o
109.41 111.768 o
117.779 108.214 o
126.768 104.914 o
136.26 101.859 o
146.104 99.0275 o
156.128 96.4017 o
166.144 93.9644 o
175.969 91.7137 o
185.43 89.6543 o
194.382 87.7894 o
202.711 86.1287 o
210.342 84.6716 o
217.233 83.4024 o
223.377 82.3187 o
228.792 81.3939 o
233.516 80.5874 o
237.601 79.8777 o
241.106 79.2575 o
244.094 78.7245 o
246.627 78.2781 o
248.764 77.9136 o
250.56 77.6221 o
252.064 77.3929 o
253.32 77.2149 o
254.366 77.0775 o
255.237 76.9719 o
255.959 76.8918 o
256.558 76.833 o
257.054 76.7916 o
257.464 76.7637 o
257.803 76.7449 o
258.083 76.7305 o
258.315 76.7185 o
258.506 76.6958 o
258.663 76.7186 o
258.793 76.5555 o
258.901 76.3864 o
258.989 77.1427 o
grestore
1.500 setlinewidth
[5.55 2.4] 0 setdash
1.000 0.000 0.000 setrgbcolor
gsave
223.2 221.8 45.93 38.51 clipbox
258.98892 75.521061 m
258.900655 76.040713 l
258.793316 75.520491 l
258.663454 75.540677 l
258.505794 75.767134 l
258.083337 75.498055 l
257.464059 75.441456 l
254.366448 75.874034 l
250.560077 76.294675 l
244.093973 76.724584 l
237.600679 76.974917 l
228.791787 77.153113 l
217.233273 77.216011 l
202.711272 77.125428 l
185.429911 76.85101 l
166.144214 76.334837 l
146.1041 75.463592 l
136.259763 74.840639 l
126.768284 74.058867 l
117.779208 73.094009 l
109.409817 71.926539 l
101.741274 70.54371 l
94.818422 68.941832 l
88.653435 67.126034 l
83.231095 65.110864 l
78.515285 62.920947 l
74.45548 60.599475 l
70.993181 58.210276 l
68.066075 55.842822 l
63.572004 51.754654 l
61.890943 50.508089 l
60.519318 50.269364 l
59.412956 51.550422 l
58.53294 54.922206 l
57.844804 60.967146 l
57.31789 70.137316 l
56.92436 82.470192 l
56.437627 113.491859 l
56.152528 156.711007 l
56.085964 204.62157 l
56.210139 235.484549 l
56.437627 247.043768 l
56.638696 248.878822 l
56.92436 246.913593 l
57.844804 231.863632 l
58.53294 220.589358 l
59.412956 208.459646 l
60.519318 196.423216 l
61.890943 185.00467 l
63.572004 174.45686 l
65.612093 164.903962 l
68.066075 156.357374 l
70.993181 148.722314 l
74.45548 141.905799 l
78.515285 135.797452 l
83.231095 130.29079 l
88.653435 125.287734 l
94.818422 120.707598 l
101.741274 116.490093 l
109.409817 112.589629 l
117.779208 108.97705 l
126.768284 105.633881 l
136.259763 102.549653 l
146.1041 99.715037 l
156.127606 97.118067 l
166.144214 94.747164 l
185.429911 90.609925 l
228.791787 81.77774 l
244.093973 78.39217 l
256.557867 75.552495 l
258.505794 75.273577 l
258.663454 75.331587 l
258.793316 75.066257 l
258.900655 74.150319 l
258.98892 75.521061 l
258.98892 75.521061 l
stroke
grestore
1.000 setlinewidth
0 setlinejoin
[] 0 setdash
gsave
223.2 221.8 45.93 38.51 clipbox
/o {
gsave
newpath
translate
1.0 setlinewidth
0 setlinejoin
0 setlinecap
0 3 m
-3 -3 l
3 -3 l
cl

gsave
1.000 0.000 0.000 setrgbcolor
fill
grestore
stroke
grestore
} bind def
258.989 75.5211 o
258.901 76.0407 o
258.793 75.5205 o
258.663 75.5407 o
258.506 75.7671 o
258.315 75.596 o
258.083 75.4981 o
257.803 75.4503 o
257.464 75.4415 o
257.054 75.4851 o
256.558 75.57 o
255.959 75.6655 o
255.237 75.7617 o
254.366 75.874 o
253.32 76.0055 o
252.064 76.1481 o
250.56 76.2947 o
248.764 76.441 o
246.627 76.5851 o
244.094 76.7246 o
241.106 76.8561 o
237.601 76.9749 o
233.516 77.0758 o
228.792 77.1531 o
223.377 77.2017 o
217.233 77.216 o
210.342 77.1915 o
202.711 77.1254 o
194.382 77.0135 o
185.43 76.851 o
175.969 76.6288 o
166.144 76.3348 o
156.128 75.9535 o
146.104 75.4636 o
136.26 74.8406 o
126.768 74.0589 o
117.779 73.094 o
109.41 71.9265 o
101.741 70.5437 o
94.8184 68.9418 o
88.6534 67.126 o
83.2311 65.1109 o
78.5153 62.9209 o
74.4555 60.5995 o
70.9932 58.2103 o
68.0661 55.8428 o
65.6121 53.6265 o
63.572 51.7547 o
61.8909 50.5081 o
60.5193 50.2694 o
59.413 51.5504 o
58.5329 54.9222 o
57.8448 60.9671 o
57.3179 70.1373 o
56.9244 82.4702 o
56.6387 97.341 o
56.4376 113.492 o
56.3006 129.437 o
56.2101 143.996 o
56.1525 156.711 o
56.1173 167.429 o
56.0968 177.072 o
56.086 185.213 o
56.0811 192.167 o
56.0798 196.235 o
56.0811 197.436 o
56.086 204.622 o
56.0968 212.155 o
56.1173 220.061 o
56.1525 228.362 o
56.2101 235.485 o
56.3006 242.281 o
56.4376 247.044 o
56.6387 248.879 o
56.9244 246.914 o
57.3179 241.031 o
57.8448 231.864 o
58.5329 220.589 o
59.413 208.46 o
60.5193 196.423 o
61.8909 185.005 o
63.572 174.457 o
65.6121 164.904 o
68.0661 156.357 o
70.9932 148.722 o
74.4555 141.906 o
78.5153 135.797 o
83.2311 130.291 o
88.6534 125.288 o
94.8184 120.708 o
101.741 116.49 o
109.41 112.59 o
117.779 108.977 o
126.768 105.634 o
136.26 102.55 o
146.104 99.715 o
156.128 97.1181 o
166.144 94.7472 o
175.969 92.5838 o
185.43 90.6099 o
194.382 88.8075 o
202.711 87.1503 o
210.342 85.6226 o
217.233 84.2167 o
223.377 82.9331 o
228.792 81.7777 o
233.516 80.7556 o
237.601 79.8606 o
241.106 79.0773 o
244.094 78.3922 o
246.627 77.7966 o
248.764 77.2858 o
250.56 76.8555 o
252.064 76.5 o
253.32 76.2121 o
254.366 75.984 o
255.237 75.8065 o
255.959 75.667 o
256.558 75.5525 o
257.054 75.4599 o
257.464 75.3941 o
257.803 75.354 o
258.083 75.3275 o
258.315 75.3167 o
258.506 75.2736 o
258.663 75.3316 o
258.793 75.0663 o
258.901 74.1503 o
258.989 75.5211 o
grestore
1.500 setlinewidth
1 setlinejoin
[1.5 2.475] 0 setdash
0.000 0.500 0.000 setrgbcolor
gsave
223.2 221.8 45.93 38.51 clipbox
258.98892 75.533808 m
258.900655 75.909787 l
258.663454 75.187374 l
258.505794 75.583959 l
257.80312 75.777722 l
255.236523 76.26603 l
252.064039 76.625063 l
246.62709 76.960849 l
237.600679 77.240354 l
223.377158 77.3814 l
202.711272 77.265961 l
185.429911 77.002331 l
156.127606 76.122057 l
136.259763 75.185394 l
126.768284 74.611602 l
117.779208 73.839968 l
109.409817 72.855823 l
101.741274 71.666548 l
94.818422 70.2249 l
88.653435 68.510903 l
83.231095 66.504401 l
78.515285 64.282001 l
74.45548 61.878404 l
70.993181 59.313618 l
68.066075 56.658699 l
63.572004 51.61587 l
61.890943 49.668397 l
60.519318 48.5925 l
59.412956 48.918838 l
58.53294 51.315236 l
57.844804 56.49208 l
57.31789 64.97415 l
56.92436 76.784512 l
56.437627 106.970489 l
56.152528 148.987464 l
56.085964 193.91419 l
56.210139 223.040496 l
56.437627 235.206501 l
56.638696 237.448578 l
56.92436 236.013649 l
57.844804 222.830236 l
58.53294 212.973795 l
59.412956 202.416986 l
60.519318 191.986453 l
61.890943 182.075123 l
63.572004 172.867759 l
65.612093 164.472643 l
68.066075 156.620124 l
70.993181 149.678833 l
74.45548 143.22705 l
78.515285 137.325363 l
83.231095 131.909585 l
88.653435 126.79345 l
94.818422 122.166523 l
101.741274 117.702465 l
109.409817 113.628933 l
117.779208 109.777749 l
126.768284 106.16775 l
136.259763 102.892038 l
146.1041 99.818758 l
156.127606 97.053939 l
166.144214 94.55703 l
175.968869 92.286279 l
194.381651 88.581047 l
233.515916 81.359493 l
244.093973 79.400586 l
250.560077 77.915119 l
258.505794 76.016297 l
258.663454 75.991162 l
258.793316 76.085674 l
258.98892 75.533808 l
258.98892 75.533808 l
stroke
grestore
1.000 setlinewidth
0 setlinejoin
[] 0 setdash
gsave
223.2 221.8 45.93 38.51 clipbox
/o {
gsave
newpath
translate
1.0 setlinewidth
0 setlinejoin
0 setlinecap
-0 -3 m
3 3 l
-3 3 l
cl

gsave
0.000 0.500 0.000 setrgbcolor
fill
grestore
stroke
grestore
} bind def
258.989 75.5338 o
258.901 75.9098 o
258.793 75.3244 o
258.663 75.1874 o
258.506 75.584 o
258.315 75.6564 o
258.083 75.7128 o
257.803 75.7777 o
257.464 75.8541 o
257.054 75.9419 o
256.558 76.0409 o
255.959 76.1496 o
255.237 76.266 o
254.366 76.3865 o
253.32 76.5065 o
252.064 76.6251 o
250.56 76.7406 o
248.764 76.8516 o
246.627 76.9608 o
244.094 77.062 o
241.106 77.1566 o
237.601 77.2404 o
233.516 77.3073 o
228.792 77.3538 o
223.377 77.3814 o
217.233 77.378 o
210.342 77.3492 o
202.711 77.266 o
194.382 77.1465 o
185.43 77.0023 o
175.969 76.7472 o
166.144 76.4743 o
156.128 76.1221 o
146.104 75.7002 o
136.26 75.1854 o
126.768 74.6116 o
117.779 73.84 o
109.41 72.8558 o
101.741 71.6665 o
94.8184 70.2249 o
88.6534 68.5109 o
83.2311 66.5044 o
78.5153 64.282 o
74.4555 61.8784 o
70.9932 59.3136 o
68.0661 56.6587 o
65.6121 53.9886 o
63.572 51.6159 o
61.8909 49.6684 o
60.5193 48.5925 o
59.413 48.9188 o
58.5329 51.3152 o
57.8448 56.4921 o
57.3179 64.9742 o
56.9244 76.7845 o
56.6387 91.2225 o
56.4376 106.97 o
56.3006 122.526 o
56.2101 136.733 o
56.1525 148.987 o
56.1173 159.19 o
56.0968 167.612 o
56.086 174.323 o
56.0811 179.694 o
56.0798 183.973 o
56.0811 188.571 o
56.086 193.914 o
56.0968 200.326 o
56.1173 207.587 o
56.1525 215.366 o
56.2101 223.04 o
56.3006 230.036 o
56.4376 235.207 o
56.6387 237.449 o
56.9244 236.014 o
57.3179 230.886 o
57.8448 222.83 o
58.5329 212.974 o
59.413 202.417 o
60.5193 191.986 o
61.8909 182.075 o
63.572 172.868 o
65.6121 164.473 o
68.0661 156.62 o
70.9932 149.679 o
74.4555 143.227 o
78.5153 137.325 o
83.2311 131.91 o
88.6534 126.793 o
94.8184 122.167 o
101.741 117.702 o
109.41 113.629 o
117.779 109.778 o
126.768 106.168 o
136.26 102.892 o
146.104 99.8188 o
156.128 97.0539 o
166.144 94.557 o
175.969 92.2863 o
185.43 90.3756 o
194.382 88.581 o
202.711 87.0225 o
210.342 85.6229 o
217.233 84.3901 o
223.377 83.218 o
228.792 82.2086 o
233.516 81.3595 o
237.601 80.6362 o
241.106 79.9936 o
244.094 79.4006 o
246.627 78.8495 o
248.764 78.3512 o
250.56 77.9151 o
252.064 77.5357 o
253.32 77.2124 o
254.366 76.9419 o
255.237 76.7188 o
255.959 76.5398 o
256.558 76.398 o
257.054 76.2862 o
257.464 76.1993 o
257.803 76.1324 o
258.083 76.0815 o
258.315 76.0432 o
258.506 76.0163 o
258.663 75.9912 o
258.793 76.0857 o
258.901 75.6551 o
258.989 75.5338 o
grestore
1.500 setlinewidth
1 setlinejoin
[1.5 2.475] 0 setdash
0.000 0.750 0.750 setrgbcolor
gsave
223.2 221.8 45.93 38.51 clipbox
258.98892 75.079154 m
258.900655 75.483478 l
258.663454 74.798797 l
258.505794 75.182635 l
257.80312 75.42097 l
256.557867 75.688789 l
254.366448 76.024906 l
250.560077 76.429739 l
244.093973 76.830344 l
237.600679 77.053682 l
228.791787 77.208003 l
210.341872 77.22159 l
194.381651 77.034665 l
175.968869 76.633401 l
156.127606 75.988673 l
136.259763 75.053719 l
126.768284 74.433886 l
117.779208 73.663481 l
109.409817 72.701263 l
101.741274 71.511747 l
94.818422 70.057231 l
88.653435 68.323468 l
83.231095 66.327135 l
78.515285 64.100475 l
74.45548 61.691629 l
70.993181 59.125553 l
68.066075 56.48962 l
65.612093 53.89643 l
61.890943 49.671397 l
60.519318 48.771266 l
59.412956 49.22808 l
58.53294 51.834229 l
57.844804 57.213234 l
57.31789 65.959734 l
56.92436 78.193251 l
56.437627 109.634466 l
56.152528 153.204668 l
56.085964 199.458944 l
56.210139 229.200434 l
56.437627 241.343644 l
56.638696 243.340067 l
56.92436 241.461221 l
57.844804 227.042941 l
58.53294 216.49783 l
59.412956 205.331536 l
60.519318 194.28312 l
61.890943 184.025655 l
63.572004 174.491953 l
65.612093 165.825388 l
68.066075 157.855891 l
70.993181 150.605059 l
74.45548 144.092087 l
78.515285 138.201498 l
83.231095 132.691237 l
88.653435 127.514514 l
94.818422 122.648532 l
101.741274 118.127784 l
109.409817 113.897682 l
117.779208 109.991669 l
126.768284 106.347536 l
136.259763 102.998398 l
146.1041 99.941855 l
156.127606 97.169058 l
166.144214 94.689605 l
175.968869 92.480162 l
194.381651 88.789808 l
217.233273 84.513215 l
228.791787 82.256755 l
246.62709 78.283546 l
255.958879 75.980604 l
258.793316 75.557594 l
258.98892 75.079154 l
258.98892 75.079154 l
stroke
grestore
1.000 setlinewidth
0 setlinejoin
[] 0 setdash
gsave
223.2 221.8 45.93 38.51 clipbox
/o {
gsave
newpath
translate
1.0 setlinewidth
0 setlinejoin
0 setlinecap
3 -0 m
-3 3 l
-3 -3 l
cl

gsave
0.000 0.750 0.750 setrgbcolor
fill
grestore
stroke
grestore
} bind def
258.989 75.0792 o
258.901 75.4835 o
258.793 74.8962 o
258.663 74.7988 o
258.506 75.1826 o
258.315 75.2666 o
258.083 75.338 o
257.803 75.421 o
257.464 75.5183 o
257.054 75.6188 o
256.558 75.6888 o
255.959 75.7527 o
255.237 75.8867 o
254.366 76.0249 o
253.32 76.1608 o
252.064 76.2926 o
250.56 76.4297 o
248.764 76.5667 o
246.627 76.7015 o
244.094 76.8303 o
241.106 76.9504 o
237.601 77.0537 o
233.516 77.1436 o
228.792 77.208 o
223.377 77.2443 o
217.233 77.2536 o
210.342 77.2216 o
202.711 77.1536 o
194.382 77.0347 o
185.43 76.8644 o
175.969 76.6334 o
166.144 76.3434 o
156.128 75.9887 o
146.104 75.5638 o
136.26 75.0537 o
126.768 74.4339 o
117.779 73.6635 o
109.41 72.7013 o
101.741 71.5117 o
94.8184 70.0572 o
88.6534 68.3235 o
83.2311 66.3271 o
78.5153 64.1005 o
74.4555 61.6916 o
70.9932 59.1256 o
68.0661 56.4896 o
65.6121 53.8964 o
63.572 51.5277 o
61.8909 49.6714 o
60.5193 48.7713 o
59.413 49.2281 o
58.5329 51.8342 o
57.8448 57.2132 o
57.3179 65.9597 o
56.9244 78.1933 o
56.6387 93.236 o
56.4376 109.634 o
56.3006 125.802 o
56.2101 140.528 o
56.1525 153.205 o
56.1173 163.738 o
56.0968 172.419 o
56.086 179.329 o
56.0811 184.853 o
56.0798 189.251 o
56.0811 193.973 o
56.086 199.459 o
56.0968 206.032 o
56.1173 213.462 o
56.1525 221.402 o
56.2101 229.2 o
56.3006 236.248 o
56.4376 241.344 o
56.6387 243.34 o
56.9244 241.461 o
57.3179 235.762 o
57.8448 227.043 o
58.5329 216.498 o
59.413 205.332 o
60.5193 194.283 o
61.8909 184.026 o
63.572 174.492 o
65.6121 165.825 o
68.0661 157.856 o
70.9932 150.605 o
74.4555 144.092 o
78.5153 138.201 o
83.2311 132.691 o
88.6534 127.515 o
94.8184 122.649 o
101.741 118.128 o
109.41 113.898 o
117.779 109.992 o
126.768 106.348 o
136.26 102.998 o
146.104 99.9419 o
156.128 97.1691 o
166.144 94.6896 o
175.969 92.4802 o
185.43 90.5486 o
194.382 88.7898 o
202.711 87.2602 o
210.342 85.8588 o
217.233 84.5132 o
223.377 83.3196 o
228.792 82.2568 o
233.516 81.2164 o
237.601 80.3517 o
241.106 79.6161 o
244.094 78.9202 o
246.627 78.2835 o
248.764 77.7302 o
250.56 77.271 o
252.064 76.8975 o
253.32 76.5957 o
254.366 76.3512 o
255.237 76.1569 o
255.959 75.9806 o
256.558 75.8842 o
257.054 75.7808 o
257.464 75.693 o
257.803 75.6227 o
258.083 75.5675 o
258.315 75.525 o
258.506 75.4957 o
258.663 75.4716 o
258.793 75.5576 o
258.901 75.1665 o
258.989 75.0792 o
grestore
1 setlinejoin
2 setlinecap
0.000 setgray
gsave
223.2 221.8 45.93 38.51 clipbox
258.98892 74.563833 m
258.986405 74.552753 l
258.986405 74.552753 l
258.986405 74.552753 l
258.822116 74.590641 l
257.475582 75.070034 l
255.429996 75.521841 l
252.275567 75.975764 l
247.74161 76.391295 l
241.307151 76.745332 l
232.254223 77.005697 l
219.818815 77.127522 l
203.209159 77.058256 l
183.690806 76.755945 l
165.210558 76.254536 l
150.164825 75.632461 l
137.778828 74.903114 l
127.638911 74.09286 l
118.871088 73.175392 l
111.439065 72.184388 l
104.768453 71.073732 l
99.056488 69.905962 l
94.006421 68.659047 l
89.382894 67.292301 l
85.346241 65.876198 l
81.683578 64.365044 l
78.378672 62.771129 l
75.290365 61.037469 l
72.438389 59.18145 l
69.743052 57.161738 l
67.015523 54.832582 l
62.034666 50.466578 l
61.212277 50.103255 l
60.635987 50.081598 l
60.183111 50.281453 l
59.765877 50.715 l
59.351709 51.485957 l
58.919551 52.819388 l
58.484636 54.985006 l
58.061681 58.333663 l
57.646952 63.56205 l
57.248281 71.702859 l
56.883253 84.033982 l
56.54804 103.533343 l
56.268014 133.905186 l
56.094619 178.1477 l
56.129443 223.077992 l
56.329837 244.776675 l
56.54804 249.915648 l
56.631247 250.1925 l
56.685146 250.087692 l
56.815222 249.184137 l
57.106097 245.258667 l
59.699657 205.080946 l
60.715081 194.592476 l
61.796632 185.693333 l
62.95626 178.005334 l
64.168486 171.439802 l
65.473063 165.594604 l
66.860567 160.401139 l
68.319451 155.789804 l
69.836177 151.695143 l
71.497301 147.837517 l
73.312232 144.200534 l
75.169321 140.964312 l
77.178682 137.895521 l
79.347757 134.981246 l
81.683578 132.209259 l
84.192597 129.568131 l
86.880497 127.047334 l
89.937661 124.490148 l
93.206294 122.047753 l
96.900366 119.576867 l
100.834586 117.215559 l
105.244999 114.833635 l
110.165726 112.441398 l
115.625032 110.049732 l
121.641849 107.670471 l
128.221706 105.316547 l
135.352411 103.001883 l
143.309351 100.653604 l
152.359401 98.224247 l
162.400732 95.7664 l
174.149521 93.131454 l
188.571036 90.140031 l
232.539008 81.190712 l
243.121276 78.689255 l
255.186791 75.588295 l
258.986405 74.530447 l
258.986405 74.530447 l
stroke
grestore
0.800 setlinewidth
0 setlinejoin
[] 0 setdash
gsave
45.934375 38.5125 m
45.934375 260.2725 l
stroke
grestore
gsave
269.134375 38.5125 m
269.134375 260.2725 l
stroke
grestore
gsave
45.934375 38.5125 m
269.134375 38.5125 l
stroke
grestore
gsave
45.934375 260.2725 m
269.134375 260.2725 l
stroke
grestore
/DejaVuSans findfont
11.000 scalefont
setfont
gsave
63.181648 239.193349 translate
0.000000 rotate
0.000000 0.000000 m /parenleft glyphshow
4.291504 0.000000 m /a glyphshow
11.032227 0.000000 m /parenright glyphshow
grestore
gsave
118.981648 120.715696 translate
0.000000 rotate
0.000000 0.000000 m /parenleft glyphshow
4.291504 0.000000 m /b glyphshow
11.273926 0.000000 m /parenright glyphshow
grestore
gsave
73.327102 42.730406 translate
0.000000 rotate
0.000000 0.000000 m /parenleft glyphshow
4.291504 0.000000 m /c glyphshow
10.339355 0.000000 m /parenright glyphshow
grestore
gsave
250.872557 92.221071 translate
0.000000 rotate
0.000000 0.000000 m /parenleft glyphshow
4.291504 0.000000 m /d glyphshow
11.273926 0.000000 m /parenright glyphshow
grestore
1.000 setlinewidth
0 setlinecap
0.800 setgray
gsave
168.134375 177.600625 m
262.134375 177.600625 l
263.467708 177.600625 264.134375 178.267292 264.134375 179.600625 c
264.134375 253.2725 l
264.134375 254.605833 263.467708 255.2725 262.134375 255.2725 c
168.134375 255.2725 l
166.801042 255.2725 166.134375 254.605833 166.134375 253.2725 c
166.134375 179.600625 l
166.134375 178.267292 166.801042 177.600625 168.134375 177.600625 c
cl
gsave
1.000 setgray
fill
grestore
stroke
grestore
1 setlinejoin
2 setlinecap
[] 0 setdash
0.000 setgray
gsave
170.134375 247.17875 m
190.134375 247.17875 l
stroke
grestore
/DejaVuSans findfont
10.000 scalefont
setfont
gsave
198.134375 243.678750 translate
0.000000 rotate
0.000000 0.000000 m /F glyphshow
5.751953 0.000000 m /U glyphshow
13.071289 0.000000 m /N glyphshow
20.551758 0.000000 m /three glyphshow
26.914062 0.000000 m /D glyphshow
grestore
1.500 setlinewidth
0 setlinecap
[5.55 2.4] 0 setdash
0.000 0.000 1.000 setrgbcolor
gsave
170.134375 232.17875 m
190.134375 232.17875 l
stroke
grestore
1.000 setlinewidth
[] 0 setdash
gsave
/o {
gsave
newpath
translate
1.0 setlinewidth
1 setlinejoin
0 setlinecap
0 -3 m
0.795609 -3 1.55874 -2.683901 2.12132 -2.12132 c
2.683901 -1.55874 3 -0.795609 3 0 c
3 0.795609 2.683901 1.55874 2.12132 2.12132 c
1.55874 2.683901 0.795609 3 0 3 c
-0.795609 3 -1.55874 2.683901 -2.12132 2.12132 c
-2.683901 1.55874 -3 0.795609 -3 0 c
-3 -0.795609 -2.683901 -1.55874 -2.12132 -2.12132 c
-1.55874 -2.683901 -0.795609 -3 0 -3 c
cl

gsave
0.000 0.000 1.000 setrgbcolor
fill
grestore
stroke
grestore
} bind def
180.134 232.179 o
grestore
0.000 setgray
gsave
198.134375 228.678750 translate
0.000000 rotate
/DejaVuSans-Oblique findfont
10.0 scalefont
setfont
0.000000 0.406250 moveto
/k glyphshow

/DejaVuSans findfont
10.0 scalefont
setfont
7.739258 0.406250 moveto
/equal glyphshow

18.066406 0.406250 moveto
/three glyphshow

24.428711 0.406250 moveto
/comma glyphshow

27.607422 0.406250 moveto
/space glyphshow

30.786133 0.406250 moveto
/h glyphshow

37.124023 0.406250 moveto
/e glyphshow

43.276367 0.406250 moveto
/x glyphshow


grestore
1.500 setlinewidth
[5.55 2.4] 0 setdash
1.000 0.000 0.000 setrgbcolor
gsave
170.134375 217.17875 m
190.134375 217.17875 l
stroke
grestore
1.000 setlinewidth
0 setlinejoin
[] 0 setdash
gsave
/o {
gsave
newpath
translate
1.0 setlinewidth
0 setlinejoin
0 setlinecap
0 3 m
-3 -3 l
3 -3 l
cl

gsave
1.000 0.000 0.000 setrgbcolor
fill
grestore
stroke
grestore
} bind def
180.134 217.179 o
grestore
0.000 setgray
gsave
198.134375 213.678750 translate
0.000000 rotate
/DejaVuSans-Oblique findfont
10.0 scalefont
setfont
0.000000 0.406250 moveto
/k glyphshow

/DejaVuSans findfont
10.0 scalefont
setfont
7.739258 0.406250 moveto
/equal glyphshow

18.066406 0.406250 moveto
/three glyphshow

24.428711 0.406250 moveto
/comma glyphshow

27.607422 0.406250 moveto
/space glyphshow

30.786133 0.406250 moveto
/m glyphshow

40.527344 0.406250 moveto
/i glyphshow

43.305664 0.406250 moveto
/x glyphshow

49.223633 0.406250 moveto
/e glyphshow

55.375977 0.406250 moveto
/d glyphshow


grestore
1.500 setlinewidth
1 setlinejoin
[1.5 2.475] 0 setdash
0.000 0.500 0.000 setrgbcolor
gsave
170.134375 202.17875 m
190.134375 202.17875 l
stroke
grestore
1.000 setlinewidth
0 setlinejoin
[] 0 setdash
gsave
/o {
gsave
newpath
translate
1.0 setlinewidth
0 setlinejoin
0 setlinecap
-0 -3 m
3 3 l
-3 3 l
cl

gsave
0.000 0.500 0.000 setrgbcolor
fill
grestore
stroke
grestore
} bind def
180.134 202.179 o
grestore
0.000 setgray
gsave
198.134375 198.678750 translate
0.000000 rotate
/DejaVuSans-Oblique findfont
10.0 scalefont
setfont
0.000000 0.406250 moveto
/k glyphshow

/DejaVuSans findfont
10.0 scalefont
setfont
7.739258 0.406250 moveto
/equal glyphshow

18.066406 0.406250 moveto
/one glyphshow

24.428711 0.406250 moveto
/comma glyphshow

27.607422 0.406250 moveto
/space glyphshow

30.786133 0.406250 moveto
/h glyphshow

37.124023 0.406250 moveto
/e glyphshow

43.276367 0.406250 moveto
/x glyphshow


grestore
1.500 setlinewidth
1 setlinejoin
[1.5 2.475] 0 setdash
0.000 0.750 0.750 setrgbcolor
gsave
170.134375 187.17875 m
190.134375 187.17875 l
stroke
grestore
1.000 setlinewidth
0 setlinejoin
[] 0 setdash
gsave
/o {
gsave
newpath
translate
1.0 setlinewidth
0 setlinejoin
0 setlinecap
3 -0 m
-3 3 l
-3 -3 l
cl

gsave
0.000 0.750 0.750 setrgbcolor
fill
grestore
stroke
grestore
} bind def
180.134 187.179 o
grestore
0.000 setgray
gsave
198.134375 183.678750 translate
0.000000 rotate
/DejaVuSans-Oblique findfont
10.0 scalefont
setfont
0.000000 0.406250 moveto
/k glyphshow

/DejaVuSans findfont
10.0 scalefont
setfont
7.739258 0.406250 moveto
/equal glyphshow

18.066406 0.406250 moveto
/one glyphshow

24.428711 0.406250 moveto
/comma glyphshow

27.607422 0.406250 moveto
/space glyphshow

30.786133 0.406250 moveto
/m glyphshow

40.527344 0.406250 moveto
/i glyphshow

43.305664 0.406250 moveto
/x glyphshow

49.223633 0.406250 moveto
/e glyphshow

55.375977 0.406250 moveto
/d glyphshow


grestore
[] 0 setdash
gsave
223.2 221.8 45.93 38.51 clipbox
76.370739 142.91151 m
116.952557 142.91151 l
116.952557 100.91943 l
76.370739 100.91943 l
cl
stroke
grestore
gsave
269.134375 149.3925 m
380.734375 149.3925 l
380.734375 260.2725 l
269.134375 260.2725 l
cl
1.000 setgray
fill
grestore
1.500 setlinewidth
1 setlinejoin
[5.55 2.4] 0 setdash
0.000 0.000 1.000 setrgbcolor
gsave
111.6 110.9 269.1 149.4 clipbox
269.413414 -1 m
269.758142 33.415188 l
270.507442 74.993604 l
271.799971 116.71458 l
273.912395 156.406452 l
277.227905 192.2397 l
282.253625 218.215716 l
289.626144 228.58458 l
300.100473 219.094836 l
314.529907 189.128724 l
333.850099 142.079172 l
359.081743 83.911524 l
391.349023 20.982372 l
405.558709 -1 l
405.558709 -1 l
stroke
grestore
1.000 setlinewidth
[] 0 setdash
gsave
111.6 110.9 269.1 149.4 clipbox
/o {
gsave
newpath
translate
1.0 setlinewidth
1 setlinejoin
0 setlinecap
0 -3 m
0.795609 -3 1.55874 -2.683901 2.12132 -2.12132 c
2.683901 -1.55874 3 -0.795609 3 0 c
3 0.795609 2.683901 1.55874 2.12132 2.12132 c
1.55874 2.683901 0.795609 3 0 3 c
-0.795609 3 -1.55874 2.683901 -2.12132 2.12132 c
-2.683901 1.55874 -3 0.795609 -3 0 c
-3 -0.795609 -2.683901 -1.55874 -2.12132 -2.12132 c
-1.55874 -2.683901 -0.795609 -3 0 -3 c
cl

gsave
0.000 0.000 1.000 setrgbcolor
fill
grestore
stroke
grestore
} bind def
269.413 -1 o
269.758 33.4152 o
270.507 74.9936 o
271.8 116.715 o
273.912 156.406 o
277.228 192.24 o
282.254 218.216 o
289.626 228.585 o
300.1 219.095 o
314.53 189.129 o
333.85 142.079 o
359.082 83.9115 o
391.349 20.9824 o
405.559 -1 o
grestore
1.500 setlinewidth
[5.55 2.4] 0 setdash
1.000 0.000 0.000 setrgbcolor
gsave
111.6 110.9 269.1 149.4 clipbox
269.286913 -1 m
269.35929 14.339076 l
269.758142 54.121236 l
270.507442 95.875476 l
271.799971 139.712676 l
273.912395 177.32634 l
277.227905 213.21978 l
282.253625 238.370532 l
289.626144 248.061444 l
300.100473 237.683076 l
314.529907 206.6145 l
333.850099 158.204292 l
359.081743 98.6649 l
391.349023 34.60794 l
414.073921 -1 l
414.073921 -1 l
stroke
grestore
1.000 setlinewidth
0 setlinejoin
[] 0 setdash
gsave
111.6 110.9 269.1 149.4 clipbox
/o {
gsave
newpath
translate
1.0 setlinewidth
0 setlinejoin
0 setlinecap
0 3 m
-3 -3 l
3 -3 l
cl

gsave
1.000 0.000 0.000 setrgbcolor
fill
grestore
stroke
grestore
} bind def
269.287 -1 o
269.359 14.3391 o
269.758 54.1212 o
270.507 95.8755 o
271.8 139.713 o
273.912 177.326 o
277.228 213.22 o
282.254 238.371 o
289.626 248.061 o
300.1 237.683 o
314.53 206.615 o
333.85 158.204 o
359.082 98.6649 o
391.349 34.6079 o
414.074 -1 o
grestore
1.500 setlinewidth
1 setlinejoin
[1.5 2.475] 0 setdash
0.000 0.500 0.000 setrgbcolor
gsave
111.6 110.9 269.1 149.4 clipbox
269.901671 -1 m
270.507442 30.001668 l
271.799971 71.077956 l
273.912395 111.609348 l
277.227905 148.55298 l
282.253625 175.857972 l
289.626144 187.698372 l
300.100473 180.120516 l
314.529907 153.040452 l
333.850099 110.498964 l
359.081743 58.44714 l
391.349023 2.696676 l
394.071459 -1 l
394.071459 -1 l
stroke
grestore
1.000 setlinewidth
0 setlinejoin
[] 0 setdash
gsave
111.6 110.9 269.1 149.4 clipbox
/o {
gsave
newpath
translate
1.0 setlinewidth
0 setlinejoin
0 setlinecap
-0 -3 m
3 3 l
-3 3 l
cl

gsave
0.000 0.500 0.000 setrgbcolor
fill
grestore
stroke
grestore
} bind def
269.902 -1 o
270.507 30.0017 o
271.8 71.078 o
273.912 111.609 o
277.228 148.553 o
282.254 175.858 o
289.626 187.698 o
300.1 180.121 o
314.53 153.04 o
333.85 110.499 o
359.082 58.4471 o
391.349 2.69668 o
394.071 -1 o
grestore
1.500 setlinewidth
1 setlinejoin
[1.5 2.475] 0 setdash
0.000 0.750 0.750 setrgbcolor
gsave
111.6 110.9 269.1 149.4 clipbox
269.49631 -1 m
269.758142 21.787044 l
270.507442 61.025892 l
271.799971 102.954372 l
273.912395 144.139956 l
277.227905 181.356036 l
282.253625 208.268196 l
289.626144 218.8113 l
300.100473 208.889124 l
314.529907 178.793124 l
333.850099 132.746244 l
359.081743 77.057556 l
391.349023 18.088404 l
404.620595 -1 l
404.620595 -1 l
stroke
grestore
1.000 setlinewidth
0 setlinejoin
[] 0 setdash
gsave
111.6 110.9 269.1 149.4 clipbox
/o {
gsave
newpath
translate
1.0 setlinewidth
0 setlinejoin
0 setlinecap
3 -0 m
-3 3 l
-3 -3 l
cl

gsave
0.000 0.750 0.750 setrgbcolor
fill
grestore
stroke
grestore
} bind def
269.496 -1 o
269.758 21.787 o
270.507 61.0259 o
271.8 102.954 o
273.912 144.14 o
277.228 181.356 o
282.254 208.268 o
289.626 218.811 o
300.1 208.889 o
314.53 178.793 o
333.85 132.746 o
359.082 77.0576 o
391.349 18.0884 o
404.621 -1 o
grestore
1 setlinejoin
2 setlinecap
0.000 setgray
gsave
111.6 110.9 269.1 149.4 clipbox
269.220123 -1 m
269.512135 35.852781 l
269.989276 69.486512 l
270.63453 99.924676 l
271.412435 126.563556 l
272.296839 149.59024 l
273.288489 169.717969 l
274.339769 186.616899 l
275.391101 200.224565 l
276.493025 211.816535 l
277.617476 221.440998 l
278.733085 229.224241 l
279.806555 235.349957 l
280.977768 240.762509 l
282.064688 244.782118 l
283.233004 248.187282 l
284.272141 250.527761 l
285.148343 252.060739 l
286.066021 253.281395 l
287.02666 254.181725 l
287.776233 254.642313 l
288.551463 254.915509 l
289.353002 254.998971 l
290.181509 254.890961 l
291.037658 254.589215 l
292.223346 253.883831 l
293.460992 252.829947 l
294.75224 251.426505 l
296.444219 249.181119 l
298.225852 246.39327 l
300.10049 243.068697 l
302.477605 238.383509 l
305.434309 231.984371 l
309.067063 223.491211 l
313.494872 212.522523 l
320.56992 194.283447 l
335.242814 156.306306 l
342.561307 138.046988 l
348.858183 122.881344 l
355.566963 107.329887 l
361.789192 93.478785 l
368.352968 79.463251 l
374.260515 67.363109 l
380.436514 55.215759 l
386.889349 43.051642 l
393.627604 30.89825 l
399.467191 20.796355 l
405.516285 10.732528 l
411.780179 0.719005 l
412.881889 -1 l
412.881889 -1 l
stroke
grestore
0.800 setlinewidth
0 setlinejoin
[] 0 setdash
gsave
269.134375 149.3925 m
269.134375 260.2725 l
stroke
grestore
gsave
380.734375 149.3925 m
380.734375 260.2725 l
stroke
grestore
gsave
269.134375 149.3925 m
380.734375 149.3925 l
stroke
grestore
gsave
269.134375 260.2725 m
380.734375 260.2725 l
stroke
grestore
/DejaVuSans findfont
11.000 scalefont
setfont
gsave
324.934375 238.096500 translate
0.000000 rotate
0.000000 0.000000 m /parenleft glyphshow
4.291504 0.000000 m /a glyphshow
11.032227 0.000000 m /parenright glyphshow
grestore
gsave
380.734375 149.3925 m
492.334375 149.3925 l
492.334375 260.2725 l
380.734375 260.2725 l
cl
1.000 setgray
fill
grestore
1.500 setlinewidth
1 setlinejoin
0 setlinecap
[5.55 2.4] 0 setdash
0.000 0.000 1.000 setrgbcolor
gsave
111.6 110.9 380.7 149.4 clipbox
273.024459 -1 m
272.20814 38.436626 l
271.102262 121.257492 l
270.348404 203.576388 l
269.897899 272.186264 l
374.454663 272.186264 m
392.529379 246.540804 l
418.466335 217.967028 l
448.289203 191.959332 l
482.196631 168.142308 l
504.034375 155.554414 l
504.034375 155.554414 l
stroke
grestore
1.000 setlinewidth
[] 0 setdash
gsave
111.6 110.9 380.7 149.4 clipbox
/o {
gsave
newpath
translate
1.0 setlinewidth
1 setlinejoin
0 setlinecap
0 -3 m
0.795609 -3 1.55874 -2.683901 2.12132 -2.12132 c
2.683901 -1.55874 3 -0.795609 3 0 c
3 0.795609 2.683901 1.55874 2.12132 2.12132 c
1.55874 2.683901 0.795609 3 0 3 c
-0.795609 3 -1.55874 2.683901 -2.12132 2.12132 c
-2.683901 1.55874 -3 0.795609 -3 0 c
-3 -0.795609 -2.683901 -1.55874 -2.12132 -2.12132 c
-1.55874 -2.683901 -0.795609 -3 0 -3 c
cl

gsave
0.000 0.000 1.000 setrgbcolor
fill
grestore
stroke
grestore
} bind def
273.024 -1 o
272.208 38.4366 o
271.102 121.257 o
270.348 203.576 o
269.898 272.186 o
374.455 272.186 o
392.529 246.541 o
418.466 217.967 o
448.289 191.959 o
482.197 168.142 o
504.034 155.554 o
grestore
1.500 setlinewidth
[5.55 2.4] 0 setdash
1.000 0.000 0.000 setrgbcolor
gsave
111.6 110.9 380.7 149.4 clipbox
273.222678 -1 m
272.20814 49.710905 l
271.102262 135.003444 l
270.348404 219.208884 l
270.00572 272.186264 l
379.109747 272.186264 m
392.529379 252.799188 l
418.466335 223.718532 l
448.289203 197.297412 l
482.196631 173.109732 l
504.034375 160.3356 l
504.034375 160.3356 l
stroke
grestore
1.000 setlinewidth
0 setlinejoin
[] 0 setdash
gsave
111.6 110.9 380.7 149.4 clipbox
/o {
gsave
newpath
translate
1.0 setlinewidth
0 setlinejoin
0 setlinecap
0 3 m
-3 -3 l
3 -3 l
cl

gsave
1.000 0.000 0.000 setrgbcolor
fill
grestore
stroke
grestore
} bind def
273.223 -1 o
272.208 49.7109 o
271.102 135.003 o
270.348 219.209 o
270.006 272.186 o
379.11 272.186 o
392.529 252.799 o
418.466 223.719 o
448.289 197.297 o
482.197 173.11 o
504.034 160.336 o
grestore
1.500 setlinewidth
1 setlinejoin
[1.5 2.475] 0 setdash
0.000 0.500 0.000 setrgbcolor
gsave
111.6 110.9 380.7 149.4 clipbox
272.587275 -1 m
272.20814 17.399206 l
271.102262 100.564116 l
270.348404 182.713524 l
269.780344 272.186264 l
384.420656 272.186264 m
392.529379 260.868084 l
418.466335 232.26738 l
448.289203 205.249092 l
482.196631 180.814308 l
504.034375 167.293406 l
504.034375 167.293406 l
stroke
grestore
1.000 setlinewidth
0 setlinejoin
[] 0 setdash
gsave
111.6 110.9 380.7 149.4 clipbox
/o {
gsave
newpath
translate
1.0 setlinewidth
0 setlinejoin
0 setlinecap
-0 -3 m
3 3 l
-3 3 l
cl

gsave
0.000 0.500 0.000 setrgbcolor
fill
grestore
stroke
grestore
} bind def
272.587 -1 o
272.208 17.3992 o
271.102 100.564 o
270.348 182.714 o
269.851 257.74 o
269.78 272.186 o
384.421 272.186 o
392.529 260.868 o
418.466 232.267 o
448.289 205.249 o
482.197 180.814 o
504.034 167.293 o
grestore
1.500 setlinewidth
1 setlinejoin
[1.5 2.475] 0 setdash
0.000 0.750 0.750 setrgbcolor
gsave
111.6 110.9 380.7 149.4 clipbox
272.782331 -1 m
272.20814 28.032281 l
271.102262 114.63257 l
270.348404 200.010804 l
269.886843 272.186264 l
387.726464 272.186264 m
392.529379 265.494948 l
418.466335 236.395284 l
448.289203 209.057028 l
482.196631 183.359796 l
504.034375 169.667191 l
504.034375 169.667191 l
stroke
grestore
1.000 setlinewidth
0 setlinejoin
[] 0 setdash
gsave
111.6 110.9 380.7 149.4 clipbox
/o {
gsave
newpath
translate
1.0 setlinewidth
0 setlinejoin
0 setlinecap
3 -0 m
-3 3 l
-3 -3 l
cl

gsave
0.000 0.750 0.750 setrgbcolor
fill
grestore
stroke
grestore
} bind def
272.782 -1 o
272.208 28.0323 o
271.102 114.633 o
270.348 200.011 o
269.887 272.186 o
387.726 272.186 o
392.529 265.495 o
418.466 236.395 o
448.289 209.057 o
482.197 183.36 o
504.034 169.667 o
grestore
1 setlinejoin
2 setlinecap
0.000 setgray
gsave
111.6 110.9 380.7 149.4 clipbox
273.113638 -1 m
272.291445 43.211822 l
271.503038 98.367565 l
270.783856 165.203413 l
270.152762 245.295227 l
269.983645 272.186264 l
379.334323 272.186264 m
383.749407 265.858864 l
388.809923 258.98507 l
394.040985 252.263472 l
399.445819 245.688667 l
405.02756 239.255408 l
410.789218 232.958577 l
416.733652 226.793265 l
422.863591 220.754731 l
429.181578 214.838406 l
435.689942 209.039909 l
442.390812 203.35503 l
449.286149 197.779785 l
456.377567 192.310358 l
463.666479 186.943125 l
471.154016 181.674667 l
479.955449 175.770427 l
489.018034 169.986508 l
498.341906 164.318756 l
504.034375 160.988209 l
504.034375 160.988209 l
stroke
grestore
0.800 setlinewidth
0 setlinejoin
[] 0 setdash
gsave
380.734375 149.3925 m
380.734375 260.2725 l
stroke
grestore
gsave
492.334375 149.3925 m
492.334375 260.2725 l
stroke
grestore
gsave
380.734375 149.3925 m
492.334375 149.3925 l
stroke
grestore
gsave
380.734375 260.2725 m
492.334375 260.2725 l
stroke
grestore
gsave
436.534375 238.096500 translate
0.000000 rotate
0.000000 0.000000 m /parenleft glyphshow
4.291504 0.000000 m /b glyphshow
11.273926 0.000000 m /parenright glyphshow
grestore
gsave
269.134375 38.5125 m
380.734375 38.5125 l
380.734375 149.3925 l
269.134375 149.3925 l
cl
1.000 setgray
fill
grestore
1.500 setlinewidth
1 setlinejoin
0 setlinecap
[5.55 2.4] 0 setdash
0.000 0.000 1.000 setrgbcolor
gsave
111.6 110.9 269.1 38.51 clipbox
504.034375 109.137086 m
475.471615 99.818052 l
419.369179 80.830436 l
373.139995 67.394114 l
335.420311 63.210145 l
304.995361 73.133029 l
280.794901 102.932321 l
261.871168 158.480867 l
247.381024 243.990647 l
244.741187 272.186264 l
244.741187 272.186264 l
stroke
grestore
1.000 setlinewidth
[] 0 setdash
gsave
111.6 110.9 269.1 38.51 clipbox
/o {
gsave
newpath
translate
1.0 setlinewidth
1 setlinejoin
0 setlinecap
0 -3 m
0.795609 -3 1.55874 -2.683901 2.12132 -2.12132 c
2.683901 -1.55874 3 -0.795609 3 0 c
3 0.795609 2.683901 1.55874 2.12132 2.12132 c
1.55874 2.683901 0.795609 3 0 3 c
-0.795609 3 -1.55874 2.683901 -2.12132 2.12132 c
-2.683901 1.55874 -3 0.795609 -3 0 c
-3 -0.795609 -2.683901 -1.55874 -2.12132 -2.12132 c
-1.55874 -2.683901 -0.795609 -3 0 -3 c
cl

gsave
0.000 0.000 1.000 setrgbcolor
fill
grestore
stroke
grestore
} bind def
504.034 109.137 o
475.472 99.8181 o
419.369 80.8304 o
373.14 67.3941 o
335.42 63.2101 o
304.995 73.133 o
280.795 102.932 o
261.871 158.481 o
247.381 243.991 o
244.741 272.186 o
grestore
1.500 setlinewidth
[5.55 2.4] 0 setdash
1.000 0.000 0.000 setrgbcolor
gsave
111.6 110.9 269.1 38.51 clipbox
504.034375 104.032409 m
475.471615 94.906652 l
419.369179 76.697529 l
373.139995 64.570759 l
335.420311 62.248407 l
304.995361 74.710735 l
280.794901 107.511957 l
261.871168 166.31804 l
247.381024 255.526836 l
245.878311 272.186264 l
245.878311 272.186264 l
stroke
grestore
1.000 setlinewidth
0 setlinejoin
[] 0 setdash
gsave
111.6 110.9 269.1 38.51 clipbox
/o {
gsave
newpath
translate
1.0 setlinewidth
0 setlinejoin
0 setlinecap
0 3 m
-3 -3 l
3 -3 l
cl

gsave
1.000 0.000 0.000 setrgbcolor
fill
grestore
stroke
grestore
} bind def
504.034 104.032 o
475.472 94.9067 o
419.369 76.6975 o
373.14 64.5708 o
335.42 62.2484 o
304.995 74.7107 o
280.795 107.512 o
261.871 166.318 o
247.381 255.527 o
245.878 272.186 o
grestore
1.500 setlinewidth
1 setlinejoin
[1.5 2.475] 0 setdash
0.000 0.500 0.000 setrgbcolor
gsave
111.6 110.9 269.1 38.51 clipbox
504.034375 109.423486 m
475.471615 98.429426 l
373.139995 56.402113 l
335.420311 45.935624 l
304.995361 49.110294 l
280.794901 72.422814 l
261.871168 122.783926 l
247.381024 205.29878 l
241.080714 272.186264 l
241.080714 272.186264 l
stroke
grestore
1.000 setlinewidth
0 setlinejoin
[] 0 setdash
gsave
111.6 110.9 269.1 38.51 clipbox
/o {
gsave
newpath
translate
1.0 setlinewidth
0 setlinejoin
0 setlinecap
-0 -3 m
3 3 l
-3 3 l
cl

gsave
0.000 0.500 0.000 setrgbcolor
fill
grestore
stroke
grestore
} bind def
504.034 109.423 o
475.472 98.4294 o
419.369 75.3474 o
373.14 56.4021 o
335.42 45.9356 o
304.995 49.1103 o
280.795 72.4228 o
261.871 122.784 o
247.381 205.299 o
241.081 272.186 o
grestore
1.500 setlinewidth
1 setlinejoin
[1.5 2.475] 0 setdash
0.000 0.750 0.750 setrgbcolor
gsave
111.6 110.9 269.1 38.51 clipbox
504.034375 108.210332 m
475.471615 97.533049 l
419.369179 74.490142 l
373.139995 56.431292 l
335.420311 47.674689 l
304.995361 52.118643 l
280.794901 77.471647 l
261.871168 129.79942 l
247.381024 214.88669 l
242.170513 272.186264 l
242.170513 272.186264 l
stroke
grestore
1.000 setlinewidth
0 setlinejoin
[] 0 setdash
gsave
111.6 110.9 269.1 38.51 clipbox
/o {
gsave
newpath
translate
1.0 setlinewidth
0 setlinejoin
0 setlinecap
3 -0 m
-3 3 l
-3 -3 l
cl

gsave
0.000 0.750 0.750 setrgbcolor
fill
grestore
stroke
grestore
} bind def
504.034 108.21 o
475.472 97.533 o
419.369 74.4901 o
373.14 56.4313 o
335.42 47.6747 o
304.995 52.1186 o
280.795 77.4716 o
261.871 129.799 o
247.381 214.887 o
242.171 272.186 o
grestore
1 setlinejoin
2 setlinecap
0.000 setgray
gsave
111.6 110.9 269.1 38.51 clipbox
504.034375 103.414891 m
477.400247 94.694673 l
425.812394 77.747083 l
411.531373 73.309826 l
399.47819 69.788153 l
389.40866 67.077556 l
381.120617 65.060657 l
373.139891 63.35424 l
366.717835 62.189393 l
360.49836 61.276261 l
354.476684 60.632478 l
349.798605 60.323665 l
345.241757 60.208739 l
340.8038 60.297682 l
336.482459 60.60079 l
332.275489 61.128741 l
328.180655 61.892355 l
324.195785 62.902761 l
320.318728 64.171334 l
316.547372 65.70964 l
313.786968 67.047485 l
311.083987 68.548694 l
308.437579 70.218361 l
305.84688 72.061636 l
303.31106 74.083613 l
300.829306 76.289477 l
298.400804 78.684408 l
296.024732 81.273609 l
293.700301 84.062226 l
291.42672 87.055425 l
288.473042 91.373426 l
285.606566 96.076034 l
282.825488 101.174918 l
280.128058 106.681193 l
277.512518 112.60625 l
274.977155 118.960368 l
272.520273 125.754191 l
270.140205 132.997492 l
267.835303 140.699126 l
265.603941 148.867108 l
263.444503 157.508484 l
261.355418 166.629305 l
258.840608 178.712524 l
256.430247 191.561653 l
254.121368 205.180291 l
251.911034 219.570308 l
249.79636 234.729791 l
247.774496 250.653356 l
245.466796 270.756674 l
245.312712 272.186264 l
245.312712 272.186264 l
stroke
grestore
0.800 setlinewidth
0 setlinejoin
[] 0 setdash
gsave
269.134375 38.5125 m
269.134375 149.3925 l
stroke
grestore
gsave
380.734375 38.5125 m
380.734375 149.3925 l
stroke
grestore
gsave
269.134375 38.5125 m
380.734375 38.5125 l
stroke
grestore
gsave
269.134375 149.3925 m
380.734375 149.3925 l
stroke
grestore
gsave
324.934375 127.216500 translate
0.000000 rotate
0.000000 0.000000 m /parenleft glyphshow
4.291504 0.000000 m /c glyphshow
10.339355 0.000000 m /parenright glyphshow
grestore
gsave
380.734375 38.5125 m
492.334375 38.5125 l
492.334375 149.3925 l
380.734375 149.3925 l
cl
1.000 setgray
fill
grestore
1.500 setlinewidth
1 setlinejoin
0 setlinecap
[5.55 2.4] 0 setdash
0.000 0.000 1.000 setrgbcolor
gsave
111.6 110.9 380.7 38.51 clipbox
492.334375 105.936549 m
491.363455 117.534597 l
490.182727 107.00169 l
488.754247 109.869601 l
487.019983 106.753596 l
484.919671 103.359282 l
482.372959 100.718259 l
479.290567 99.075849 l
475.560895 98.232468 l
471.047791 98.051595 l
465.592783 98.390472 l
459.003919 99.149307 l
429.976759 103.13475 l
416.160679 104.748054 l
399.617095 106.360665 l
379.861663 107.902036 l
356.354239 109.329754 l
328.489951 110.633079 l
295.621519 111.818248 l
257.063719 112.921781 l
212.131327 113.97327 l
160.165903 114.940629 l
100.604983 115.753379 l
33.022255 116.182 l
-1 116.052053 l
-1 263.723542 m
33.022255 250.562184 l
100.604983 225.525619 l
212.131327 185.523164 l
257.063719 169.126507 l
356.354239 132.168401 l
379.861663 123.747342 l
399.617095 117.013184 l
416.160679 111.71603 l
429.976759 107.603907 l
441.487183 104.429967 l
451.057999 101.989221 l
459.003919 100.140297 l
465.592783 98.780631 l
471.047791 97.823598 l
479.290567 96.74529 l
484.919671 96.13545 l
487.019983 95.610156 l
488.754247 96.137529 l
490.182727 92.369688 l
491.363455 88.462554 l
492.334375 105.936549 l
492.334375 105.936549 l
stroke
grestore
1.000 setlinewidth
[] 0 setdash
gsave
111.6 110.9 380.7 38.51 clipbox
/o {
gsave
newpath
translate
1.0 setlinewidth
1 setlinejoin
0 setlinecap
0 -3 m
0.795609 -3 1.55874 -2.683901 2.12132 -2.12132 c
2.683901 -1.55874 3 -0.795609 3 0 c
3 0.795609 2.683901 1.55874 2.12132 2.12132 c
1.55874 2.683901 0.795609 3 0 3 c
-0.795609 3 -1.55874 2.683901 -2.12132 2.12132 c
-2.683901 1.55874 -3 0.795609 -3 0 c
-3 -0.795609 -2.683901 -1.55874 -2.12132 -2.12132 c
-1.55874 -2.683901 -0.795609 -3 0 -3 c
cl

gsave
0.000 0.000 1.000 setrgbcolor
fill
grestore
stroke
grestore
} bind def
492.334 105.937 o
487.02 106.754 o
475.561 98.2325 o
451.058 100.246 o
399.617 106.361 o
295.622 111.818 o
100.605 115.753 o
-1 114.702 o
-1 265.79 o
100.605 225.526 o
295.622 154.797 o
399.617 117.013 o
451.058 101.989 o
475.561 97.1798 o
487.02 95.6102 o
492.334 105.937 o
grestore
1.500 setlinewidth
[5.55 2.4] 0 setdash
1.000 0.000 0.000 setrgbcolor
gsave
111.6 110.9 380.7 38.51 clipbox
492.334375 68.469504 m
491.363455 80.475729 l
490.182727 68.456337 l
488.754247 68.922726 l
487.019983 74.154876 l
484.919671 70.202004 l
482.372959 67.937973 l
479.290567 66.834717 l
475.560895 66.630282 l
471.047791 67.637904 l
465.592783 69.599094 l
459.003919 71.806299 l
441.487183 76.624728 l
429.976759 79.662147 l
416.160679 82.957362 l
399.617095 86.34336 l
379.861663 89.723814 l
356.354239 93.053679 l
328.489951 96.276129 l
295.621519 99.314241 l
257.063719 102.059907 l
212.131327 104.389773 l
160.165903 106.17702 l
100.604983 107.298987 l
33.022255 107.630241 l
-1 107.376133 l
26.463366 272.186264 m
33.022255 269.375748 l
100.604983 239.718952 l
160.165903 213.026047 l
212.131327 189.410617 l
257.063719 168.730665 l
295.621519 150.634425 l
328.489951 134.804642 l
356.354239 121.04381 l
416.160679 91.087638 l
429.976759 84.436224 l
441.487183 79.164573 l
451.057999 75.065478 l
471.047791 67.056477 l
475.560895 65.535342 l
479.290567 64.608801 l
482.372959 63.998268 l
484.919671 63.748788 l
487.019983 62.751561 l
488.754247 64.091823 l
490.182727 57.961545 l
491.363455 36.799404 l
492.334375 68.469504 l
492.334375 68.469504 l
stroke
grestore
1.000 setlinewidth
0 setlinejoin
[] 0 setdash
gsave
111.6 110.9 380.7 38.51 clipbox
/o {
gsave
newpath
translate
1.0 setlinewidth
0 setlinejoin
0 setlinecap
0 3 m
-3 -3 l
3 -3 l
cl

gsave
1.000 0.000 0.000 setrgbcolor
fill
grestore
stroke
grestore
} bind def
492.334 68.4695 o
487.02 74.1549 o
475.561 66.6303 o
451.058 74.0294 o
399.617 86.3434 o
295.622 99.3142 o
100.605 107.299 o
-1 105.914 o
24.3077 272.186 o
100.605 239.719 o
295.622 150.634 o
399.617 99.3004 o
451.058 75.0655 o
475.561 65.5353 o
487.02 62.7516 o
492.334 68.4695 o
grestore
1.500 setlinewidth
1 setlinejoin
[1.5 2.475] 0 setdash
0.000 0.500 0.000 setrgbcolor
gsave
111.6 110.9 380.7 38.51 clipbox
492.334375 68.764029 m
491.363455 77.450784 l
490.182727 63.926889 l
488.754247 60.759879 l
487.019983 69.922725 l
484.919671 71.59632 l
479.290567 74.399505 l
471.047791 78.192987 l
465.592783 80.479194 l
459.003919 82.992012 l
451.057999 85.681545 l
441.487183 88.46394 l
429.976759 91.237326 l
416.160679 93.976755 l
399.617095 96.646191 l
379.861663 99.211677 l
356.354239 101.73489 l
328.489951 104.072379 l
295.621519 106.257408 l
257.063719 108.19268 l
212.131327 109.738486 l
160.165903 110.812705 l
100.604983 111.451443 l
33.022255 111.373411 l
-1 111.074547 l
36.011434 272.186264 m
100.604983 246.302937 l
160.165903 222.981061 l
212.131327 203.362716 l
257.063719 186.651853 l
295.621519 171.803545 l
328.489951 158.103441 l
356.354239 145.37109 l
379.861663 133.858212 l
399.617095 123.782685 l
416.160679 115.016304 l
451.057999 96.14238 l
459.003919 92.007942 l
465.592783 88.730052 l
471.047791 86.148627 l
479.290567 82.594923 l
484.919671 80.532555 l
488.754247 79.330893 l
490.182727 81.514536 l
491.363455 71.566521 l
492.334375 68.764029 l
492.334375 68.764029 l
stroke
grestore
1.000 setlinewidth
0 setlinejoin
[] 0 setdash
gsave
111.6 110.9 380.7 38.51 clipbox
/o {
gsave
newpath
translate
1.0 setlinewidth
0 setlinejoin
0 setlinecap
-0 -3 m
3 3 l
-3 3 l
cl

gsave
0.000 0.500 0.000 setrgbcolor
fill
grestore
stroke
grestore
} bind def
492.334 68.764 o
487.02 69.9227 o
475.561 76.1632 o
451.058 85.6815 o
399.617 96.6462 o
295.622 106.257 o
100.605 111.451 o
-1 109.723 o
33.9795 272.186 o
100.605 246.303 o
295.622 171.804 o
399.617 123.783 o
451.058 96.1424 o
475.561 84.1396 o
487.02 79.9116 o
492.334 68.764 o
grestore
1.500 setlinewidth
1 setlinejoin
[1.5 2.475] 0 setdash
0.000 0.750 0.750 setrgbcolor
gsave
111.6 110.9 380.7 38.51 clipbox
492.334375 58.259535 m
491.363455 67.601175 l
490.182727 54.033621 l
488.754247 51.782064 l
487.019983 60.650385 l
484.919671 62.590785 l
479.290567 66.156963 l
475.560895 68.405748 l
471.047791 70.727991 l
465.592783 72.34476 l
459.003919 73.822236 l
451.057999 76.917174 l
441.487183 80.110518 l
429.976759 83.251194 l
416.160679 86.29485 l
399.617095 89.463939 l
379.861663 92.628177 l
356.354239 95.741826 l
328.489951 98.719647 l
295.621519 101.493726 l
257.063719 103.879725 l
212.131327 105.958032 l
160.165903 107.44521 l
100.604983 108.284225 l
33.022255 108.499332 l
-1 108.167126 l
42.925843 272.186264 m
100.604983 248.650197 l
160.165903 224.093396 l
212.131327 200.056413 l
257.063719 180.07942 l
295.621519 163.08223 l
328.489951 147.004422 l
356.354239 132.294943 l
379.861663 119.511241 l
399.617095 108.901688 l
416.160679 100.271274 l
429.976759 93.298308 l
441.487183 87.648279 l
451.057999 83.161104 l
459.003919 79.086957 l
465.592783 76.859655 l
482.372959 69.542961 l
484.919671 68.560287 l
488.754247 67.32744 l
490.182727 69.313578 l
491.363455 60.278244 l
492.334375 58.259535 l
492.334375 58.259535 l
stroke
grestore
1.000 setlinewidth
0 setlinejoin
[] 0 setdash
gsave
111.6 110.9 380.7 38.51 clipbox
/o {
gsave
newpath
translate
1.0 setlinewidth
0 setlinejoin
0 setlinecap
3 -0 m
-3 3 l
-3 -3 l
cl

gsave
0.000 0.750 0.750 setrgbcolor
fill
grestore
stroke
grestore
} bind def
492.334 58.2595 o
487.02 60.6504 o
475.561 68.4057 o
451.058 76.9172 o
399.617 89.4639 o
295.622 101.494 o
100.605 108.284 o
-1 106.741 o
41.2084 272.186 o
100.605 248.65 o
295.622 163.082 o
399.617 108.902 o
451.058 83.1611 o
475.561 72.4425 o
487.02 67.8846 o
492.334 58.2595 o
grestore
1 setlinejoin
2 setlinecap
0.000 setgray
gsave
111.6 110.9 380.7 38.51 clipbox
492.334375 46.353382 m
492.306703 46.097378 l
492.306703 46.097378 l
492.306703 46.097378 l
492.278898 46.176159 l
492.22289 46.089674 l
491.96187 45.935995 l
491.623156 46.04905 l
490.946527 46.565333 l
483.865203 52.677478 l
480.61483 54.978068 l
476.923569 57.317868 l
472.695769 59.727125 l
468.105706 62.089065 l
462.861498 64.53182 l
457.154985 66.940467 l
450.785545 69.378565 l
444.048656 71.719955 l
436.710038 74.038824 l
428.785123 76.314641 l
419.852582 78.639705 l
410.30075 80.887444 l
400.179651 83.040448 l
388.933454 85.197407 l
377.141137 87.23145 l
364.139109 89.242743 l
350.653224 91.108345 l
335.899624 92.927669 l
319.781058 94.686907 l
302.196552 96.371568 l
284.215327 97.875484 l
264.758051 99.286957 l
243.738515 100.592672 l
221.071707 101.77913 l
196.67581 102.832764 l
170.473263 103.740066 l
142.39329 104.487736 l
112.37323 105.062762 l
80.360932 105.452531 l
46.317151 105.644826 l
10.217939 105.627808 l
-1 105.58015 l
39.189877 272.186264 m
72.041694 258.012016 l
104.558736 243.745232 l
135.072498 230.106041 l
163.631939 217.089126 l
190.297457 204.692116 l
216.631578 192.198692 l
242.370888 179.731452 l
267.273924 167.418015 l
292.258646 154.810998 l
317.790284 141.668593 l
343.874162 127.984366 l
371.518038 113.227042 l
402.947764 96.190354 l
439.824979 75.943971 l
465.404112 61.685051 l
478.862725 53.947194 l
487.428083 48.774276 l
492.137479 45.978674 l
492.278898 45.992192 l
492.306703 45.582002 l
492.306703 45.582002 l
stroke
grestore
0.800 setlinewidth
0 setlinejoin
[] 0 setdash
gsave
380.734375 38.5125 m
380.734375 149.3925 l
stroke
grestore
gsave
492.334375 38.5125 m
492.334375 149.3925 l
stroke
grestore
gsave
380.734375 38.5125 m
492.334375 38.5125 l
stroke
grestore
gsave
380.734375 149.3925 m
492.334375 149.3925 l
stroke
grestore
gsave
436.534375 127.216500 translate
0.000000 rotate
0.000000 0.000000 m /parenleft glyphshow
4.291504 0.000000 m /d glyphshow
11.273926 0.000000 m /parenright glyphshow
grestore

end
showpage
