%!PS-Adobe-3.0 EPSF-3.0
%%Title: plots/ptc.eps
%%Creator: matplotlib version 1.5.1, http://matplotlib.org/
%%CreationDate: Wed Jun 14 14:19:32 2017
%%Orientation: portrait
%%BoundingBox: -110 175 722 616
%%EndComments
%%BeginProlog
/mpldict 12 dict def
mpldict begin
/m { moveto } bind def
/l { lineto } bind def
/r { rlineto } bind def
/c { curveto } bind def
/cl { closepath } bind def
/box {
m
1 index 0 r
0 exch r
neg 0 r
cl
} bind def
/clipbox {
box
clip
newpath
} bind def
%!PS-Adobe-3.0 Resource-Font
%%Title: Bitstream Vera Sans
%%Copyright: Copyright (c) 2003 by Bitstream, Inc. All Rights Reserved.
%%Creator: Converted from TrueType to type 3 by PPR
25 dict begin
/_d{bind def}bind def
/_m{moveto}_d
/_l{lineto}_d
/_cl{closepath eofill}_d
/_c{curveto}_d
/_sc{7 -1 roll{setcachedevice}{pop pop pop pop pop pop}ifelse}_d
/_e{exec}_d
/FontName /BitstreamVeraSans-Roman def
/PaintType 0 def
/FontMatrix[.001 0 0 .001 0 0]def
/FontBBox[-183 -236 1287 928]def
/FontType 3 def
/Encoding [ /space /hyphen /zero /one /two /three /four /five /six /seven /eight /C /H /M /P /T /a /d /e /i /n /o /r /t /x ] def
/FontInfo 10 dict dup begin
/FamilyName (Bitstream Vera Sans) def
/FullName (Bitstream Vera Sans) def
/Notice (Copyright (c) 2003 by Bitstream, Inc. All Rights Reserved. Bitstream Vera is a trademark of Bitstream, Inc.) def
/Weight (Roman) def
/Version (Release 1.10) def
/ItalicAngle 0.0 def
/isFixedPitch false def
/UnderlinePosition -213 def
/UnderlineThickness 143 def
end readonly def
/CharStrings 25 dict dup begin
/space{318 0 0 0 0 0 _sc
}_d
/hyphen{361 0 49 234 312 314 _sc
49 314 _m
312 314 _l
312 234 _l
49 234 _l
49 314 _l
_cl}_d
/zero{636 0 66 -13 570 742 _sc
318 664 _m
267 664 229 639 203 589 _c
177 539 165 464 165 364 _c
165 264 177 189 203 139 _c
229 89 267 64 318 64 _c
369 64 407 89 433 139 _c
458 189 471 264 471 364 _c
471 464 458 539 433 589 _c
407 639 369 664 318 664 _c
318 742 _m
399 742 461 709 505 645 _c
548 580 570 486 570 364 _c
570 241 548 147 505 83 _c
461 19 399 -13 318 -13 _c
236 -13 173 19 130 83 _c
87 147 66 241 66 364 _c
66 486 87 580 130 645 _c
173 709 236 742 318 742 _c
_cl}_d
/one{636 0 110 0 544 729 _sc
124 83 _m
285 83 _l
285 639 _l
110 604 _l
110 694 _l
284 729 _l
383 729 _l
383 83 _l
544 83 _l
544 0 _l
124 0 _l
124 83 _l
_cl}_d
/two{{636 0 73 0 536 742 _sc
192 83 _m
536 83 _l
536 0 _l
73 0 _l
73 83 _l
110 121 161 173 226 239 _c
290 304 331 346 348 365 _c
380 400 402 430 414 455 _c
426 479 433 504 433 528 _c
433 566 419 598 392 622 _c
365 646 330 659 286 659 _c
255 659 222 653 188 643 _c
154 632 117 616 78 594 _c
78 694 _l
118 710 155 722 189 730 _c
223 738 255 742 284 742 _c
}_e{359 742 419 723 464 685 _c
509 647 532 597 532 534 _c
532 504 526 475 515 449 _c
504 422 484 390 454 354 _c
446 344 420 317 376 272 _c
332 227 271 164 192 83 _c
_cl}_e}_d
/three{{636 0 76 -13 556 742 _sc
406 393 _m
453 383 490 362 516 330 _c
542 298 556 258 556 212 _c
556 140 531 84 482 45 _c
432 6 362 -13 271 -13 _c
240 -13 208 -10 176 -4 _c
144 1 110 10 76 22 _c
76 117 _l
103 101 133 89 166 81 _c
198 73 232 69 268 69 _c
330 69 377 81 409 105 _c
441 129 458 165 458 212 _c
458 254 443 288 413 312 _c
383 336 341 349 287 349 _c
}_e{202 349 _l
202 430 _l
291 430 _l
339 430 376 439 402 459 _c
428 478 441 506 441 543 _c
441 580 427 609 401 629 _c
374 649 336 659 287 659 _c
260 659 231 656 200 650 _c
169 644 135 635 98 623 _c
98 711 _l
135 721 170 729 203 734 _c
235 739 266 742 296 742 _c
370 742 429 725 473 691 _c
517 657 539 611 539 553 _c
539 513 527 479 504 451 _c
481 423 448 403 406 393 _c
_cl}_e}_d
/four{636 0 49 0 580 729 _sc
378 643 _m
129 254 _l
378 254 _l
378 643 _l
352 729 _m
476 729 _l
476 254 _l
580 254 _l
580 172 _l
476 172 _l
476 0 _l
378 0 _l
378 172 _l
49 172 _l
49 267 _l
352 729 _l
_cl}_d
/five{{636 0 77 -13 549 729 _sc
108 729 _m
495 729 _l
495 646 _l
198 646 _l
198 467 _l
212 472 227 476 241 478 _c
255 480 270 482 284 482 _c
365 482 429 459 477 415 _c
525 370 549 310 549 234 _c
549 155 524 94 475 51 _c
426 8 357 -13 269 -13 _c
238 -13 207 -10 175 -6 _c
143 -1 111 6 77 17 _c
77 116 _l
106 100 136 88 168 80 _c
199 72 232 69 267 69 _c
}_e{323 69 368 83 401 113 _c
433 143 450 183 450 234 _c
450 284 433 324 401 354 _c
368 384 323 399 267 399 _c
241 399 214 396 188 390 _c
162 384 135 375 108 363 _c
108 729 _l
_cl}_e}_d
/six{{636 0 70 -13 573 742 _sc
330 404 _m
286 404 251 388 225 358 _c
199 328 186 286 186 234 _c
186 181 199 139 225 109 _c
251 79 286 64 330 64 _c
374 64 409 79 435 109 _c
461 139 474 181 474 234 _c
474 286 461 328 435 358 _c
409 388 374 404 330 404 _c
526 713 _m
526 623 _l
501 635 476 644 451 650 _c
425 656 400 659 376 659 _c
310 659 260 637 226 593 _c
}_e{192 549 172 482 168 394 _c
187 422 211 444 240 459 _c
269 474 301 482 336 482 _c
409 482 467 459 509 415 _c
551 371 573 310 573 234 _c
573 159 550 99 506 54 _c
462 9 403 -13 330 -13 _c
246 -13 181 19 137 83 _c
92 147 70 241 70 364 _c
70 479 97 571 152 639 _c
206 707 280 742 372 742 _c
396 742 421 739 447 735 _c
472 730 498 723 526 713 _c
_cl}_e}_d
/seven{636 0 82 0 551 729 _sc
82 729 _m
551 729 _l
551 687 _l
286 0 _l
183 0 _l
432 646 _l
82 646 _l
82 729 _l
_cl}_d
/eight{{636 0 68 -13 568 742 _sc
318 346 _m
271 346 234 333 207 308 _c
180 283 167 249 167 205 _c
167 161 180 126 207 101 _c
234 76 271 64 318 64 _c
364 64 401 76 428 102 _c
455 127 469 161 469 205 _c
469 249 455 283 429 308 _c
402 333 365 346 318 346 _c
219 388 _m
177 398 144 418 120 447 _c
96 476 85 511 85 553 _c
85 611 105 657 147 691 _c
188 725 245 742 318 742 _c
}_e{390 742 447 725 489 691 _c
530 657 551 611 551 553 _c
551 511 539 476 515 447 _c
491 418 459 398 417 388 _c
464 377 501 355 528 323 _c
554 291 568 251 568 205 _c
568 134 546 80 503 43 _c
459 5 398 -13 318 -13 _c
237 -13 175 5 132 43 _c
89 80 68 134 68 205 _c
68 251 81 291 108 323 _c
134 355 171 377 219 388 _c
183 544 _m
183 506 194 476 218 455 _c
}_e{242 434 275 424 318 424 _c
360 424 393 434 417 455 _c
441 476 453 506 453 544 _c
453 582 441 611 417 632 _c
393 653 360 664 318 664 _c
275 664 242 653 218 632 _c
194 611 183 582 183 544 _c
_cl}_e}_d
/C{{698 0 56 -13 644 742 _sc
644 673 _m
644 569 _l
610 599 575 622 537 638 _c
499 653 460 661 418 661 _c
334 661 270 635 226 584 _c
182 533 160 460 160 364 _c
160 268 182 194 226 143 _c
270 92 334 67 418 67 _c
460 67 499 74 537 90 _c
575 105 610 128 644 159 _c
644 56 _l
609 32 572 15 534 4 _c
496 -7 455 -13 412 -13 _c
302 -13 215 20 151 87 _c
}_e{87 154 56 246 56 364 _c
56 481 87 573 151 641 _c
215 708 302 742 412 742 _c
456 742 497 736 535 725 _c
573 713 610 696 644 673 _c
_cl}_e}_d
/H{752 0 98 0 654 729 _sc
98 729 _m
197 729 _l
197 430 _l
555 430 _l
555 729 _l
654 729 _l
654 0 _l
555 0 _l
555 347 _l
197 347 _l
197 0 _l
98 0 _l
98 729 _l
_cl}_d
/M{863 0 98 0 765 729 _sc
98 729 _m
245 729 _l
431 233 _l
618 729 _l
765 729 _l
765 0 _l
669 0 _l
669 640 _l
481 140 _l
382 140 _l
194 640 _l
194 0 _l
98 0 _l
98 729 _l
_cl}_d
/P{603 0 98 0 569 729 _sc
197 648 _m
197 374 _l
321 374 _l
367 374 402 385 427 409 _c
452 433 465 467 465 511 _c
465 555 452 588 427 612 _c
402 636 367 648 321 648 _c
197 648 _l
98 729 _m
321 729 _l
402 729 464 710 506 673 _c
548 636 569 582 569 511 _c
569 439 548 384 506 348 _c
464 311 402 293 321 293 _c
197 293 _l
197 0 _l
98 0 _l
98 729 _l
_cl}_d
/T{611 0 -2 0 614 729 _sc
-2 729 _m
614 729 _l
614 646 _l
355 646 _l
355 0 _l
256 0 _l
256 646 _l
-2 646 _l
-2 729 _l
_cl}_d
/a{{613 0 60 -13 522 560 _sc
343 275 _m
270 275 220 266 192 250 _c
164 233 150 205 150 165 _c
150 133 160 107 181 89 _c
202 70 231 61 267 61 _c
317 61 357 78 387 114 _c
417 149 432 196 432 255 _c
432 275 _l
343 275 _l
522 312 _m
522 0 _l
432 0 _l
432 83 _l
411 49 385 25 355 10 _c
325 -5 287 -13 243 -13 _c
187 -13 142 2 109 33 _c
76 64 60 106 60 159 _c
}_e{60 220 80 266 122 298 _c
163 329 224 345 306 345 _c
432 345 _l
432 354 _l
432 395 418 427 391 450 _c
364 472 326 484 277 484 _c
245 484 215 480 185 472 _c
155 464 127 453 100 439 _c
100 522 _l
132 534 164 544 195 550 _c
226 556 256 560 286 560 _c
365 560 424 539 463 498 _c
502 457 522 395 522 312 _c
_cl}_e}_d
/d{{635 0 55 -13 544 760 _sc
454 464 _m
454 760 _l
544 760 _l
544 0 _l
454 0 _l
454 82 _l
435 49 411 25 382 10 _c
353 -5 319 -13 279 -13 _c
213 -13 159 13 117 65 _c
75 117 55 187 55 273 _c
55 359 75 428 117 481 _c
159 533 213 560 279 560 _c
319 560 353 552 382 536 _c
411 520 435 496 454 464 _c
148 273 _m
148 207 161 155 188 117 _c
215 79 253 61 301 61 _c
}_e{348 61 385 79 413 117 _c
440 155 454 207 454 273 _c
454 339 440 390 413 428 _c
385 466 348 485 301 485 _c
253 485 215 466 188 428 _c
161 390 148 339 148 273 _c
_cl}_e}_d
/e{{615 0 55 -13 562 560 _sc
562 296 _m
562 252 _l
149 252 _l
153 190 171 142 205 110 _c
238 78 284 62 344 62 _c
378 62 412 66 444 74 _c
476 82 509 95 541 113 _c
541 28 _l
509 14 476 3 442 -3 _c
408 -9 373 -13 339 -13 _c
251 -13 182 12 131 62 _c
80 112 55 181 55 268 _c
55 357 79 428 127 481 _c
175 533 241 560 323 560 _c
397 560 455 536 498 489 _c
}_e{540 441 562 377 562 296 _c
472 322 _m
471 371 457 410 431 440 _c
404 469 368 484 324 484 _c
274 484 234 469 204 441 _c
174 413 156 373 152 322 _c
472 322 _l
_cl}_e}_d
/i{278 0 94 0 184 760 _sc
94 547 _m
184 547 _l
184 0 _l
94 0 _l
94 547 _l
94 760 _m
184 760 _l
184 646 _l
94 646 _l
94 760 _l
_cl}_d
/n{634 0 91 0 549 560 _sc
549 330 _m
549 0 _l
459 0 _l
459 327 _l
459 379 448 417 428 443 _c
408 469 378 482 338 482 _c
289 482 251 466 223 435 _c
195 404 181 362 181 309 _c
181 0 _l
91 0 _l
91 547 _l
181 547 _l
181 462 _l
202 494 227 519 257 535 _c
286 551 320 560 358 560 _c
420 560 468 540 500 501 _c
532 462 549 405 549 330 _c
_cl}_d
/o{612 0 55 -13 557 560 _sc
306 484 _m
258 484 220 465 192 427 _c
164 389 150 338 150 273 _c
150 207 163 156 191 118 _c
219 80 257 62 306 62 _c
354 62 392 80 420 118 _c
448 156 462 207 462 273 _c
462 337 448 389 420 427 _c
392 465 354 484 306 484 _c
306 560 _m
384 560 445 534 490 484 _c
534 433 557 363 557 273 _c
557 183 534 113 490 63 _c
445 12 384 -13 306 -13 _c
227 -13 165 12 121 63 _c
77 113 55 183 55 273 _c
55 363 77 433 121 484 _c
165 534 227 560 306 560 _c
_cl}_d
/r{411 0 91 0 411 560 _sc
411 463 _m
401 469 390 473 378 476 _c
366 478 353 480 339 480 _c
288 480 249 463 222 430 _c
194 397 181 350 181 288 _c
181 0 _l
91 0 _l
91 547 _l
181 547 _l
181 462 _l
199 495 224 520 254 536 _c
284 552 321 560 365 560 _c
371 560 378 559 386 559 _c
393 558 401 557 411 555 _c
411 463 _l
_cl}_d
/t{392 0 27 0 368 702 _sc
183 702 _m
183 547 _l
368 547 _l
368 477 _l
183 477 _l
183 180 _l
183 135 189 106 201 94 _c
213 81 238 75 276 75 _c
368 75 _l
368 0 _l
276 0 _l
206 0 158 13 132 39 _c
106 65 93 112 93 180 _c
93 477 _l
27 477 _l
27 547 _l
93 547 _l
93 702 _l
183 702 _l
_cl}_d
/x{592 0 29 0 559 547 _sc
549 547 _m
351 281 _l
559 0 _l
453 0 _l
294 215 _l
135 0 _l
29 0 _l
241 286 _l
47 547 _l
153 547 _l
298 352 _l
443 547 _l
549 547 _l
_cl}_d
end readonly def

/BuildGlyph
 {exch begin
 CharStrings exch
 2 copy known not{pop /.notdef}if
 true 3 1 roll get exec
 end}_d

/BuildChar {
 1 index /Encoding get exch get
 1 index /BuildGlyph get exec
}_d

FontName currentdict end definefont pop
%!PS-Adobe-3.0 Resource-Font
%%Title: cmr10
%%Copyright: Copyright (C) 1994, Basil K. Malyshev. All Rights Reserved.012BaKoMa Fonts Collection, Level-B.
%%Creator: Converted from TrueType to type 3 by PPR
25 dict begin
/_d{bind def}bind def
/_m{moveto}_d
/_l{lineto}_d
/_cl{closepath eofill}_d
/_c{curveto}_d
/_sc{7 -1 roll{setcachedevice}{pop pop pop pop pop pop}ifelse}_d
/_e{exec}_d
/FontName /Cmr10 def
/PaintType 0 def
/FontMatrix[.001 0 0 .001 0 0]def
/FontBBox[-44 -250 1009 750]def
/FontType 3 def
/Encoding [ /equal /two /parenright /one /three /parenleft ] def
/FontInfo 10 dict dup begin
/FamilyName (cmr10) def
/FullName (cmr10) def
/Notice (Copyright (C) 1994, Basil K. Malyshev. All Rights Reserved.012BaKoMa Fonts Collection, Level-B. ) def
/Weight (Regular) def
/Version (1.1/12-Nov-94) def
/ItalicAngle 0.0 def
/isFixedPitch false def
/UnderlinePosition -133 def
/UnderlineThickness 20 def
end readonly def
/CharStrings 6 dict dup begin
/equal{{777 0 56 133 721 367 _sc
75 133 _m
69 133 65 135 61 139 _c
57 143 56 148 56 153 _c
56 158 57 163 61 167 _c
65 171 69 173 75 173 _c
703 173 _l
707 173 711 171 715 167 _c
719 163 721 158 721 153 _c
721 148 719 143 715 139 _c
711 135 707 133 703 133 _c
75 133 _l
75 327 _m
69 327 65 329 61 333 _c
57 337 56 341 56 347 _c
56 351 57 356 61 360 _c
}_e{65 364 69 367 75 367 _c
703 367 _l
707 367 711 364 715 360 _c
719 356 721 351 721 347 _c
721 341 719 337 715 333 _c
711 329 707 327 703 327 _c
75 327 _l
_cl}_e}_d
/two{{500 0 50 0 449 666 _sc
50 0 _m
50 27 _l
50 28 50 30 52 32 _c
207 204 _l
230 229 249 250 264 268 _c
278 285 293 305 307 327 _c
321 349 333 372 341 396 _c
349 419 354 444 354 470 _c
354 497 349 523 339 548 _c
329 573 314 593 294 608 _c
274 623 249 631 221 631 _c
192 631 166 622 143 605 _c
119 587 103 565 94 537 _c
96 537 100 538 105 538 _c
}_e{119 538 132 533 143 523 _c
153 513 159 500 159 484 _c
159 468 153 455 143 445 _c
132 434 119 429 105 429 _c
89 429 76 434 66 445 _c
55 456 50 469 50 484 _c
50 508 54 532 64 554 _c
73 576 86 595 104 613 _c
122 630 142 643 164 652 _c
186 661 210 666 236 666 _c
274 666 309 658 342 642 _c
375 626 401 603 420 573 _c
439 543 449 509 449 470 _c
}_e{449 441 442 414 430 388 _c
417 362 401 338 381 317 _c
361 295 336 271 305 244 _c
274 217 254 199 244 190 _c
131 81 _l
227 81 _l
274 81 313 81 345 82 _c
377 82 394 84 396 86 _c
404 94 412 125 420 178 _c
449 178 _l
421 0 _l
50 0 _l
_cl}_e}_d
/parenright{{388 0 56 -249 291 750 _sc
65 -249 _m
59 -249 56 -246 56 -240 _c
56 -237 56 -235 58 -234 _c
172 -122 229 38 229 250 _c
229 462 172 623 60 733 _c
57 734 56 737 56 741 _c
56 743 57 745 59 747 _c
61 749 63 750 65 750 _c
74 750 _l
76 750 77 749 79 748 _c
127 710 167 664 199 610 _c
231 556 254 498 269 437 _c
283 376 291 314 291 250 _c
291 202 287 156 279 110 _c
}_e{271 64 258 20 241 -24 _c
223 -68 201 -108 175 -146 _c
148 -184 116 -217 79 -247 _c
77 -248 76 -249 74 -249 _c
65 -249 _l
_cl}_e}_d
/one{500 0 87 0 421 666 _sc
93 0 _m
93 35 _l
176 35 218 45 218 67 _c
218 592 _l
183 575 139 567 87 567 _c
87 602 _l
168 602 230 623 272 666 _c
286 666 _l
288 666 291 665 293 663 _c
295 661 296 659 296 657 _c
296 67 _l
296 45 337 35 421 35 _c
421 0 _l
93 0 _l
_cl}_d
/three{{500 0 42 -21 457 666 _sc
95 77 _m
111 54 132 37 158 26 _c
184 15 213 10 243 10 _c
281 10 309 26 325 59 _c
341 92 350 130 350 172 _c
350 190 348 209 345 228 _c
341 247 335 265 327 281 _c
319 297 308 310 294 320 _c
280 330 262 335 242 335 _c
176 335 _l
170 335 167 338 167 344 _c
167 353 _l
167 358 170 361 176 361 _c
231 365 _l
254 365 273 373 289 391 _c
}_e{305 409 316 430 323 456 _c
330 481 334 505 334 528 _c
334 560 326 586 311 606 _c
296 626 273 637 243 637 _c
217 637 193 632 170 622 _c
147 612 129 598 115 579 _c
116 579 117 580 118 580 _c
119 580 120 580 122 580 _c
137 580 150 574 160 564 _c
170 554 175 541 175 527 _c
175 512 170 499 160 489 _c
150 479 137 474 122 474 _c
107 474 94 479 84 489 _c
}_e{74 499 69 512 69 527 _c
69 555 77 580 95 601 _c
112 622 134 638 161 649 _c
188 660 215 666 243 666 _c
263 666 284 663 307 657 _c
329 651 350 642 368 631 _c
386 619 401 605 413 588 _c
424 570 430 550 430 528 _c
430 500 423 474 411 450 _c
399 426 382 406 360 389 _c
338 371 314 358 288 350 _c
317 344 345 333 371 317 _c
397 301 417 280 433 255 _c
}_e{449 229 457 202 457 173 _c
457 136 446 103 426 73 _c
406 43 379 19 347 3 _c
314 -13 279 -21 243 -21 _c
211 -21 180 -15 149 -3 _c
117 8 92 25 72 49 _c
52 73 42 101 42 135 _c
42 151 47 165 58 176 _c
69 187 83 193 100 193 _c
110 193 120 190 129 185 _c
138 180 145 173 150 164 _c
155 154 158 145 158 135 _c
158 118 152 104 141 93 _c
}_e{129 82 116 77 100 77 _c
95 77 _l
_cl}_e}_d
/parenleft{{388 0 97 -249 332 750 _sc
310 -247 _m
272 -217 240 -184 214 -146 _c
187 -108 165 -67 148 -25 _c
131 17 118 62 110 109 _c
101 155 97 202 97 250 _c
97 298 101 345 110 392 _c
118 438 131 483 149 527 _c
166 570 188 611 215 649 _c
242 687 274 720 310 748 _c
310 749 311 750 315 750 _c
324 750 _l
326 750 327 749 329 747 _c
331 745 332 743 332 741 _c
332 738 331 736 330 735 _c
}_e{297 703 270 668 248 632 _c
226 596 209 557 196 516 _c
183 474 174 432 168 388 _c
162 344 159 298 159 250 _c
159 38 215 -122 329 -232 _c
331 -234 332 -236 332 -240 _c
332 -242 331 -244 329 -246 _c
327 -248 326 -249 324 -249 _c
315 -249 _l
311 -249 310 -248 310 -247 _c
_cl}_e}_d
end readonly def

/BuildGlyph
 {exch begin
 CharStrings exch
 2 copy known not{pop /.notdef}if
 true 3 1 roll get exec
 end}_d

/BuildChar {
 1 index /Encoding get exch get
 1 index /BuildGlyph get exec
}_d

FontName currentdict end definefont pop
%!PS-Adobe-3.0 Resource-Font
%%Title: cmmi10
%%Copyright: Copyright (C) 1994, Basil K. Malyshev. All Rights Reserved.012BaKoMa Fonts Collection, Level-B.
%%Creator: Converted from TrueType to type 3 by PPR
25 dict begin
/_d{bind def}bind def
/_m{moveto}_d
/_l{lineto}_d
/_cl{closepath eofill}_d
/_c{curveto}_d
/_sc{7 -1 roll{setcachedevice}{pop pop pop pop pop pop}ifelse}_d
/_e{exec}_d
/FontName /Cmmi10 def
/PaintType 0 def
/FontMatrix[.001 0 0 .001 0 0]def
/FontBBox[-34 -250 1048 750]def
/FontType 3 def
/Encoding [ /k /h ] def
/FontInfo 10 dict dup begin
/FamilyName (cmmi10) def
/FullName (cmmi10) def
/Notice (Copyright (C) 1994, Basil K. Malyshev. All Rights Reserved.012BaKoMa Fonts Collection, Level-B. ) def
/Weight (Regular) def
/Version (1.1/12-Nov-94) def
/ItalicAngle 0.0 def
/isFixedPitch false def
/UnderlinePosition -133 def
/UnderlineThickness 20 def
end readonly def
/CharStrings 2 dict dup begin
/k{{520 0 53 -10 507 694 _sc
53 18 _m
53 22 53 25 54 27 _c
199 605 _l
201 616 203 625 204 632 _c
204 642 182 648 139 648 _c
132 648 129 652 129 661 _c
129 663 129 666 131 670 _c
132 674 133 677 135 679 _c
137 681 139 683 143 683 _c
278 694 _l
281 694 _l
281 693 282 692 284 691 _c
286 689 288 689 288 689 _c
289 685 290 683 290 681 _c
185 263 _l
209 273 239 297 276 335 _c
}_e{312 373 341 400 362 417 _c
382 433 408 442 440 442 _c
458 442 474 435 487 423 _c
500 410 507 394 507 376 _c
507 364 504 353 499 343 _c
494 333 487 325 479 319 _c
470 313 460 310 448 310 _c
437 310 428 313 421 320 _c
413 326 410 335 410 346 _c
410 362 415 375 427 386 _c
438 397 452 403 468 403 _c
461 411 451 416 438 416 _c
418 416 398 410 380 399 _c
}_e{362 387 342 371 321 350 _c
299 328 280 309 262 291 _c
244 273 228 260 214 251 _c
253 246 287 236 316 220 _c
345 204 360 179 360 146 _c
360 139 358 130 356 120 _c
350 95 347 75 347 60 _c
347 30 357 15 378 15 _c
402 15 420 28 433 54 _c
445 80 456 111 464 147 _c
465 151 468 153 472 153 _c
484 153 _l
486 153 488 152 490 150 _c
492 148 493 146 493 144 _c
}_e{493 143 492 142 492 141 _c
467 40 428 -10 376 -10 _c
357 -10 340 -6 326 2 _c
311 10 300 22 292 38 _c
284 53 281 70 281 89 _c
281 99 282 110 285 122 _c
287 130 288 137 288 144 _c
288 170 276 189 254 203 _c
231 216 205 224 176 227 _c
125 23 _l
122 13 117 5 110 -1 _c
102 -7 94 -10 84 -10 _c
75 -10 68 -7 62 -2 _c
56 3 53 10 53 18 _c
_cl}_e}_d
/h{{576 0 53 -10 549 694 _sc
53 18 _m
53 22 53 25 54 27 _c
199 605 _l
201 616 203 625 204 632 _c
204 642 182 648 139 648 _c
132 648 129 652 129 661 _c
129 663 129 666 131 670 _c
132 674 133 677 135 679 _c
137 681 139 683 143 683 _c
278 694 _l
281 694 _l
281 693 282 692 284 691 _c
286 689 288 689 288 689 _c
289 685 290 683 290 681 _c
212 369 _l
252 417 301 442 358 442 _c
}_e{381 442 401 437 418 429 _c
435 421 448 408 458 392 _c
468 376 473 356 473 334 _c
473 306 467 273 455 235 _c
443 196 427 153 409 105 _c
399 83 395 63 395 45 _c
395 25 402 15 418 15 _c
444 15 465 29 483 57 _c
500 85 512 115 520 147 _c
521 151 524 153 528 153 _c
540 153 _l
542 153 544 152 546 150 _c
548 148 549 146 549 144 _c
549 143 548 142 548 141 _c
}_e{542 117 533 93 521 70 _c
509 46 495 27 478 12 _c
460 -2 440 -10 416 -10 _c
392 -10 372 -2 356 13 _c
339 29 331 48 331 72 _c
331 84 333 97 339 111 _c
357 161 373 205 386 245 _c
398 284 405 319 405 349 _c
405 368 401 384 393 397 _c
385 409 373 416 356 416 _c
320 416 288 405 262 383 _c
235 361 212 332 193 296 _c
125 23 _l
122 13 117 5 110 -1 _c
}_e{102 -7 94 -10 84 -10 _c
75 -10 68 -7 62 -2 _c
56 3 53 10 53 18 _c
_cl}_e}_d
end readonly def

/BuildGlyph
 {exch begin
 CharStrings exch
 2 copy known not{pop /.notdef}if
 true 3 1 roll get exec
 end}_d

/BuildChar {
 1 index /Encoding get exch get
 1 index /BuildGlyph get exec
}_d

FontName currentdict end definefont pop
%!PS-Adobe-3.0 Resource-Font
%%Title: cmb10
%%Copyright: Copyright (C) 1994, Basil K. Malyshev. All Rights Reserved.012BaKoMa Fonts Collection, Level-B.
%%Creator: Converted from TrueType to type 3 by PPR
25 dict begin
/_d{bind def}bind def
/_m{moveto}_d
/_l{lineto}_d
/_cl{closepath eofill}_d
/_c{curveto}_d
/_sc{7 -1 roll{setcachedevice}{pop pop pop pop pop pop}ifelse}_d
/_e{exec}_d
/FontName /Cmb10 def
/PaintType 0 def
/FontMatrix[.001 0 0 .001 0 0]def
/FontBBox[-66 -250 1011 750]def
/FontType 3 def
/Encoding [ /U /R ] def
/FontInfo 10 dict dup begin
/FamilyName (cmb10) def
/FullName (cmb10) def
/Notice (Copyright (C) 1994, Basil K. Malyshev. All Rights Reserved.012BaKoMa Fonts Collection, Level-B. ) def
/Weight (Regular) def
/Version (1.1/12-Nov-94) def
/ItalicAngle 0.0 def
/isFixedPitch false def
/UnderlinePosition -133 def
/UnderlineThickness 20 def
end readonly def
/CharStrings 2 dict dup begin
/U{{769 0 34 -10 734 686 _sc
128 227 _m
128 635 _l
34 635 _l
34 686 _l
368 686 _l
368 635 _l
274 635 _l
274 227 _l
274 200 275 176 279 154 _c
282 132 288 113 297 96 _c
306 78 319 65 337 55 _c
355 45 378 40 406 40 _c
444 40 476 47 503 63 _c
529 79 549 101 563 130 _c
576 158 583 192 583 231 _c
583 626 _l
583 628 579 629 573 631 _c
567 632 562 633 559 633 _c
}_e{543 634 520 635 489 635 _c
489 686 _l
734 686 _l
734 635 _l
702 635 679 634 664 633 _c
660 633 655 632 649 631 _c
643 629 640 628 640 626 _c
640 227 _l
640 192 634 160 623 131 _c
612 102 596 77 576 55 _c
555 33 530 17 501 6 _c
472 -4 440 -10 406 -10 _c
369 -10 334 -5 301 4 _c
267 13 237 28 211 49 _c
184 69 163 94 149 124 _c
135 154 128 188 128 227 _c
_cl}_e}_d
/R{{759 0 34 -10 756 686 _sc
34 0 _m
34 51 _l
128 51 _l
128 635 _l
34 635 _l
34 686 _l
360 686 _l
392 686 424 682 455 676 _c
485 670 514 659 542 645 _c
569 631 591 611 608 587 _c
625 562 634 533 634 499 _c
634 471 627 447 613 426 _c
599 404 581 386 559 372 _c
537 357 512 346 486 338 _c
512 326 534 310 553 288 _c
571 266 582 242 586 215 _c
597 128 _l
}_e{601 98 606 74 614 56 _c
622 38 636 29 658 29 _c
669 29 678 32 685 40 _c
692 48 697 57 700 68 _c
703 79 705 90 705 101 _c
707 109 712 115 721 117 _c
740 117 _l
750 115 756 108 756 97 _c
756 79 751 61 743 45 _c
735 28 723 15 709 5 _c
694 -5 677 -10 659 -10 _c
599 -10 547 0 504 18 _c
461 36 440 72 440 124 _c
440 211 _l
440 239 433 265 419 288 _c
}_e{405 311 384 323 358 323 _c
268 323 _l
268 51 _l
362 51 _l
362 0 _l
34 0 _l
268 363 _m
341 363 _l
377 363 405 367 425 375 _c
444 383 457 396 465 416 _c
473 435 477 463 477 499 _c
477 535 473 563 466 582 _c
459 601 446 615 426 623 _c
406 631 377 635 341 635 _c
268 635 _l
268 363 _l
_cl}_e}_d
end readonly def

/BuildGlyph
 {exch begin
 CharStrings exch
 2 copy known not{pop /.notdef}if
 true 3 1 roll get exec
 end}_d

/BuildChar {
 1 index /Encoding get exch get
 1 index /BuildGlyph get exec
}_d

FontName currentdict end definefont pop
%!PS-Adobe-3.0 Resource-Font
%%Title: cmsy10
%%Copyright: Copyright (C) 1994, Basil K. Malyshev. All Rights Reserved.012BaKoMa Fonts Collection, Level-B.
%%Creator: Converted from TrueType to type 3 by PPR
25 dict begin
/_d{bind def}bind def
/_m{moveto}_d
/_l{lineto}_d
/_cl{closepath eofill}_d
/_c{curveto}_d
/_sc{7 -1 roll{setcachedevice}{pop pop pop pop pop pop}ifelse}_d
/_e{exec}_d
/FontName /Cmsy10 def
/PaintType 0 def
/FontMatrix[.001 0 0 .001 0 0]def
/FontBBox[-29 -960 1123 779]def
/FontType 3 def
/Encoding [ /bardbl ] def
/FontInfo 10 dict dup begin
/FamilyName (cmsy10) def
/FullName (cmsy10) def
/Notice (Copyright (C) 1994, Basil K. Malyshev. All Rights Reserved.012BaKoMa Fonts Collection, Level-B. ) def
/Weight (Regular) def
/Version (1.1/12-Nov-94) def
/ItalicAngle 0.0 def
/isFixedPitch false def
/UnderlinePosition -133 def
/UnderlineThickness 20 def
end readonly def
/CharStrings 1 dict dup begin
/bardbl{{500 0 133 -249 367 750 _sc
133 -231 _m
133 732 _l
133 737 135 741 139 745 _c
143 748 148 750 153 750 _c
158 750 163 748 167 745 _c
171 741 173 737 173 732 _c
173 -231 _l
173 -236 171 -240 167 -244 _c
163 -247 158 -249 153 -249 _c
148 -249 143 -247 139 -244 _c
135 -240 133 -236 133 -231 _c
327 -231 _m
327 732 _l
327 737 329 741 333 745 _c
337 748 341 750 347 750 _c
351 750 356 748 360 745 _c
}_e{364 741 367 737 367 732 _c
367 -231 _l
367 -236 364 -240 360 -244 _c
356 -247 351 -249 347 -249 _c
341 -249 337 -247 333 -244 _c
329 -240 327 -236 327 -231 _c
_cl}_e}_d
end readonly def

/BuildGlyph
 {exch begin
 CharStrings exch
 2 copy known not{pop /.notdef}if
 true 3 1 roll get exec
 end}_d

/BuildChar {
 1 index /Encoding get exch get
 1 index /BuildGlyph get exec
}_d

FontName currentdict end definefont pop
end
%%EndProlog
mpldict begin
-110.2 175.541 translate
832.4 440.919 0 0 clipbox
100000 setmiterlimit
gsave
0 0 m
832.4 0 l
832.4 440.91875 l
0 440.91875 l
cl
1.000 setgray
fill
grestore
gsave
79.2 54.91875 m
748.8 54.91875 l
748.8 400.51875 l
79.2 400.51875 l
cl
1.000 setgray
fill
grestore
2.000 setlinewidth
1 setlinejoin
2 setlinecap
[] 0 setdash
0.000 0.000 1.000 setrgbcolor
gsave
669.6 345.6 79.2 54.92 clipbox
85.896 387.479856 m
92.592 374.914058 l
99.288 365.862506 l
105.984 358.205895 l
112.68 351.186998 l
119.376 344.49368 l
126.072 338.113626 l
132.768 332.284518 l
139.464 327.588639 l
146.16 325.168309 l
152.856 324.389449 l
159.552 322.435533 l
166.248 318.119169 l
172.944 311.910323 l
179.64 305.279993 l
186.336 299.447017 l
193.032 294.518623 l
199.728 290.659164 l
206.424 290.903304 l
213.12 292.400751 l
219.816 293.037271 l
226.512 288.184105 l
233.208 287.971963 l
239.904 287.072454 l
246.6 282.457117 l
253.296 274.462845 l
259.992 262.567737 l
266.688 245.871326 l
273.384 229.697501 l
280.08 204.307718 l
286.776 183.032025 l
293.472 146.236442 l
300.168 113.57602 l
306.864 76.90225 l
306.864 329.580166 l
313.56 327.328901 l
320.256 324.680402 l
326.952 321.746925 l
333.648 318.753864 l
340.344 315.86447 l
347.04 313.07134 l
353.736 310.19333 l
360.432 307.036272 l
367.128 303.471231 l
373.824 299.35995 l
380.52 294.388553 l
387.216 287.896972 l
393.912 280.779639 l
400.608 277.569758 l
407.304 273.849629 l
414 269.942547 l
420.696 267.191106 l
427.392 264.421018 l
434.088 263.452671 l
440.784 265.179325 l
447.48 264.918472 l
454.176 259.920825 l
460.872 249.401896 l
467.568 238.042214 l
474.264 232.940592 l
480.96 224.376 l
487.656 210.244346 l
494.352 188.064425 l
501.048 164.708878 l
507.744 138.60508 l
514.44 110.756688 l
514.44 306.357883 l
521.136 304.270953 l
527.832 302.869444 l
534.528 301.31727 l
541.224 299.589197 l
547.92 297.667142 l
554.616 295.531201 l
561.312 293.033216 l
568.008 289.98832 l
574.704 286.6093 l
581.4 283.127092 l
588.096 279.241852 l
594.792 274.829944 l
601.488 270.241486 l
608.184 265.523956 l
614.88 261.026038 l
621.576 258.160447 l
628.272 257.127277 l
634.968 255.66211 l
641.664 252.019879 l
648.36 245.37172 l
655.056 234.906613 l
661.752 228.582177 l
668.448 230.641914 l
675.144 229.409954 l
681.84 221.936784 l
688.536 212.803242 l
695.232 196.216634 l
701.928 175.313948 l
708.624 154.037903 l
715.32 131.107131 l
722.016 107.282648 l
stroke
grestore
0.500 setlinewidth
0 setlinecap
0.000 setgray
gsave
669.6 345.6 79.2 54.92 clipbox
/o {
gsave
newpath
translate
0.5 setlinewidth
1 setlinejoin
0 setlinecap
0 -4.5 m
1.193414 -4.5 2.338109 -4.025852 3.181981 -3.181981 c
4.025852 -2.338109 4.5 -1.193414 4.5 0 c
4.5 1.193414 4.025852 2.338109 3.181981 3.181981 c
2.338109 4.025852 1.193414 4.5 0 4.5 c
-1.193414 4.5 -2.338109 4.025852 -3.181981 3.181981 c
-4.025852 2.338109 -4.5 1.193414 -4.5 0 c
-4.5 -1.193414 -4.025852 -2.338109 -3.181981 -3.181981 c
-2.338109 -4.025852 -1.193414 -4.5 0 -4.5 c
cl

gsave
0.000 0.000 1.000 setrgbcolor
fill
grestore
stroke
grestore
} bind def
85.896 387.48 o
159.552 322.436 o
233.208 287.972 o
306.864 76.9022 o
373.824 299.36 o
447.48 264.918 o
514.44 306.358 o
588.096 279.242 o
661.752 228.582 o
grestore
2.000 setlinewidth
2 setlinecap
1.000 0.000 0.000 setrgbcolor
gsave
669.6 345.6 79.2 54.92 clipbox
85.896 387.488405 m
92.592 374.919607 l
99.288 365.867011 l
105.984 358.214008 l
112.68 351.21759 l
119.376 344.580843 l
126.072 338.310556 l
132.768 332.655338 l
139.464 328.100918 l
146.16 325.623945 l
152.856 324.318886 l
159.552 321.195125 l
166.248 316.416306 l
172.944 311.221217 l
179.64 305.744758 l
186.336 300.351466 l
193.032 295.805489 l
199.728 293.282202 l
206.424 290.28325 l
213.12 290.706037 l
219.816 287.770892 l
226.512 290.028638 l
233.208 284.208315 l
239.904 285.08104 l
246.6 285.762627 l
253.296 283.757482 l
259.992 278.19024 l
266.688 271.176909 l
273.384 257.302039 l
280.08 244.90151 l
286.776 229.352909 l
293.472 211.789936 l
300.168 175.440998 l
306.864 133.585624 l
313.56 97.84855 l
313.56 329.809511 l
320.256 327.56866 l
326.952 324.927364 l
333.648 322.000672 l
340.344 319.011132 l
347.04 316.116481 l
353.736 313.314276 l
360.432 310.399931 l
367.128 307.183953 l
373.824 303.558971 l
380.52 299.419235 l
387.216 294.400649 l
393.912 287.8185 l
400.608 280.932864 l
407.304 277.620403 l
414 273.243556 l
420.696 269.087189 l
427.392 266.743975 l
434.088 265.284141 l
440.784 263.430369 l
447.48 261.020034 l
454.176 257.271421 l
460.872 248.690025 l
467.568 246.15757 l
474.264 248.351016 l
480.96 247.852551 l
487.656 240.137194 l
494.352 226.431672 l
501.048 203.371308 l
507.744 177.06191 l
514.44 147.009365 l
521.136 119.907621 l
527.832 89.193971 l
527.832 313.267355 l
534.528 310.953321 l
541.224 308.436641 l
547.92 305.637727 l
554.616 302.495331 l
561.312 299.063913 l
568.008 295.864468 l
574.704 293.266051 l
581.4 290.899801 l
588.096 288.706061 l
594.792 286.427909 l
601.488 283.643891 l
608.184 280.290082 l
614.88 276.35392 l
621.576 271.855476 l
628.272 267.426254 l
634.968 264.451255 l
641.664 262.840084 l
648.36 261.066912 l
655.056 258.591656 l
661.752 255.021546 l
668.448 252.61593 l
675.144 252.012048 l
681.84 249.396311 l
688.536 234.892564 l
695.232 224.979397 l
701.928 205.996079 l
708.624 188.564424 l
715.32 164.603762 l
722.016 140.716514 l
728.712 115.317429 l
735.408 85.318582 l
stroke
grestore
0.500 setlinewidth
0 setlinejoin
0 setlinecap
0.000 setgray
gsave
669.6 345.6 79.2 54.92 clipbox
/o {
gsave
newpath
translate
0.5 setlinewidth
0 setlinejoin
0 setlinecap
0 4.5 m
-4.5 -4.5 l
4.5 -4.5 l
cl

gsave
1.000 0.000 0.000 setrgbcolor
fill
grestore
stroke
grestore
} bind def
85.896 387.488 o
132.768 332.655 o
179.64 305.745 o
226.512 290.029 o
273.384 257.302 o
313.56 329.81 o
360.432 310.4 o
407.304 277.62 o
454.176 257.271 o
501.048 203.371 o
541.224 308.437 o
588.096 288.706 o
634.968 264.451 o
681.84 249.396 o
728.712 115.317 o
grestore
1.000 setlinewidth
2 setlinecap
gsave
79.2 400.51875 m
748.8 400.51875 l
stroke
grestore
gsave
748.8 54.91875 m
748.8 400.51875 l
stroke
grestore
gsave
79.2 54.91875 m
748.8 54.91875 l
stroke
grestore
gsave
79.2 54.91875 m
79.2 400.51875 l
stroke
grestore
0.500 setlinewidth
1 setlinejoin
0 setlinecap
gsave
/o {
gsave
newpath
translate
0.5 setlinewidth
1 setlinejoin
0 setlinecap
0 0 m
0 4 l

gsave
0.000 setgray
fill
grestore
stroke
grestore
} bind def
79.2 54.9188 o
grestore
gsave
/o {
gsave
newpath
translate
0.5 setlinewidth
1 setlinejoin
0 setlinecap
0 0 m
0 -4 l

gsave
0.000 setgray
fill
grestore
stroke
grestore
} bind def
79.2 400.519 o
grestore
/BitstreamVeraSans-Roman findfont
20.000 scalefont
setfont
gsave
72.840625 35.715625 translate
0.000000 rotate
0.000000 0.000000 m /zero glyphshow
grestore
gsave
/o {
gsave
newpath
translate
0.5 setlinewidth
1 setlinejoin
0 setlinecap
0 0 m
0 4 l

gsave
0.000 setgray
fill
grestore
stroke
grestore
} bind def
213.12 54.9188 o
grestore
gsave
/o {
gsave
newpath
translate
0.5 setlinewidth
1 setlinejoin
0 setlinecap
0 0 m
0 -4 l

gsave
0.000 setgray
fill
grestore
stroke
grestore
} bind def
213.12 400.519 o
grestore
gsave
200.401250 35.715625 translate
0.000000 rotate
0.000000 0.000000 m /two glyphshow
12.724609 0.000000 m /zero glyphshow
grestore
gsave
/o {
gsave
newpath
translate
0.5 setlinewidth
1 setlinejoin
0 setlinecap
0 0 m
0 4 l

gsave
0.000 setgray
fill
grestore
stroke
grestore
} bind def
347.04 54.9188 o
grestore
gsave
/o {
gsave
newpath
translate
0.5 setlinewidth
1 setlinejoin
0 setlinecap
0 0 m
0 -4 l

gsave
0.000 setgray
fill
grestore
stroke
grestore
} bind def
347.04 400.519 o
grestore
gsave
334.321250 35.715625 translate
0.000000 rotate
0.000000 0.000000 m /four glyphshow
12.724609 0.000000 m /zero glyphshow
grestore
gsave
/o {
gsave
newpath
translate
0.5 setlinewidth
1 setlinejoin
0 setlinecap
0 0 m
0 4 l

gsave
0.000 setgray
fill
grestore
stroke
grestore
} bind def
480.96 54.9188 o
grestore
gsave
/o {
gsave
newpath
translate
0.5 setlinewidth
1 setlinejoin
0 setlinecap
0 0 m
0 -4 l

gsave
0.000 setgray
fill
grestore
stroke
grestore
} bind def
480.96 400.519 o
grestore
gsave
468.241250 35.715625 translate
0.000000 rotate
0.000000 0.000000 m /six glyphshow
12.724609 0.000000 m /zero glyphshow
grestore
gsave
/o {
gsave
newpath
translate
0.5 setlinewidth
1 setlinejoin
0 setlinecap
0 0 m
0 4 l

gsave
0.000 setgray
fill
grestore
stroke
grestore
} bind def
614.88 54.9188 o
grestore
gsave
/o {
gsave
newpath
translate
0.5 setlinewidth
1 setlinejoin
0 setlinecap
0 0 m
0 -4 l

gsave
0.000 setgray
fill
grestore
stroke
grestore
} bind def
614.88 400.519 o
grestore
gsave
602.161250 35.715625 translate
0.000000 rotate
0.000000 0.000000 m /eight glyphshow
12.724609 0.000000 m /zero glyphshow
grestore
gsave
/o {
gsave
newpath
translate
0.5 setlinewidth
1 setlinejoin
0 setlinecap
0 0 m
0 4 l

gsave
0.000 setgray
fill
grestore
stroke
grestore
} bind def
748.8 54.9188 o
grestore
gsave
/o {
gsave
newpath
translate
0.5 setlinewidth
1 setlinejoin
0 setlinecap
0 0 m
0 -4 l

gsave
0.000 setgray
fill
grestore
stroke
grestore
} bind def
748.8 400.519 o
grestore
gsave
729.721875 35.715625 translate
0.000000 rotate
0.000000 0.000000 m /one glyphshow
12.724609 0.000000 m /zero glyphshow
25.449219 0.000000 m /zero glyphshow
grestore
gsave
349.453125 11.356250 translate
0.000000 rotate
0.000000 0.000000 m /P glyphshow
12.060547 0.000000 m /T glyphshow
24.261719 0.000000 m /C glyphshow
38.226562 0.000000 m /space glyphshow
44.583984 0.000000 m /i glyphshow
50.140625 0.000000 m /t glyphshow
57.982422 0.000000 m /e glyphshow
70.287109 0.000000 m /r glyphshow
78.509766 0.000000 m /a glyphshow
90.765625 0.000000 m /t glyphshow
98.607422 0.000000 m /i glyphshow
104.164062 0.000000 m /o glyphshow
116.400391 0.000000 m /n glyphshow
grestore
gsave
/o {
gsave
newpath
translate
0.5 setlinewidth
1 setlinejoin
0 setlinecap
0 0 m
4 0 l

gsave
0.000 setgray
fill
grestore
stroke
grestore
} bind def
79.2 54.9188 o
grestore
gsave
/o {
gsave
newpath
translate
0.5 setlinewidth
1 setlinejoin
0 setlinecap
0 0 m
-4 0 l

gsave
0.000 setgray
fill
grestore
stroke
grestore
} bind def
748.8 54.9188 o
grestore
gsave
32.200000 48.575000 translate
0.000000 rotate
/BitstreamVeraSans-Roman findfont
20.0 scalefont
setfont
0.000000 0.345312 moveto
/one glyphshow

12.724609 0.345312 moveto
/zero glyphshow

/BitstreamVeraSans-Roman findfont
14.0 scalefont
setfont
26.551719 9.795312 moveto
/hyphen glyphshow

31.603477 9.795312 moveto
/seven glyphshow


grestore
gsave
/o {
gsave
newpath
translate
0.5 setlinewidth
1 setlinejoin
0 setlinecap
0 0 m
4 0 l

gsave
0.000 setgray
fill
grestore
stroke
grestore
} bind def
79.2 108.088 o
grestore
gsave
/o {
gsave
newpath
translate
0.5 setlinewidth
1 setlinejoin
0 setlinecap
0 0 m
-4 0 l

gsave
0.000 setgray
fill
grestore
stroke
grestore
} bind def
748.8 108.088 o
grestore
gsave
32.200000 101.744231 translate
0.000000 rotate
/BitstreamVeraSans-Roman findfont
20.0 scalefont
setfont
0.000000 0.345312 moveto
/one glyphshow

12.724609 0.345312 moveto
/zero glyphshow

/BitstreamVeraSans-Roman findfont
14.0 scalefont
setfont
26.551719 9.795312 moveto
/hyphen glyphshow

31.603477 9.795312 moveto
/five glyphshow


grestore
gsave
/o {
gsave
newpath
translate
0.5 setlinewidth
1 setlinejoin
0 setlinecap
0 0 m
4 0 l

gsave
0.000 setgray
fill
grestore
stroke
grestore
} bind def
79.2 161.257 o
grestore
gsave
/o {
gsave
newpath
translate
0.5 setlinewidth
1 setlinejoin
0 setlinecap
0 0 m
-4 0 l

gsave
0.000 setgray
fill
grestore
stroke
grestore
} bind def
748.8 161.257 o
grestore
gsave
32.200000 154.913462 translate
0.000000 rotate
/BitstreamVeraSans-Roman findfont
20.0 scalefont
setfont
0.000000 0.159375 moveto
/one glyphshow

12.724609 0.159375 moveto
/zero glyphshow

/BitstreamVeraSans-Roman findfont
14.0 scalefont
setfont
26.551719 9.609375 moveto
/hyphen glyphshow

31.603477 9.609375 moveto
/three glyphshow


grestore
gsave
/o {
gsave
newpath
translate
0.5 setlinewidth
1 setlinejoin
0 setlinecap
0 0 m
4 0 l

gsave
0.000 setgray
fill
grestore
stroke
grestore
} bind def
79.2 214.426 o
grestore
gsave
/o {
gsave
newpath
translate
0.5 setlinewidth
1 setlinejoin
0 setlinecap
0 0 m
-4 0 l

gsave
0.000 setgray
fill
grestore
stroke
grestore
} bind def
748.8 214.426 o
grestore
gsave
32.200000 208.082692 translate
0.000000 rotate
/BitstreamVeraSans-Roman findfont
20.0 scalefont
setfont
0.000000 0.345312 moveto
/one glyphshow

12.724609 0.345312 moveto
/zero glyphshow

/BitstreamVeraSans-Roman findfont
14.0 scalefont
setfont
26.551719 9.795312 moveto
/hyphen glyphshow

31.603477 9.795312 moveto
/one glyphshow


grestore
gsave
/o {
gsave
newpath
translate
0.5 setlinewidth
1 setlinejoin
0 setlinecap
0 0 m
4 0 l

gsave
0.000 setgray
fill
grestore
stroke
grestore
} bind def
79.2 267.596 o
grestore
gsave
/o {
gsave
newpath
translate
0.5 setlinewidth
1 setlinejoin
0 setlinecap
0 0 m
-4 0 l

gsave
0.000 setgray
fill
grestore
stroke
grestore
} bind def
748.8 267.596 o
grestore
gsave
37.200000 261.251923 translate
0.000000 rotate
/BitstreamVeraSans-Roman findfont
20.0 scalefont
setfont
0.000000 0.345312 moveto
/one glyphshow

12.724609 0.345312 moveto
/zero glyphshow

/BitstreamVeraSans-Roman findfont
14.0 scalefont
setfont
26.551719 9.795312 moveto
/one glyphshow


grestore
gsave
/o {
gsave
newpath
translate
0.5 setlinewidth
1 setlinejoin
0 setlinecap
0 0 m
4 0 l

gsave
0.000 setgray
fill
grestore
stroke
grestore
} bind def
79.2 320.765 o
grestore
gsave
/o {
gsave
newpath
translate
0.5 setlinewidth
1 setlinejoin
0 setlinecap
0 0 m
-4 0 l

gsave
0.000 setgray
fill
grestore
stroke
grestore
} bind def
748.8 320.765 o
grestore
gsave
37.200000 314.421154 translate
0.000000 rotate
/BitstreamVeraSans-Roman findfont
20.0 scalefont
setfont
0.000000 0.159375 moveto
/one glyphshow

12.724609 0.159375 moveto
/zero glyphshow

/BitstreamVeraSans-Roman findfont
14.0 scalefont
setfont
26.551719 9.609375 moveto
/three glyphshow


grestore
gsave
/o {
gsave
newpath
translate
0.5 setlinewidth
1 setlinejoin
0 setlinecap
0 0 m
4 0 l

gsave
0.000 setgray
fill
grestore
stroke
grestore
} bind def
79.2 373.934 o
grestore
gsave
/o {
gsave
newpath
translate
0.5 setlinewidth
1 setlinejoin
0 setlinecap
0 0 m
-4 0 l

gsave
0.000 setgray
fill
grestore
stroke
grestore
} bind def
748.8 373.934 o
grestore
gsave
37.200000 367.590385 translate
0.000000 rotate
/BitstreamVeraSans-Roman findfont
20.0 scalefont
setfont
0.000000 0.345312 moveto
/one glyphshow

12.724609 0.345312 moveto
/zero glyphshow

/BitstreamVeraSans-Roman findfont
14.0 scalefont
setfont
26.551719 9.795312 moveto
/five glyphshow


grestore
gsave
/o {
gsave
newpath
translate
0.5 setlinewidth
1 setlinejoin
0 setlinecap
0 0 m
2 0 l

gsave
0.000 setgray
fill
grestore
stroke
grestore
} bind def
79.2 54.9188 o
grestore
gsave
/o {
gsave
newpath
translate
0.5 setlinewidth
1 setlinejoin
0 setlinecap
0 0 m
-2 0 l

gsave
0.000 setgray
fill
grestore
stroke
grestore
} bind def
748.8 54.9188 o
grestore
gsave
/o {
gsave
newpath
translate
0.5 setlinewidth
1 setlinejoin
0 setlinecap
0 0 m
2 0 l

gsave
0.000 setgray
fill
grestore
stroke
grestore
} bind def
79.2 81.5034 o
grestore
gsave
/o {
gsave
newpath
translate
0.5 setlinewidth
1 setlinejoin
0 setlinecap
0 0 m
-2 0 l

gsave
0.000 setgray
fill
grestore
stroke
grestore
} bind def
748.8 81.5034 o
grestore
gsave
/o {
gsave
newpath
translate
0.5 setlinewidth
1 setlinejoin
0 setlinecap
0 0 m
2 0 l

gsave
0.000 setgray
fill
grestore
stroke
grestore
} bind def
79.2 108.088 o
grestore
gsave
/o {
gsave
newpath
translate
0.5 setlinewidth
1 setlinejoin
0 setlinecap
0 0 m
-2 0 l

gsave
0.000 setgray
fill
grestore
stroke
grestore
} bind def
748.8 108.088 o
grestore
gsave
/o {
gsave
newpath
translate
0.5 setlinewidth
1 setlinejoin
0 setlinecap
0 0 m
2 0 l

gsave
0.000 setgray
fill
grestore
stroke
grestore
} bind def
79.2 134.673 o
grestore
gsave
/o {
gsave
newpath
translate
0.5 setlinewidth
1 setlinejoin
0 setlinecap
0 0 m
-2 0 l

gsave
0.000 setgray
fill
grestore
stroke
grestore
} bind def
748.8 134.673 o
grestore
gsave
/o {
gsave
newpath
translate
0.5 setlinewidth
1 setlinejoin
0 setlinecap
0 0 m
2 0 l

gsave
0.000 setgray
fill
grestore
stroke
grestore
} bind def
79.2 161.257 o
grestore
gsave
/o {
gsave
newpath
translate
0.5 setlinewidth
1 setlinejoin
0 setlinecap
0 0 m
-2 0 l

gsave
0.000 setgray
fill
grestore
stroke
grestore
} bind def
748.8 161.257 o
grestore
gsave
/o {
gsave
newpath
translate
0.5 setlinewidth
1 setlinejoin
0 setlinecap
0 0 m
2 0 l

gsave
0.000 setgray
fill
grestore
stroke
grestore
} bind def
79.2 187.842 o
grestore
gsave
/o {
gsave
newpath
translate
0.5 setlinewidth
1 setlinejoin
0 setlinecap
0 0 m
-2 0 l

gsave
0.000 setgray
fill
grestore
stroke
grestore
} bind def
748.8 187.842 o
grestore
gsave
/o {
gsave
newpath
translate
0.5 setlinewidth
1 setlinejoin
0 setlinecap
0 0 m
2 0 l

gsave
0.000 setgray
fill
grestore
stroke
grestore
} bind def
79.2 214.426 o
grestore
gsave
/o {
gsave
newpath
translate
0.5 setlinewidth
1 setlinejoin
0 setlinecap
0 0 m
-2 0 l

gsave
0.000 setgray
fill
grestore
stroke
grestore
} bind def
748.8 214.426 o
grestore
gsave
/o {
gsave
newpath
translate
0.5 setlinewidth
1 setlinejoin
0 setlinecap
0 0 m
2 0 l

gsave
0.000 setgray
fill
grestore
stroke
grestore
} bind def
79.2 241.011 o
grestore
gsave
/o {
gsave
newpath
translate
0.5 setlinewidth
1 setlinejoin
0 setlinecap
0 0 m
-2 0 l

gsave
0.000 setgray
fill
grestore
stroke
grestore
} bind def
748.8 241.011 o
grestore
gsave
/o {
gsave
newpath
translate
0.5 setlinewidth
1 setlinejoin
0 setlinecap
0 0 m
2 0 l

gsave
0.000 setgray
fill
grestore
stroke
grestore
} bind def
79.2 267.596 o
grestore
gsave
/o {
gsave
newpath
translate
0.5 setlinewidth
1 setlinejoin
0 setlinecap
0 0 m
-2 0 l

gsave
0.000 setgray
fill
grestore
stroke
grestore
} bind def
748.8 267.596 o
grestore
gsave
/o {
gsave
newpath
translate
0.5 setlinewidth
1 setlinejoin
0 setlinecap
0 0 m
2 0 l

gsave
0.000 setgray
fill
grestore
stroke
grestore
} bind def
79.2 294.18 o
grestore
gsave
/o {
gsave
newpath
translate
0.5 setlinewidth
1 setlinejoin
0 setlinecap
0 0 m
-2 0 l

gsave
0.000 setgray
fill
grestore
stroke
grestore
} bind def
748.8 294.18 o
grestore
gsave
/o {
gsave
newpath
translate
0.5 setlinewidth
1 setlinejoin
0 setlinecap
0 0 m
2 0 l

gsave
0.000 setgray
fill
grestore
stroke
grestore
} bind def
79.2 320.765 o
grestore
gsave
/o {
gsave
newpath
translate
0.5 setlinewidth
1 setlinejoin
0 setlinecap
0 0 m
-2 0 l

gsave
0.000 setgray
fill
grestore
stroke
grestore
} bind def
748.8 320.765 o
grestore
gsave
/o {
gsave
newpath
translate
0.5 setlinewidth
1 setlinejoin
0 setlinecap
0 0 m
2 0 l

gsave
0.000 setgray
fill
grestore
stroke
grestore
} bind def
79.2 347.35 o
grestore
gsave
/o {
gsave
newpath
translate
0.5 setlinewidth
1 setlinejoin
0 setlinecap
0 0 m
-2 0 l

gsave
0.000 setgray
fill
grestore
stroke
grestore
} bind def
748.8 347.35 o
grestore
gsave
/o {
gsave
newpath
translate
0.5 setlinewidth
1 setlinejoin
0 setlinecap
0 0 m
2 0 l

gsave
0.000 setgray
fill
grestore
stroke
grestore
} bind def
79.2 373.934 o
grestore
gsave
/o {
gsave
newpath
translate
0.5 setlinewidth
1 setlinejoin
0 setlinecap
0 0 m
-2 0 l

gsave
0.000 setgray
fill
grestore
stroke
grestore
} bind def
748.8 373.934 o
grestore
gsave
/o {
gsave
newpath
translate
0.5 setlinewidth
1 setlinejoin
0 setlinecap
0 0 m
2 0 l

gsave
0.000 setgray
fill
grestore
stroke
grestore
} bind def
79.2 400.519 o
grestore
gsave
/o {
gsave
newpath
translate
0.5 setlinewidth
1 setlinejoin
0 setlinecap
0 0 m
-2 0 l

gsave
0.000 setgray
fill
grestore
stroke
grestore
} bind def
748.8 400.519 o
grestore
gsave
22.200000 184.718750 translate
90.000000 rotate
/Cmsy10 findfont
20.0 scalefont
setfont
0.000000 0.000000 moveto
/bardbl glyphshow

/Cmb10 findfont
20.0 scalefont
setfont
10.000000 0.000000 moveto
/R glyphshow

/Cmr10 findfont
20.0 scalefont
setfont
25.175781 0.000000 moveto
/parenleft glyphshow

/Cmb10 findfont
20.0 scalefont
setfont
32.939453 0.000000 moveto
/U glyphshow

/Cmmi10 findfont
14.0 scalefont
setfont
49.213141 -3.401250 moveto
/h glyphshow

/Cmr10 findfont
20.0 scalefont
setfont
58.555016 0.000000 moveto
/parenright glyphshow

/Cmsy10 findfont
20.0 scalefont
setfont
66.318687 0.000000 moveto
/bardbl glyphshow

/Cmr10 findfont
14.0 scalefont
setfont
77.211516 -3.401250 moveto
/two glyphshow


grestore
gsave
146.160000 347.349519 translate
0.000000 rotate
/Cmmi10 findfont
20.0 scalefont
setfont
0.000000 0.125000 moveto
/k glyphshow

/Cmr10 findfont
20.0 scalefont
setfont
13.912109 0.125000 moveto
/equal glyphshow

32.960938 0.125000 moveto
/one glyphshow


grestore
gsave
347.040000 347.349519 translate
0.000000 rotate
/Cmmi10 findfont
20.0 scalefont
setfont
0.000000 0.125000 moveto
/k glyphshow

/Cmr10 findfont
20.0 scalefont
setfont
13.912109 0.125000 moveto
/equal glyphshow

32.960938 0.125000 moveto
/two glyphshow


grestore
gsave
561.312000 347.349519 translate
0.000000 rotate
/Cmmi10 findfont
20.0 scalefont
setfont
0.000000 0.125000 moveto
/k glyphshow

/Cmr10 findfont
20.0 scalefont
setfont
13.912109 0.125000 moveto
/equal glyphshow

32.960938 0.125000 moveto
/three glyphshow


grestore
1.000 setlinewidth
0 setlinejoin
gsave
690.728125 366.2 m
822.4 366.2 l
822.4 430.91875 l
690.728125 430.91875 l
cl
gsave
1.000 setgray
fill
grestore
stroke
grestore
2.000 setlinewidth
1 setlinejoin
2 setlinecap
0.000 0.000 1.000 setrgbcolor
gsave
704.728125 414.715625 m
732.728125 414.715625 l
stroke
grestore
0.500 setlinewidth
0 setlinecap
0.000 setgray
gsave
/o {
gsave
newpath
translate
0.5 setlinewidth
1 setlinejoin
0 setlinecap
0 -4.5 m
1.193414 -4.5 2.338109 -4.025852 3.181981 -3.181981 c
4.025852 -2.338109 4.5 -1.193414 4.5 0 c
4.5 1.193414 4.025852 2.338109 3.181981 3.181981 c
2.338109 4.025852 1.193414 4.5 0 4.5 c
-1.193414 4.5 -2.338109 4.025852 -3.181981 3.181981 c
-4.025852 2.338109 -4.5 1.193414 -4.5 0 c
-4.5 -1.193414 -4.025852 -2.338109 -3.181981 -3.181981 c
-2.338109 -4.025852 -1.193414 -4.5 0 -4.5 c
cl

gsave
0.000 0.000 1.000 setrgbcolor
fill
grestore
stroke
grestore
} bind def
704.728 414.716 o
732.728 414.716 o
grestore
gsave
754.728125 407.715625 translate
0.000000 rotate
0.000000 0.000000 m /H glyphshow
15.039062 0.000000 m /e glyphshow
27.343750 0.000000 m /x glyphshow
grestore
2.000 setlinewidth
2 setlinecap
1.000 0.000 0.000 setrgbcolor
gsave
704.728125 385.35625 m
732.728125 385.35625 l
stroke
grestore
0.500 setlinewidth
0 setlinejoin
0 setlinecap
0.000 setgray
gsave
/o {
gsave
newpath
translate
0.5 setlinewidth
0 setlinejoin
0 setlinecap
0 4.5 m
-4.5 -4.5 l
4.5 -4.5 l
cl

gsave
1.000 0.000 0.000 setrgbcolor
fill
grestore
stroke
grestore
} bind def
704.728 385.356 o
732.728 385.356 o
grestore
gsave
754.728125 378.356250 translate
0.000000 rotate
0.000000 0.000000 m /M glyphshow
17.255859 0.000000 m /i glyphshow
22.812500 0.000000 m /x glyphshow
34.648438 0.000000 m /e glyphshow
46.953125 0.000000 m /d glyphshow
grestore

end
showpage
