%!PS-Adobe-3.0 EPSF-3.0
%%Title: plots/mut_1.eps
%%Creator: matplotlib version 2.0.2, http://matplotlib.org/
%%CreationDate: Mon Nov 13 16:09:37 2017
%%Orientation: portrait
%%BoundingBox: 87 253 524 538
%%EndComments
%%BeginProlog
/mpldict 9 dict def
mpldict begin
/m { moveto } bind def
/l { lineto } bind def
/r { rlineto } bind def
/c { curveto } bind def
/cl { closepath } bind def
/box {
m
1 index 0 r
0 exch r
neg 0 r
cl
} bind def
/clipbox {
box
clip
newpath
} bind def
%!PS-Adobe-3.0 Resource-Font
%%Title: DejaVu Sans Oblique
%%Copyright: Copyright (c) 2003 by Bitstream, Inc. All Rights Reserved. Copyright (c) 2006 by Tavmjong Bah. All Rights Reserved. DejaVu changes are in public domain 
%%Creator: Converted from TrueType to type 3 by PPR
25 dict begin
/_d{bind def}bind def
/_m{moveto}_d
/_l{lineto}_d
/_cl{closepath eofill}_d
/_c{curveto}_d
/_sc{7 -1 roll{setcachedevice}{pop pop pop pop pop pop}ifelse}_d
/_e{exec}_d
/FontName /DejaVuSans-Oblique def
/PaintType 0 def
/FontMatrix[.001 0 0 .001 0 0]def
/FontBBox[-1016 -350 1659 1068]def
/FontType 3 def
/Encoding [ /T /k /x /mu /uni03BC ] def
/FontInfo 10 dict dup begin
/FamilyName (DejaVu Sans) def
/FullName (DejaVu Sans Oblique) def
/Notice (Copyright (c) 2003 by Bitstream, Inc. All Rights Reserved. Copyright (c) 2006 by Tavmjong Bah. All Rights Reserved. DejaVu changes are in public domain ) def
/Weight (Oblique) def
/Version (Version 2.35) def
/ItalicAngle -11.0 def
/isFixedPitch false def
/UnderlinePosition -130 def
/UnderlineThickness 90 def
end readonly def
/CharStrings 5 dict dup begin
/T{611 0 43 0 676 729 _sc
59 729 _m
676 729 _l
660 646 _l
400 646 _l
275 0 _l
176 0 _l
301 646 _l
43 646 _l
59 729 _l
_cl}_d
/k{579 0 35 0 612 760 _sc
183 760 _m
273 760 _l
187 317 _l
495 547 _l
612 547 _l
268 285 _l
519 0 _l
410 0 _l
177 267 _l
125 0 _l
35 0 _l
183 760 _l
_cl}_d
/x{592 0 -25 0 600 547 _sc
600 547 _m
349 279 _l
503 0 _l
400 0 _l
284 217 _l
83 0 _l
-25 0 _l
243 288 _l
100 547 _l
203 547 _l
308 349 _l
491 547 _l
600 547 _l
_cl}_d
/mu{{636 0 -12 -207 592 547 _sc
-12 -207 _m
134 547 _l
224 547 _l
158 207 _l
156 199 155 191 154 183 _c
153 175 153 166 153 158 _c
153 128 162 104 181 88 _c
200 72 227 64 263 64 _c
311 64 349 77 379 105 _c
409 132 429 173 440 228 _c
502 547 _l
592 547 _l
510 126 _l
508 120 507 114 507 110 _c
507 106 507 102 507 98 _c
507 88 509 80 513 76 _c
517 71 523 69 532 69 _c
}_e{535 69 539 69 545 71 _c
551 73 559 76 570 80 _c
556 8 _l
542 1 528 -3 515 -7 _c
502 -11 489 -13 477 -13 _c
455 -13 438 -6 426 7 _c
414 20 408 39 408 63 _c
390 37 368 17 343 5 _c
317 -7 288 -13 254 -13 _c
223 -13 196 -6 174 7 _c
152 21 137 39 130 62 _c
77 -207 _l
-12 -207 _l
_cl}_e}_d
/uni03BC{636 0 -12 -207 592 547 _sc
false CharStrings /mu get exec
}_d
end readonly def

/BuildGlyph
 {exch begin
 CharStrings exch
 2 copy known not{pop /.notdef}if
 true 3 1 roll get exec
 end}_d

/BuildChar {
 1 index /Encoding get exch get
 1 index /BuildGlyph get exec
}_d

FontName currentdict end definefont pop
%!PS-Adobe-3.0 Resource-Font
%%Title: DejaVu Sans
%%Copyright: Copyright (c) 2003 by Bitstream, Inc. All Rights Reserved. Copyright (c) 2006 by Tavmjong Bah. All Rights Reserved. DejaVu changes are in public domain 
%%Creator: Converted from TrueType to type 3 by PPR
25 dict begin
/_d{bind def}bind def
/_m{moveto}_d
/_l{lineto}_d
/_cl{closepath eofill}_d
/_c{curveto}_d
/_sc{7 -1 roll{setcachedevice}{pop pop pop pop pop pop}ifelse}_d
/_e{exec}_d
/FontName /DejaVuSans def
/PaintType 0 def
/FontMatrix[.001 0 0 .001 0 0]def
/FontBBox[-1021 -463 1793 1232]def
/FontType 3 def
/Encoding [ /space /period /slash /zero /one /two /three /five /equal /A /M /N /R /S /T ] def
/FontInfo 10 dict dup begin
/FamilyName (DejaVu Sans) def
/FullName (DejaVu Sans) def
/Notice (Copyright (c) 2003 by Bitstream, Inc. All Rights Reserved. Copyright (c) 2006 by Tavmjong Bah. All Rights Reserved. DejaVu changes are in public domain ) def
/Weight (Book) def
/Version (Version 2.35) def
/ItalicAngle 0.0 def
/isFixedPitch false def
/UnderlinePosition -130 def
/UnderlineThickness 90 def
end readonly def
/CharStrings 15 dict dup begin
/space{318 0 0 0 0 0 _sc
}_d
/period{318 0 107 0 210 124 _sc
107 124 _m
210 124 _l
210 0 _l
107 0 _l
107 124 _l
_cl}_d
/slash{337 0 0 -92 337 729 _sc
254 729 _m
337 729 _l
83 -92 _l
0 -92 _l
254 729 _l
_cl}_d
/zero{636 0 66 -13 570 742 _sc
318 664 _m
267 664 229 639 203 589 _c
177 539 165 464 165 364 _c
165 264 177 189 203 139 _c
229 89 267 64 318 64 _c
369 64 407 89 433 139 _c
458 189 471 264 471 364 _c
471 464 458 539 433 589 _c
407 639 369 664 318 664 _c
318 742 _m
399 742 461 709 505 645 _c
548 580 570 486 570 364 _c
570 241 548 147 505 83 _c
461 19 399 -13 318 -13 _c
236 -13 173 19 130 83 _c
87 147 66 241 66 364 _c
66 486 87 580 130 645 _c
173 709 236 742 318 742 _c
_cl}_d
/one{636 0 110 0 544 729 _sc
124 83 _m
285 83 _l
285 639 _l
110 604 _l
110 694 _l
284 729 _l
383 729 _l
383 83 _l
544 83 _l
544 0 _l
124 0 _l
124 83 _l
_cl}_d
/two{{636 0 73 0 536 742 _sc
192 83 _m
536 83 _l
536 0 _l
73 0 _l
73 83 _l
110 121 161 173 226 239 _c
290 304 331 346 348 365 _c
380 400 402 430 414 455 _c
426 479 433 504 433 528 _c
433 566 419 598 392 622 _c
365 646 330 659 286 659 _c
255 659 222 653 188 643 _c
154 632 117 616 78 594 _c
78 694 _l
118 710 155 722 189 730 _c
223 738 255 742 284 742 _c
}_e{359 742 419 723 464 685 _c
509 647 532 597 532 534 _c
532 504 526 475 515 449 _c
504 422 484 390 454 354 _c
446 344 420 317 376 272 _c
332 227 271 164 192 83 _c
_cl}_e}_d
/three{{636 0 76 -13 556 742 _sc
406 393 _m
453 383 490 362 516 330 _c
542 298 556 258 556 212 _c
556 140 531 84 482 45 _c
432 6 362 -13 271 -13 _c
240 -13 208 -10 176 -4 _c
144 1 110 10 76 22 _c
76 117 _l
103 101 133 89 166 81 _c
198 73 232 69 268 69 _c
330 69 377 81 409 105 _c
441 129 458 165 458 212 _c
458 254 443 288 413 312 _c
383 336 341 349 287 349 _c
}_e{202 349 _l
202 430 _l
291 430 _l
339 430 376 439 402 459 _c
428 478 441 506 441 543 _c
441 580 427 609 401 629 _c
374 649 336 659 287 659 _c
260 659 231 656 200 650 _c
169 644 135 635 98 623 _c
98 711 _l
135 721 170 729 203 734 _c
235 739 266 742 296 742 _c
370 742 429 725 473 691 _c
517 657 539 611 539 553 _c
539 513 527 479 504 451 _c
481 423 448 403 406 393 _c
_cl}_e}_d
/five{{636 0 77 -13 549 729 _sc
108 729 _m
495 729 _l
495 646 _l
198 646 _l
198 467 _l
212 472 227 476 241 478 _c
255 480 270 482 284 482 _c
365 482 429 459 477 415 _c
525 370 549 310 549 234 _c
549 155 524 94 475 51 _c
426 8 357 -13 269 -13 _c
238 -13 207 -10 175 -6 _c
143 -1 111 6 77 17 _c
77 116 _l
106 100 136 88 168 80 _c
199 72 232 69 267 69 _c
}_e{323 69 368 83 401 113 _c
433 143 450 183 450 234 _c
450 284 433 324 401 354 _c
368 384 323 399 267 399 _c
241 399 214 396 188 390 _c
162 384 135 375 108 363 _c
108 729 _l
_cl}_e}_d
/equal{838 0 106 172 732 454 _sc
106 454 _m
732 454 _l
732 372 _l
106 372 _l
106 454 _l
106 255 _m
732 255 _l
732 172 _l
106 172 _l
106 255 _l
_cl}_d
/A{684 0 8 0 676 729 _sc
342 632 _m
208 269 _l
476 269 _l
342 632 _l
286 729 _m
398 729 _l
676 0 _l
573 0 _l
507 187 _l
178 187 _l
112 0 _l
8 0 _l
286 729 _l
_cl}_d
/M{863 0 98 0 765 729 _sc
98 729 _m
245 729 _l
431 233 _l
618 729 _l
765 729 _l
765 0 _l
669 0 _l
669 640 _l
481 140 _l
382 140 _l
194 640 _l
194 0 _l
98 0 _l
98 729 _l
_cl}_d
/N{748 0 98 0 650 729 _sc
98 729 _m
231 729 _l
554 119 _l
554 729 _l
650 729 _l
650 0 _l
517 0 _l
194 610 _l
194 0 _l
98 0 _l
98 729 _l
_cl}_d
/R{{695 0 98 0 666 729 _sc
444 342 _m
465 334 486 319 506 296 _c
526 272 546 240 566 199 _c
666 0 _l
560 0 _l
467 187 _l
443 235 419 268 397 284 _c
374 300 343 308 304 308 _c
197 308 _l
197 0 _l
98 0 _l
98 729 _l
321 729 _l
404 729 466 711 507 677 _c
548 642 569 589 569 519 _c
569 473 558 434 537 404 _c
515 374 484 353 444 342 _c
197 648 _m
197 389 _l
321 389 _l
}_e{368 389 404 400 428 422 _c
452 444 465 476 465 519 _c
465 561 452 593 428 615 _c
404 637 368 648 321 648 _c
197 648 _l
_cl}_e}_d
/S{{635 0 66 -13 579 742 _sc
535 705 _m
535 609 _l
497 627 462 640 429 649 _c
395 657 363 662 333 662 _c
279 662 237 651 208 631 _c
179 610 165 580 165 542 _c
165 510 174 485 194 469 _c
213 452 250 439 304 429 _c
364 417 _l
437 403 491 378 526 343 _c
561 307 579 260 579 201 _c
579 130 555 77 508 41 _c
460 5 391 -13 300 -13 _c
265 -13 228 -9 189 -2 _c
}_e{150 5 110 16 69 32 _c
69 134 _l
109 111 148 94 186 83 _c
224 71 262 66 300 66 _c
356 66 399 77 430 99 _c
460 121 476 152 476 194 _c
476 230 465 258 443 278 _c
421 298 385 313 335 323 _c
275 335 _l
201 349 148 372 115 404 _c
82 435 66 478 66 534 _c
66 598 88 649 134 686 _c
179 723 242 742 322 742 _c
356 742 390 739 426 733 _c
461 727 497 717 535 705 _c
}_e{_cl}_e}_d
/T{611 0 -2 0 614 729 _sc
-2 729 _m
614 729 _l
614 646 _l
355 646 _l
355 0 _l
256 0 _l
256 646 _l
-2 646 _l
-2 729 _l
_cl}_d
end readonly def

/BuildGlyph
 {exch begin
 CharStrings exch
 2 copy known not{pop /.notdef}if
 true 3 1 roll get exec
 end}_d

/BuildChar {
 1 index /Encoding get exch get
 1 index /BuildGlyph get exec
}_d

FontName currentdict end definefont pop
end
%%EndProlog
mpldict begin
87.576 253.315 translate
436.848 285.371 0 0 clipbox
gsave
0 0 m
436.848125 0 l
436.848125 285.370937 l
0 285.370937 l
cl
1.000 setgray
fill
grestore
gsave
69.028125 50.715625 m
426.148125 50.715625 l
426.148125 272.475625 l
69.028125 272.475625 l
cl
1.000 setgray
fill
grestore
1.500 setlinewidth
1 setlinejoin
0 setlinecap
[1.5 2.475] 0 setdash
0.000 setgray
gsave
357.1 221.8 69.03 50.72 clipbox
85.260852 50.717473 m
85.361623 50.935444 l
85.791857 51.055103 l
87.481787 51.228833 l
94.019752 51.585208 l
112.395613 52.586724 l
138.212165 54.268575 l
171.837847 56.683927 l
201.818033 59.063531 l
228.027959 61.370627 l
249.986534 63.510417 l
269.581533 65.618336 l
285.92188 67.55207 l
302.650311 69.736708 l
319.517947 72.204801 l
332.070509 74.263842 l
344.356887 76.52017 l
356.179814 78.992688 l
363.690748 80.771289 l
370.814003 82.661758 l
377.461861 84.671138 l
383.537161 86.8069 l
388.932276 89.077 l
391.338148 90.265047 l
393.528558 91.489884 l
395.486745 92.752657 l
397.195208 94.054537 l
398.635518 95.396735 l
399.78846 96.7805 l
400.633894 98.207117 l
401.150776 99.677921 l
401.317089 101.194272 l
401.109869 102.757584 l
400.505154 104.369311 l
399.477989 106.030952 l
398.002397 107.744057 l
396.051363 109.510213 l
393.596875 111.331065 l
390.609925 113.208313 l
387.060463 115.143693 l
382.917537 117.139015 l
378.149339 119.19613 l
372.723157 121.316953 l
366.6057 123.50346 l
359.763076 125.757674 l
352.160999 128.081709 l
343.765159 130.477713 l
334.541457 132.947923 l
324.456347 135.494638 l
313.477534 138.120221 l
301.574529 140.827115 l
288.719575 143.617839 l
274.888733 146.494996 l
244.232783 152.519382 l
209.566965 158.922689 l
171.113727 165.728751 l
129.806183 172.962908 l
109.10143 176.74888 l
91.585654 180.652092 l
86.044328 184.67618 l
85.606735 188.824901 l
85.565753 202.058 l
85.574263 286.370937 l
85.574263 286.370937 l
stroke
grestore
2.000 setlinewidth
[] 0 setdash
gsave
357.1 221.8 69.03 50.72 clipbox
/o {
gsave
newpath
translate
2.0 setlinewidth
1 setlinejoin
0 setlinecap
0 -1.5 m
0.397805 -1.5 0.77937 -1.341951 1.06066 -1.06066 c
1.341951 -0.77937 1.5 -0.397805 1.5 0 c
1.5 0.397805 1.341951 0.77937 1.06066 1.06066 c
0.77937 1.341951 0.397805 1.5 0 1.5 c
-0.397805 1.5 -0.77937 1.341951 -1.06066 1.06066 c
-1.341951 0.77937 -1.5 0.397805 -1.5 0 c
-1.5 -0.397805 -1.341951 -0.77937 -1.06066 -1.06066 c
-0.77937 -1.341951 -0.397805 -1.5 0 -1.5 c
cl

stroke
grestore
} bind def
85.2609 50.7175 o
85.2609 50.7249 o
85.2609 50.7323 o
85.2609 50.7398 o
85.2609 50.7474 o
85.261 50.7551 o
85.2611 50.763 o
85.2613 50.771 o
85.2616 50.7792 o
85.2621 50.7877 o
85.2627 50.7964 o
85.2637 50.8055 o
85.2652 50.8148 o
85.2671 50.8246 o
85.2698 50.8347 o
85.2734 50.8453 o
85.2782 50.8564 o
85.2846 50.868 o
85.293 50.8802 o
85.3041 50.8929 o
85.3186 50.9064 o
85.3374 50.9205 o
85.3616 50.9354 o
85.3928 50.9512 o
85.4327 50.9678 o
85.4836 50.9853 o
85.5481 51.0039 o
85.6295 51.0235 o
85.7316 51.0443 o
85.859 51.0663 o
86.0168 51.0896 o
86.2108 51.1142 o
86.4475 51.1404 o
86.7336 51.1682 o
87.0761 51.1976 o
87.4818 51.2288 o
87.9569 51.262 o
88.5067 51.2971 o
89.1352 51.3345 o
89.8447 51.3741 o
90.6359 51.4162 o
91.5076 51.4609 o
92.4573 51.5084 o
93.4813 51.5588 o
94.5752 51.6124 o
95.7346 51.6693 o
96.9555 51.7298 o
98.2346 51.794 o
99.5698 51.8622 o
100.96 51.9347 o
102.406 52.0118 o
103.908 52.0936 o
105.47 52.1806 o
107.095 52.2731 o
108.787 52.3713 o
110.552 52.4758 o
112.396 52.5867 o
114.323 52.7047 o
116.342 52.83 o
118.459 52.9632 o
120.682 53.1048 o
123.016 53.2552 o
125.471 53.4151 o
128.054 53.5851 o
130.772 53.7657 o
133.634 53.9577 o
136.646 54.1618 o
139.819 54.3787 o
143.158 54.6092 o
146.672 54.8542 o
150.369 55.1146 o
154.255 55.3914 o
158.339 55.6856 o
162.626 55.9983 o
167.124 56.3307 o
171.838 56.6839 o
176.773 57.0594 o
181.934 57.4585 o
187.324 57.8827 o
192.946 58.3335 o
198.802 58.8127 o
204.892 59.3221 o
211.216 59.8635 o
217.771 60.4389 o
224.553 61.0505 o
231.557 61.7006 o
238.776 62.3916 o
246.201 63.1261 o
253.819 63.9067 o
261.618 64.7364 o
269.582 65.6183 o
277.69 66.5557 o
285.922 67.5521 o
294.252 68.6111 o
302.65 69.7367 o
311.085 70.9331 o
319.518 72.2048 o
327.907 73.5565 o
336.205 74.9931 o
344.357 76.5202 o
352.304 78.1433 o
359.979 79.8684 o
367.306 81.7021 o
374.203 83.6511 o
380.578 85.7227 o
386.327 87.9246 o
391.338 90.265 o
395.487 92.7527 o
398.636 95.3967 o
400.634 98.2071 o
401.317 101.194 o
400.505 104.369 o
398.002 107.744 o
393.597 111.331 o
387.06 115.144 o
378.149 119.196 o
366.606 123.503 o
352.161 128.082 o
334.541 132.948 o
313.478 138.12 o
288.72 143.618 o
260.063 149.461 o
227.396 155.672 o
190.782 162.274 o
150.698 169.291 o
109.101 176.749 o
86.0443 184.676 o
85.5685 193.102 o
85.5658 202.058 o
85.5674 211.577 o
85.5689 221.695 o
85.5702 232.45 o
85.5714 243.88 o
85.5724 256.03 o
85.5733 268.944 o
85.5741 282.67 o
85.5743 286.371 o
grestore
0.800 setlinewidth
gsave
/o {
gsave
newpath
translate
0.8 setlinewidth
1 setlinejoin
0 setlinecap
0 0 m
0 -3.5 l

gsave
0.000 setgray
fill
grestore
stroke
grestore
} bind def
85.2609 50.7156 o
grestore
/DejaVuSans findfont
15.000 scalefont
setfont
gsave
80.487415 32.325000 translate
0.000000 rotate
0.000000 0.000000 m /zero glyphshow
grestore
gsave
/o {
gsave
newpath
translate
0.8 setlinewidth
1 setlinejoin
0 setlinecap
0 0 m
0 -3.5 l

gsave
0.000 setgray
fill
grestore
stroke
grestore
} bind def
161.12 50.7156 o
grestore
gsave
151.573621 32.325000 translate
0.000000 rotate
0.000000 0.000000 m /five glyphshow
9.543457 0.000000 m /zero glyphshow
grestore
gsave
/o {
gsave
newpath
translate
0.8 setlinewidth
1 setlinejoin
0 setlinecap
0 0 m
0 -3.5 l

gsave
0.000 setgray
fill
grestore
stroke
grestore
} bind def
236.98 50.7156 o
grestore
gsave
222.659827 32.325000 translate
0.000000 rotate
0.000000 0.000000 m /one glyphshow
9.543457 0.000000 m /zero glyphshow
19.086914 0.000000 m /zero glyphshow
grestore
gsave
/o {
gsave
newpath
translate
0.8 setlinewidth
1 setlinejoin
0 setlinecap
0 0 m
0 -3.5 l

gsave
0.000 setgray
fill
grestore
stroke
grestore
} bind def
312.84 50.7156 o
grestore
gsave
298.519471 32.325000 translate
0.000000 rotate
0.000000 0.000000 m /one glyphshow
9.543457 0.000000 m /five glyphshow
19.086914 0.000000 m /zero glyphshow
grestore
gsave
/o {
gsave
newpath
translate
0.8 setlinewidth
1 setlinejoin
0 setlinecap
0 0 m
0 -3.5 l

gsave
0.000 setgray
fill
grestore
stroke
grestore
} bind def
388.699 50.7156 o
grestore
gsave
374.379115 32.325000 translate
0.000000 rotate
0.000000 0.000000 m /two glyphshow
9.543457 0.000000 m /zero glyphshow
19.086914 0.000000 m /zero glyphshow
grestore
gsave
228.588125 11.200000 translate
0.000000 rotate
/DejaVuSans-Oblique findfont
18.0 scalefont
setfont
0.000000 0.875000 moveto
/uni03BC glyphshow

/DejaVuSans-Oblique findfont
12.6 scalefont
setfont
11.452148 -2.078125 moveto
/T glyphshow

/DejaVuSans findfont
18.0 scalefont
setfont
19.640918 0.875000 moveto
/slash glyphshow

/DejaVuSans-Oblique findfont
18.0 scalefont
setfont
25.705371 0.875000 moveto
/uni03BC glyphshow


grestore
gsave
/o {
gsave
newpath
translate
0.8 setlinewidth
1 setlinejoin
0 setlinecap
0 0 m
-3.5 0 l

gsave
0.000 setgray
fill
grestore
stroke
grestore
} bind def
69.0281 50.7156 o
grestore
gsave
28.621875 45.020313 translate
0.000000 rotate
0.000000 0.000000 m /zero glyphshow
9.543457 0.000000 m /period glyphshow
14.311523 0.000000 m /zero glyphshow
23.854980 0.000000 m /zero glyphshow
grestore
gsave
/o {
gsave
newpath
translate
0.8 setlinewidth
1 setlinejoin
0 setlinecap
0 0 m
-3.5 0 l

gsave
0.000 setgray
fill
grestore
stroke
grestore
} bind def
69.0281 124.636 o
grestore
gsave
28.621875 118.940313 translate
0.000000 rotate
0.000000 0.000000 m /zero glyphshow
9.543457 0.000000 m /period glyphshow
14.311523 0.000000 m /zero glyphshow
23.854980 0.000000 m /one glyphshow
grestore
gsave
/o {
gsave
newpath
translate
0.8 setlinewidth
1 setlinejoin
0 setlinecap
0 0 m
-3.5 0 l

gsave
0.000 setgray
fill
grestore
stroke
grestore
} bind def
69.0281 198.556 o
grestore
gsave
28.621875 192.860313 translate
0.000000 rotate
0.000000 0.000000 m /zero glyphshow
9.543457 0.000000 m /period glyphshow
14.311523 0.000000 m /zero glyphshow
23.854980 0.000000 m /two glyphshow
grestore
gsave
/o {
gsave
newpath
translate
0.8 setlinewidth
1 setlinejoin
0 setlinecap
0 0 m
-3.5 0 l

gsave
0.000 setgray
fill
grestore
stroke
grestore
} bind def
69.0281 272.476 o
grestore
gsave
28.621875 266.780312 translate
0.000000 rotate
0.000000 0.000000 m /zero glyphshow
9.543457 0.000000 m /period glyphshow
14.311523 0.000000 m /zero glyphshow
23.854980 0.000000 m /three glyphshow
grestore
gsave
20.871875 151.595625 translate
90.000000 rotate
/DejaVuSans-Oblique findfont
18.0 scalefont
setfont
0.000000 0.156250 moveto
/x glyphshow

/DejaVuSans findfont
12.6 scalefont
setfont
10.652344 -2.796875 moveto
/two glyphshow


grestore
2.000 setlinewidth
2 setlinecap
0.000 0.000 1.000 setrgbcolor
gsave
357.1 221.8 69.03 50.72 clipbox
85.260852 50.715625 m
85.261437 50.783664 l
stroke
grestore
gsave
357.1 221.8 69.03 50.72 clipbox
85.261347 50.783664 m
85.27251 50.876565 l
stroke
grestore
gsave
357.1 221.8 69.03 50.72 clipbox
85.270932 50.876565 m
85.36288 51.003413 l
stroke
grestore
gsave
357.1 221.8 69.03 50.72 clipbox
85.348814 51.003413 m
86.028728 51.176614 l
stroke
grestore
gsave
357.1 221.8 69.03 50.72 clipbox
86.046999 51.176614 m
89.614149 51.413105 l
stroke
grestore
gsave
357.1 221.8 69.03 50.72 clipbox
89.8796 51.413105 m
97.333616 51.736012 l
stroke
grestore
gsave
357.1 221.8 69.03 50.72 clipbox
97.324834 51.736012 m
106.207915 52.176915 l
stroke
grestore
gsave
357.1 221.8 69.03 50.72 clipbox
106.156846 52.176915 m
116.495818 52.77893 l
stroke
grestore
gsave
357.1 221.8 69.03 50.72 clipbox
116.54411 52.77893 m
129.35512 53.60093 l
stroke
grestore
gsave
357.1 221.8 69.03 50.72 clipbox
129.561064 53.60093 m
145.734704 54.723298 l
stroke
grestore
gsave
357.1 221.8 69.03 50.72 clipbox
146.174644 54.723298 m
166.196174 56.255797 l
stroke
grestore
gsave
357.1 221.8 69.03 50.72 clipbox
166.967591 56.255797 m
190.692148 58.348294 l
stroke
grestore
gsave
357.1 221.8 69.03 50.72 clipbox
191.894887 58.348294 m
218.264049 61.205413 l
stroke
grestore
gsave
357.1 221.8 69.03 50.72 clipbox
219.993406 61.205413 m
246.686837 65.10657 l
stroke
grestore
gsave
357.1 221.8 69.03 50.72 clipbox
248.984625 65.10657 m
272.061584 70.43326 l
stroke
grestore
gsave
357.1 221.8 69.03 50.72 clipbox
274.742312 70.43326 m
288.62402 77.706404 l
stroke
grestore
gsave
357.1 221.8 69.03 50.72 clipbox
291.011171 77.706404 m
289.556335 87.637246 l
stroke
grestore
gsave
357.1 221.8 69.03 50.72 clipbox
290.409149 87.637246 m
269.721011 101.196968 l
stroke
grestore
gsave
357.1 221.8 69.03 50.72 clipbox
267.87489 101.196968 m
229.977627 119.711592 l
stroke
grestore
gsave
357.1 221.8 69.03 50.72 clipbox
225.650381 119.711592 m
179.77904 144.991715 l
stroke
grestore
gsave
357.1 221.8 69.03 50.72 clipbox
174.975577 144.991715 m
133.434351 179.509546 l
stroke
grestore
gsave
357.1 221.8 69.03 50.72 clipbox
130.304261 179.509546 m
99.932921 226.640716 l
stroke
grestore
gsave
357.1 221.8 69.03 50.72 clipbox
99.014359 226.640716 m
86.422571 286.370937 l
stroke
grestore
gsave
357.1 221.8 69.03 50.72 clipbox

stroke
grestore
gsave
357.1 221.8 69.03 50.72 clipbox

stroke
grestore
gsave
357.1 221.8 69.03 50.72 clipbox

stroke
grestore
gsave
357.1 221.8 69.03 50.72 clipbox

stroke
grestore
gsave
357.1 221.8 69.03 50.72 clipbox

stroke
grestore
gsave
357.1 221.8 69.03 50.72 clipbox

stroke
grestore
gsave
357.1 221.8 69.03 50.72 clipbox

stroke
grestore
gsave
357.1 221.8 69.03 50.72 clipbox

stroke
grestore
gsave
357.1 221.8 69.03 50.72 clipbox

stroke
grestore
gsave
357.1 221.8 69.03 50.72 clipbox

stroke
grestore
gsave
357.1 221.8 69.03 50.72 clipbox

stroke
grestore
0 setlinecap
[7.4 3.2] 0 setdash
1.000 0.000 0.000 setrgbcolor
gsave
357.1 221.8 69.03 50.72 clipbox
85.260852 50.715625 m
85.261477 50.783664 l
stroke
grestore
gsave
357.1 221.8 69.03 50.72 clipbox
85.26142 50.783664 m
85.284385 50.876565 l
stroke
grestore
gsave
357.1 221.8 69.03 50.72 clipbox
85.283133 50.876565 m
85.612029 51.003413 l
stroke
grestore
gsave
357.1 221.8 69.03 50.72 clipbox
85.657459 51.003413 m
88.232247 51.176614 l
stroke
grestore
gsave
357.1 221.8 69.03 50.72 clipbox
88.724006 51.176614 m
95.820011 51.413105 l
stroke
grestore
gsave
357.1 221.8 69.03 50.72 clipbox
95.851772 51.413105 m
104.472034 51.736012 l
stroke
grestore
gsave
357.1 221.8 69.03 50.72 clipbox
104.05605 51.736012 m
113.119836 52.176915 l
stroke
grestore
gsave
357.1 221.8 69.03 50.72 clipbox
112.722241 52.176915 m
123.066932 52.77893 l
stroke
grestore
gsave
357.1 221.8 69.03 50.72 clipbox
122.841781 52.77893 m
135.699581 53.60093 l
stroke
grestore
gsave
357.1 221.8 69.03 50.72 clipbox
135.64965 53.60093 m
152.283986 54.723298 l
stroke
grestore
gsave
357.1 221.8 69.03 50.72 clipbox
152.349392 54.723298 m
173.89567 56.255797 l
stroke
grestore
gsave
357.1 221.8 69.03 50.72 clipbox
173.987081 56.255797 m
201.274614 58.348294 l
stroke
grestore
gsave
357.1 221.8 69.03 50.72 clipbox
201.276692 58.348294 m
234.585479 61.205413 l
stroke
grestore
gsave
357.1 221.8 69.03 50.72 clipbox
234.352923 61.205413 m
273.082048 65.10657 l
stroke
grestore
gsave
357.1 221.8 69.03 50.72 clipbox
272.438455 65.10657 m
314.672249 70.43326 l
stroke
grestore
gsave
357.1 221.8 69.03 50.72 clipbox
313.38658 70.43326 m
355.365486 77.706404 l
stroke
grestore
gsave
357.1 221.8 69.03 50.72 clipbox
353.081656 77.706404 m
388.718999 87.637246 l
stroke
grestore
gsave
357.1 221.8 69.03 50.72 clipbox
384.882777 87.637246 m
405.776951 101.196968 l
stroke
grestore
gsave
357.1 221.8 69.03 50.72 clipbox
399.716372 101.196968 m
396.487027 119.711592 l
stroke
grestore
gsave
357.1 221.8 69.03 50.72 clipbox
387.95039 119.711592 m
353.70234 144.991715 l
stroke
grestore
gsave
357.1 221.8 69.03 50.72 clipbox
344.02189 144.991715 m
279.486878 179.509546 l
stroke
grestore
gsave
357.1 221.8 69.03 50.72 clipbox
272.456964 179.509546 m
189.670774 226.640716 l
stroke
grestore
gsave
357.1 221.8 69.03 50.72 clipbox
190.069462 226.640716 m
114.345595 286.370937 l
stroke
grestore
gsave
357.1 221.8 69.03 50.72 clipbox

stroke
grestore
gsave
357.1 221.8 69.03 50.72 clipbox

stroke
grestore
gsave
357.1 221.8 69.03 50.72 clipbox

stroke
grestore
gsave
357.1 221.8 69.03 50.72 clipbox

stroke
grestore
gsave
357.1 221.8 69.03 50.72 clipbox

stroke
grestore
gsave
357.1 221.8 69.03 50.72 clipbox

stroke
grestore
gsave
357.1 221.8 69.03 50.72 clipbox

stroke
grestore
gsave
357.1 221.8 69.03 50.72 clipbox

stroke
grestore
gsave
357.1 221.8 69.03 50.72 clipbox

stroke
grestore
gsave
357.1 221.8 69.03 50.72 clipbox

stroke
grestore
gsave
357.1 221.8 69.03 50.72 clipbox

stroke
grestore
[12.8 3.2 2 3.2] 0 setdash
0.000 0.500 0.000 setrgbcolor
gsave
357.1 221.8 69.03 50.72 clipbox
85.260852 50.715625 m
85.26136 50.783664 l
stroke
grestore
gsave
357.1 221.8 69.03 50.72 clipbox
85.261321 50.783664 m
85.281554 50.876565 l
stroke
grestore
gsave
357.1 221.8 69.03 50.72 clipbox
85.279791 50.876565 m
85.595499 51.003413 l
stroke
grestore
gsave
357.1 221.8 69.03 50.72 clipbox
85.603783 51.003413 m
88.137819 51.176614 l
stroke
grestore
gsave
357.1 221.8 69.03 50.72 clipbox
88.40421 51.176614 m
95.486365 51.413105 l
stroke
grestore
gsave
357.1 221.8 69.03 50.72 clipbox
95.789599 51.413105 m
104.661531 51.736012 l
stroke
grestore
gsave
357.1 221.8 69.03 50.72 clipbox
104.541612 51.736012 m
114.083512 52.176915 l
stroke
grestore
gsave
357.1 221.8 69.03 50.72 clipbox
113.861834 52.176915 m
124.815527 52.77893 l
stroke
grestore
gsave
357.1 221.8 69.03 50.72 clipbox
124.623147 52.77893 m
138.07115 53.60093 l
stroke
grestore
gsave
357.1 221.8 69.03 50.72 clipbox
137.952096 53.60093 m
155.057111 54.723298 l
stroke
grestore
gsave
357.1 221.8 69.03 50.72 clipbox
155.016071 54.723298 m
176.873252 56.255797 l
stroke
grestore
gsave
357.1 221.8 69.03 50.72 clipbox
176.887165 56.255797 m
204.330438 58.348294 l
stroke
grestore
gsave
357.1 221.8 69.03 50.72 clipbox
204.351678 58.348294 m
237.684421 61.205413 l
stroke
grestore
gsave
357.1 221.8 69.03 50.72 clipbox
237.643608 61.205413 m
276.277711 65.10657 l
stroke
grestore
gsave
357.1 221.8 69.03 50.72 clipbox
276.094738 65.10657 m
318.06803 70.43326 l
stroke
grestore
gsave
357.1 221.8 69.03 50.72 clipbox
317.64974 70.43326 m
359.035424 77.706404 l
stroke
grestore
gsave
357.1 221.8 69.03 50.72 clipbox
358.224788 77.706404 m
392.641247 87.637246 l
stroke
grestore
gsave
357.1 221.8 69.03 50.72 clipbox
391.104027 87.637246 m
409.915398 101.196968 l
stroke
grestore
gsave
357.1 221.8 69.03 50.72 clipbox
407.054124 101.196968 m
401.183801 119.711592 l
stroke
grestore
gsave
357.1 221.8 69.03 50.72 clipbox
396.364286 119.711592 m
360.241593 144.991715 l
stroke
grestore
gsave
357.1 221.8 69.03 50.72 clipbox
353.662286 144.991715 m
289.977204 179.509546 l
stroke
grestore
gsave
357.1 221.8 69.03 50.72 clipbox
283.690261 179.509546 m
205.316218 226.640716 l
stroke
grestore
gsave
357.1 221.8 69.03 50.72 clipbox
202.75723 226.640716 m
133.624645 286.370937 l
stroke
grestore
gsave
357.1 221.8 69.03 50.72 clipbox

stroke
grestore
gsave
357.1 221.8 69.03 50.72 clipbox

stroke
grestore
gsave
357.1 221.8 69.03 50.72 clipbox

stroke
grestore
gsave
357.1 221.8 69.03 50.72 clipbox

stroke
grestore
gsave
357.1 221.8 69.03 50.72 clipbox

stroke
grestore
gsave
357.1 221.8 69.03 50.72 clipbox

stroke
grestore
gsave
357.1 221.8 69.03 50.72 clipbox

stroke
grestore
gsave
357.1 221.8 69.03 50.72 clipbox

stroke
grestore
gsave
357.1 221.8 69.03 50.72 clipbox

stroke
grestore
gsave
357.1 221.8 69.03 50.72 clipbox

stroke
grestore
gsave
357.1 221.8 69.03 50.72 clipbox

stroke
grestore
0.800 setlinewidth
0 setlinejoin
2 setlinecap
[] 0 setdash
0.000 setgray
gsave
69.028125 50.715625 m
69.028125 272.475625 l
stroke
grestore
gsave
426.148125 50.715625 m
426.148125 272.475625 l
stroke
grestore
gsave
69.028125 50.715625 m
426.148125 50.715625 l
stroke
grestore
gsave
69.028125 272.475625 m
426.148125 272.475625 l
stroke
grestore
1.000 setlinewidth
0 setlinecap
0.800 setgray
gsave
334.7575 205.788125 m
419.148125 205.788125 l
420.481458 205.788125 421.148125 206.454792 421.148125 207.788125 c
421.148125 265.475625 l
421.148125 266.808958 420.481458 267.475625 419.148125 267.475625 c
334.7575 267.475625 l
333.424167 267.475625 332.7575 266.808958 332.7575 265.475625 c
332.7575 207.788125 l
332.7575 206.454792 333.424167 205.788125 334.7575 205.788125 c
cl
gsave
1.000 setgray
fill
grestore
stroke
grestore
1.500 setlinewidth
1 setlinejoin
[1.5 2.475] 0 setdash
0.000 setgray
gsave
336.7575 259.381875 m
356.7575 259.381875 l
stroke
grestore
2.000 setlinewidth
[] 0 setdash
gsave
/o {
gsave
newpath
translate
2.0 setlinewidth
1 setlinejoin
0 setlinecap
0 -1.5 m
0.397805 -1.5 0.77937 -1.341951 1.06066 -1.06066 c
1.341951 -0.77937 1.5 -0.397805 1.5 0 c
1.5 0.397805 1.341951 0.77937 1.06066 1.06066 c
0.77937 1.341951 0.397805 1.5 0 1.5 c
-0.397805 1.5 -0.77937 1.341951 -1.06066 1.06066 c
-1.341951 0.77937 -1.5 0.397805 -1.5 0 c
-1.5 -0.397805 -1.341951 -0.77937 -1.06066 -1.06066 c
-0.77937 -1.341951 -0.397805 -1.5 0 -1.5 c
cl

stroke
grestore
} bind def
346.758 259.382 o
grestore
/DejaVuSans findfont
10.000 scalefont
setfont
gsave
364.757500 255.881875 translate
0.000000 rotate
0.000000 0.000000 m /N glyphshow
7.480469 0.000000 m /A glyphshow
14.321289 0.000000 m /S glyphshow
20.668945 0.000000 m /A glyphshow
27.509766 0.000000 m /space glyphshow
30.688477 0.000000 m /T glyphshow
36.796875 0.000000 m /M glyphshow
45.424805 0.000000 m /R glyphshow
grestore
2 setlinecap
0.000 0.000 1.000 setrgbcolor
gsave
336.7575 244.71 m
356.7575 244.71 l
stroke
grestore
0.000 setgray
gsave
364.757500 241.210000 translate
0.000000 rotate
/DejaVuSans-Oblique findfont
10.0 scalefont
setfont
0.000000 0.406250 moveto
/k glyphshow

/DejaVuSans findfont
10.0 scalefont
setfont
7.739258 0.406250 moveto
/equal glyphshow

18.066406 0.406250 moveto
/one glyphshow


grestore
0 setlinecap
[7.4 3.2] 0 setdash
1.000 0.000 0.000 setrgbcolor
gsave
336.7575 230.038125 m
356.7575 230.038125 l
stroke
grestore
0.000 setgray
gsave
364.757500 226.538125 translate
0.000000 rotate
/DejaVuSans-Oblique findfont
10.0 scalefont
setfont
0.000000 0.406250 moveto
/k glyphshow

/DejaVuSans findfont
10.0 scalefont
setfont
7.739258 0.406250 moveto
/equal glyphshow

18.066406 0.406250 moveto
/two glyphshow


grestore
[12.8 3.2 2 3.2] 0 setdash
0.000 0.500 0.000 setrgbcolor
gsave
336.7575 215.36625 m
356.7575 215.36625 l
stroke
grestore
0.000 setgray
gsave
364.757500 211.866250 translate
0.000000 rotate
/DejaVuSans-Oblique findfont
10.0 scalefont
setfont
0.000000 0.406250 moveto
/k glyphshow

/DejaVuSans findfont
10.0 scalefont
setfont
7.739258 0.406250 moveto
/equal glyphshow

18.066406 0.406250 moveto
/three glyphshow


grestore

end
showpage
