%!PS-Adobe-3.0 EPSF-3.0
%%Title: plots/mut_2.eps
%%Creator: matplotlib version 2.0.2, http://matplotlib.org/
%%CreationDate: Mon Nov 13 16:09:37 2017
%%Orientation: portrait
%%BoundingBox: 87 253 524 538
%%EndComments
%%BeginProlog
/mpldict 9 dict def
mpldict begin
/m { moveto } bind def
/l { lineto } bind def
/r { rlineto } bind def
/c { curveto } bind def
/cl { closepath } bind def
/box {
m
1 index 0 r
0 exch r
neg 0 r
cl
} bind def
/clipbox {
box
clip
newpath
} bind def
%!PS-Adobe-3.0 Resource-Font
%%Title: DejaVu Sans Oblique
%%Copyright: Copyright (c) 2003 by Bitstream, Inc. All Rights Reserved. Copyright (c) 2006 by Tavmjong Bah. All Rights Reserved. DejaVu changes are in public domain 
%%Creator: Converted from TrueType to type 3 by PPR
25 dict begin
/_d{bind def}bind def
/_m{moveto}_d
/_l{lineto}_d
/_cl{closepath eofill}_d
/_c{curveto}_d
/_sc{7 -1 roll{setcachedevice}{pop pop pop pop pop pop}ifelse}_d
/_e{exec}_d
/FontName /DejaVuSans-Oblique def
/PaintType 0 def
/FontMatrix[.001 0 0 .001 0 0]def
/FontBBox[-1016 -350 1659 1068]def
/FontType 3 def
/Encoding [ /T /k /x /mu /uni03BC ] def
/FontInfo 10 dict dup begin
/FamilyName (DejaVu Sans) def
/FullName (DejaVu Sans Oblique) def
/Notice (Copyright (c) 2003 by Bitstream, Inc. All Rights Reserved. Copyright (c) 2006 by Tavmjong Bah. All Rights Reserved. DejaVu changes are in public domain ) def
/Weight (Oblique) def
/Version (Version 2.35) def
/ItalicAngle -11.0 def
/isFixedPitch false def
/UnderlinePosition -130 def
/UnderlineThickness 90 def
end readonly def
/CharStrings 5 dict dup begin
/T{611 0 43 0 676 729 _sc
59 729 _m
676 729 _l
660 646 _l
400 646 _l
275 0 _l
176 0 _l
301 646 _l
43 646 _l
59 729 _l
_cl}_d
/k{579 0 35 0 612 760 _sc
183 760 _m
273 760 _l
187 317 _l
495 547 _l
612 547 _l
268 285 _l
519 0 _l
410 0 _l
177 267 _l
125 0 _l
35 0 _l
183 760 _l
_cl}_d
/x{592 0 -25 0 600 547 _sc
600 547 _m
349 279 _l
503 0 _l
400 0 _l
284 217 _l
83 0 _l
-25 0 _l
243 288 _l
100 547 _l
203 547 _l
308 349 _l
491 547 _l
600 547 _l
_cl}_d
/mu{{636 0 -12 -207 592 547 _sc
-12 -207 _m
134 547 _l
224 547 _l
158 207 _l
156 199 155 191 154 183 _c
153 175 153 166 153 158 _c
153 128 162 104 181 88 _c
200 72 227 64 263 64 _c
311 64 349 77 379 105 _c
409 132 429 173 440 228 _c
502 547 _l
592 547 _l
510 126 _l
508 120 507 114 507 110 _c
507 106 507 102 507 98 _c
507 88 509 80 513 76 _c
517 71 523 69 532 69 _c
}_e{535 69 539 69 545 71 _c
551 73 559 76 570 80 _c
556 8 _l
542 1 528 -3 515 -7 _c
502 -11 489 -13 477 -13 _c
455 -13 438 -6 426 7 _c
414 20 408 39 408 63 _c
390 37 368 17 343 5 _c
317 -7 288 -13 254 -13 _c
223 -13 196 -6 174 7 _c
152 21 137 39 130 62 _c
77 -207 _l
-12 -207 _l
_cl}_e}_d
/uni03BC{636 0 -12 -207 592 547 _sc
false CharStrings /mu get exec
}_d
end readonly def

/BuildGlyph
 {exch begin
 CharStrings exch
 2 copy known not{pop /.notdef}if
 true 3 1 roll get exec
 end}_d

/BuildChar {
 1 index /Encoding get exch get
 1 index /BuildGlyph get exec
}_d

FontName currentdict end definefont pop
%!PS-Adobe-3.0 Resource-Font
%%Title: DejaVu Sans
%%Copyright: Copyright (c) 2003 by Bitstream, Inc. All Rights Reserved. Copyright (c) 2006 by Tavmjong Bah. All Rights Reserved. DejaVu changes are in public domain 
%%Creator: Converted from TrueType to type 3 by PPR
25 dict begin
/_d{bind def}bind def
/_m{moveto}_d
/_l{lineto}_d
/_cl{closepath eofill}_d
/_c{curveto}_d
/_sc{7 -1 roll{setcachedevice}{pop pop pop pop pop pop}ifelse}_d
/_e{exec}_d
/FontName /DejaVuSans def
/PaintType 0 def
/FontMatrix[.001 0 0 .001 0 0]def
/FontBBox[-1021 -463 1793 1232]def
/FontType 3 def
/Encoding [ /space /period /slash /zero /one /two /three /five /equal /A /M /N /R /S /T ] def
/FontInfo 10 dict dup begin
/FamilyName (DejaVu Sans) def
/FullName (DejaVu Sans) def
/Notice (Copyright (c) 2003 by Bitstream, Inc. All Rights Reserved. Copyright (c) 2006 by Tavmjong Bah. All Rights Reserved. DejaVu changes are in public domain ) def
/Weight (Book) def
/Version (Version 2.35) def
/ItalicAngle 0.0 def
/isFixedPitch false def
/UnderlinePosition -130 def
/UnderlineThickness 90 def
end readonly def
/CharStrings 15 dict dup begin
/space{318 0 0 0 0 0 _sc
}_d
/period{318 0 107 0 210 124 _sc
107 124 _m
210 124 _l
210 0 _l
107 0 _l
107 124 _l
_cl}_d
/slash{337 0 0 -92 337 729 _sc
254 729 _m
337 729 _l
83 -92 _l
0 -92 _l
254 729 _l
_cl}_d
/zero{636 0 66 -13 570 742 _sc
318 664 _m
267 664 229 639 203 589 _c
177 539 165 464 165 364 _c
165 264 177 189 203 139 _c
229 89 267 64 318 64 _c
369 64 407 89 433 139 _c
458 189 471 264 471 364 _c
471 464 458 539 433 589 _c
407 639 369 664 318 664 _c
318 742 _m
399 742 461 709 505 645 _c
548 580 570 486 570 364 _c
570 241 548 147 505 83 _c
461 19 399 -13 318 -13 _c
236 -13 173 19 130 83 _c
87 147 66 241 66 364 _c
66 486 87 580 130 645 _c
173 709 236 742 318 742 _c
_cl}_d
/one{636 0 110 0 544 729 _sc
124 83 _m
285 83 _l
285 639 _l
110 604 _l
110 694 _l
284 729 _l
383 729 _l
383 83 _l
544 83 _l
544 0 _l
124 0 _l
124 83 _l
_cl}_d
/two{{636 0 73 0 536 742 _sc
192 83 _m
536 83 _l
536 0 _l
73 0 _l
73 83 _l
110 121 161 173 226 239 _c
290 304 331 346 348 365 _c
380 400 402 430 414 455 _c
426 479 433 504 433 528 _c
433 566 419 598 392 622 _c
365 646 330 659 286 659 _c
255 659 222 653 188 643 _c
154 632 117 616 78 594 _c
78 694 _l
118 710 155 722 189 730 _c
223 738 255 742 284 742 _c
}_e{359 742 419 723 464 685 _c
509 647 532 597 532 534 _c
532 504 526 475 515 449 _c
504 422 484 390 454 354 _c
446 344 420 317 376 272 _c
332 227 271 164 192 83 _c
_cl}_e}_d
/three{{636 0 76 -13 556 742 _sc
406 393 _m
453 383 490 362 516 330 _c
542 298 556 258 556 212 _c
556 140 531 84 482 45 _c
432 6 362 -13 271 -13 _c
240 -13 208 -10 176 -4 _c
144 1 110 10 76 22 _c
76 117 _l
103 101 133 89 166 81 _c
198 73 232 69 268 69 _c
330 69 377 81 409 105 _c
441 129 458 165 458 212 _c
458 254 443 288 413 312 _c
383 336 341 349 287 349 _c
}_e{202 349 _l
202 430 _l
291 430 _l
339 430 376 439 402 459 _c
428 478 441 506 441 543 _c
441 580 427 609 401 629 _c
374 649 336 659 287 659 _c
260 659 231 656 200 650 _c
169 644 135 635 98 623 _c
98 711 _l
135 721 170 729 203 734 _c
235 739 266 742 296 742 _c
370 742 429 725 473 691 _c
517 657 539 611 539 553 _c
539 513 527 479 504 451 _c
481 423 448 403 406 393 _c
_cl}_e}_d
/five{{636 0 77 -13 549 729 _sc
108 729 _m
495 729 _l
495 646 _l
198 646 _l
198 467 _l
212 472 227 476 241 478 _c
255 480 270 482 284 482 _c
365 482 429 459 477 415 _c
525 370 549 310 549 234 _c
549 155 524 94 475 51 _c
426 8 357 -13 269 -13 _c
238 -13 207 -10 175 -6 _c
143 -1 111 6 77 17 _c
77 116 _l
106 100 136 88 168 80 _c
199 72 232 69 267 69 _c
}_e{323 69 368 83 401 113 _c
433 143 450 183 450 234 _c
450 284 433 324 401 354 _c
368 384 323 399 267 399 _c
241 399 214 396 188 390 _c
162 384 135 375 108 363 _c
108 729 _l
_cl}_e}_d
/equal{838 0 106 172 732 454 _sc
106 454 _m
732 454 _l
732 372 _l
106 372 _l
106 454 _l
106 255 _m
732 255 _l
732 172 _l
106 172 _l
106 255 _l
_cl}_d
/A{684 0 8 0 676 729 _sc
342 632 _m
208 269 _l
476 269 _l
342 632 _l
286 729 _m
398 729 _l
676 0 _l
573 0 _l
507 187 _l
178 187 _l
112 0 _l
8 0 _l
286 729 _l
_cl}_d
/M{863 0 98 0 765 729 _sc
98 729 _m
245 729 _l
431 233 _l
618 729 _l
765 729 _l
765 0 _l
669 0 _l
669 640 _l
481 140 _l
382 140 _l
194 640 _l
194 0 _l
98 0 _l
98 729 _l
_cl}_d
/N{748 0 98 0 650 729 _sc
98 729 _m
231 729 _l
554 119 _l
554 729 _l
650 729 _l
650 0 _l
517 0 _l
194 610 _l
194 0 _l
98 0 _l
98 729 _l
_cl}_d
/R{{695 0 98 0 666 729 _sc
444 342 _m
465 334 486 319 506 296 _c
526 272 546 240 566 199 _c
666 0 _l
560 0 _l
467 187 _l
443 235 419 268 397 284 _c
374 300 343 308 304 308 _c
197 308 _l
197 0 _l
98 0 _l
98 729 _l
321 729 _l
404 729 466 711 507 677 _c
548 642 569 589 569 519 _c
569 473 558 434 537 404 _c
515 374 484 353 444 342 _c
197 648 _m
197 389 _l
321 389 _l
}_e{368 389 404 400 428 422 _c
452 444 465 476 465 519 _c
465 561 452 593 428 615 _c
404 637 368 648 321 648 _c
197 648 _l
_cl}_e}_d
/S{{635 0 66 -13 579 742 _sc
535 705 _m
535 609 _l
497 627 462 640 429 649 _c
395 657 363 662 333 662 _c
279 662 237 651 208 631 _c
179 610 165 580 165 542 _c
165 510 174 485 194 469 _c
213 452 250 439 304 429 _c
364 417 _l
437 403 491 378 526 343 _c
561 307 579 260 579 201 _c
579 130 555 77 508 41 _c
460 5 391 -13 300 -13 _c
265 -13 228 -9 189 -2 _c
}_e{150 5 110 16 69 32 _c
69 134 _l
109 111 148 94 186 83 _c
224 71 262 66 300 66 _c
356 66 399 77 430 99 _c
460 121 476 152 476 194 _c
476 230 465 258 443 278 _c
421 298 385 313 335 323 _c
275 335 _l
201 349 148 372 115 404 _c
82 435 66 478 66 534 _c
66 598 88 649 134 686 _c
179 723 242 742 322 742 _c
356 742 390 739 426 733 _c
461 727 497 717 535 705 _c
}_e{_cl}_e}_d
/T{611 0 -2 0 614 729 _sc
-2 729 _m
614 729 _l
614 646 _l
355 646 _l
355 0 _l
256 0 _l
256 646 _l
-2 646 _l
-2 729 _l
_cl}_d
end readonly def

/BuildGlyph
 {exch begin
 CharStrings exch
 2 copy known not{pop /.notdef}if
 true 3 1 roll get exec
 end}_d

/BuildChar {
 1 index /Encoding get exch get
 1 index /BuildGlyph get exec
}_d

FontName currentdict end definefont pop
end
%%EndProlog
mpldict begin
87.576 253.315 translate
436.848 285.371 0 0 clipbox
gsave
0 0 m
436.848125 0 l
436.848125 285.370937 l
0 285.370937 l
cl
1.000 setgray
fill
grestore
gsave
69.028125 50.715625 m
426.148125 50.715625 l
426.148125 272.475625 l
69.028125 272.475625 l
cl
1.000 setgray
fill
grestore
1.500 setlinewidth
1 setlinejoin
0 setlinecap
[1.5 2.475] 0 setdash
0.000 setgray
gsave
357.1 221.8 69.03 50.72 clipbox
85.260852 50.717473 m
85.364364 50.935444 l
85.806303 51.055103 l
87.542207 51.228833 l
94.258038 51.585208 l
113.133814 52.586724 l
139.652705 54.268575 l
174.193174 56.683927 l
204.98897 59.063531 l
231.911937 61.370627 l
254.467895 63.510417 l
274.595976 65.618336 l
291.380862 67.55207 l
308.56439 69.736708 l
325.89091 72.204801 l
338.784965 74.263842 l
351.405593 76.52017 l
363.550163 78.992688 l
371.265432 80.771289 l
378.582475 82.661758 l
385.411188 84.671138 l
391.651767 86.8069 l
397.193655 89.077 l
399.664979 90.265047 l
401.914979 91.489884 l
403.926439 92.752657 l
405.68138 94.054537 l
407.160874 95.396735 l
408.345182 96.7805 l
409.213616 98.207117 l
409.74456 99.677921 l
409.915398 101.194272 l
409.70254 102.757584 l
409.081374 104.369311 l
408.026264 106.030952 l
406.510529 107.744057 l
404.506418 109.510213 l
401.985155 111.331065 l
398.916945 113.208313 l
395.27092 115.143693 l
391.015286 117.139015 l
386.117369 119.19613 l
380.543568 121.316953 l
374.259685 123.50346 l
367.230907 125.757674 l
359.422016 128.081709 l
350.797768 130.477713 l
341.323135 132.947923 l
330.96366 135.494638 l
319.686168 138.120221 l
307.459342 140.827115 l
294.254668 143.617839 l
280.047558 146.494996 l
248.557614 152.519382 l
212.948713 158.922689 l
173.449354 165.728751 l
131.018038 172.962908 l
109.750013 176.74888 l
91.75772 180.652092 l
86.065642 184.67618 l
85.616144 188.824901 l
85.574048 202.058 l
85.582789 286.370937 l
85.582789 286.370937 l
stroke
grestore
2.000 setlinewidth
[] 0 setdash
gsave
357.1 221.8 69.03 50.72 clipbox
/o {
gsave
newpath
translate
2.0 setlinewidth
1 setlinejoin
0 setlinecap
0 -1.5 m
0.397805 -1.5 0.77937 -1.341951 1.06066 -1.06066 c
1.341951 -0.77937 1.5 -0.397805 1.5 0 c
1.5 0.397805 1.341951 0.77937 1.06066 1.06066 c
0.77937 1.341951 0.397805 1.5 0 1.5 c
-0.397805 1.5 -0.77937 1.341951 -1.06066 1.06066 c
-1.341951 0.77937 -1.5 0.397805 -1.5 0 c
-1.5 -0.397805 -1.341951 -0.77937 -1.06066 -1.06066 c
-0.77937 -1.341951 -0.397805 -1.5 0 -1.5 c
cl

stroke
grestore
} bind def
85.2609 50.7175 o
85.2609 50.7249 o
85.2609 50.7323 o
85.2609 50.7398 o
85.2609 50.7474 o
85.261 50.7551 o
85.2611 50.763 o
85.2613 50.771 o
85.2616 50.7792 o
85.2621 50.7877 o
85.2628 50.7964 o
85.2638 50.8055 o
85.2653 50.8148 o
85.2673 50.8246 o
85.27 50.8347 o
85.2737 50.8453 o
85.2787 50.8564 o
85.2852 50.868 o
85.2939 50.8802 o
85.3053 50.8929 o
85.3202 50.9064 o
85.3395 50.9205 o
85.3644 50.9354 o
85.3964 50.9512 o
85.4374 50.9678 o
85.4897 50.9853 o
85.5559 51.0039 o
85.6395 51.0235 o
85.7444 51.0443 o
85.8753 51.0663 o
86.0373 51.0896 o
86.2367 51.1142 o
86.4798 51.1404 o
86.7737 51.1682 o
87.1255 51.1976 o
87.5422 51.2288 o
88.0302 51.262 o
88.595 51.2971 o
89.2406 51.3345 o
89.9694 51.3741 o
90.7821 51.4162 o
91.6776 51.4609 o
92.6531 51.5084 o
93.7049 51.5588 o
94.8285 51.6124 o
96.0195 51.6693 o
97.2736 51.7298 o
98.5876 51.794 o
99.9591 51.8622 o
101.387 51.9347 o
102.872 52.0118 o
104.415 52.0936 o
106.02 52.1806 o
107.689 52.2731 o
109.427 52.3713 o
111.24 52.4758 o
113.134 52.5867 o
115.114 52.7047 o
117.188 52.83 o
119.363 52.9632 o
121.645 53.1048 o
124.043 53.2552 o
126.565 53.4151 o
129.218 53.5851 o
132.01 53.7657 o
134.949 53.9577 o
138.044 54.1618 o
141.303 54.3787 o
144.733 54.6092 o
148.343 54.8542 o
152.14 55.1146 o
156.132 55.3914 o
160.327 55.6856 o
164.731 55.9983 o
169.351 56.3307 o
174.193 56.6839 o
179.262 57.0594 o
184.564 57.4585 o
190.1 57.8827 o
195.876 58.3335 o
201.891 58.8127 o
208.147 59.3221 o
214.643 59.8635 o
221.376 60.4389 o
228.343 61.0505 o
235.537 61.7006 o
242.953 62.3916 o
250.579 63.1261 o
258.405 63.9067 o
266.416 64.7364 o
274.596 65.6183 o
282.925 66.5557 o
291.381 67.5521 o
299.937 68.6111 o
308.564 69.7367 o
317.228 70.9331 o
325.891 72.2048 o
334.508 73.5565 o
343.032 74.9931 o
351.406 76.5202 o
359.569 78.1433 o
367.452 79.8684 o
374.979 81.7021 o
382.064 83.6511 o
388.612 85.7227 o
394.517 87.9246 o
399.665 90.265 o
403.926 92.7527 o
407.161 95.3967 o
409.214 98.2071 o
409.915 101.194 o
409.081 104.369 o
406.511 107.744 o
401.985 111.331 o
395.271 115.144 o
386.117 119.196 o
374.26 123.503 o
359.422 128.082 o
341.323 132.948 o
319.686 138.12 o
294.255 143.618 o
264.819 149.461 o
231.263 155.672 o
193.653 162.274 o
152.478 169.291 o
109.75 176.749 o
86.0656 184.676 o
85.5768 193.102 o
85.574 202.058 o
85.5757 211.577 o
85.5773 221.695 o
85.5786 232.45 o
85.5798 243.88 o
85.5809 256.03 o
85.5818 268.944 o
85.5826 282.67 o
85.5828 286.371 o
grestore
0.800 setlinewidth
gsave
/o {
gsave
newpath
translate
0.8 setlinewidth
1 setlinejoin
0 setlinecap
0 0 m
0 -3.5 l

gsave
0.000 setgray
fill
grestore
stroke
grestore
} bind def
85.2609 50.7156 o
grestore
/DejaVuSans findfont
15.000 scalefont
setfont
gsave
80.487415 32.325000 translate
0.000000 rotate
0.000000 0.000000 m /zero glyphshow
grestore
gsave
/o {
gsave
newpath
translate
0.8 setlinewidth
1 setlinejoin
0 setlinecap
0 0 m
0 -3.5 l

gsave
0.000 setgray
fill
grestore
stroke
grestore
} bind def
163.184 50.7156 o
grestore
gsave
153.637382 32.325000 translate
0.000000 rotate
0.000000 0.000000 m /five glyphshow
9.543457 0.000000 m /zero glyphshow
grestore
gsave
/o {
gsave
newpath
translate
0.8 setlinewidth
1 setlinejoin
0 setlinecap
0 0 m
0 -3.5 l

gsave
0.000 setgray
fill
grestore
stroke
grestore
} bind def
241.108 50.7156 o
grestore
gsave
226.787350 32.325000 translate
0.000000 rotate
0.000000 0.000000 m /one glyphshow
9.543457 0.000000 m /zero glyphshow
19.086914 0.000000 m /zero glyphshow
grestore
gsave
/o {
gsave
newpath
translate
0.8 setlinewidth
1 setlinejoin
0 setlinecap
0 0 m
0 -3.5 l

gsave
0.000 setgray
fill
grestore
stroke
grestore
} bind def
319.031 50.7156 o
grestore
gsave
304.710755 32.325000 translate
0.000000 rotate
0.000000 0.000000 m /one glyphshow
9.543457 0.000000 m /five glyphshow
19.086914 0.000000 m /zero glyphshow
grestore
gsave
/o {
gsave
newpath
translate
0.8 setlinewidth
1 setlinejoin
0 setlinecap
0 0 m
0 -3.5 l

gsave
0.000 setgray
fill
grestore
stroke
grestore
} bind def
396.954 50.7156 o
grestore
gsave
382.634160 32.325000 translate
0.000000 rotate
0.000000 0.000000 m /two glyphshow
9.543457 0.000000 m /zero glyphshow
19.086914 0.000000 m /zero glyphshow
grestore
gsave
228.588125 11.200000 translate
0.000000 rotate
/DejaVuSans-Oblique findfont
18.0 scalefont
setfont
0.000000 0.875000 moveto
/uni03BC glyphshow

/DejaVuSans-Oblique findfont
12.6 scalefont
setfont
11.452148 -2.078125 moveto
/T glyphshow

/DejaVuSans findfont
18.0 scalefont
setfont
19.640918 0.875000 moveto
/slash glyphshow

/DejaVuSans-Oblique findfont
18.0 scalefont
setfont
25.705371 0.875000 moveto
/uni03BC glyphshow


grestore
gsave
/o {
gsave
newpath
translate
0.8 setlinewidth
1 setlinejoin
0 setlinecap
0 0 m
-3.5 0 l

gsave
0.000 setgray
fill
grestore
stroke
grestore
} bind def
69.0281 50.7156 o
grestore
gsave
28.621875 45.020313 translate
0.000000 rotate
0.000000 0.000000 m /zero glyphshow
9.543457 0.000000 m /period glyphshow
14.311523 0.000000 m /zero glyphshow
23.854980 0.000000 m /zero glyphshow
grestore
gsave
/o {
gsave
newpath
translate
0.8 setlinewidth
1 setlinejoin
0 setlinecap
0 0 m
-3.5 0 l

gsave
0.000 setgray
fill
grestore
stroke
grestore
} bind def
69.0281 124.636 o
grestore
gsave
28.621875 118.940313 translate
0.000000 rotate
0.000000 0.000000 m /zero glyphshow
9.543457 0.000000 m /period glyphshow
14.311523 0.000000 m /zero glyphshow
23.854980 0.000000 m /one glyphshow
grestore
gsave
/o {
gsave
newpath
translate
0.8 setlinewidth
1 setlinejoin
0 setlinecap
0 0 m
-3.5 0 l

gsave
0.000 setgray
fill
grestore
stroke
grestore
} bind def
69.0281 198.556 o
grestore
gsave
28.621875 192.860313 translate
0.000000 rotate
0.000000 0.000000 m /zero glyphshow
9.543457 0.000000 m /period glyphshow
14.311523 0.000000 m /zero glyphshow
23.854980 0.000000 m /two glyphshow
grestore
gsave
/o {
gsave
newpath
translate
0.8 setlinewidth
1 setlinejoin
0 setlinecap
0 0 m
-3.5 0 l

gsave
0.000 setgray
fill
grestore
stroke
grestore
} bind def
69.0281 272.476 o
grestore
gsave
28.621875 266.780312 translate
0.000000 rotate
0.000000 0.000000 m /zero glyphshow
9.543457 0.000000 m /period glyphshow
14.311523 0.000000 m /zero glyphshow
23.854980 0.000000 m /three glyphshow
grestore
gsave
20.871875 151.595625 translate
90.000000 rotate
/DejaVuSans-Oblique findfont
18.0 scalefont
setfont
0.000000 0.156250 moveto
/x glyphshow

/DejaVuSans findfont
12.6 scalefont
setfont
10.652344 -2.796875 moveto
/two glyphshow


grestore
2.000 setlinewidth
2 setlinecap
0.000 0.000 1.000 setrgbcolor
gsave
357.1 221.8 69.03 50.72 clipbox
377.827861 101.196968 m
363.346575 109.734913 l
stroke
grestore
gsave
357.1 221.8 69.03 50.72 clipbox
361.569298 109.734913 m
332.947097 119.711592 l
stroke
grestore
gsave
357.1 221.8 69.03 50.72 clipbox
330.667058 119.711592 m
287.653962 131.369441 l
stroke
grestore
gsave
357.1 221.8 69.03 50.72 clipbox
285.14514 131.369441 m
231.369886 144.991715 l
stroke
grestore
gsave
357.1 221.8 69.03 50.72 clipbox
229.529102 144.991715 m
173.092312 160.9095 l
stroke
grestore
gsave
357.1 221.8 69.03 50.72 clipbox
173.209322 160.9095 m
123.913744 179.509546 l
stroke
grestore
gsave
357.1 221.8 69.03 50.72 clipbox
126.681553 179.509546 m
88.213076 201.243948 l
stroke
grestore
gsave
357.1 221.8 69.03 50.72 clipbox
93.403613 201.243948 m
85.260852 226.640716 l
stroke
grestore
gsave
357.1 221.8 69.03 50.72 clipbox
85.260858 226.640716 m
85.260852 256.317083 l
stroke
grestore
gsave
357.1 221.8 69.03 50.72 clipbox
85.260852 256.317083 m
85.260852 286.370937 l
stroke
grestore
gsave
357.1 221.8 69.03 50.72 clipbox

stroke
grestore
gsave
357.1 221.8 69.03 50.72 clipbox

stroke
grestore
gsave
357.1 221.8 69.03 50.72 clipbox

stroke
grestore
gsave
357.1 221.8 69.03 50.72 clipbox

stroke
grestore
gsave
357.1 221.8 69.03 50.72 clipbox

stroke
grestore
gsave
357.1 221.8 69.03 50.72 clipbox

stroke
grestore
gsave
357.1 221.8 69.03 50.72 clipbox

stroke
grestore
gsave
357.1 221.8 69.03 50.72 clipbox

stroke
grestore
gsave
357.1 221.8 69.03 50.72 clipbox

stroke
grestore
gsave
357.1 221.8 69.03 50.72 clipbox

stroke
grestore
gsave
357.1 221.8 69.03 50.72 clipbox

stroke
grestore
gsave
357.1 221.8 69.03 50.72 clipbox

stroke
grestore
gsave
357.1 221.8 69.03 50.72 clipbox

stroke
grestore
gsave
357.1 221.8 69.03 50.72 clipbox

stroke
grestore
gsave
357.1 221.8 69.03 50.72 clipbox

stroke
grestore
gsave
357.1 221.8 69.03 50.72 clipbox

stroke
grestore
gsave
357.1 221.8 69.03 50.72 clipbox

stroke
grestore
gsave
357.1 221.8 69.03 50.72 clipbox

stroke
grestore
gsave
357.1 221.8 69.03 50.72 clipbox

stroke
grestore
gsave
357.1 221.8 69.03 50.72 clipbox

stroke
grestore
gsave
357.1 221.8 69.03 50.72 clipbox

stroke
grestore
gsave
357.1 221.8 69.03 50.72 clipbox

stroke
grestore
gsave
357.1 221.8 69.03 50.72 clipbox
377.827861 101.196968 m
363.346575 109.734913 l
stroke
grestore
gsave
357.1 221.8 69.03 50.72 clipbox
361.569298 109.734913 m
332.947097 119.711592 l
stroke
grestore
gsave
357.1 221.8 69.03 50.72 clipbox
330.667058 119.711592 m
287.653962 131.369441 l
stroke
grestore
gsave
357.1 221.8 69.03 50.72 clipbox
285.14514 131.369441 m
231.369886 144.991715 l
stroke
grestore
gsave
357.1 221.8 69.03 50.72 clipbox
229.529102 144.991715 m
173.092312 160.9095 l
stroke
grestore
gsave
357.1 221.8 69.03 50.72 clipbox
173.209322 160.9095 m
123.913744 179.509546 l
stroke
grestore
gsave
357.1 221.8 69.03 50.72 clipbox
126.681553 179.509546 m
88.213076 201.243948 l
stroke
grestore
gsave
357.1 221.8 69.03 50.72 clipbox
93.403613 201.243948 m
85.260852 226.640716 l
stroke
grestore
gsave
357.1 221.8 69.03 50.72 clipbox
85.260858 226.640716 m
85.260852 256.317083 l
stroke
grestore
gsave
357.1 221.8 69.03 50.72 clipbox
85.260852 256.317083 m
85.260852 286.370937 l
stroke
grestore
gsave
357.1 221.8 69.03 50.72 clipbox

stroke
grestore
gsave
357.1 221.8 69.03 50.72 clipbox

stroke
grestore
gsave
357.1 221.8 69.03 50.72 clipbox

stroke
grestore
gsave
357.1 221.8 69.03 50.72 clipbox

stroke
grestore
gsave
357.1 221.8 69.03 50.72 clipbox

stroke
grestore
gsave
357.1 221.8 69.03 50.72 clipbox

stroke
grestore
gsave
357.1 221.8 69.03 50.72 clipbox

stroke
grestore
gsave
357.1 221.8 69.03 50.72 clipbox

stroke
grestore
gsave
357.1 221.8 69.03 50.72 clipbox

stroke
grestore
gsave
357.1 221.8 69.03 50.72 clipbox

stroke
grestore
gsave
357.1 221.8 69.03 50.72 clipbox

stroke
grestore
gsave
357.1 221.8 69.03 50.72 clipbox

stroke
grestore
gsave
357.1 221.8 69.03 50.72 clipbox

stroke
grestore
gsave
357.1 221.8 69.03 50.72 clipbox

stroke
grestore
gsave
357.1 221.8 69.03 50.72 clipbox

stroke
grestore
gsave
357.1 221.8 69.03 50.72 clipbox

stroke
grestore
gsave
357.1 221.8 69.03 50.72 clipbox

stroke
grestore
gsave
357.1 221.8 69.03 50.72 clipbox

stroke
grestore
gsave
357.1 221.8 69.03 50.72 clipbox

stroke
grestore
gsave
357.1 221.8 69.03 50.72 clipbox

stroke
grestore
gsave
357.1 221.8 69.03 50.72 clipbox

stroke
grestore
gsave
357.1 221.8 69.03 50.72 clipbox

stroke
grestore
gsave
357.1 221.8 69.03 50.72 clipbox
85.260852 50.715625 m
85.260895 50.747001 l
stroke
grestore
gsave
357.1 221.8 69.03 50.72 clipbox
85.260895 50.747001 m
85.261741 50.783664 l
stroke
grestore
gsave
357.1 221.8 69.03 50.72 clipbox
85.261749 50.783664 m
85.266732 50.826505 l
stroke
grestore
gsave
357.1 221.8 69.03 50.72 clipbox
85.266756 50.826505 m
85.285019 50.876565 l
stroke
grestore
gsave
357.1 221.8 69.03 50.72 clipbox
85.284961 50.876565 m
85.337708 50.935061 l
stroke
grestore
gsave
357.1 221.8 69.03 50.72 clipbox
85.336951 50.935061 m
85.47241 51.003413 l
stroke
grestore
gsave
357.1 221.8 69.03 50.72 clipbox
85.469306 51.003413 m
85.802575 51.083284 l
stroke
grestore
gsave
357.1 221.8 69.03 50.72 clipbox
85.800327 51.083284 m
86.584639 51.176614 l
stroke
grestore
gsave
357.1 221.8 69.03 50.72 clipbox
86.606621 51.176614 m
88.184521 51.285671 l
stroke
grestore
gsave
357.1 221.8 69.03 50.72 clipbox
88.214729 51.285671 m
90.68854 51.413105 l
stroke
grestore
gsave
357.1 221.8 69.03 50.72 clipbox
90.695075 51.413105 m
93.8774 51.562013 l
stroke
grestore
gsave
357.1 221.8 69.03 50.72 clipbox
93.871417 51.562013 m
97.553181 51.736012 l
stroke
grestore
gsave
357.1 221.8 69.03 50.72 clipbox
97.549261 51.736012 m
101.622336 51.939333 l
stroke
grestore
gsave
357.1 221.8 69.03 50.72 clipbox
101.624222 51.939333 m
106.081394 52.176915 l
stroke
grestore
gsave
357.1 221.8 69.03 50.72 clipbox
106.08755 52.176915 m
110.993327 52.454532 l
stroke
grestore
gsave
357.1 221.8 69.03 50.72 clipbox
111.001836 52.454532 m
116.463082 52.77893 l
stroke
grestore
gsave
357.1 221.8 69.03 50.72 clipbox
116.472823 52.77893 m
122.617504 53.157992 l
stroke
grestore
gsave
357.1 221.8 69.03 50.72 clipbox
122.627868 53.157992 m
129.59288 53.60093 l
stroke
grestore
gsave
357.1 221.8 69.03 50.72 clipbox
129.603369 53.60093 m
137.528007 54.118506 l
stroke
grestore
gsave
357.1 221.8 69.03 50.72 clipbox
137.537888 54.118506 m
146.559424 54.723298 l
stroke
grestore
gsave
357.1 221.8 69.03 50.72 clipbox
146.56745 54.723298 m
156.815905 55.430005 l
stroke
grestore
gsave
357.1 221.8 69.03 50.72 clipbox
156.820035 55.430005 m
168.411359 56.255797 l
stroke
grestore
gsave
357.1 221.8 69.03 50.72 clipbox
168.408507 56.255797 m
181.435508 57.220744 l
stroke
grestore
gsave
357.1 221.8 69.03 50.72 clipbox
181.421295 57.220744 m
195.942805 58.348294 l
stroke
grestore
gsave
357.1 221.8 69.03 50.72 clipbox
195.91148 58.348294 m
211.940012 59.665844 l
stroke
grestore
gsave
357.1 221.8 69.03 50.72 clipbox
211.884562 59.665844 m
229.373192 61.205413 l
stroke
grestore
gsave
357.1 221.8 69.03 50.72 clipbox
229.285669 61.205413 m
248.112977 63.004418 l
stroke
grestore
gsave
357.1 221.8 69.03 50.72 clipbox
247.98487 63.004418 m
267.93747 65.10657 l
stroke
grestore
gsave
357.1 221.8 69.03 50.72 clipbox
267.759649 65.10657 m
288.50769 67.562954 l
stroke
grestore
gsave
357.1 221.8 69.03 50.72 clipbox
288.270492 67.562954 m
309.33537 70.43326 l
stroke
grestore
gsave
357.1 221.8 69.03 50.72 clipbox
309.027572 70.43326 m
329.736964 73.78724 l
stroke
grestore
gsave
357.1 221.8 69.03 50.72 clipbox
329.345009 73.78724 m
348.773964 77.706404 l
stroke
grestore
gsave
357.1 221.8 69.03 50.72 clipbox
348.279929 77.706404 m
365.175438 82.285977 l
stroke
grestore
gsave
357.1 221.8 69.03 50.72 clipbox
364.554856 82.285977 m
377.250916 87.637246 l
stroke
grestore
gsave
357.1 221.8 69.03 50.72 clipbox
376.466228 87.637246 m
382.809349 93.890264 l
stroke
grestore
gsave
357.1 221.8 69.03 50.72 clipbox
381.80024 93.890264 m
379.158325 101.196968 l
stroke
grestore
gsave
357.1 221.8 69.03 50.72 clipbox
85.260852 50.715625 m
85.260895 50.747001 l
stroke
grestore
gsave
357.1 221.8 69.03 50.72 clipbox
85.260895 50.747001 m
85.261741 50.783664 l
stroke
grestore
gsave
357.1 221.8 69.03 50.72 clipbox
85.261749 50.783664 m
85.266732 50.826505 l
stroke
grestore
gsave
357.1 221.8 69.03 50.72 clipbox
85.266756 50.826505 m
85.285019 50.876565 l
stroke
grestore
gsave
357.1 221.8 69.03 50.72 clipbox
85.284961 50.876565 m
85.337708 50.935061 l
stroke
grestore
gsave
357.1 221.8 69.03 50.72 clipbox
85.336951 50.935061 m
85.47241 51.003413 l
stroke
grestore
gsave
357.1 221.8 69.03 50.72 clipbox
85.469306 51.003413 m
85.802575 51.083284 l
stroke
grestore
gsave
357.1 221.8 69.03 50.72 clipbox
85.800327 51.083284 m
86.584639 51.176614 l
stroke
grestore
gsave
357.1 221.8 69.03 50.72 clipbox
86.606621 51.176614 m
88.184521 51.285671 l
stroke
grestore
gsave
357.1 221.8 69.03 50.72 clipbox
88.214729 51.285671 m
90.68854 51.413105 l
stroke
grestore
gsave
357.1 221.8 69.03 50.72 clipbox
90.695075 51.413105 m
93.8774 51.562013 l
stroke
grestore
gsave
357.1 221.8 69.03 50.72 clipbox
93.871417 51.562013 m
97.553181 51.736012 l
stroke
grestore
gsave
357.1 221.8 69.03 50.72 clipbox
97.549261 51.736012 m
101.622336 51.939333 l
stroke
grestore
gsave
357.1 221.8 69.03 50.72 clipbox
101.624222 51.939333 m
106.081394 52.176915 l
stroke
grestore
gsave
357.1 221.8 69.03 50.72 clipbox
106.08755 52.176915 m
110.993327 52.454532 l
stroke
grestore
gsave
357.1 221.8 69.03 50.72 clipbox
111.001836 52.454532 m
116.463082 52.77893 l
stroke
grestore
gsave
357.1 221.8 69.03 50.72 clipbox
116.472823 52.77893 m
122.617504 53.157992 l
stroke
grestore
gsave
357.1 221.8 69.03 50.72 clipbox
122.627868 53.157992 m
129.59288 53.60093 l
stroke
grestore
gsave
357.1 221.8 69.03 50.72 clipbox
129.603369 53.60093 m
137.528007 54.118506 l
stroke
grestore
gsave
357.1 221.8 69.03 50.72 clipbox
137.537888 54.118506 m
146.559424 54.723298 l
stroke
grestore
gsave
357.1 221.8 69.03 50.72 clipbox
146.56745 54.723298 m
156.815905 55.430005 l
stroke
grestore
gsave
357.1 221.8 69.03 50.72 clipbox
156.820035 55.430005 m
168.411359 56.255797 l
stroke
grestore
gsave
357.1 221.8 69.03 50.72 clipbox
168.408507 56.255797 m
181.435508 57.220744 l
stroke
grestore
gsave
357.1 221.8 69.03 50.72 clipbox
181.421295 57.220744 m
195.942805 58.348294 l
stroke
grestore
gsave
357.1 221.8 69.03 50.72 clipbox
195.91148 58.348294 m
211.940012 59.665844 l
stroke
grestore
gsave
357.1 221.8 69.03 50.72 clipbox
211.884562 59.665844 m
229.373192 61.205413 l
stroke
grestore
gsave
357.1 221.8 69.03 50.72 clipbox
229.285669 61.205413 m
248.112977 63.004418 l
stroke
grestore
gsave
357.1 221.8 69.03 50.72 clipbox
247.98487 63.004418 m
267.93747 65.10657 l
stroke
grestore
gsave
357.1 221.8 69.03 50.72 clipbox
267.759649 65.10657 m
288.50769 67.562954 l
stroke
grestore
gsave
357.1 221.8 69.03 50.72 clipbox
288.270492 67.562954 m
309.33537 70.43326 l
stroke
grestore
gsave
357.1 221.8 69.03 50.72 clipbox
309.027572 70.43326 m
329.736964 73.78724 l
stroke
grestore
gsave
357.1 221.8 69.03 50.72 clipbox
329.345009 73.78724 m
348.773964 77.706404 l
stroke
grestore
gsave
357.1 221.8 69.03 50.72 clipbox
348.279929 77.706404 m
365.175438 82.285977 l
stroke
grestore
gsave
357.1 221.8 69.03 50.72 clipbox
364.554856 82.285977 m
377.250916 87.637246 l
stroke
grestore
gsave
357.1 221.8 69.03 50.72 clipbox
376.466228 87.637246 m
382.809349 93.890264 l
stroke
grestore
gsave
357.1 221.8 69.03 50.72 clipbox
381.80024 93.890264 m
379.158325 101.196968 l
stroke
grestore
0 setlinecap
[7.4 3.2] 0 setdash
1.000 0.000 0.000 setrgbcolor
gsave
357.1 221.8 69.03 50.72 clipbox
400.252814 101.196968 m
392.98786 109.734913 l
stroke
grestore
gsave
357.1 221.8 69.03 50.72 clipbox
391.766956 109.734913 m
372.622266 119.711592 l
stroke
grestore
gsave
357.1 221.8 69.03 50.72 clipbox
370.826287 119.711592 m
338.547296 131.369441 l
stroke
grestore
gsave
357.1 221.8 69.03 50.72 clipbox
336.048916 131.369441 m
291.25075 144.991715 l
stroke
grestore
gsave
357.1 221.8 69.03 50.72 clipbox
288.197867 144.991715 m
234.2963 160.9095 l
stroke
grestore
gsave
357.1 221.8 69.03 50.72 clipbox
231.368561 160.9095 m
174.716952 179.509546 l
stroke
grestore
gsave
357.1 221.8 69.03 50.72 clipbox
173.108286 179.509546 m
121.216644 201.243948 l
stroke
grestore
gsave
357.1 221.8 69.03 50.72 clipbox
122.101059 201.243948 m
85.260852 226.640716 l
stroke
grestore
gsave
357.1 221.8 69.03 50.72 clipbox
85.304577 226.640716 m
85.260852 256.317083 l
stroke
grestore
gsave
357.1 221.8 69.03 50.72 clipbox
85.260852 256.317083 m
85.260852 286.370937 l
stroke
grestore
gsave
357.1 221.8 69.03 50.72 clipbox

stroke
grestore
gsave
357.1 221.8 69.03 50.72 clipbox

stroke
grestore
gsave
357.1 221.8 69.03 50.72 clipbox

stroke
grestore
gsave
357.1 221.8 69.03 50.72 clipbox

stroke
grestore
gsave
357.1 221.8 69.03 50.72 clipbox

stroke
grestore
gsave
357.1 221.8 69.03 50.72 clipbox

stroke
grestore
gsave
357.1 221.8 69.03 50.72 clipbox

stroke
grestore
gsave
357.1 221.8 69.03 50.72 clipbox

stroke
grestore
gsave
357.1 221.8 69.03 50.72 clipbox

stroke
grestore
gsave
357.1 221.8 69.03 50.72 clipbox

stroke
grestore
gsave
357.1 221.8 69.03 50.72 clipbox

stroke
grestore
gsave
357.1 221.8 69.03 50.72 clipbox

stroke
grestore
gsave
357.1 221.8 69.03 50.72 clipbox

stroke
grestore
gsave
357.1 221.8 69.03 50.72 clipbox

stroke
grestore
gsave
357.1 221.8 69.03 50.72 clipbox

stroke
grestore
gsave
357.1 221.8 69.03 50.72 clipbox

stroke
grestore
gsave
357.1 221.8 69.03 50.72 clipbox

stroke
grestore
gsave
357.1 221.8 69.03 50.72 clipbox

stroke
grestore
gsave
357.1 221.8 69.03 50.72 clipbox

stroke
grestore
gsave
357.1 221.8 69.03 50.72 clipbox

stroke
grestore
gsave
357.1 221.8 69.03 50.72 clipbox

stroke
grestore
gsave
357.1 221.8 69.03 50.72 clipbox

stroke
grestore
gsave
357.1 221.8 69.03 50.72 clipbox
400.252814 101.196968 m
392.98786 109.734913 l
stroke
grestore
gsave
357.1 221.8 69.03 50.72 clipbox
391.766956 109.734913 m
372.622266 119.711592 l
stroke
grestore
gsave
357.1 221.8 69.03 50.72 clipbox
370.826287 119.711592 m
338.547296 131.369441 l
stroke
grestore
gsave
357.1 221.8 69.03 50.72 clipbox
336.048916 131.369441 m
291.25075 144.991715 l
stroke
grestore
gsave
357.1 221.8 69.03 50.72 clipbox
288.197867 144.991715 m
234.2963 160.9095 l
stroke
grestore
gsave
357.1 221.8 69.03 50.72 clipbox
231.368561 160.9095 m
174.716952 179.509546 l
stroke
grestore
gsave
357.1 221.8 69.03 50.72 clipbox
173.108286 179.509546 m
121.216644 201.243948 l
stroke
grestore
gsave
357.1 221.8 69.03 50.72 clipbox
122.101059 201.243948 m
85.260852 226.640716 l
stroke
grestore
gsave
357.1 221.8 69.03 50.72 clipbox
85.304577 226.640716 m
85.260852 256.317083 l
stroke
grestore
gsave
357.1 221.8 69.03 50.72 clipbox
85.260852 256.317083 m
85.260852 286.370937 l
stroke
grestore
gsave
357.1 221.8 69.03 50.72 clipbox

stroke
grestore
gsave
357.1 221.8 69.03 50.72 clipbox

stroke
grestore
gsave
357.1 221.8 69.03 50.72 clipbox

stroke
grestore
gsave
357.1 221.8 69.03 50.72 clipbox

stroke
grestore
gsave
357.1 221.8 69.03 50.72 clipbox

stroke
grestore
gsave
357.1 221.8 69.03 50.72 clipbox

stroke
grestore
gsave
357.1 221.8 69.03 50.72 clipbox

stroke
grestore
gsave
357.1 221.8 69.03 50.72 clipbox

stroke
grestore
gsave
357.1 221.8 69.03 50.72 clipbox

stroke
grestore
gsave
357.1 221.8 69.03 50.72 clipbox

stroke
grestore
gsave
357.1 221.8 69.03 50.72 clipbox

stroke
grestore
gsave
357.1 221.8 69.03 50.72 clipbox

stroke
grestore
gsave
357.1 221.8 69.03 50.72 clipbox

stroke
grestore
gsave
357.1 221.8 69.03 50.72 clipbox

stroke
grestore
gsave
357.1 221.8 69.03 50.72 clipbox

stroke
grestore
gsave
357.1 221.8 69.03 50.72 clipbox

stroke
grestore
gsave
357.1 221.8 69.03 50.72 clipbox

stroke
grestore
gsave
357.1 221.8 69.03 50.72 clipbox

stroke
grestore
gsave
357.1 221.8 69.03 50.72 clipbox

stroke
grestore
gsave
357.1 221.8 69.03 50.72 clipbox

stroke
grestore
gsave
357.1 221.8 69.03 50.72 clipbox

stroke
grestore
gsave
357.1 221.8 69.03 50.72 clipbox

stroke
grestore
gsave
357.1 221.8 69.03 50.72 clipbox
85.260852 50.715625 m
85.260892 50.747001 l
stroke
grestore
gsave
357.1 221.8 69.03 50.72 clipbox
85.260893 50.747001 m
85.26173 50.783664 l
stroke
grestore
gsave
357.1 221.8 69.03 50.72 clipbox
85.261727 50.783664 m
85.266936 50.826505 l
stroke
grestore
gsave
357.1 221.8 69.03 50.72 clipbox
85.266876 50.826505 m
85.287463 50.876565 l
stroke
grestore
gsave
357.1 221.8 69.03 50.72 clipbox
85.286992 50.876565 m
85.353106 50.935061 l
stroke
grestore
gsave
357.1 221.8 69.03 50.72 clipbox
85.351089 50.935061 m
85.544726 51.003413 l
stroke
grestore
gsave
357.1 221.8 69.03 50.72 clipbox
85.544102 51.003413 m
86.074996 51.083284 l
stroke
grestore
gsave
357.1 221.8 69.03 50.72 clipbox
86.105229 51.083284 m
87.352762 51.176614 l
stroke
grestore
gsave
357.1 221.8 69.03 50.72 clipbox
87.415779 51.176614 m
89.608776 51.285671 l
stroke
grestore
gsave
357.1 221.8 69.03 50.72 clipbox
89.6146 51.285671 m
92.526661 51.413105 l
stroke
grestore
gsave
357.1 221.8 69.03 50.72 clipbox
92.473516 51.413105 m
95.787575 51.562013 l
stroke
grestore
gsave
357.1 221.8 69.03 50.72 clipbox
95.721077 51.562013 m
99.307542 51.736012 l
stroke
grestore
gsave
357.1 221.8 69.03 50.72 clipbox
99.257821 51.736012 m
103.138024 51.939333 l
stroke
grestore
gsave
357.1 221.8 69.03 50.72 clipbox
103.112933 51.939333 m
107.374689 52.176915 l
stroke
grestore
gsave
357.1 221.8 69.03 50.72 clipbox
107.369468 52.176915 m
112.123964 52.454532 l
stroke
grestore
gsave
357.1 221.8 69.03 50.72 clipbox
112.130494 52.454532 m
117.498108 52.77893 l
stroke
grestore
gsave
357.1 221.8 69.03 50.72 clipbox
117.509734 52.77893 m
123.615796 53.157992 l
stroke
grestore
gsave
357.1 221.8 69.03 50.72 clipbox
123.628654 53.157992 m
130.601848 53.60093 l
stroke
grestore
gsave
357.1 221.8 69.03 50.72 clipbox
130.614269 53.60093 m
138.585179 54.118506 l
stroke
grestore
gsave
357.1 221.8 69.03 50.72 clipbox
138.596774 54.118506 m
147.695578 54.723298 l
stroke
grestore
gsave
357.1 221.8 69.03 50.72 clipbox
147.706394 54.723298 m
158.058643 55.430005 l
stroke
grestore
gsave
357.1 221.8 69.03 50.72 clipbox
158.068555 55.430005 m
169.788874 56.255797 l
stroke
grestore
gsave
357.1 221.8 69.03 50.72 clipbox
169.797025 56.255797 m
182.980543 57.220744 l
stroke
grestore
gsave
357.1 221.8 69.03 50.72 clipbox
182.985078 57.220744 m
197.696985 58.348294 l
stroke
grestore
gsave
357.1 221.8 69.03 50.72 clipbox
197.694741 58.348294 m
213.958384 59.665844 l
stroke
grestore
gsave
357.1 221.8 69.03 50.72 clipbox
213.945013 59.665844 m
231.728459 61.205413 l
stroke
grestore
gsave
357.1 221.8 69.03 50.72 clipbox
231.698661 61.205413 m
250.899829 63.004418 l
stroke
grestore
gsave
357.1 221.8 69.03 50.72 clipbox
250.847776 63.004418 m
271.2768 65.10657 l
stroke
grestore
gsave
357.1 221.8 69.03 50.72 clipbox
271.19685 65.10657 m
292.553474 67.562954 l
stroke
grestore
gsave
357.1 221.8 69.03 50.72 clipbox
292.440017 67.562954 m
314.285844 70.43326 l
stroke
grestore
gsave
357.1 221.8 69.03 50.72 clipbox
314.132958 70.43326 m
335.854107 73.78724 l
stroke
grestore
gsave
357.1 221.8 69.03 50.72 clipbox
335.654779 73.78724 m
356.416224 77.706404 l
stroke
grestore
gsave
357.1 221.8 69.03 50.72 clipbox
356.160479 77.706404 m
374.854304 82.285977 l
stroke
grestore
gsave
357.1 221.8 69.03 50.72 clipbox
374.525623 82.285977 m
389.718973 87.637246 l
stroke
grestore
gsave
357.1 221.8 69.03 50.72 clipbox
389.288524 87.637246 m
399.189004 93.890264 l
stroke
grestore
gsave
357.1 221.8 69.03 50.72 clipbox
398.604734 93.890264 m
401.082699 101.196968 l
stroke
grestore
gsave
357.1 221.8 69.03 50.72 clipbox
85.260852 50.715625 m
85.260892 50.747001 l
stroke
grestore
gsave
357.1 221.8 69.03 50.72 clipbox
85.260893 50.747001 m
85.26173 50.783664 l
stroke
grestore
gsave
357.1 221.8 69.03 50.72 clipbox
85.261727 50.783664 m
85.266936 50.826505 l
stroke
grestore
gsave
357.1 221.8 69.03 50.72 clipbox
85.266876 50.826505 m
85.287463 50.876565 l
stroke
grestore
gsave
357.1 221.8 69.03 50.72 clipbox
85.286992 50.876565 m
85.353106 50.935061 l
stroke
grestore
gsave
357.1 221.8 69.03 50.72 clipbox
85.351089 50.935061 m
85.544726 51.003413 l
stroke
grestore
gsave
357.1 221.8 69.03 50.72 clipbox
85.544102 51.003413 m
86.074996 51.083284 l
stroke
grestore
gsave
357.1 221.8 69.03 50.72 clipbox
86.105229 51.083284 m
87.352762 51.176614 l
stroke
grestore
gsave
357.1 221.8 69.03 50.72 clipbox
87.415779 51.176614 m
89.608776 51.285671 l
stroke
grestore
gsave
357.1 221.8 69.03 50.72 clipbox
89.6146 51.285671 m
92.526661 51.413105 l
stroke
grestore
gsave
357.1 221.8 69.03 50.72 clipbox
92.473516 51.413105 m
95.787575 51.562013 l
stroke
grestore
gsave
357.1 221.8 69.03 50.72 clipbox
95.721077 51.562013 m
99.307542 51.736012 l
stroke
grestore
gsave
357.1 221.8 69.03 50.72 clipbox
99.257821 51.736012 m
103.138024 51.939333 l
stroke
grestore
gsave
357.1 221.8 69.03 50.72 clipbox
103.112933 51.939333 m
107.374689 52.176915 l
stroke
grestore
gsave
357.1 221.8 69.03 50.72 clipbox
107.369468 52.176915 m
112.123964 52.454532 l
stroke
grestore
gsave
357.1 221.8 69.03 50.72 clipbox
112.130494 52.454532 m
117.498108 52.77893 l
stroke
grestore
gsave
357.1 221.8 69.03 50.72 clipbox
117.509734 52.77893 m
123.615796 53.157992 l
stroke
grestore
gsave
357.1 221.8 69.03 50.72 clipbox
123.628654 53.157992 m
130.601848 53.60093 l
stroke
grestore
gsave
357.1 221.8 69.03 50.72 clipbox
130.614269 53.60093 m
138.585179 54.118506 l
stroke
grestore
gsave
357.1 221.8 69.03 50.72 clipbox
138.596774 54.118506 m
147.695578 54.723298 l
stroke
grestore
gsave
357.1 221.8 69.03 50.72 clipbox
147.706394 54.723298 m
158.058643 55.430005 l
stroke
grestore
gsave
357.1 221.8 69.03 50.72 clipbox
158.068555 55.430005 m
169.788874 56.255797 l
stroke
grestore
gsave
357.1 221.8 69.03 50.72 clipbox
169.797025 56.255797 m
182.980543 57.220744 l
stroke
grestore
gsave
357.1 221.8 69.03 50.72 clipbox
182.985078 57.220744 m
197.696985 58.348294 l
stroke
grestore
gsave
357.1 221.8 69.03 50.72 clipbox
197.694741 58.348294 m
213.958384 59.665844 l
stroke
grestore
gsave
357.1 221.8 69.03 50.72 clipbox
213.945013 59.665844 m
231.728459 61.205413 l
stroke
grestore
gsave
357.1 221.8 69.03 50.72 clipbox
231.698661 61.205413 m
250.899829 63.004418 l
stroke
grestore
gsave
357.1 221.8 69.03 50.72 clipbox
250.847776 63.004418 m
271.2768 65.10657 l
stroke
grestore
gsave
357.1 221.8 69.03 50.72 clipbox
271.19685 65.10657 m
292.553474 67.562954 l
stroke
grestore
gsave
357.1 221.8 69.03 50.72 clipbox
292.440017 67.562954 m
314.285844 70.43326 l
stroke
grestore
gsave
357.1 221.8 69.03 50.72 clipbox
314.132958 70.43326 m
335.854107 73.78724 l
stroke
grestore
gsave
357.1 221.8 69.03 50.72 clipbox
335.654779 73.78724 m
356.416224 77.706404 l
stroke
grestore
gsave
357.1 221.8 69.03 50.72 clipbox
356.160479 77.706404 m
374.854304 82.285977 l
stroke
grestore
gsave
357.1 221.8 69.03 50.72 clipbox
374.525623 82.285977 m
389.718973 87.637246 l
stroke
grestore
gsave
357.1 221.8 69.03 50.72 clipbox
389.288524 87.637246 m
399.189004 93.890264 l
stroke
grestore
gsave
357.1 221.8 69.03 50.72 clipbox
398.604734 93.890264 m
401.082699 101.196968 l
stroke
grestore
[12.8 3.2 2 3.2] 0 setdash
0.000 0.500 0.000 setrgbcolor
gsave
357.1 221.8 69.03 50.72 clipbox
398.248624 101.196968 m
387.854733 109.734913 l
stroke
grestore
gsave
357.1 221.8 69.03 50.72 clipbox
387.76668 109.734913 m
363.214417 119.711592 l
stroke
grestore
gsave
357.1 221.8 69.03 50.72 clipbox
362.891659 119.711592 m
322.83108 131.369441 l
stroke
grestore
gsave
357.1 221.8 69.03 50.72 clipbox
322.075223 131.369441 m
268.524701 144.991715 l
stroke
grestore
gsave
357.1 221.8 69.03 50.72 clipbox
267.32733 144.991715 m
206.891745 160.9095 l
stroke
grestore
gsave
357.1 221.8 69.03 50.72 clipbox
205.697397 160.9095 m
148.371595 179.509546 l
stroke
grestore
gsave
357.1 221.8 69.03 50.72 clipbox
147.937203 179.509546 m
101.224038 201.243948 l
stroke
grestore
gsave
357.1 221.8 69.03 50.72 clipbox
102.142522 201.243948 m
85.260852 226.640716 l
stroke
grestore
gsave
357.1 221.8 69.03 50.72 clipbox
85.260852 226.640716 m
85.260852 256.317083 l
stroke
grestore
gsave
357.1 221.8 69.03 50.72 clipbox
85.260852 256.317083 m
85.260852 286.370937 l
stroke
grestore
gsave
357.1 221.8 69.03 50.72 clipbox

stroke
grestore
gsave
357.1 221.8 69.03 50.72 clipbox

stroke
grestore
gsave
357.1 221.8 69.03 50.72 clipbox

stroke
grestore
gsave
357.1 221.8 69.03 50.72 clipbox

stroke
grestore
gsave
357.1 221.8 69.03 50.72 clipbox

stroke
grestore
gsave
357.1 221.8 69.03 50.72 clipbox

stroke
grestore
gsave
357.1 221.8 69.03 50.72 clipbox

stroke
grestore
gsave
357.1 221.8 69.03 50.72 clipbox

stroke
grestore
gsave
357.1 221.8 69.03 50.72 clipbox

stroke
grestore
gsave
357.1 221.8 69.03 50.72 clipbox

stroke
grestore
gsave
357.1 221.8 69.03 50.72 clipbox

stroke
grestore
gsave
357.1 221.8 69.03 50.72 clipbox

stroke
grestore
gsave
357.1 221.8 69.03 50.72 clipbox

stroke
grestore
gsave
357.1 221.8 69.03 50.72 clipbox

stroke
grestore
gsave
357.1 221.8 69.03 50.72 clipbox

stroke
grestore
gsave
357.1 221.8 69.03 50.72 clipbox

stroke
grestore
gsave
357.1 221.8 69.03 50.72 clipbox

stroke
grestore
gsave
357.1 221.8 69.03 50.72 clipbox

stroke
grestore
gsave
357.1 221.8 69.03 50.72 clipbox

stroke
grestore
gsave
357.1 221.8 69.03 50.72 clipbox

stroke
grestore
gsave
357.1 221.8 69.03 50.72 clipbox

stroke
grestore
gsave
357.1 221.8 69.03 50.72 clipbox

stroke
grestore
gsave
357.1 221.8 69.03 50.72 clipbox
398.248624 101.196968 m
387.854733 109.734913 l
stroke
grestore
gsave
357.1 221.8 69.03 50.72 clipbox
387.76668 109.734913 m
363.214417 119.711592 l
stroke
grestore
gsave
357.1 221.8 69.03 50.72 clipbox
362.891659 119.711592 m
322.83108 131.369441 l
stroke
grestore
gsave
357.1 221.8 69.03 50.72 clipbox
322.075223 131.369441 m
268.524701 144.991715 l
stroke
grestore
gsave
357.1 221.8 69.03 50.72 clipbox
267.32733 144.991715 m
206.891745 160.9095 l
stroke
grestore
gsave
357.1 221.8 69.03 50.72 clipbox
205.697397 160.9095 m
148.371595 179.509546 l
stroke
grestore
gsave
357.1 221.8 69.03 50.72 clipbox
147.937203 179.509546 m
101.224038 201.243948 l
stroke
grestore
gsave
357.1 221.8 69.03 50.72 clipbox
102.142522 201.243948 m
85.260852 226.640716 l
stroke
grestore
gsave
357.1 221.8 69.03 50.72 clipbox
85.260852 226.640716 m
85.260852 256.317083 l
stroke
grestore
gsave
357.1 221.8 69.03 50.72 clipbox
85.260852 256.317083 m
85.260852 286.370937 l
stroke
grestore
gsave
357.1 221.8 69.03 50.72 clipbox

stroke
grestore
gsave
357.1 221.8 69.03 50.72 clipbox

stroke
grestore
gsave
357.1 221.8 69.03 50.72 clipbox

stroke
grestore
gsave
357.1 221.8 69.03 50.72 clipbox

stroke
grestore
gsave
357.1 221.8 69.03 50.72 clipbox

stroke
grestore
gsave
357.1 221.8 69.03 50.72 clipbox

stroke
grestore
gsave
357.1 221.8 69.03 50.72 clipbox

stroke
grestore
gsave
357.1 221.8 69.03 50.72 clipbox

stroke
grestore
gsave
357.1 221.8 69.03 50.72 clipbox

stroke
grestore
gsave
357.1 221.8 69.03 50.72 clipbox

stroke
grestore
gsave
357.1 221.8 69.03 50.72 clipbox

stroke
grestore
gsave
357.1 221.8 69.03 50.72 clipbox

stroke
grestore
gsave
357.1 221.8 69.03 50.72 clipbox

stroke
grestore
gsave
357.1 221.8 69.03 50.72 clipbox

stroke
grestore
gsave
357.1 221.8 69.03 50.72 clipbox

stroke
grestore
gsave
357.1 221.8 69.03 50.72 clipbox

stroke
grestore
gsave
357.1 221.8 69.03 50.72 clipbox

stroke
grestore
gsave
357.1 221.8 69.03 50.72 clipbox

stroke
grestore
gsave
357.1 221.8 69.03 50.72 clipbox

stroke
grestore
gsave
357.1 221.8 69.03 50.72 clipbox

stroke
grestore
gsave
357.1 221.8 69.03 50.72 clipbox

stroke
grestore
gsave
357.1 221.8 69.03 50.72 clipbox

stroke
grestore
gsave
357.1 221.8 69.03 50.72 clipbox
85.260852 50.715625 m
85.260895 50.747001 l
stroke
grestore
gsave
357.1 221.8 69.03 50.72 clipbox
85.260895 50.747001 m
85.261783 50.783664 l
stroke
grestore
gsave
357.1 221.8 69.03 50.72 clipbox
85.261788 50.783664 m
85.267181 50.826505 l
stroke
grestore
gsave
357.1 221.8 69.03 50.72 clipbox
85.267211 50.826505 m
85.287629 50.876565 l
stroke
grestore
gsave
357.1 221.8 69.03 50.72 clipbox
85.287613 50.876565 m
85.349254 50.935061 l
stroke
grestore
gsave
357.1 221.8 69.03 50.72 clipbox
85.348399 50.935061 m
85.517879 51.003413 l
stroke
grestore
gsave
357.1 221.8 69.03 50.72 clipbox
85.513817 51.003413 m
85.959471 51.083284 l
stroke
grestore
gsave
357.1 221.8 69.03 50.72 clipbox
85.960353 51.083284 m
87.006522 51.176614 l
stroke
grestore
gsave
357.1 221.8 69.03 50.72 clipbox
87.034264 51.176614 m
88.966704 51.285671 l
stroke
grestore
gsave
357.1 221.8 69.03 50.72 clipbox
88.981854 51.285671 m
91.717272 51.413105 l
stroke
grestore
gsave
357.1 221.8 69.03 50.72 clipbox
91.707733 51.413105 m
94.973504 51.562013 l
stroke
grestore
gsave
357.1 221.8 69.03 50.72 clipbox
94.957449 51.562013 m
98.581165 51.736012 l
stroke
grestore
gsave
357.1 221.8 69.03 50.72 clipbox
98.568309 51.736012 m
102.517209 51.939333 l
stroke
grestore
gsave
357.1 221.8 69.03 50.72 clipbox
102.510086 51.939333 m
106.836518 52.176915 l
stroke
grestore
gsave
357.1 221.8 69.03 50.72 clipbox
106.834181 52.176915 m
111.633031 52.454532 l
stroke
grestore
gsave
357.1 221.8 69.03 50.72 clipbox
111.633514 52.454532 m
117.020811 52.77893 l
stroke
grestore
gsave
357.1 221.8 69.03 50.72 clipbox
117.022604 52.77893 m
123.125019 53.157992 l
stroke
grestore
gsave
357.1 221.8 69.03 50.72 clipbox
123.127295 53.157992 m
130.076971 53.60093 l
stroke
grestore
gsave
357.1 221.8 69.03 50.72 clipbox
130.079403 53.60093 m
138.010571 54.118506 l
stroke
grestore
gsave
357.1 221.8 69.03 50.72 clipbox
138.013205 54.118506 m
147.059162 54.723298 l
stroke
grestore
gsave
357.1 221.8 69.03 50.72 clipbox
147.062154 54.723298 m
157.350771 55.430005 l
stroke
grestore
gsave
357.1 221.8 69.03 50.72 clipbox
157.354293 55.430005 m
169.001551 56.255797 l
stroke
grestore
gsave
357.1 221.8 69.03 50.72 clipbox
169.005697 56.255797 m
182.107084 57.220744 l
stroke
grestore
gsave
357.1 221.8 69.03 50.72 clipbox
182.111759 57.220744 m
196.731857 58.348294 l
stroke
grestore
gsave
357.1 221.8 69.03 50.72 clipbox
196.736642 58.348294 m
212.897379 59.665844 l
stroke
grestore
gsave
357.1 221.8 69.03 50.72 clipbox
212.901572 59.665844 m
230.56941 61.205413 l
stroke
grestore
gsave
357.1 221.8 69.03 50.72 clipbox
230.572106 61.205413 m
249.64386 63.004418 l
stroke
grestore
gsave
357.1 221.8 69.03 50.72 clipbox
249.644016 63.004418 m
269.929971 65.10657 l
stroke
grestore
gsave
357.1 221.8 69.03 50.72 clipbox
269.926855 65.10657 m
291.129346 67.562954 l
stroke
grestore
gsave
357.1 221.8 69.03 50.72 clipbox
291.122332 67.562954 m
312.806858 70.43326 l
stroke
grestore
gsave
357.1 221.8 69.03 50.72 clipbox
312.795325 70.43326 m
334.351588 73.78724 l
stroke
grestore
gsave
357.1 221.8 69.03 50.72 clipbox
334.335536 73.78724 m
354.924458 77.706404 l
stroke
grestore
gsave
357.1 221.8 69.03 50.72 clipbox
354.904354 77.706404 m
373.387162 82.285977 l
stroke
grestore
gsave
357.1 221.8 69.03 50.72 clipbox
373.365655 82.285977 m
388.209908 87.637246 l
stroke
grestore
gsave
357.1 221.8 69.03 50.72 clipbox
388.192453 87.637246 m
397.365908 93.890264 l
stroke
grestore
gsave
357.1 221.8 69.03 50.72 clipbox
397.357025 93.890264 m
398.262339 101.196968 l
stroke
grestore
gsave
357.1 221.8 69.03 50.72 clipbox
85.260852 50.715625 m
85.260895 50.747001 l
stroke
grestore
gsave
357.1 221.8 69.03 50.72 clipbox
85.260895 50.747001 m
85.261783 50.783664 l
stroke
grestore
gsave
357.1 221.8 69.03 50.72 clipbox
85.261788 50.783664 m
85.267181 50.826505 l
stroke
grestore
gsave
357.1 221.8 69.03 50.72 clipbox
85.267211 50.826505 m
85.287629 50.876565 l
stroke
grestore
gsave
357.1 221.8 69.03 50.72 clipbox
85.287613 50.876565 m
85.349254 50.935061 l
stroke
grestore
gsave
357.1 221.8 69.03 50.72 clipbox
85.348399 50.935061 m
85.517879 51.003413 l
stroke
grestore
gsave
357.1 221.8 69.03 50.72 clipbox
85.513817 51.003413 m
85.959471 51.083284 l
stroke
grestore
gsave
357.1 221.8 69.03 50.72 clipbox
85.960353 51.083284 m
87.006522 51.176614 l
stroke
grestore
gsave
357.1 221.8 69.03 50.72 clipbox
87.034264 51.176614 m
88.966704 51.285671 l
stroke
grestore
gsave
357.1 221.8 69.03 50.72 clipbox
88.981854 51.285671 m
91.717272 51.413105 l
stroke
grestore
gsave
357.1 221.8 69.03 50.72 clipbox
91.707733 51.413105 m
94.973504 51.562013 l
stroke
grestore
gsave
357.1 221.8 69.03 50.72 clipbox
94.957449 51.562013 m
98.581165 51.736012 l
stroke
grestore
gsave
357.1 221.8 69.03 50.72 clipbox
98.568309 51.736012 m
102.517209 51.939333 l
stroke
grestore
gsave
357.1 221.8 69.03 50.72 clipbox
102.510086 51.939333 m
106.836518 52.176915 l
stroke
grestore
gsave
357.1 221.8 69.03 50.72 clipbox
106.834181 52.176915 m
111.633031 52.454532 l
stroke
grestore
gsave
357.1 221.8 69.03 50.72 clipbox
111.633514 52.454532 m
117.020811 52.77893 l
stroke
grestore
gsave
357.1 221.8 69.03 50.72 clipbox
117.022604 52.77893 m
123.125019 53.157992 l
stroke
grestore
gsave
357.1 221.8 69.03 50.72 clipbox
123.127295 53.157992 m
130.076971 53.60093 l
stroke
grestore
gsave
357.1 221.8 69.03 50.72 clipbox
130.079403 53.60093 m
138.010571 54.118506 l
stroke
grestore
gsave
357.1 221.8 69.03 50.72 clipbox
138.013205 54.118506 m
147.059162 54.723298 l
stroke
grestore
gsave
357.1 221.8 69.03 50.72 clipbox
147.062154 54.723298 m
157.350771 55.430005 l
stroke
grestore
gsave
357.1 221.8 69.03 50.72 clipbox
157.354293 55.430005 m
169.001551 56.255797 l
stroke
grestore
gsave
357.1 221.8 69.03 50.72 clipbox
169.005697 56.255797 m
182.107084 57.220744 l
stroke
grestore
gsave
357.1 221.8 69.03 50.72 clipbox
182.111759 57.220744 m
196.731857 58.348294 l
stroke
grestore
gsave
357.1 221.8 69.03 50.72 clipbox
196.736642 58.348294 m
212.897379 59.665844 l
stroke
grestore
gsave
357.1 221.8 69.03 50.72 clipbox
212.901572 59.665844 m
230.56941 61.205413 l
stroke
grestore
gsave
357.1 221.8 69.03 50.72 clipbox
230.572106 61.205413 m
249.64386 63.004418 l
stroke
grestore
gsave
357.1 221.8 69.03 50.72 clipbox
249.644016 63.004418 m
269.929971 65.10657 l
stroke
grestore
gsave
357.1 221.8 69.03 50.72 clipbox
269.926855 65.10657 m
291.129346 67.562954 l
stroke
grestore
gsave
357.1 221.8 69.03 50.72 clipbox
291.122332 67.562954 m
312.806858 70.43326 l
stroke
grestore
gsave
357.1 221.8 69.03 50.72 clipbox
312.795325 70.43326 m
334.351588 73.78724 l
stroke
grestore
gsave
357.1 221.8 69.03 50.72 clipbox
334.335536 73.78724 m
354.924458 77.706404 l
stroke
grestore
gsave
357.1 221.8 69.03 50.72 clipbox
354.904354 77.706404 m
373.387162 82.285977 l
stroke
grestore
gsave
357.1 221.8 69.03 50.72 clipbox
373.365655 82.285977 m
388.209908 87.637246 l
stroke
grestore
gsave
357.1 221.8 69.03 50.72 clipbox
388.192453 87.637246 m
397.365908 93.890264 l
stroke
grestore
gsave
357.1 221.8 69.03 50.72 clipbox
397.357025 93.890264 m
398.262339 101.196968 l
stroke
grestore
0.800 setlinewidth
0 setlinejoin
2 setlinecap
[] 0 setdash
0.000 setgray
gsave
69.028125 50.715625 m
69.028125 272.475625 l
stroke
grestore
gsave
426.148125 50.715625 m
426.148125 272.475625 l
stroke
grestore
gsave
69.028125 50.715625 m
426.148125 50.715625 l
stroke
grestore
gsave
69.028125 272.475625 m
426.148125 272.475625 l
stroke
grestore
1.000 setlinewidth
0 setlinecap
0.800 setgray
gsave
334.7575 205.788125 m
419.148125 205.788125 l
420.481458 205.788125 421.148125 206.454792 421.148125 207.788125 c
421.148125 265.475625 l
421.148125 266.808958 420.481458 267.475625 419.148125 267.475625 c
334.7575 267.475625 l
333.424167 267.475625 332.7575 266.808958 332.7575 265.475625 c
332.7575 207.788125 l
332.7575 206.454792 333.424167 205.788125 334.7575 205.788125 c
cl
gsave
1.000 setgray
fill
grestore
stroke
grestore
1.500 setlinewidth
1 setlinejoin
[1.5 2.475] 0 setdash
0.000 setgray
gsave
336.7575 259.381875 m
356.7575 259.381875 l
stroke
grestore
2.000 setlinewidth
[] 0 setdash
gsave
/o {
gsave
newpath
translate
2.0 setlinewidth
1 setlinejoin
0 setlinecap
0 -1.5 m
0.397805 -1.5 0.77937 -1.341951 1.06066 -1.06066 c
1.341951 -0.77937 1.5 -0.397805 1.5 0 c
1.5 0.397805 1.341951 0.77937 1.06066 1.06066 c
0.77937 1.341951 0.397805 1.5 0 1.5 c
-0.397805 1.5 -0.77937 1.341951 -1.06066 1.06066 c
-1.341951 0.77937 -1.5 0.397805 -1.5 0 c
-1.5 -0.397805 -1.341951 -0.77937 -1.06066 -1.06066 c
-0.77937 -1.341951 -0.397805 -1.5 0 -1.5 c
cl

stroke
grestore
} bind def
346.758 259.382 o
grestore
/DejaVuSans findfont
10.000 scalefont
setfont
gsave
364.757500 255.881875 translate
0.000000 rotate
0.000000 0.000000 m /N glyphshow
7.480469 0.000000 m /A glyphshow
14.321289 0.000000 m /S glyphshow
20.668945 0.000000 m /A glyphshow
27.509766 0.000000 m /space glyphshow
30.688477 0.000000 m /T glyphshow
36.796875 0.000000 m /M glyphshow
45.424805 0.000000 m /R glyphshow
grestore
2 setlinecap
0.000 0.000 1.000 setrgbcolor
gsave
336.7575 244.71 m
356.7575 244.71 l
stroke
grestore
0.000 setgray
gsave
364.757500 241.210000 translate
0.000000 rotate
/DejaVuSans-Oblique findfont
10.0 scalefont
setfont
0.000000 0.406250 moveto
/k glyphshow

/DejaVuSans findfont
10.0 scalefont
setfont
7.739258 0.406250 moveto
/equal glyphshow

18.066406 0.406250 moveto
/one glyphshow


grestore
0 setlinecap
[7.4 3.2] 0 setdash
1.000 0.000 0.000 setrgbcolor
gsave
336.7575 230.038125 m
356.7575 230.038125 l
stroke
grestore
0.000 setgray
gsave
364.757500 226.538125 translate
0.000000 rotate
/DejaVuSans-Oblique findfont
10.0 scalefont
setfont
0.000000 0.406250 moveto
/k glyphshow

/DejaVuSans findfont
10.0 scalefont
setfont
7.739258 0.406250 moveto
/equal glyphshow

18.066406 0.406250 moveto
/two glyphshow


grestore
[12.8 3.2 2 3.2] 0 setdash
0.000 0.500 0.000 setrgbcolor
gsave
336.7575 215.36625 m
356.7575 215.36625 l
stroke
grestore
0.000 setgray
gsave
364.757500 211.866250 translate
0.000000 rotate
/DejaVuSans-Oblique findfont
10.0 scalefont
setfont
0.000000 0.406250 moveto
/k glyphshow

/DejaVuSans findfont
10.0 scalefont
setfont
7.739258 0.406250 moveto
/equal glyphshow

18.066406 0.406250 moveto
/three glyphshow


grestore

end
showpage
