%!PS-Adobe-3.0 EPSF-3.0
%%Title: plots/res_comparison.eps
%%Creator: matplotlib version 1.5.1, http://matplotlib.org/
%%CreationDate: Mon Jul 10 17:42:23 2017
%%Orientation: portrait
%%BoundingBox: -233 178 845 613
%%EndComments
%%BeginProlog
/mpldict 11 dict def
mpldict begin
/m { moveto } bind def
/l { lineto } bind def
/r { rlineto } bind def
/c { curveto } bind def
/cl { closepath } bind def
/box {
m
1 index 0 r
0 exch r
neg 0 r
cl
} bind def
/clipbox {
box
clip
newpath
} bind def
%!PS-Adobe-3.0 Resource-Font
%%Title: Bitstream Vera Sans
%%Copyright: Copyright (c) 2003 by Bitstream, Inc. All Rights Reserved.
%%Creator: Converted from TrueType to type 3 by PPR
25 dict begin
/_d{bind def}bind def
/_m{moveto}_d
/_l{lineto}_d
/_cl{closepath eofill}_d
/_c{curveto}_d
/_sc{7 -1 roll{setcachedevice}{pop pop pop pop pop pop}ifelse}_d
/_e{exec}_d
/FontName /BitstreamVeraSans-Roman def
/PaintType 0 def
/FontMatrix[.001 0 0 .001 0 0]def
/FontBBox[-183 -236 1287 928]def
/FontType 3 def
/Encoding [ /space /parenleft /parenright /period /zero /one /two /three /four /five /six /eight /A /B /C /D /E /W /a /e /i /l /m /s /t /minus ] def
/FontInfo 10 dict dup begin
/FamilyName (Bitstream Vera Sans) def
/FullName (Bitstream Vera Sans) def
/Notice (Copyright (c) 2003 by Bitstream, Inc. All Rights Reserved. Bitstream Vera is a trademark of Bitstream, Inc.) def
/Weight (Roman) def
/Version (Release 1.10) def
/ItalicAngle 0.0 def
/isFixedPitch false def
/UnderlinePosition -213 def
/UnderlineThickness 143 def
end readonly def
/CharStrings 26 dict dup begin
/space{318 0 0 0 0 0 _sc
}_d
/parenleft{390 0 86 -131 310 759 _sc
310 759 _m
266 683 234 609 213 536 _c
191 463 181 389 181 314 _c
181 238 191 164 213 91 _c
234 17 266 -56 310 -131 _c
232 -131 _l
183 -54 146 20 122 94 _c
98 168 86 241 86 314 _c
86 386 98 459 122 533 _c
146 607 182 682 232 759 _c
310 759 _l
_cl}_d
/parenright{390 0 80 -131 304 759 _sc
80 759 _m
158 759 _l
206 682 243 607 267 533 _c
291 459 304 386 304 314 _c
304 241 291 168 267 94 _c
243 20 206 -54 158 -131 _c
80 -131 _l
123 -56 155 17 177 91 _c
198 164 209 238 209 314 _c
209 389 198 463 177 536 _c
155 609 123 683 80 759 _c
_cl}_d
/period{318 0 107 0 210 124 _sc
107 124 _m
210 124 _l
210 0 _l
107 0 _l
107 124 _l
_cl}_d
/zero{636 0 66 -13 570 742 _sc
318 664 _m
267 664 229 639 203 589 _c
177 539 165 464 165 364 _c
165 264 177 189 203 139 _c
229 89 267 64 318 64 _c
369 64 407 89 433 139 _c
458 189 471 264 471 364 _c
471 464 458 539 433 589 _c
407 639 369 664 318 664 _c
318 742 _m
399 742 461 709 505 645 _c
548 580 570 486 570 364 _c
570 241 548 147 505 83 _c
461 19 399 -13 318 -13 _c
236 -13 173 19 130 83 _c
87 147 66 241 66 364 _c
66 486 87 580 130 645 _c
173 709 236 742 318 742 _c
_cl}_d
/one{636 0 110 0 544 729 _sc
124 83 _m
285 83 _l
285 639 _l
110 604 _l
110 694 _l
284 729 _l
383 729 _l
383 83 _l
544 83 _l
544 0 _l
124 0 _l
124 83 _l
_cl}_d
/two{{636 0 73 0 536 742 _sc
192 83 _m
536 83 _l
536 0 _l
73 0 _l
73 83 _l
110 121 161 173 226 239 _c
290 304 331 346 348 365 _c
380 400 402 430 414 455 _c
426 479 433 504 433 528 _c
433 566 419 598 392 622 _c
365 646 330 659 286 659 _c
255 659 222 653 188 643 _c
154 632 117 616 78 594 _c
78 694 _l
118 710 155 722 189 730 _c
223 738 255 742 284 742 _c
}_e{359 742 419 723 464 685 _c
509 647 532 597 532 534 _c
532 504 526 475 515 449 _c
504 422 484 390 454 354 _c
446 344 420 317 376 272 _c
332 227 271 164 192 83 _c
_cl}_e}_d
/three{{636 0 76 -13 556 742 _sc
406 393 _m
453 383 490 362 516 330 _c
542 298 556 258 556 212 _c
556 140 531 84 482 45 _c
432 6 362 -13 271 -13 _c
240 -13 208 -10 176 -4 _c
144 1 110 10 76 22 _c
76 117 _l
103 101 133 89 166 81 _c
198 73 232 69 268 69 _c
330 69 377 81 409 105 _c
441 129 458 165 458 212 _c
458 254 443 288 413 312 _c
383 336 341 349 287 349 _c
}_e{202 349 _l
202 430 _l
291 430 _l
339 430 376 439 402 459 _c
428 478 441 506 441 543 _c
441 580 427 609 401 629 _c
374 649 336 659 287 659 _c
260 659 231 656 200 650 _c
169 644 135 635 98 623 _c
98 711 _l
135 721 170 729 203 734 _c
235 739 266 742 296 742 _c
370 742 429 725 473 691 _c
517 657 539 611 539 553 _c
539 513 527 479 504 451 _c
481 423 448 403 406 393 _c
_cl}_e}_d
/four{636 0 49 0 580 729 _sc
378 643 _m
129 254 _l
378 254 _l
378 643 _l
352 729 _m
476 729 _l
476 254 _l
580 254 _l
580 172 _l
476 172 _l
476 0 _l
378 0 _l
378 172 _l
49 172 _l
49 267 _l
352 729 _l
_cl}_d
/five{{636 0 77 -13 549 729 _sc
108 729 _m
495 729 _l
495 646 _l
198 646 _l
198 467 _l
212 472 227 476 241 478 _c
255 480 270 482 284 482 _c
365 482 429 459 477 415 _c
525 370 549 310 549 234 _c
549 155 524 94 475 51 _c
426 8 357 -13 269 -13 _c
238 -13 207 -10 175 -6 _c
143 -1 111 6 77 17 _c
77 116 _l
106 100 136 88 168 80 _c
199 72 232 69 267 69 _c
}_e{323 69 368 83 401 113 _c
433 143 450 183 450 234 _c
450 284 433 324 401 354 _c
368 384 323 399 267 399 _c
241 399 214 396 188 390 _c
162 384 135 375 108 363 _c
108 729 _l
_cl}_e}_d
/six{{636 0 70 -13 573 742 _sc
330 404 _m
286 404 251 388 225 358 _c
199 328 186 286 186 234 _c
186 181 199 139 225 109 _c
251 79 286 64 330 64 _c
374 64 409 79 435 109 _c
461 139 474 181 474 234 _c
474 286 461 328 435 358 _c
409 388 374 404 330 404 _c
526 713 _m
526 623 _l
501 635 476 644 451 650 _c
425 656 400 659 376 659 _c
310 659 260 637 226 593 _c
}_e{192 549 172 482 168 394 _c
187 422 211 444 240 459 _c
269 474 301 482 336 482 _c
409 482 467 459 509 415 _c
551 371 573 310 573 234 _c
573 159 550 99 506 54 _c
462 9 403 -13 330 -13 _c
246 -13 181 19 137 83 _c
92 147 70 241 70 364 _c
70 479 97 571 152 639 _c
206 707 280 742 372 742 _c
396 742 421 739 447 735 _c
472 730 498 723 526 713 _c
_cl}_e}_d
/eight{{636 0 68 -13 568 742 _sc
318 346 _m
271 346 234 333 207 308 _c
180 283 167 249 167 205 _c
167 161 180 126 207 101 _c
234 76 271 64 318 64 _c
364 64 401 76 428 102 _c
455 127 469 161 469 205 _c
469 249 455 283 429 308 _c
402 333 365 346 318 346 _c
219 388 _m
177 398 144 418 120 447 _c
96 476 85 511 85 553 _c
85 611 105 657 147 691 _c
188 725 245 742 318 742 _c
}_e{390 742 447 725 489 691 _c
530 657 551 611 551 553 _c
551 511 539 476 515 447 _c
491 418 459 398 417 388 _c
464 377 501 355 528 323 _c
554 291 568 251 568 205 _c
568 134 546 80 503 43 _c
459 5 398 -13 318 -13 _c
237 -13 175 5 132 43 _c
89 80 68 134 68 205 _c
68 251 81 291 108 323 _c
134 355 171 377 219 388 _c
183 544 _m
183 506 194 476 218 455 _c
}_e{242 434 275 424 318 424 _c
360 424 393 434 417 455 _c
441 476 453 506 453 544 _c
453 582 441 611 417 632 _c
393 653 360 664 318 664 _c
275 664 242 653 218 632 _c
194 611 183 582 183 544 _c
_cl}_e}_d
/A{684 0 8 0 676 729 _sc
342 632 _m
208 269 _l
476 269 _l
342 632 _l
286 729 _m
398 729 _l
676 0 _l
573 0 _l
507 187 _l
178 187 _l
112 0 _l
8 0 _l
286 729 _l
_cl}_d
/B{{686 0 98 0 615 729 _sc
197 348 _m
197 81 _l
355 81 _l
408 81 447 92 473 114 _c
498 136 511 169 511 215 _c
511 260 498 293 473 315 _c
447 337 408 348 355 348 _c
197 348 _l
197 648 _m
197 428 _l
343 428 _l
391 428 426 437 450 455 _c
474 473 486 500 486 538 _c
486 574 474 602 450 620 _c
426 638 391 648 343 648 _c
197 648 _l
98 729 _m
350 729 _l
}_e{425 729 483 713 524 682 _c
564 650 585 606 585 549 _c
585 504 574 468 553 442 _c
532 416 502 399 462 393 _c
510 382 548 360 575 327 _c
601 294 615 253 615 204 _c
615 138 592 88 548 53 _c
504 17 441 0 360 0 _c
98 0 _l
98 729 _l
_cl}_e}_d
/C{{698 0 56 -13 644 742 _sc
644 673 _m
644 569 _l
610 599 575 622 537 638 _c
499 653 460 661 418 661 _c
334 661 270 635 226 584 _c
182 533 160 460 160 364 _c
160 268 182 194 226 143 _c
270 92 334 67 418 67 _c
460 67 499 74 537 90 _c
575 105 610 128 644 159 _c
644 56 _l
609 32 572 15 534 4 _c
496 -7 455 -13 412 -13 _c
302 -13 215 20 151 87 _c
}_e{87 154 56 246 56 364 _c
56 481 87 573 151 641 _c
215 708 302 742 412 742 _c
456 742 497 736 535 725 _c
573 713 610 696 644 673 _c
_cl}_e}_d
/D{770 0 98 0 711 729 _sc
197 648 _m
197 81 _l
316 81 _l
416 81 490 103 537 149 _c
583 195 607 267 607 365 _c
607 463 583 534 537 580 _c
490 625 416 648 316 648 _c
197 648 _l
98 729 _m
301 729 _l
442 729 546 699 612 641 _c
678 582 711 490 711 365 _c
711 239 677 147 611 88 _c
545 29 441 0 301 0 _c
98 0 _l
98 729 _l
_cl}_d
/E{632 0 98 0 568 729 _sc
98 729 _m
559 729 _l
559 646 _l
197 646 _l
197 430 _l
544 430 _l
544 347 _l
197 347 _l
197 83 _l
568 83 _l
568 0 _l
98 0 _l
98 729 _l
_cl}_d
/W{989 0 33 0 956 729 _sc
33 729 _m
133 729 _l
286 113 _l
439 729 _l
550 729 _l
703 113 _l
856 729 _l
956 729 _l
773 0 _l
649 0 _l
495 633 _l
340 0 _l
216 0 _l
33 729 _l
_cl}_d
/a{{613 0 60 -13 522 560 _sc
343 275 _m
270 275 220 266 192 250 _c
164 233 150 205 150 165 _c
150 133 160 107 181 89 _c
202 70 231 61 267 61 _c
317 61 357 78 387 114 _c
417 149 432 196 432 255 _c
432 275 _l
343 275 _l
522 312 _m
522 0 _l
432 0 _l
432 83 _l
411 49 385 25 355 10 _c
325 -5 287 -13 243 -13 _c
187 -13 142 2 109 33 _c
76 64 60 106 60 159 _c
}_e{60 220 80 266 122 298 _c
163 329 224 345 306 345 _c
432 345 _l
432 354 _l
432 395 418 427 391 450 _c
364 472 326 484 277 484 _c
245 484 215 480 185 472 _c
155 464 127 453 100 439 _c
100 522 _l
132 534 164 544 195 550 _c
226 556 256 560 286 560 _c
365 560 424 539 463 498 _c
502 457 522 395 522 312 _c
_cl}_e}_d
/e{{615 0 55 -13 562 560 _sc
562 296 _m
562 252 _l
149 252 _l
153 190 171 142 205 110 _c
238 78 284 62 344 62 _c
378 62 412 66 444 74 _c
476 82 509 95 541 113 _c
541 28 _l
509 14 476 3 442 -3 _c
408 -9 373 -13 339 -13 _c
251 -13 182 12 131 62 _c
80 112 55 181 55 268 _c
55 357 79 428 127 481 _c
175 533 241 560 323 560 _c
397 560 455 536 498 489 _c
}_e{540 441 562 377 562 296 _c
472 322 _m
471 371 457 410 431 440 _c
404 469 368 484 324 484 _c
274 484 234 469 204 441 _c
174 413 156 373 152 322 _c
472 322 _l
_cl}_e}_d
/i{278 0 94 0 184 760 _sc
94 547 _m
184 547 _l
184 0 _l
94 0 _l
94 547 _l
94 760 _m
184 760 _l
184 646 _l
94 646 _l
94 760 _l
_cl}_d
/l{278 0 94 0 184 760 _sc
94 760 _m
184 760 _l
184 0 _l
94 0 _l
94 760 _l
_cl}_d
/m{{974 0 91 0 889 560 _sc
520 442 _m
542 482 569 511 600 531 _c
631 550 668 560 711 560 _c
767 560 811 540 842 500 _c
873 460 889 403 889 330 _c
889 0 _l
799 0 _l
799 327 _l
799 379 789 418 771 444 _c
752 469 724 482 686 482 _c
639 482 602 466 575 435 _c
548 404 535 362 535 309 _c
535 0 _l
445 0 _l
445 327 _l
445 379 435 418 417 444 _c
398 469 369 482 331 482 _c
}_e{285 482 248 466 221 435 _c
194 404 181 362 181 309 _c
181 0 _l
91 0 _l
91 547 _l
181 547 _l
181 462 _l
201 495 226 520 255 536 _c
283 552 317 560 357 560 _c
397 560 430 550 458 530 _c
486 510 506 480 520 442 _c
_cl}_e}_d
/s{{521 0 54 -13 472 560 _sc
443 531 _m
443 446 _l
417 458 391 468 364 475 _c
336 481 308 485 279 485 _c
234 485 200 478 178 464 _c
156 450 145 430 145 403 _c
145 382 153 366 169 354 _c
185 342 217 330 265 320 _c
296 313 _l
360 299 405 279 432 255 _c
458 230 472 195 472 151 _c
472 100 452 60 412 31 _c
372 1 316 -13 246 -13 _c
216 -13 186 -10 154 -5 _c
}_e{122 0 89 8 54 20 _c
54 113 _l
87 95 120 82 152 74 _c
184 65 216 61 248 61 _c
290 61 323 68 346 82 _c
368 96 380 117 380 144 _c
380 168 371 187 355 200 _c
339 213 303 226 247 238 _c
216 245 _l
160 257 119 275 95 299 _c
70 323 58 356 58 399 _c
58 450 76 490 112 518 _c
148 546 200 560 268 560 _c
301 560 332 557 362 552 _c
391 547 418 540 443 531 _c
}_e{_cl}_e}_d
/t{392 0 27 0 368 702 _sc
183 702 _m
183 547 _l
368 547 _l
368 477 _l
183 477 _l
183 180 _l
183 135 189 106 201 94 _c
213 81 238 75 276 75 _c
368 75 _l
368 0 _l
276 0 _l
206 0 158 13 132 39 _c
106 65 93 112 93 180 _c
93 477 _l
27 477 _l
27 547 _l
93 547 _l
93 702 _l
183 702 _l
_cl}_d
/minus{838 0 106 272 732 355 _sc
106 355 _m
732 355 _l
732 272 _l
106 272 _l
106 355 _l
_cl}_d
end readonly def

/BuildGlyph
 {exch begin
 CharStrings exch
 2 copy known not{pop /.notdef}if
 true 3 1 roll get exec
 end}_d

/BuildChar {
 1 index /Encoding get exch get
 1 index /BuildGlyph get exec
}_d

FontName currentdict end definefont pop
%!PS-Adobe-3.0 Resource-Font
%%Title: STIXGeneral-Italic
%%Copyright: Copyright (c) 2001-2010 by the STI Pub Companies, consisting of the American Chemical Society, the American Institute of Physics, the American Mathematical Society, the American Physical Society, Elsevier, Inc., and The Institute of Electrical and Electronic Engineers, Inc. Portions copyright (c) 1998-2003 by MicroPress, Inc. Portions copyright (c) 1990 by Elsevier, Inc. All rights reserved.
%%Creator: Converted from TrueType to type 3 by PPR
25 dict begin
/_d{bind def}bind def
/_m{moveto}_d
/_l{lineto}_d
/_cl{closepath eofill}_d
/_c{curveto}_d
/_sc{7 -1 roll{setcachedevice}{pop pop pop pop pop pop}ifelse}_d
/_e{exec}_d
/FontName /STIXGeneral-Italic def
/PaintType 0 def
/FontMatrix[.001 0 0 .001 0 0]def
/FontBBox[-970 -305 1429 1023]def
/FontType 3 def
/Encoding [ /C /K /N /V /h ] def
/FontInfo 10 dict dup begin
/FamilyName (STIXGeneral) def
/FullName (STIXGeneral-Italic) def
/Notice (Copyright (c) 2001-2010 by the STI Pub Companies, consisting of the American Chemical Society, the American Institute of Physics, the American Mathematical Society, the American Physical Society, Elsevier, Inc., and The Institute of Electrical and Electronic Engineers, Inc. Portions copyright (c) 1998-2003 by MicroPress, Inc. Portions copyright (c) 1990 by Elsevier, Inc. All rights reserved. STIX Fonts(TM) is a trademark of The Institute of Electrical and Electronics Engineers, Inc.) def
/Weight (Italic) def
/Version (Version 1.0.0) def
/ItalicAngle -17.43909 def
/isFixedPitch false def
/UnderlinePosition -75 def
/UnderlineThickness 50 def
end readonly def
/CharStrings 5 dict dup begin
/C{{667 0 66 -17 689 666 _sc
689 664 _m
652 464 _l
634 467 _l
622 575 572 630 485 630 _c
412 630 346 597 286 533 _c
250 495 223 450 205 397 _c
187 343 178 288 178 232 _c
178 95 236 27 353 27 _c
394 27 432 35 466 53 _c
500 70 539 101 582 146 _c
600 131 _l
555 78 511 40 468 17 _c
425 -5 378 -17 327 -17 _c
249 -17 186 6 138 52 _c
90 98 66 161 66 243 _c
}_e{66 311 83 377 117 439 _c
151 501 196 553 253 593 _c
321 641 394 666 472 666 _c
518 666 557 660 589 649 _c
602 644 616 642 630 642 _c
648 642 660 649 668 664 _c
689 664 _l
_cl}_e}_d
/K{{667 0 7 0 722 653 _sc
722 653 _m
722 637 _l
703 637 677 624 645 600 _c
347 375 _l
515 82 _l
530 55 543 38 555 31 _c
566 24 587 19 619 16 _c
619 0 _l
344 0 _l
344 16 _l
373 19 _l
403 21 419 32 419 51 _c
419 55 418 59 417 64 _c
416 68 414 74 411 80 _c
407 86 405 91 403 95 _c
401 99 397 105 392 115 _c
386 124 383 130 382 133 _c
259 348 _l
}_e{194 111 _l
186 85 183 68 183 60 _c
183 44 187 34 197 28 _c
207 22 226 18 254 16 _c
254 0 _l
7 0 _l
7 16 _l
35 19 54 25 63 33 _c
71 41 80 59 88 87 _c
212 532 _l
221 565 226 586 226 594 _c
226 608 220 618 209 625 _c
197 631 177 635 147 637 _c
147 653 _l
417 653 _l
417 637 _l
389 635 367 628 352 618 _c
336 608 325 589 318 563 _c
265 369 _l
}_e{418 478 _l
513 545 561 591 561 615 _c
561 625 549 631 525 634 _c
501 637 _l
501 653 _l
722 653 _l
_cl}_e}_d
/N{{667 0 -19 -14 727 653 _sc
727 653 _m
727 637 _l
709 633 696 629 689 627 _c
682 625 674 618 666 606 _c
658 594 651 582 647 568 _c
643 554 635 528 625 492 _c
479 -14 _l
461 -14 _l
231 535 _l
117 113 _l
111 92 108 74 108 59 _c
108 45 113 34 123 28 _c
133 22 152 18 178 16 _c
178 0 _l
-19 0 _l
-19 16 _l
9 20 29 30 41 47 _c
53 64 68 104 86 168 _c
}_e{203 583 _l
187 619 159 637 117 637 _c
117 653 _l
277 653 _l
484 154 _l
590 542 _l
595 560 598 575 598 586 _c
598 604 593 616 584 623 _c
575 629 557 634 529 637 _c
529 653 _l
727 653 _l
_cl}_e}_d
/V{611 0 76 -17 688 653 _sc
688 653 _m
688 637 _l
666 636 648 623 632 597 _c
259 -17 _l
240 -17 _l
158 485 _l
146 555 137 597 129 611 _c
121 625 104 633 76 637 _c
76 653 _l
316 653 _l
316 637 _l
284 633 264 628 254 622 _c
244 615 240 603 240 586 _c
240 579 240 574 241 571 _c
306 128 _l
516 488 _l
548 544 565 582 565 603 _c
565 621 544 632 503 637 _c
503 653 _l
688 653 _l
_cl}_d
/h{{500 0 19 -8 478 683 _sc
465 118 _m
478 105 _l
447 61 421 32 401 16 _c
380 0 357 -8 332 -8 _c
318 -8 308 -4 300 3 _c
292 10 288 20 288 33 _c
288 44 294 75 308 125 _c
363 332 _l
367 350 370 361 370 365 _c
370 381 360 390 342 390 _c
324 390 300 376 272 350 _c
244 323 216 290 190 250 _c
169 218 153 186 141 156 _c
129 126 113 74 94 0 _c
19 0 _l
165 554 _l
}_e{173 587 178 608 178 616 _c
178 624 173 630 165 634 _c
156 638 147 641 137 641 _c
110 641 _l
110 656 _l
160 662 213 671 267 683 _c
274 677 _l
153 230 _l
239 370 316 441 383 441 _c
405 441 421 434 432 422 _c
442 410 448 394 448 374 _c
448 345 432 281 400 181 _c
378 113 367 72 367 56 _c
367 44 372 38 383 38 _c
391 38 399 42 409 52 _c
419 62 437 84 465 118 _c
_cl}_e}_d
end readonly def

/BuildGlyph
 {exch begin
 CharStrings exch
 2 copy known not{pop /.notdef}if
 true 3 1 roll get exec
 end}_d

/BuildChar {
 1 index /Encoding get exch get
 1 index /BuildGlyph get exec
}_d

FontName currentdict end definefont pop
%!PS-Adobe-3.0 Resource-Font
%%Title: STIXGeneral-Regular
%%Copyright: Copyright (c) 2001-2010 by the STI Pub Companies, consisting of the American Chemical Society, the American Institute of Physics, the American Mathematical Society, the American Physical Society, Elsevier, Inc., and The Institute of Electrical and Electronic Engineers, Inc. Portions copyright (c) 1998-2003 by MicroPress, Inc. Portions copyright (c) 1990 by Elsevier, Inc. All rights reserved.
%%Creator: Converted from TrueType to type 3 by PPR
25 dict begin
/_d{bind def}bind def
/_m{moveto}_d
/_l{lineto}_d
/_cl{closepath eofill}_d
/_c{curveto}_d
/_sc{7 -1 roll{setcachedevice}{pop pop pop pop pop pop}ifelse}_d
/_e{exec}_d
/FontName /STIXGeneral-Regular def
/PaintType 0 def
/FontMatrix[.001 0 0 .001 0 0]def
/FontBBox[-970 -443 2000 1023]def
/FontType 3 def
/Encoding [ /parenleft /parenright /zero /one /two /five /equal /bar ] def
/FontInfo 10 dict dup begin
/FamilyName (STIXGeneral) def
/FullName (STIXGeneral-Regular) def
/Notice (Copyright (c) 2001-2010 by the STI Pub Companies, consisting of the American Chemical Society, the American Institute of Physics, the American Mathematical Society, the American Physical Society, Elsevier, Inc., and The Institute of Electrical and Electronic Engineers, Inc. Portions copyright (c) 1998-2003 by MicroPress, Inc. Portions copyright (c) 1990 by Elsevier, Inc. All rights reserved. STIX Fonts(TM) is a trademark of The Institute of Electrical and Electronics Engineers, Inc.) def
/Weight (Regular) def
/Version (Version 1.0.0) def
/ItalicAngle 0.0 def
/isFixedPitch false def
/UnderlinePosition -75 def
/UnderlineThickness 50 def
end readonly def
/CharStrings 8 dict dup begin
/parenleft{333 0 48 -176 304 676 _sc
304 -160 _m
292 -176 _l
214 -132 154 -71 112 5 _c
69 82 48 164 48 252 _c
48 436 130 578 295 676 _c
304 660 _l
236 602 190 544 168 488 _c
145 432 134 354 134 255 _c
134 156 145 76 169 15 _c
192 -45 237 -104 304 -160 _c
_cl}_d
/parenright{333 0 29 -176 285 676 _sc
29 660 _m
41 676 _l
117 630 176 569 220 492 _c
263 414 285 333 285 247 _c
285 65 202 -75 38 -176 _c
29 -160 _l
97 -103 143 -47 165 9 _c
187 65 199 143 199 244 _c
199 345 187 426 165 487 _c
143 548 97 606 29 660 _c
_cl}_d
/zero{{500 0 24 -13 476 676 _sc
476 330 _m
476 285 471 243 463 203 _c
454 163 441 127 424 94 _c
407 60 384 34 354 15 _c
324 -3 289 -13 250 -13 _c
209 -13 173 -3 143 17 _c
112 37 88 65 72 100 _c
55 134 43 171 35 211 _c
27 250 24 292 24 336 _c
24 398 31 453 47 503 _c
62 553 87 594 123 627 _c
159 659 202 676 254 676 _c
319 676 372 644 414 580 _c
}_e{455 516 476 432 476 330 _c
380 325 _m
380 430 368 510 346 566 _c
324 622 291 650 248 650 _c
206 650 175 622 153 566 _c
131 510 120 431 120 329 _c
120 226 131 147 153 93 _c
175 39 207 12 250 12 _c
292 12 324 39 346 93 _c
368 147 380 225 380 325 _c
_cl}_e}_d
/one{500 0 111 0 394 676 _sc
394 0 _m
118 0 _l
118 15 _l
154 17 179 23 193 35 _c
206 47 213 67 213 95 _c
213 544 _l
213 576 203 593 183 593 _c
173 593 158 589 138 581 _c
111 571 _l
111 585 _l
290 676 _l
299 673 _l
299 76 _l
299 54 305 38 319 29 _c
332 19 357 15 394 15 _c
394 0 _l
_cl}_d
/two{{500 0 29 0 474 676 _sc
474 137 _m
420 0 _l
29 0 _l
29 12 _l
207 201 _l
253 249 287 294 307 335 _c
327 375 337 417 337 461 _c
337 505 324 540 300 565 _c
275 589 241 602 198 602 _c
162 602 133 592 112 574 _c
91 555 71 521 51 472 _c
30 477 _l
41 539 64 587 98 623 _c
132 658 179 676 238 676 _c
293 676 338 659 372 626 _c
406 592 423 550 423 500 _c
}_e{423 424 380 342 295 252 _c
130 76 _l
364 76 _l
386 76 403 80 416 89 _c
429 97 444 115 460 143 _c
474 137 _l
_cl}_e}_d
/five{{500 0 31 -13 438 688 _sc
438 681 _m
402 596 _l
398 587 389 583 375 583 _c
181 583 _l
141 498 _l
214 484 267 468 300 452 _c
332 436 363 408 391 370 _c
414 338 426 295 426 243 _c
426 195 418 154 402 122 _c
386 89 362 60 328 35 _c
282 3 226 -13 158 -13 _c
120 -13 89 -7 66 3 _c
42 14 31 29 31 48 _c
31 73 46 86 76 86 _c
100 86 124 75 150 55 _c
}_e{176 33 199 23 221 23 _c
255 23 286 40 314 75 _c
342 109 356 148 356 192 _c
356 256 333 306 289 342 _c
231 388 160 412 76 412 _c
68 412 64 414 64 420 _c
65 425 _l
174 662 _l
381 662 _l
392 662 401 663 407 667 _c
413 670 421 677 429 688 _c
438 681 _l
_cl}_e}_d
/equal{685 0 48 120 637 386 _sc
637 320 _m
48 320 _l
48 386 _l
637 386 _l
637 320 _l
637 120 _m
48 120 _l
48 186 _l
637 186 _l
637 120 _l
_cl}_d
/bar{200 0 67 -13 133 676 _sc
133 -13 _m
67 -13 _l
67 676 _l
133 676 _l
133 -13 _l
_cl}_d
end readonly def

/BuildGlyph
 {exch begin
 CharStrings exch
 2 copy known not{pop /.notdef}if
 true 3 1 roll get exec
 end}_d

/BuildChar {
 1 index /Encoding get exch get
 1 index /BuildGlyph get exec
}_d

FontName currentdict end definefont pop
%!PS-Adobe-3.0 Resource-Font
%%Title: STIXGeneral-Bold
%%Copyright: Copyright (c) 2001-2010 by the STI Pub Companies, consisting of the American Chemical Society, the American Institute of Physics, the American Mathematical Society, the American Physical Society, Elsevier, Inc., and The Institute of Electrical and Electronic Engineers, Inc. Portions copyright (c) 1998-2003 by MicroPress, Inc. Portions copyright (c) 1990 by Elsevier, Inc. All rights reserved.
%%Creator: Converted from TrueType to type 3 by PPR
25 dict begin
/_d{bind def}bind def
/_m{moveto}_d
/_l{lineto}_d
/_cl{closepath eofill}_d
/_c{curveto}_d
/_sc{7 -1 roll{setcachedevice}{pop pop pop pop pop pop}ifelse}_d
/_e{exec}_d
/FontName /STIXGeneral-Bold def
/PaintType 0 def
/FontMatrix[.001 0 0 .001 0 0]def
/FontBBox[-998 -455 2000 1055]def
/FontType 3 def
/Encoding [ /R /U ] def
/FontInfo 10 dict dup begin
/FamilyName (STIXGeneral) def
/FullName (STIXGeneral-Bold) def
/Notice (Copyright (c) 2001-2010 by the STI Pub Companies, consisting of the American Chemical Society, the American Institute of Physics, the American Mathematical Society, the American Physical Society, Elsevier, Inc., and The Institute of Electrical and Electronic Engineers, Inc. Portions copyright (c) 1998-2003 by MicroPress, Inc. Portions copyright (c) 1990 by Elsevier, Inc. All rights reserved. STIX Fonts(TM) is a trademark of The Institute of Electrical and Electronics Engineers, Inc.) def
/Weight (Bold) def
/Version (Version 1.0.0) def
/ItalicAngle 0.0 def
/isFixedPitch false def
/UnderlinePosition -75 def
/UnderlineThickness 50 def
end readonly def
/CharStrings 2 dict dup begin
/R{{722 0 26 0 716 676 _sc
716 0 _m
511 0 _l
304 313 _l
276 313 _l
276 117 _l
276 81 280 58 290 48 _c
300 38 324 30 364 25 _c
364 0 _l
26 0 _l
26 25 _l
65 29 89 37 99 47 _c
109 57 114 81 114 120 _c
114 551 _l
114 590 108 616 97 628 _c
86 640 62 648 26 651 _c
26 676 _l
334 676 _l
531 676 630 618 630 504 _c
630 453 615 414 585 386 _c
}_e{557 360 519 341 473 329 _c
672 47 _l
682 32 696 25 716 25 _c
716 0 _l
276 597 _m
276 345 _l
344 345 392 356 419 376 _c
445 396 459 435 459 494 _c
459 546 449 584 429 607 _c
409 630 375 642 329 642 _c
309 642 296 638 288 632 _c
280 625 276 613 276 597 _c
_cl}_e}_d
/U{{722 0 16 -18 701 676 _sc
701 676 _m
701 651 _l
669 646 648 638 638 627 _c
628 615 623 595 623 566 _c
623 252 _l
623 148 597 76 547 36 _c
501 0 440 -18 363 -18 _c
285 -18 224 0 178 35 _c
149 57 128 84 116 114 _c
104 144 98 183 98 231 _c
98 555 _l
98 594 93 619 84 630 _c
74 640 52 647 16 651 _c
16 676 _l
352 676 _l
352 651 _l
312 647 286 640 274 628 _c
}_e{262 616 257 590 257 550 _c
257 232 _l
257 97 305 30 403 30 _c
520 30 579 104 579 252 _c
579 552 _l
579 588 572 612 558 626 _c
544 639 519 647 482 651 _c
482 676 _l
701 676 _l
_cl}_e}_d
end readonly def

/BuildGlyph
 {exch begin
 CharStrings exch
 2 copy known not{pop /.notdef}if
 true 3 1 roll get exec
 end}_d

/BuildChar {
 1 index /Encoding get exch get
 1 index /BuildGlyph get exec
}_d

FontName currentdict end definefont pop
end
%%EndProlog
mpldict begin
-233.494 178.586 translate
1078.987 434.828 0 0 clipbox
100000 setmiterlimit
gsave
0 0 m
1078.987054 0 l
1078.987054 434.828125 l
0 434.828125 l
cl
1.000 setgray
fill
grestore
gsave
85.215625 66.528125 m
1033.815625 66.528125 l
1033.815625 412.128125 l
85.215625 412.128125 l
cl
1.000 setgray
fill
grestore
gsave
85.215625 412.128125 m
1033.815625 412.128125 l
grestore
gsave
1033.815625 66.528125 m
1033.815625 412.128125 l
grestore
gsave
85.215625 66.528125 m
1033.815625 66.528125 l
grestore
gsave
85.215625 66.528125 m
85.215625 412.128125 l
grestore
1.000 setgray
/BitstreamVeraSans-Roman findfont
30.000 scalefont
setfont
gsave
61.356250 39.731250 translate
0.000000 rotate
0.000000 0.000000 m /zero glyphshow
19.086914 0.000000 m /period glyphshow
28.623047 0.000000 m /zero glyphshow
grestore
gsave
251.076250 39.731250 translate
0.000000 rotate
0.000000 0.000000 m /zero glyphshow
19.086914 0.000000 m /period glyphshow
28.623047 0.000000 m /two glyphshow
grestore
gsave
440.796250 39.731250 translate
0.000000 rotate
0.000000 0.000000 m /zero glyphshow
19.086914 0.000000 m /period glyphshow
28.623047 0.000000 m /four glyphshow
grestore
gsave
630.516250 39.731250 translate
0.000000 rotate
0.000000 0.000000 m /zero glyphshow
19.086914 0.000000 m /period glyphshow
28.623047 0.000000 m /six glyphshow
grestore
gsave
820.236250 39.731250 translate
0.000000 rotate
0.000000 0.000000 m /zero glyphshow
19.086914 0.000000 m /period glyphshow
28.623047 0.000000 m /eight glyphshow
grestore
gsave
1009.956250 39.731250 translate
0.000000 rotate
0.000000 0.000000 m /one glyphshow
19.086914 0.000000 m /period glyphshow
28.623047 0.000000 m /zero glyphshow
grestore
0.000 setgray
/BitstreamVeraSans-Roman findfont
22.000 scalefont
setfont
gsave
489.632813 11.778125 translate
0.000000 rotate
0.000000 0.000000 m /W glyphshow
21.737305 0.000000 m /a glyphshow
35.218750 0.000000 m /l glyphshow
41.331055 0.000000 m /l glyphshow
47.443359 0.000000 m /space glyphshow
54.436523 0.000000 m /t glyphshow
63.062500 0.000000 m /i glyphshow
69.174805 0.000000 m /m glyphshow
90.605469 0.000000 m /e glyphshow
104.140625 0.000000 m /space glyphshow
111.133789 0.000000 m /parenleft glyphshow
119.716797 0.000000 m /s glyphshow
131.178711 0.000000 m /parenright glyphshow
grestore
1.000 setgray
/BitstreamVeraSans-Roman findfont
30.000 scalefont
setfont
gsave
33.496875 58.246875 translate
0.000000 rotate
0.000000 0.000000 m /zero glyphshow
19.086914 0.000000 m /period glyphshow
28.623047 0.000000 m /zero glyphshow
grestore
gsave
33.496875 127.366875 translate
0.000000 rotate
0.000000 0.000000 m /zero glyphshow
19.086914 0.000000 m /period glyphshow
28.623047 0.000000 m /two glyphshow
grestore
gsave
33.496875 196.486875 translate
0.000000 rotate
0.000000 0.000000 m /zero glyphshow
19.086914 0.000000 m /period glyphshow
28.623047 0.000000 m /four glyphshow
grestore
gsave
33.496875 265.606875 translate
0.000000 rotate
0.000000 0.000000 m /zero glyphshow
19.086914 0.000000 m /period glyphshow
28.623047 0.000000 m /six glyphshow
grestore
gsave
33.496875 334.726875 translate
0.000000 rotate
0.000000 0.000000 m /zero glyphshow
19.086914 0.000000 m /period glyphshow
28.623047 0.000000 m /eight glyphshow
grestore
gsave
33.496875 403.846875 translate
0.000000 rotate
0.000000 0.000000 m /one glyphshow
19.086914 0.000000 m /period glyphshow
28.623047 0.000000 m /zero glyphshow
grestore
0.000 setgray
gsave
23.918750 202.328125 translate
90.000000 rotate
/STIXGeneral-Regular findfont
22.0 scalefont
setfont
0.000000 0.125000 moveto
/bar glyphshow

/STIXGeneral-Bold findfont
22.0 scalefont
setfont
4.399994 0.125000 moveto
/R glyphshow

/STIXGeneral-Regular findfont
22.0 scalefont
setfont
20.283997 0.125000 moveto
/parenleft glyphshow

/STIXGeneral-Bold findfont
22.0 scalefont
setfont
27.610001 0.125000 moveto
/U glyphshow

/STIXGeneral-Italic findfont
15.4 scalefont
setfont
43.833613 -2.785937 moveto
/h glyphshow

/STIXGeneral-Regular findfont
22.0 scalefont
setfont
52.503925 0.125000 moveto
/parenright glyphshow

59.829929 0.125000 moveto
/bar glyphshow

/STIXGeneral-Regular findfont
15.4 scalefont
setfont
64.569532 -2.785937 moveto
/two glyphshow


grestore
gsave
85.215625 66.528125 m
536.929911 66.528125 l
536.929911 412.128125 l
85.215625 412.128125 l
cl
1.000 setgray
fill
grestore
1.000 setlinewidth
1 setlinejoin
2 setlinecap
[] 0 setdash
0.000 0.000 1.000 setrgbcolor
gsave
451.7 345.6 85.22 66.53 clipbox
93.848862 363.511013 m
102.584713 359.812512 l
111.242529 357.75601 l
119.937145 355.439408 l
128.604433 353.291166 l
137.318648 351.003588 l
146.018731 348.380867 l
154.906762 345.678021 l
163.907112 342.876794 l
172.609529 339.987197 l
181.383203 336.994709 l
190.074933 333.91427 l
198.80162 330.616935 l
207.527787 326.93807 l
216.246234 323.069935 l
224.987372 319.550507 l
233.79365 316.257248 l
242.671087 312.256646 l
251.650398 307.940914 l
260.595262 303.993403 l
269.737137 299.105068 l
278.815226 298.519543 l
288.095081 293.794228 l
297.430234 292.685528 l
306.961319 286.922568 l
317.004854 283.883759 l
328.203356 277.374565 l
338.934195 274.530592 l
349.837417 268.001358 l
361.200257 248.75109 l
372.915395 232.822567 l
384.565669 224.267196 l
396.25922 210.231512 l
408.008626 191.074413 l
419.944651 171.734014 l
432.10589 138.523372 l
444.07827 103.522771 l
stroke
grestore
0.500 setlinewidth
0 setlinecap
0.000 setgray
gsave
451.7 345.6 85.22 66.53 clipbox
/o {
gsave
newpath
translate
0.5 setlinewidth
1 setlinejoin
0 setlinecap
0 -4.5 m
1.193414 -4.5 2.338109 -4.025852 3.181981 -3.181981 c
4.025852 -2.338109 4.5 -1.193414 4.5 0 c
4.5 1.193414 4.025852 2.338109 3.181981 3.181981 c
2.338109 4.025852 1.193414 4.5 0 4.5 c
-1.193414 4.5 -2.338109 4.025852 -3.181981 3.181981 c
-4.025852 2.338109 -4.5 1.193414 -4.5 0 c
-4.5 -1.193414 -4.025852 -2.338109 -3.181981 -3.181981 c
-2.338109 -4.025852 -1.193414 -4.5 0 -4.5 c
cl

gsave
0.000 0.000 1.000 setrgbcolor
fill
grestore
stroke
grestore
} bind def
93.8489 363.511 o
137.319 351.004 o
181.383 336.995 o
224.987 319.551 o
269.737 299.105 o
317.005 283.884 o
372.915 232.823 o
432.106 138.523 o
grestore
1.000 setlinewidth
2 setlinecap
0.000 0.500 0.000 setrgbcolor
gsave
451.7 345.6 85.22 66.53 clipbox
89.153945 363.513306 m
93.142861 359.813193 l
97.100689 357.759521 l
101.067669 355.440833 l
105.02941 353.295695 l
109.026661 351.007571 l
113.065578 348.383291 l
117.100678 345.680891 l
121.145413 342.880973 l
125.195257 339.985476 l
129.278154 337.007399 l
133.348245 333.906038 l
137.458125 330.61455 l
141.642207 326.931185 l
145.854867 323.057463 l
150.114252 319.498251 l
154.47441 316.231222 l
158.973563 312.132822 l
163.643082 307.782198 l
168.689707 303.107932 l
174.131695 297.632671 l
179.991721 293.579574 l
186.937018 288.617854 l
194.931983 287.121694 l
202.585188 282.548962 l
211.633714 285.325578 l
222.399927 280.914997 l
233.155145 263.256285 l
244.412943 261.451951 l
255.27737 253.849243 l
266.126137 255.434725 l
277.301487 254.458622 l
288.857591 255.848134 l
299.982297 256.288406 l
310.763276 247.969591 l
321.807722 236.49091 l
332.879907 236.644209 l
343.851081 216.460134 l
354.659115 207.030148 l
365.520233 185.102543 l
376.314995 159.127802 l
387.126447 139.575306 l
397.902411 126.391357 l
408.699887 100.987094 l
stroke
grestore
0.500 setlinewidth
0 setlinejoin
0 setlinecap
0.000 setgray
gsave
451.7 345.6 85.22 66.53 clipbox
/o {
gsave
newpath
translate
0.5 setlinewidth
0 setlinejoin
0 setlinecap
0 5 m
-5 -5 l
5 -5 l
cl

gsave
0.000 0.500 0.000 setrgbcolor
fill
grestore
stroke
grestore
} bind def
89.1539 363.513 o
109.027 351.008 o
129.278 337.007 o
150.114 319.498 o
174.132 297.633 o
211.634 285.326 o
266.126 255.435 o
321.808 236.491 o
376.315 159.128 o
grestore
1.000 setlinewidth
1 setlinejoin
2 setlinecap
1.000 0.000 0.000 setrgbcolor
gsave
451.7 345.6 85.22 66.53 clipbox
89.151104 363.5125 m
93.204923 359.817835 l
97.261223 357.764506 l
101.297696 355.445776 l
105.44622 353.297622 l
109.611018 351.006391 l
113.673837 348.386075 l
117.759822 345.682613 l
121.934909 342.878882 l
126.004753 339.990683 l
130.138062 336.999022 l
134.261225 333.929594 l
138.372869 330.62298 l
142.490323 327.050289 l
146.660918 323.261757 l
150.830116 319.658023 l
155.115258 316.274219 l
159.396742 312.44337 l
163.729744 308.026924 l
168.22221 303.357353 l
173.028545 301.647923 l
178.301796 293.273246 l
184.136243 291.798034 l
190.94806 281.415797 l
199.393426 278.679371 l
207.445534 278.657834 l
217.149148 273.27942 l
226.525364 266.816283 l
237.347638 256.2987 l
248.090606 252.994191 l
259.885241 253.416224 l
272.034945 254.664481 l
284.379014 255.781456 l
296.555493 257.028365 l
308.349601 259.011886 l
320.200025 260.764844 l
332.081097 262.384439 l
343.501387 264.274495 l
354.566366 266.312088 l
365.633939 268.555283 l
376.355818 264.960498 l
387.066547 262.219828 l
397.78831 249.25808 l
408.597088 235.039112 l
419.328684 217.767388 l
430.065794 205.823306 l
440.820888 180.802478 l
451.585973 169.911641 l
462.398092 141.472161 l
473.13273 125.19898 l
483.847058 107.362204 l
stroke
grestore
0.500 setlinewidth
0 setlinejoin
0 setlinecap
0.000 setgray
gsave
451.7 345.6 85.22 66.53 clipbox
/o {
gsave
newpath
translate
0.5 setlinewidth
0 setlinejoin
0 setlinecap
-0 -5 m
5 5 l
-5 5 l
cl

gsave
1.000 0.000 0.000 setrgbcolor
fill
grestore
stroke
grestore
} bind def
89.1511 363.512 o
109.611 351.006 o
130.138 336.999 o
150.83 319.658 o
173.029 301.648 o
207.446 278.658 o
259.885 253.416 o
320.2 260.765 o
376.356 264.96 o
430.066 205.823 o
483.847 107.362 o
grestore
1.000 setlinewidth
1 setlinejoin
2 setlinecap
0.000 0.750 0.750 setrgbcolor
gsave
451.7 345.6 85.22 66.53 clipbox
89.450507 363.510377 m
93.731168 359.812454 l
97.953605 357.756148 l
102.169782 355.438805 l
106.452402 353.290453 l
110.806747 351.002193 l
115.130131 348.379391 l
119.494357 345.677566 l
123.940677 342.876627 l
128.382915 339.986979 l
132.878174 336.994011 l
137.473902 333.912938 l
142.111296 330.614744 l
146.872258 326.927653 l
151.719996 323.060483 l
156.674006 319.498259 l
161.789499 316.199551 l
167.056354 312.104942 l
172.41478 307.737398 l
177.987811 302.945592 l
183.79512 297.527537 l
189.936131 291.681357 l
196.519617 284.980584 l
203.364322 278.435311 l
210.311413 277.90302 l
217.231074 275.298195 l
224.473836 261.081661 l
232.329003 245.67462 l
241.680341 231.642876 l
251.157683 214.606403 l
261.397907 197.853638 l
271.838584 176.439243 l
282.85745 148.368136 l
294.218102 114.635355 l
stroke
grestore
0.500 setlinewidth
0 setlinejoin
0 setlinecap
0.000 setgray
gsave
451.7 345.6 85.22 66.53 clipbox
/o {
gsave
newpath
translate
0.5 setlinewidth
0 setlinejoin
0 setlinecap
-4 0 m
4 -4 l
4 4 l
cl

gsave
0.000 0.750 0.750 setrgbcolor
fill
grestore
stroke
grestore
} bind def
89.4505 363.51 o
106.452 353.29 o
123.941 342.877 o
142.111 330.615 o
161.789 316.2 o
183.795 297.528 o
210.311 277.903 o
241.68 231.643 o
282.857 148.368 o
grestore
1.000 setlinewidth
1 setlinejoin
2 setlinecap
gsave
451.7 345.6 85.22 66.53 clipbox
89.270983 363.510377 m
93.403 359.812454 l
97.521908 357.756148 l
101.638811 355.438805 l
105.798706 353.290453 l
109.976938 351.002193 l
114.160447 348.379391 l
118.374196 345.677566 l
122.716062 342.876627 l
127.001679 339.986979 l
131.513099 336.994011 l
136.128391 333.912937 l
140.885935 330.614741 l
145.960439 326.927649 l
150.966824 323.06048 l
155.862971 319.498267 l
160.87779 316.199555 l
166.017691 312.10498 l
171.37237 307.737542 l
176.840132 302.945398 l
182.488417 297.527091 l
188.437724 291.681909 l
194.584145 284.980423 l
200.961451 278.435715 l
207.623368 277.904995 l
214.26119 275.293647 l
221.182606 261.077155 l
228.771038 245.685013 l
237.589748 231.662401 l
246.635191 214.590493 l
256.523671 197.841204 l
266.790443 176.435456 l
277.635378 148.378255 l
289.321433 114.644671 l
stroke
grestore
0.500 setlinewidth
0 setlinejoin
0 setlinecap
gsave
451.7 345.6 85.22 66.53 clipbox
/o {
gsave
newpath
translate
0.5 setlinewidth
0 setlinejoin
0 setlinecap
5 -0 m
-5 5 l
-5 -5 l
cl

gsave
0.000 setgray
fill
grestore
stroke
grestore
} bind def
89.271 363.51 o
109.977 351.002 o
131.513 336.994 o
155.863 319.498 o
182.488 297.527 o
214.261 275.294 o
256.524 197.841 o
grestore
1.000 setlinewidth
2 setlinecap
gsave
85.215625 412.128125 m
536.929911 412.128125 l
stroke
grestore
gsave
536.929911 66.528125 m
536.929911 412.128125 l
stroke
grestore
gsave
85.215625 66.528125 m
536.929911 66.528125 l
stroke
grestore
gsave
85.215625 66.528125 m
85.215625 412.128125 l
stroke
grestore
0.500 setlinewidth
1 setlinejoin
0 setlinecap
gsave
/o {
gsave
newpath
translate
0.5 setlinewidth
1 setlinejoin
0 setlinecap
0 0 m
0 4 l

gsave
0.000 setgray
fill
grestore
stroke
grestore
} bind def
85.2156 66.5281 o
grestore
gsave
/o {
gsave
newpath
translate
0.5 setlinewidth
1 setlinejoin
0 setlinecap
0 0 m
0 -4 l

gsave
0.000 setgray
fill
grestore
stroke
grestore
} bind def
85.2156 412.128 o
grestore
/BitstreamVeraSans-Roman findfont
22.000 scalefont
setfont
gsave
78.215625 45.809375 translate
0.000000 rotate
0.000000 0.000000 m /zero glyphshow
grestore
gsave
/o {
gsave
newpath
translate
0.5 setlinewidth
1 setlinejoin
0 setlinecap
0 0 m
0 4 l

gsave
0.000 setgray
fill
grestore
stroke
grestore
} bind def
198.144 66.5281 o
grestore
gsave
/o {
gsave
newpath
translate
0.5 setlinewidth
1 setlinejoin
0 setlinecap
0 0 m
0 -4 l

gsave
0.000 setgray
fill
grestore
stroke
grestore
} bind def
198.144 412.128 o
grestore
gsave
177.144196 45.809375 translate
0.000000 rotate
0.000000 0.000000 m /two glyphshow
13.997070 0.000000 m /zero glyphshow
27.994141 0.000000 m /zero glyphshow
grestore
gsave
/o {
gsave
newpath
translate
0.5 setlinewidth
1 setlinejoin
0 setlinecap
0 0 m
0 4 l

gsave
0.000 setgray
fill
grestore
stroke
grestore
} bind def
311.073 66.5281 o
grestore
gsave
/o {
gsave
newpath
translate
0.5 setlinewidth
1 setlinejoin
0 setlinecap
0 0 m
0 -4 l

gsave
0.000 setgray
fill
grestore
stroke
grestore
} bind def
311.073 412.128 o
grestore
gsave
290.072768 45.809375 translate
0.000000 rotate
0.000000 0.000000 m /four glyphshow
13.997070 0.000000 m /zero glyphshow
27.994141 0.000000 m /zero glyphshow
grestore
gsave
/o {
gsave
newpath
translate
0.5 setlinewidth
1 setlinejoin
0 setlinecap
0 0 m
0 4 l

gsave
0.000 setgray
fill
grestore
stroke
grestore
} bind def
424.001 66.5281 o
grestore
gsave
/o {
gsave
newpath
translate
0.5 setlinewidth
1 setlinejoin
0 setlinecap
0 0 m
0 -4 l

gsave
0.000 setgray
fill
grestore
stroke
grestore
} bind def
424.001 412.128 o
grestore
gsave
403.001339 45.809375 translate
0.000000 rotate
0.000000 0.000000 m /six glyphshow
13.997070 0.000000 m /zero glyphshow
27.994141 0.000000 m /zero glyphshow
grestore
gsave
/o {
gsave
newpath
translate
0.5 setlinewidth
1 setlinejoin
0 setlinecap
0 0 m
0 4 l

gsave
0.000 setgray
fill
grestore
stroke
grestore
} bind def
536.93 66.5281 o
grestore
gsave
/o {
gsave
newpath
translate
0.5 setlinewidth
1 setlinejoin
0 setlinecap
0 0 m
0 -4 l

gsave
0.000 setgray
fill
grestore
stroke
grestore
} bind def
536.93 412.128 o
grestore
gsave
515.929911 45.809375 translate
0.000000 rotate
0.000000 0.000000 m /eight glyphshow
13.997070 0.000000 m /zero glyphshow
27.994141 0.000000 m /zero glyphshow
grestore
gsave
/o {
gsave
newpath
translate
0.5 setlinewidth
1 setlinejoin
0 setlinecap
0 0 m
4 0 l

gsave
0.000 setgray
fill
grestore
stroke
grestore
} bind def
85.2156 66.5281 o
grestore
gsave
/o {
gsave
newpath
translate
0.5 setlinewidth
1 setlinejoin
0 setlinecap
0 0 m
-4 0 l

gsave
0.000 setgray
fill
grestore
stroke
grestore
} bind def
536.93 66.5281 o
grestore
gsave
27.215625 55.606250 translate
0.000000 rotate
/BitstreamVeraSans-Roman findfont
22.0 scalefont
setfont
0.000000 0.090313 moveto
/one glyphshow

13.997070 0.090313 moveto
/zero glyphshow

/BitstreamVeraSans-Roman findfont
15.4 scalefont
setfont
28.802641 18.570312 moveto
/minus glyphshow

41.706156 18.570312 moveto
/six glyphshow


grestore
gsave
/o {
gsave
newpath
translate
0.5 setlinewidth
1 setlinejoin
0 setlinecap
0 0 m
4 0 l

gsave
0.000 setgray
fill
grestore
stroke
grestore
} bind def
85.2156 135.648 o
grestore
gsave
/o {
gsave
newpath
translate
0.5 setlinewidth
1 setlinejoin
0 setlinecap
0 0 m
-4 0 l

gsave
0.000 setgray
fill
grestore
stroke
grestore
} bind def
536.93 135.648 o
grestore
gsave
27.215625 124.726250 translate
0.000000 rotate
/BitstreamVeraSans-Roman findfont
22.0 scalefont
setfont
0.000000 0.298125 moveto
/one glyphshow

13.997070 0.298125 moveto
/zero glyphshow

/BitstreamVeraSans-Roman findfont
15.4 scalefont
setfont
28.802641 18.778125 moveto
/minus glyphshow

41.706156 18.778125 moveto
/four glyphshow


grestore
gsave
/o {
gsave
newpath
translate
0.5 setlinewidth
1 setlinejoin
0 setlinecap
0 0 m
4 0 l

gsave
0.000 setgray
fill
grestore
stroke
grestore
} bind def
85.2156 204.768 o
grestore
gsave
/o {
gsave
newpath
translate
0.5 setlinewidth
1 setlinejoin
0 setlinecap
0 0 m
-4 0 l

gsave
0.000 setgray
fill
grestore
stroke
grestore
} bind def
536.93 204.768 o
grestore
gsave
27.215625 193.846250 translate
0.000000 rotate
/BitstreamVeraSans-Roman findfont
22.0 scalefont
setfont
0.000000 0.090313 moveto
/one glyphshow

13.997070 0.090313 moveto
/zero glyphshow

/BitstreamVeraSans-Roman findfont
15.4 scalefont
setfont
28.802641 18.570312 moveto
/minus glyphshow

41.706156 18.570312 moveto
/two glyphshow


grestore
gsave
/o {
gsave
newpath
translate
0.5 setlinewidth
1 setlinejoin
0 setlinecap
0 0 m
4 0 l

gsave
0.000 setgray
fill
grestore
stroke
grestore
} bind def
85.2156 273.888 o
grestore
gsave
/o {
gsave
newpath
translate
0.5 setlinewidth
1 setlinejoin
0 setlinecap
0 0 m
-4 0 l

gsave
0.000 setgray
fill
grestore
stroke
grestore
} bind def
536.93 273.888 o
grestore
gsave
40.215625 262.966250 translate
0.000000 rotate
/BitstreamVeraSans-Roman findfont
22.0 scalefont
setfont
0.000000 0.090313 moveto
/one glyphshow

13.997070 0.090313 moveto
/zero glyphshow

/BitstreamVeraSans-Roman findfont
15.4 scalefont
setfont
28.802641 18.570312 moveto
/zero glyphshow


grestore
gsave
/o {
gsave
newpath
translate
0.5 setlinewidth
1 setlinejoin
0 setlinecap
0 0 m
4 0 l

gsave
0.000 setgray
fill
grestore
stroke
grestore
} bind def
85.2156 343.008 o
grestore
gsave
/o {
gsave
newpath
translate
0.5 setlinewidth
1 setlinejoin
0 setlinecap
0 0 m
-4 0 l

gsave
0.000 setgray
fill
grestore
stroke
grestore
} bind def
536.93 343.008 o
grestore
gsave
40.215625 332.086250 translate
0.000000 rotate
/BitstreamVeraSans-Roman findfont
22.0 scalefont
setfont
0.000000 0.090313 moveto
/one glyphshow

13.997070 0.090313 moveto
/zero glyphshow

/BitstreamVeraSans-Roman findfont
15.4 scalefont
setfont
28.802641 18.570312 moveto
/two glyphshow


grestore
gsave
/o {
gsave
newpath
translate
0.5 setlinewidth
1 setlinejoin
0 setlinecap
0 0 m
4 0 l

gsave
0.000 setgray
fill
grestore
stroke
grestore
} bind def
85.2156 412.128 o
grestore
gsave
/o {
gsave
newpath
translate
0.5 setlinewidth
1 setlinejoin
0 setlinecap
0 0 m
-4 0 l

gsave
0.000 setgray
fill
grestore
stroke
grestore
} bind def
536.93 412.128 o
grestore
gsave
40.215625 401.206250 translate
0.000000 rotate
/BitstreamVeraSans-Roman findfont
22.0 scalefont
setfont
0.000000 0.298125 moveto
/one glyphshow

13.997070 0.298125 moveto
/zero glyphshow

/BitstreamVeraSans-Roman findfont
15.4 scalefont
setfont
28.802641 18.778125 moveto
/four glyphshow


grestore
gsave
/o {
gsave
newpath
translate
0.5 setlinewidth
1 setlinejoin
0 setlinecap
0 0 m
2 0 l

gsave
0.000 setgray
fill
grestore
stroke
grestore
} bind def
85.2156 76.9317 o
grestore
gsave
/o {
gsave
newpath
translate
0.5 setlinewidth
1 setlinejoin
0 setlinecap
0 0 m
-2 0 l

gsave
0.000 setgray
fill
grestore
stroke
grestore
} bind def
536.93 76.9317 o
grestore
gsave
/o {
gsave
newpath
translate
0.5 setlinewidth
1 setlinejoin
0 setlinecap
0 0 m
2 0 l

gsave
0.000 setgray
fill
grestore
stroke
grestore
} bind def
85.2156 87.3353 o
grestore
gsave
/o {
gsave
newpath
translate
0.5 setlinewidth
1 setlinejoin
0 setlinecap
0 0 m
-2 0 l

gsave
0.000 setgray
fill
grestore
stroke
grestore
} bind def
536.93 87.3353 o
grestore
gsave
/o {
gsave
newpath
translate
0.5 setlinewidth
1 setlinejoin
0 setlinecap
0 0 m
2 0 l

gsave
0.000 setgray
fill
grestore
stroke
grestore
} bind def
85.2156 93.421 o
grestore
gsave
/o {
gsave
newpath
translate
0.5 setlinewidth
1 setlinejoin
0 setlinecap
0 0 m
-2 0 l

gsave
0.000 setgray
fill
grestore
stroke
grestore
} bind def
536.93 93.421 o
grestore
gsave
/o {
gsave
newpath
translate
0.5 setlinewidth
1 setlinejoin
0 setlinecap
0 0 m
2 0 l

gsave
0.000 setgray
fill
grestore
stroke
grestore
} bind def
85.2156 97.7389 o
grestore
gsave
/o {
gsave
newpath
translate
0.5 setlinewidth
1 setlinejoin
0 setlinecap
0 0 m
-2 0 l

gsave
0.000 setgray
fill
grestore
stroke
grestore
} bind def
536.93 97.7389 o
grestore
gsave
/o {
gsave
newpath
translate
0.5 setlinewidth
1 setlinejoin
0 setlinecap
0 0 m
2 0 l

gsave
0.000 setgray
fill
grestore
stroke
grestore
} bind def
85.2156 111.492 o
grestore
gsave
/o {
gsave
newpath
translate
0.5 setlinewidth
1 setlinejoin
0 setlinecap
0 0 m
-2 0 l

gsave
0.000 setgray
fill
grestore
stroke
grestore
} bind def
536.93 111.492 o
grestore
gsave
/o {
gsave
newpath
translate
0.5 setlinewidth
1 setlinejoin
0 setlinecap
0 0 m
2 0 l

gsave
0.000 setgray
fill
grestore
stroke
grestore
} bind def
85.2156 121.895 o
grestore
gsave
/o {
gsave
newpath
translate
0.5 setlinewidth
1 setlinejoin
0 setlinecap
0 0 m
-2 0 l

gsave
0.000 setgray
fill
grestore
stroke
grestore
} bind def
536.93 121.895 o
grestore
gsave
/o {
gsave
newpath
translate
0.5 setlinewidth
1 setlinejoin
0 setlinecap
0 0 m
2 0 l

gsave
0.000 setgray
fill
grestore
stroke
grestore
} bind def
85.2156 127.981 o
grestore
gsave
/o {
gsave
newpath
translate
0.5 setlinewidth
1 setlinejoin
0 setlinecap
0 0 m
-2 0 l

gsave
0.000 setgray
fill
grestore
stroke
grestore
} bind def
536.93 127.981 o
grestore
gsave
/o {
gsave
newpath
translate
0.5 setlinewidth
1 setlinejoin
0 setlinecap
0 0 m
2 0 l

gsave
0.000 setgray
fill
grestore
stroke
grestore
} bind def
85.2156 132.299 o
grestore
gsave
/o {
gsave
newpath
translate
0.5 setlinewidth
1 setlinejoin
0 setlinecap
0 0 m
-2 0 l

gsave
0.000 setgray
fill
grestore
stroke
grestore
} bind def
536.93 132.299 o
grestore
gsave
/o {
gsave
newpath
translate
0.5 setlinewidth
1 setlinejoin
0 setlinecap
0 0 m
2 0 l

gsave
0.000 setgray
fill
grestore
stroke
grestore
} bind def
85.2156 146.052 o
grestore
gsave
/o {
gsave
newpath
translate
0.5 setlinewidth
1 setlinejoin
0 setlinecap
0 0 m
-2 0 l

gsave
0.000 setgray
fill
grestore
stroke
grestore
} bind def
536.93 146.052 o
grestore
gsave
/o {
gsave
newpath
translate
0.5 setlinewidth
1 setlinejoin
0 setlinecap
0 0 m
2 0 l

gsave
0.000 setgray
fill
grestore
stroke
grestore
} bind def
85.2156 156.455 o
grestore
gsave
/o {
gsave
newpath
translate
0.5 setlinewidth
1 setlinejoin
0 setlinecap
0 0 m
-2 0 l

gsave
0.000 setgray
fill
grestore
stroke
grestore
} bind def
536.93 156.455 o
grestore
gsave
/o {
gsave
newpath
translate
0.5 setlinewidth
1 setlinejoin
0 setlinecap
0 0 m
2 0 l

gsave
0.000 setgray
fill
grestore
stroke
grestore
} bind def
85.2156 162.541 o
grestore
gsave
/o {
gsave
newpath
translate
0.5 setlinewidth
1 setlinejoin
0 setlinecap
0 0 m
-2 0 l

gsave
0.000 setgray
fill
grestore
stroke
grestore
} bind def
536.93 162.541 o
grestore
gsave
/o {
gsave
newpath
translate
0.5 setlinewidth
1 setlinejoin
0 setlinecap
0 0 m
2 0 l

gsave
0.000 setgray
fill
grestore
stroke
grestore
} bind def
85.2156 166.859 o
grestore
gsave
/o {
gsave
newpath
translate
0.5 setlinewidth
1 setlinejoin
0 setlinecap
0 0 m
-2 0 l

gsave
0.000 setgray
fill
grestore
stroke
grestore
} bind def
536.93 166.859 o
grestore
gsave
/o {
gsave
newpath
translate
0.5 setlinewidth
1 setlinejoin
0 setlinecap
0 0 m
2 0 l

gsave
0.000 setgray
fill
grestore
stroke
grestore
} bind def
85.2156 180.612 o
grestore
gsave
/o {
gsave
newpath
translate
0.5 setlinewidth
1 setlinejoin
0 setlinecap
0 0 m
-2 0 l

gsave
0.000 setgray
fill
grestore
stroke
grestore
} bind def
536.93 180.612 o
grestore
gsave
/o {
gsave
newpath
translate
0.5 setlinewidth
1 setlinejoin
0 setlinecap
0 0 m
2 0 l

gsave
0.000 setgray
fill
grestore
stroke
grestore
} bind def
85.2156 191.015 o
grestore
gsave
/o {
gsave
newpath
translate
0.5 setlinewidth
1 setlinejoin
0 setlinecap
0 0 m
-2 0 l

gsave
0.000 setgray
fill
grestore
stroke
grestore
} bind def
536.93 191.015 o
grestore
gsave
/o {
gsave
newpath
translate
0.5 setlinewidth
1 setlinejoin
0 setlinecap
0 0 m
2 0 l

gsave
0.000 setgray
fill
grestore
stroke
grestore
} bind def
85.2156 197.101 o
grestore
gsave
/o {
gsave
newpath
translate
0.5 setlinewidth
1 setlinejoin
0 setlinecap
0 0 m
-2 0 l

gsave
0.000 setgray
fill
grestore
stroke
grestore
} bind def
536.93 197.101 o
grestore
gsave
/o {
gsave
newpath
translate
0.5 setlinewidth
1 setlinejoin
0 setlinecap
0 0 m
2 0 l

gsave
0.000 setgray
fill
grestore
stroke
grestore
} bind def
85.2156 201.419 o
grestore
gsave
/o {
gsave
newpath
translate
0.5 setlinewidth
1 setlinejoin
0 setlinecap
0 0 m
-2 0 l

gsave
0.000 setgray
fill
grestore
stroke
grestore
} bind def
536.93 201.419 o
grestore
gsave
/o {
gsave
newpath
translate
0.5 setlinewidth
1 setlinejoin
0 setlinecap
0 0 m
2 0 l

gsave
0.000 setgray
fill
grestore
stroke
grestore
} bind def
85.2156 215.172 o
grestore
gsave
/o {
gsave
newpath
translate
0.5 setlinewidth
1 setlinejoin
0 setlinecap
0 0 m
-2 0 l

gsave
0.000 setgray
fill
grestore
stroke
grestore
} bind def
536.93 215.172 o
grestore
gsave
/o {
gsave
newpath
translate
0.5 setlinewidth
1 setlinejoin
0 setlinecap
0 0 m
2 0 l

gsave
0.000 setgray
fill
grestore
stroke
grestore
} bind def
85.2156 225.575 o
grestore
gsave
/o {
gsave
newpath
translate
0.5 setlinewidth
1 setlinejoin
0 setlinecap
0 0 m
-2 0 l

gsave
0.000 setgray
fill
grestore
stroke
grestore
} bind def
536.93 225.575 o
grestore
gsave
/o {
gsave
newpath
translate
0.5 setlinewidth
1 setlinejoin
0 setlinecap
0 0 m
2 0 l

gsave
0.000 setgray
fill
grestore
stroke
grestore
} bind def
85.2156 231.661 o
grestore
gsave
/o {
gsave
newpath
translate
0.5 setlinewidth
1 setlinejoin
0 setlinecap
0 0 m
-2 0 l

gsave
0.000 setgray
fill
grestore
stroke
grestore
} bind def
536.93 231.661 o
grestore
gsave
/o {
gsave
newpath
translate
0.5 setlinewidth
1 setlinejoin
0 setlinecap
0 0 m
2 0 l

gsave
0.000 setgray
fill
grestore
stroke
grestore
} bind def
85.2156 235.979 o
grestore
gsave
/o {
gsave
newpath
translate
0.5 setlinewidth
1 setlinejoin
0 setlinecap
0 0 m
-2 0 l

gsave
0.000 setgray
fill
grestore
stroke
grestore
} bind def
536.93 235.979 o
grestore
gsave
/o {
gsave
newpath
translate
0.5 setlinewidth
1 setlinejoin
0 setlinecap
0 0 m
2 0 l

gsave
0.000 setgray
fill
grestore
stroke
grestore
} bind def
85.2156 249.732 o
grestore
gsave
/o {
gsave
newpath
translate
0.5 setlinewidth
1 setlinejoin
0 setlinecap
0 0 m
-2 0 l

gsave
0.000 setgray
fill
grestore
stroke
grestore
} bind def
536.93 249.732 o
grestore
gsave
/o {
gsave
newpath
translate
0.5 setlinewidth
1 setlinejoin
0 setlinecap
0 0 m
2 0 l

gsave
0.000 setgray
fill
grestore
stroke
grestore
} bind def
85.2156 260.135 o
grestore
gsave
/o {
gsave
newpath
translate
0.5 setlinewidth
1 setlinejoin
0 setlinecap
0 0 m
-2 0 l

gsave
0.000 setgray
fill
grestore
stroke
grestore
} bind def
536.93 260.135 o
grestore
gsave
/o {
gsave
newpath
translate
0.5 setlinewidth
1 setlinejoin
0 setlinecap
0 0 m
2 0 l

gsave
0.000 setgray
fill
grestore
stroke
grestore
} bind def
85.2156 266.221 o
grestore
gsave
/o {
gsave
newpath
translate
0.5 setlinewidth
1 setlinejoin
0 setlinecap
0 0 m
-2 0 l

gsave
0.000 setgray
fill
grestore
stroke
grestore
} bind def
536.93 266.221 o
grestore
gsave
/o {
gsave
newpath
translate
0.5 setlinewidth
1 setlinejoin
0 setlinecap
0 0 m
2 0 l

gsave
0.000 setgray
fill
grestore
stroke
grestore
} bind def
85.2156 270.539 o
grestore
gsave
/o {
gsave
newpath
translate
0.5 setlinewidth
1 setlinejoin
0 setlinecap
0 0 m
-2 0 l

gsave
0.000 setgray
fill
grestore
stroke
grestore
} bind def
536.93 270.539 o
grestore
gsave
/o {
gsave
newpath
translate
0.5 setlinewidth
1 setlinejoin
0 setlinecap
0 0 m
2 0 l

gsave
0.000 setgray
fill
grestore
stroke
grestore
} bind def
85.2156 284.292 o
grestore
gsave
/o {
gsave
newpath
translate
0.5 setlinewidth
1 setlinejoin
0 setlinecap
0 0 m
-2 0 l

gsave
0.000 setgray
fill
grestore
stroke
grestore
} bind def
536.93 284.292 o
grestore
gsave
/o {
gsave
newpath
translate
0.5 setlinewidth
1 setlinejoin
0 setlinecap
0 0 m
2 0 l

gsave
0.000 setgray
fill
grestore
stroke
grestore
} bind def
85.2156 294.695 o
grestore
gsave
/o {
gsave
newpath
translate
0.5 setlinewidth
1 setlinejoin
0 setlinecap
0 0 m
-2 0 l

gsave
0.000 setgray
fill
grestore
stroke
grestore
} bind def
536.93 294.695 o
grestore
gsave
/o {
gsave
newpath
translate
0.5 setlinewidth
1 setlinejoin
0 setlinecap
0 0 m
2 0 l

gsave
0.000 setgray
fill
grestore
stroke
grestore
} bind def
85.2156 300.781 o
grestore
gsave
/o {
gsave
newpath
translate
0.5 setlinewidth
1 setlinejoin
0 setlinecap
0 0 m
-2 0 l

gsave
0.000 setgray
fill
grestore
stroke
grestore
} bind def
536.93 300.781 o
grestore
gsave
/o {
gsave
newpath
translate
0.5 setlinewidth
1 setlinejoin
0 setlinecap
0 0 m
2 0 l

gsave
0.000 setgray
fill
grestore
stroke
grestore
} bind def
85.2156 305.099 o
grestore
gsave
/o {
gsave
newpath
translate
0.5 setlinewidth
1 setlinejoin
0 setlinecap
0 0 m
-2 0 l

gsave
0.000 setgray
fill
grestore
stroke
grestore
} bind def
536.93 305.099 o
grestore
gsave
/o {
gsave
newpath
translate
0.5 setlinewidth
1 setlinejoin
0 setlinecap
0 0 m
2 0 l

gsave
0.000 setgray
fill
grestore
stroke
grestore
} bind def
85.2156 318.852 o
grestore
gsave
/o {
gsave
newpath
translate
0.5 setlinewidth
1 setlinejoin
0 setlinecap
0 0 m
-2 0 l

gsave
0.000 setgray
fill
grestore
stroke
grestore
} bind def
536.93 318.852 o
grestore
gsave
/o {
gsave
newpath
translate
0.5 setlinewidth
1 setlinejoin
0 setlinecap
0 0 m
2 0 l

gsave
0.000 setgray
fill
grestore
stroke
grestore
} bind def
85.2156 329.255 o
grestore
gsave
/o {
gsave
newpath
translate
0.5 setlinewidth
1 setlinejoin
0 setlinecap
0 0 m
-2 0 l

gsave
0.000 setgray
fill
grestore
stroke
grestore
} bind def
536.93 329.255 o
grestore
gsave
/o {
gsave
newpath
translate
0.5 setlinewidth
1 setlinejoin
0 setlinecap
0 0 m
2 0 l

gsave
0.000 setgray
fill
grestore
stroke
grestore
} bind def
85.2156 335.341 o
grestore
gsave
/o {
gsave
newpath
translate
0.5 setlinewidth
1 setlinejoin
0 setlinecap
0 0 m
-2 0 l

gsave
0.000 setgray
fill
grestore
stroke
grestore
} bind def
536.93 335.341 o
grestore
gsave
/o {
gsave
newpath
translate
0.5 setlinewidth
1 setlinejoin
0 setlinecap
0 0 m
2 0 l

gsave
0.000 setgray
fill
grestore
stroke
grestore
} bind def
85.2156 339.659 o
grestore
gsave
/o {
gsave
newpath
translate
0.5 setlinewidth
1 setlinejoin
0 setlinecap
0 0 m
-2 0 l

gsave
0.000 setgray
fill
grestore
stroke
grestore
} bind def
536.93 339.659 o
grestore
gsave
/o {
gsave
newpath
translate
0.5 setlinewidth
1 setlinejoin
0 setlinecap
0 0 m
2 0 l

gsave
0.000 setgray
fill
grestore
stroke
grestore
} bind def
85.2156 353.412 o
grestore
gsave
/o {
gsave
newpath
translate
0.5 setlinewidth
1 setlinejoin
0 setlinecap
0 0 m
-2 0 l

gsave
0.000 setgray
fill
grestore
stroke
grestore
} bind def
536.93 353.412 o
grestore
gsave
/o {
gsave
newpath
translate
0.5 setlinewidth
1 setlinejoin
0 setlinecap
0 0 m
2 0 l

gsave
0.000 setgray
fill
grestore
stroke
grestore
} bind def
85.2156 363.815 o
grestore
gsave
/o {
gsave
newpath
translate
0.5 setlinewidth
1 setlinejoin
0 setlinecap
0 0 m
-2 0 l

gsave
0.000 setgray
fill
grestore
stroke
grestore
} bind def
536.93 363.815 o
grestore
gsave
/o {
gsave
newpath
translate
0.5 setlinewidth
1 setlinejoin
0 setlinecap
0 0 m
2 0 l

gsave
0.000 setgray
fill
grestore
stroke
grestore
} bind def
85.2156 369.901 o
grestore
gsave
/o {
gsave
newpath
translate
0.5 setlinewidth
1 setlinejoin
0 setlinecap
0 0 m
-2 0 l

gsave
0.000 setgray
fill
grestore
stroke
grestore
} bind def
536.93 369.901 o
grestore
gsave
/o {
gsave
newpath
translate
0.5 setlinewidth
1 setlinejoin
0 setlinecap
0 0 m
2 0 l

gsave
0.000 setgray
fill
grestore
stroke
grestore
} bind def
85.2156 374.219 o
grestore
gsave
/o {
gsave
newpath
translate
0.5 setlinewidth
1 setlinejoin
0 setlinecap
0 0 m
-2 0 l

gsave
0.000 setgray
fill
grestore
stroke
grestore
} bind def
536.93 374.219 o
grestore
gsave
/o {
gsave
newpath
translate
0.5 setlinewidth
1 setlinejoin
0 setlinecap
0 0 m
2 0 l

gsave
0.000 setgray
fill
grestore
stroke
grestore
} bind def
85.2156 387.972 o
grestore
gsave
/o {
gsave
newpath
translate
0.5 setlinewidth
1 setlinejoin
0 setlinecap
0 0 m
-2 0 l

gsave
0.000 setgray
fill
grestore
stroke
grestore
} bind def
536.93 387.972 o
grestore
gsave
/o {
gsave
newpath
translate
0.5 setlinewidth
1 setlinejoin
0 setlinecap
0 0 m
2 0 l

gsave
0.000 setgray
fill
grestore
stroke
grestore
} bind def
85.2156 398.375 o
grestore
gsave
/o {
gsave
newpath
translate
0.5 setlinewidth
1 setlinejoin
0 setlinecap
0 0 m
-2 0 l

gsave
0.000 setgray
fill
grestore
stroke
grestore
} bind def
536.93 398.375 o
grestore
gsave
/o {
gsave
newpath
translate
0.5 setlinewidth
1 setlinejoin
0 setlinecap
0 0 m
2 0 l

gsave
0.000 setgray
fill
grestore
stroke
grestore
} bind def
85.2156 404.461 o
grestore
gsave
/o {
gsave
newpath
translate
0.5 setlinewidth
1 setlinejoin
0 setlinecap
0 0 m
-2 0 l

gsave
0.000 setgray
fill
grestore
stroke
grestore
} bind def
536.93 404.461 o
grestore
gsave
/o {
gsave
newpath
translate
0.5 setlinewidth
1 setlinejoin
0 setlinecap
0 0 m
2 0 l

gsave
0.000 setgray
fill
grestore
stroke
grestore
} bind def
85.2156 408.779 o
grestore
gsave
/o {
gsave
newpath
translate
0.5 setlinewidth
1 setlinejoin
0 setlinecap
0 0 m
-2 0 l

gsave
0.000 setgray
fill
grestore
stroke
grestore
} bind def
536.93 408.779 o
grestore
gsave
282.840625 369.901032 translate
0.000000 rotate
/STIXGeneral-Italic findfont
22.0 scalefont
setfont
0.000000 0.859375 moveto
/N glyphshow

/STIXGeneral-Italic findfont
15.4 scalefont
setfont
14.673996 -2.051562 moveto
/C glyphshow

24.945793 -2.051562 moveto
/V glyphshow

/STIXGeneral-Regular findfont
22.0 scalefont
setfont
38.502307 0.859375 moveto
/equal glyphshow

56.749115 0.859375 moveto
/two glyphshow

67.749115 0.859375 moveto
/five glyphshow

/STIXGeneral-Italic findfont
22.0 scalefont
setfont
78.749115 0.859375 moveto
/K glyphshow


grestore
gsave
582.101339 66.528125 m
1033.815625 66.528125 l
1033.815625 412.128125 l
582.101339 412.128125 l
cl
1.000 setgray
fill
grestore
1.000 setlinewidth
2 setlinecap
0.000 0.000 1.000 setrgbcolor
gsave
451.7 345.6 582.1 66.53 clipbox
588.022552 362.971595 m
593.899051 360.111736 l
599.902678 357.332703 l
605.810347 355.016198 l
611.810986 352.865965 l
617.936268 350.026523 l
624.031471 346.710902 l
629.904318 343.306549 l
635.783371 339.18482 l
641.668715 334.367661 l
647.557413 329.548178 l
653.518405 324.493187 l
659.483148 319.902374 l
665.480261 316.773521 l
671.475586 310.12888 l
677.460931 308.067005 l
683.424312 308.046683 l
689.421485 306.903879 l
695.456376 303.254707 l
701.548742 304.055812 l
707.680388 314.086655 l
714.164526 326.104822 l
720.52006 360.345065 l
727.380358 369.233297 l
734.327676 374.519513 l
741.495209 370.981988 l
749.500966 346.851676 l
757.767628 311.674657 l
767.931524 287.1425 l
779.562532 267.390499 l
791.376352 260.638379 l
807.222757 239.805852 l
827.612012 222.047744 l
848.765919 222.76685 l
869.448519 209.770486 l
887.107947 191.823477 l
907.855492 157.392679 l
928.90243 116.192472 l
949.669199 78.819555 l
stroke
grestore
0.500 setlinewidth
0 setlinecap
0.000 setgray
gsave
451.7 345.6 582.1 66.53 clipbox
/o {
gsave
newpath
translate
0.5 setlinewidth
1 setlinejoin
0 setlinecap
0 -4.5 m
1.193414 -4.5 2.338109 -4.025852 3.181981 -3.181981 c
4.025852 -2.338109 4.5 -1.193414 4.5 0 c
4.5 1.193414 4.025852 2.338109 3.181981 3.181981 c
2.338109 4.025852 1.193414 4.5 0 4.5 c
-1.193414 4.5 -2.338109 4.025852 -3.181981 3.181981 c
-4.025852 2.338109 -4.5 1.193414 -4.5 0 c
-4.5 -1.193414 -4.025852 -2.338109 -3.181981 -3.181981 c
-2.338109 -4.025852 -1.193414 -4.5 0 -4.5 c
cl

gsave
0.000 0.000 1.000 setrgbcolor
fill
grestore
stroke
grestore
} bind def
588.023 362.972 o
617.936 350.027 o
647.557 329.548 o
677.461 308.067 o
707.68 314.087 o
741.495 370.982 o
791.376 260.638 o
887.108 191.823 o
grestore
1.000 setlinewidth
2 setlinecap
0.000 0.500 0.000 setrgbcolor
gsave
451.7 345.6 582.1 66.53 clipbox
584.676026 362.970431 m
587.293759 360.110702 l
589.888397 357.336115 l
592.470408 355.018207 l
595.166529 352.866648 l
597.867568 350.02544 l
600.518725 346.70961 l
603.20305 343.306768 l
605.95218 339.183878 l
608.720362 334.366022 l
611.467147 329.545643 l
614.160381 324.484521 l
616.90073 319.798578 l
619.676098 316.166528 l
622.502653 308.841603 l
625.33402 304.266889 l
628.381858 301.051424 l
631.482182 298.693636 l
634.856167 296.996199 l
638.709461 295.193697 l
643.063647 309.485951 l
647.842971 347.915025 l
653.158201 377.816446 l
660.207574 370.110782 l
667.666417 361.323173 l
675.192218 347.318157 l
682.598892 310.113158 l
689.995182 283.850881 l
697.376787 260.744246 l
704.777881 256.86895 l
712.233236 244.54438 l
719.561623 242.909214 l
727.100563 244.19041 l
734.631674 245.217876 l
741.952238 244.71928 l
749.237419 244.057785 l
756.545676 244.463116 l
763.855806 244.892484 l
771.157664 245.177845 l
778.571401 245.374508 l
786.225261 245.601733 l
793.753672 245.739817 l
801.214903 246.270995 l
808.72079 247.175217 l
816.316375 249.592037 l
823.896675 249.929485 l
831.522549 249.95493 l
839.01861 249.950938 l
846.615343 249.727539 l
854.117124 249.698677 l
861.624373 249.652638 l
869.144295 249.567178 l
876.855568 249.601299 l
884.477691 249.605451 l
stroke
grestore
0.500 setlinewidth
0 setlinejoin
0 setlinecap
0.000 setgray
gsave
451.7 345.6 582.1 66.53 clipbox
/o {
gsave
newpath
translate
0.5 setlinewidth
0 setlinejoin
0 setlinecap
0 5 m
-5 -5 l
5 -5 l
cl

gsave
0.000 0.500 0.000 setrgbcolor
fill
grestore
stroke
grestore
} bind def
584.676 362.97 o
597.868 350.025 o
611.467 329.546 o
625.334 304.267 o
643.064 309.486 o
675.192 347.318 o
712.233 244.544 o
749.237 244.058 o
786.225 245.602 o
823.897 249.929 o
861.624 249.653 o
grestore
1.000 setlinewidth
1 setlinejoin
2 setlinecap
1.000 0.000 0.000 setrgbcolor
gsave
451.7 345.6 582.1 66.53 clipbox
584.702999 362.970937 m
587.450583 360.112696 l
590.113052 357.336884 l
592.792562 355.018382 l
595.447766 352.869052 l
598.180593 350.025256 l
600.870626 346.709448 l
603.560295 343.306735 l
606.254661 339.184913 l
608.965555 334.366914 l
611.75558 329.552948 l
614.579449 324.492578 l
617.374787 319.814769 l
620.263042 316.185457 l
623.039952 308.983852 l
625.819126 304.344447 l
628.634986 302.57529 l
631.480446 300.046987 l
634.405189 297.119529 l
637.488387 295.647504 l
640.805031 308.848079 l
644.516775 346.424771 l
648.770933 377.594674 l
653.915502 369.99355 l
660.531258 361.293156 l
668.021275 346.610688 l
675.46438 308.679677 l
682.926491 282.667908 l
690.358194 246.49343 l
698.008536 243.985102 l
705.470711 242.449853 l
713.16885 242.537223 l
720.678445 236.590855 l
728.363933 236.162149 l
736.357092 237.91101 l
744.289492 239.893365 l
751.997913 239.039753 l
759.461006 237.38434 l
766.982241 230.923487 l
775.299514 233.573723 l
784.059824 235.52704 l
792.429097 237.128042 l
800.595582 239.677564 l
808.712378 241.08587 l
816.602416 243.575905 l
824.28089 245.259776 l
831.717975 236.485796 l
839.145664 238.666784 l
846.571477 238.524119 l
853.991368 238.376369 l
861.404917 238.287538 l
868.784024 238.28809 l
876.159125 238.500567 l
883.588303 238.632711 l
stroke
grestore
0.500 setlinewidth
0 setlinejoin
0 setlinecap
0.000 setgray
gsave
451.7 345.6 582.1 66.53 clipbox
/o {
gsave
newpath
translate
0.5 setlinewidth
0 setlinejoin
0 setlinecap
-0 -5 m
5 5 l
-5 5 l
cl

gsave
1.000 0.000 0.000 setrgbcolor
fill
grestore
stroke
grestore
} bind def
584.703 362.971 o
598.181 350.025 o
611.756 329.553 o
625.819 304.344 o
640.805 308.848 o
668.021 346.611 o
705.471 242.45 o
744.289 239.893 o
784.06 235.527 o
824.281 245.26 o
861.405 238.288 o
grestore
1.000 setlinewidth
1 setlinejoin
2 setlinecap
0.000 0.750 0.750 setrgbcolor
gsave
451.7 345.6 582.1 66.53 clipbox
584.904613 362.971777 m
587.67018 360.111825 l
590.501011 357.332841 l
593.293317 355.016179 l
596.190709 352.865721 l
599.083872 350.02595 l
602.058485 346.710415 l
605.132393 343.306004 l
608.245854 339.184076 l
611.474981 334.363573 l
614.764736 329.538645 l
618.185249 324.478129 l
621.684805 319.775381 l
625.296509 316.097551 l
629.049412 308.786555 l
632.867432 304.21034 l
636.677037 300.825353 l
640.747488 298.388848 l
645.117761 296.73303 l
649.969169 295.324751 l
655.938441 308.706519 l
661.242315 346.368821 l
665.37271 377.751249 l
669.227636 369.002925 l
673.614153 362.784819 l
678.14987 346.491894 l
683.160621 309.15379 l
692.130105 282.428709 l
702.888388 241.376716 l
719.973034 228.327463 l
737.035439 218.139826 l
754.104555 203.028641 l
771.806972 190.361382 l
789.746541 159.983879 l
807.570913 155.57392 l
825.467573 155.418553 l
842.465879 155.413046 l
859.576612 155.417672 l
stroke
grestore
0.500 setlinewidth
0 setlinejoin
0 setlinecap
0.000 setgray
gsave
451.7 345.6 582.1 66.53 clipbox
/o {
gsave
newpath
translate
0.5 setlinewidth
0 setlinejoin
0 setlinecap
-4 0 m
4 -4 l
4 4 l
cl

gsave
0.000 0.750 0.750 setrgbcolor
fill
grestore
stroke
grestore
} bind def
584.905 362.972 o
596.191 352.866 o
608.246 339.184 o
621.685 319.775 o
636.677 300.825 o
655.938 308.707 o
673.614 362.785 o
702.888 241.377 o
771.807 190.361 o
842.466 155.413 o
grestore
1.000 setlinewidth
1 setlinejoin
2 setlinecap
gsave
451.7 345.6 582.1 66.53 clipbox
584.714215 362.971777 m
587.386403 360.111825 l
590.0676 357.332841 l
592.758061 355.016179 l
595.477085 352.865721 l
598.273526 350.02595 l
601.07766 346.710415 l
603.880401 343.306004 l
606.751029 339.184076 l
609.720126 334.363573 l
612.744479 329.538645 l
615.934102 324.478129 l
619.330808 319.775382 l
622.986985 316.097572 l
626.676152 308.786589 l
630.435711 304.210386 l
634.287214 300.825481 l
638.254553 298.388718 l
642.390725 296.733159 l
646.764814 295.326917 l
651.390403 308.730078 l
655.838043 346.418065 l
659.619586 377.618133 l
663.142827 370.196755 l
666.953672 362.608185 l
670.731994 348.195601 l
674.694729 312.557099 l
679.805859 279.134423 l
687.084638 240.074547 l
699.087139 228.468444 l
712.258155 214.482344 l
728.713787 200.973931 l
745.065813 188.139453 l
761.42225 153.185704 l
777.900629 123.710143 l
794.293621 90.924526 l
stroke
grestore
0.500 setlinewidth
0 setlinejoin
0 setlinecap
gsave
451.7 345.6 582.1 66.53 clipbox
/o {
gsave
newpath
translate
0.5 setlinewidth
0 setlinejoin
0 setlinecap
5 -0 m
-5 5 l
-5 -5 l
cl

gsave
0.000 setgray
fill
grestore
stroke
grestore
} bind def
584.714 362.972 o
598.274 350.026 o
612.744 329.539 o
630.436 304.21 o
651.39 308.73 o
670.732 348.196 o
712.258 214.482 o
794.294 90.9245 o
grestore
1.000 setlinewidth
2 setlinecap
gsave
582.101339 412.128125 m
1033.815625 412.128125 l
stroke
grestore
gsave
1033.815625 66.528125 m
1033.815625 412.128125 l
stroke
grestore
gsave
582.101339 66.528125 m
1033.815625 66.528125 l
stroke
grestore
gsave
582.101339 66.528125 m
582.101339 412.128125 l
stroke
grestore
0.500 setlinewidth
1 setlinejoin
0 setlinecap
gsave
/o {
gsave
newpath
translate
0.5 setlinewidth
1 setlinejoin
0 setlinecap
0 0 m
0 4 l

gsave
0.000 setgray
fill
grestore
stroke
grestore
} bind def
582.101 66.5281 o
grestore
gsave
/o {
gsave
newpath
translate
0.5 setlinewidth
1 setlinejoin
0 setlinecap
0 0 m
0 -4 l

gsave
0.000 setgray
fill
grestore
stroke
grestore
} bind def
582.101 412.128 o
grestore
gsave
575.101339 45.809375 translate
0.000000 rotate
0.000000 0.000000 m /zero glyphshow
grestore
gsave
/o {
gsave
newpath
translate
0.5 setlinewidth
1 setlinejoin
0 setlinecap
0 0 m
0 4 l

gsave
0.000 setgray
fill
grestore
stroke
grestore
} bind def
672.444 66.5281 o
grestore
gsave
/o {
gsave
newpath
translate
0.5 setlinewidth
1 setlinejoin
0 setlinecap
0 0 m
0 -4 l

gsave
0.000 setgray
fill
grestore
stroke
grestore
} bind def
672.444 412.128 o
grestore
gsave
644.444196 45.809375 translate
0.000000 rotate
0.000000 0.000000 m /one glyphshow
13.997070 0.000000 m /zero glyphshow
27.994141 0.000000 m /zero glyphshow
41.991211 0.000000 m /zero glyphshow
grestore
gsave
/o {
gsave
newpath
translate
0.5 setlinewidth
1 setlinejoin
0 setlinecap
0 0 m
0 4 l

gsave
0.000 setgray
fill
grestore
stroke
grestore
} bind def
762.787 66.5281 o
grestore
gsave
/o {
gsave
newpath
translate
0.5 setlinewidth
1 setlinejoin
0 setlinecap
0 0 m
0 -4 l

gsave
0.000 setgray
fill
grestore
stroke
grestore
} bind def
762.787 412.128 o
grestore
gsave
734.787054 45.809375 translate
0.000000 rotate
0.000000 0.000000 m /two glyphshow
13.997070 0.000000 m /zero glyphshow
27.994141 0.000000 m /zero glyphshow
41.991211 0.000000 m /zero glyphshow
grestore
gsave
/o {
gsave
newpath
translate
0.5 setlinewidth
1 setlinejoin
0 setlinecap
0 0 m
0 4 l

gsave
0.000 setgray
fill
grestore
stroke
grestore
} bind def
853.13 66.5281 o
grestore
gsave
/o {
gsave
newpath
translate
0.5 setlinewidth
1 setlinejoin
0 setlinecap
0 0 m
0 -4 l

gsave
0.000 setgray
fill
grestore
stroke
grestore
} bind def
853.13 412.128 o
grestore
gsave
825.129911 45.809375 translate
0.000000 rotate
0.000000 0.000000 m /three glyphshow
13.997070 0.000000 m /zero glyphshow
27.994141 0.000000 m /zero glyphshow
41.991211 0.000000 m /zero glyphshow
grestore
gsave
/o {
gsave
newpath
translate
0.5 setlinewidth
1 setlinejoin
0 setlinecap
0 0 m
0 4 l

gsave
0.000 setgray
fill
grestore
stroke
grestore
} bind def
943.473 66.5281 o
grestore
gsave
/o {
gsave
newpath
translate
0.5 setlinewidth
1 setlinejoin
0 setlinecap
0 0 m
0 -4 l

gsave
0.000 setgray
fill
grestore
stroke
grestore
} bind def
943.473 412.128 o
grestore
gsave
915.472768 45.809375 translate
0.000000 rotate
0.000000 0.000000 m /four glyphshow
13.997070 0.000000 m /zero glyphshow
27.994141 0.000000 m /zero glyphshow
41.991211 0.000000 m /zero glyphshow
grestore
gsave
/o {
gsave
newpath
translate
0.5 setlinewidth
1 setlinejoin
0 setlinecap
0 0 m
0 4 l

gsave
0.000 setgray
fill
grestore
stroke
grestore
} bind def
1033.82 66.5281 o
grestore
gsave
/o {
gsave
newpath
translate
0.5 setlinewidth
1 setlinejoin
0 setlinecap
0 0 m
0 -4 l

gsave
0.000 setgray
fill
grestore
stroke
grestore
} bind def
1033.82 412.128 o
grestore
gsave
1005.815625 45.809375 translate
0.000000 rotate
0.000000 0.000000 m /five glyphshow
13.997070 0.000000 m /zero glyphshow
27.994141 0.000000 m /zero glyphshow
41.991211 0.000000 m /zero glyphshow
grestore
gsave
/o {
gsave
newpath
translate
0.5 setlinewidth
1 setlinejoin
0 setlinecap
0 0 m
4 0 l

gsave
0.000 setgray
fill
grestore
stroke
grestore
} bind def
582.101 66.5281 o
grestore
gsave
/o {
gsave
newpath
translate
0.5 setlinewidth
1 setlinejoin
0 setlinecap
0 0 m
-4 0 l

gsave
0.000 setgray
fill
grestore
stroke
grestore
} bind def
1033.82 66.5281 o
grestore
gsave
/o {
gsave
newpath
translate
0.5 setlinewidth
1 setlinejoin
0 setlinecap
0 0 m
4 0 l

gsave
0.000 setgray
fill
grestore
stroke
grestore
} bind def
582.101 135.648 o
grestore
gsave
/o {
gsave
newpath
translate
0.5 setlinewidth
1 setlinejoin
0 setlinecap
0 0 m
-4 0 l

gsave
0.000 setgray
fill
grestore
stroke
grestore
} bind def
1033.82 135.648 o
grestore
gsave
/o {
gsave
newpath
translate
0.5 setlinewidth
1 setlinejoin
0 setlinecap
0 0 m
4 0 l

gsave
0.000 setgray
fill
grestore
stroke
grestore
} bind def
582.101 204.768 o
grestore
gsave
/o {
gsave
newpath
translate
0.5 setlinewidth
1 setlinejoin
0 setlinecap
0 0 m
-4 0 l

gsave
0.000 setgray
fill
grestore
stroke
grestore
} bind def
1033.82 204.768 o
grestore
gsave
/o {
gsave
newpath
translate
0.5 setlinewidth
1 setlinejoin
0 setlinecap
0 0 m
4 0 l

gsave
0.000 setgray
fill
grestore
stroke
grestore
} bind def
582.101 273.888 o
grestore
gsave
/o {
gsave
newpath
translate
0.5 setlinewidth
1 setlinejoin
0 setlinecap
0 0 m
-4 0 l

gsave
0.000 setgray
fill
grestore
stroke
grestore
} bind def
1033.82 273.888 o
grestore
gsave
/o {
gsave
newpath
translate
0.5 setlinewidth
1 setlinejoin
0 setlinecap
0 0 m
4 0 l

gsave
0.000 setgray
fill
grestore
stroke
grestore
} bind def
582.101 343.008 o
grestore
gsave
/o {
gsave
newpath
translate
0.5 setlinewidth
1 setlinejoin
0 setlinecap
0 0 m
-4 0 l

gsave
0.000 setgray
fill
grestore
stroke
grestore
} bind def
1033.82 343.008 o
grestore
gsave
/o {
gsave
newpath
translate
0.5 setlinewidth
1 setlinejoin
0 setlinecap
0 0 m
4 0 l

gsave
0.000 setgray
fill
grestore
stroke
grestore
} bind def
582.101 412.128 o
grestore
gsave
/o {
gsave
newpath
translate
0.5 setlinewidth
1 setlinejoin
0 setlinecap
0 0 m
-4 0 l

gsave
0.000 setgray
fill
grestore
stroke
grestore
} bind def
1033.82 412.128 o
grestore
gsave
/o {
gsave
newpath
translate
0.5 setlinewidth
1 setlinejoin
0 setlinecap
0 0 m
2 0 l

gsave
0.000 setgray
fill
grestore
stroke
grestore
} bind def
582.101 76.9317 o
grestore
gsave
/o {
gsave
newpath
translate
0.5 setlinewidth
1 setlinejoin
0 setlinecap
0 0 m
-2 0 l

gsave
0.000 setgray
fill
grestore
stroke
grestore
} bind def
1033.82 76.9317 o
grestore
gsave
/o {
gsave
newpath
translate
0.5 setlinewidth
1 setlinejoin
0 setlinecap
0 0 m
2 0 l

gsave
0.000 setgray
fill
grestore
stroke
grestore
} bind def
582.101 87.3353 o
grestore
gsave
/o {
gsave
newpath
translate
0.5 setlinewidth
1 setlinejoin
0 setlinecap
0 0 m
-2 0 l

gsave
0.000 setgray
fill
grestore
stroke
grestore
} bind def
1033.82 87.3353 o
grestore
gsave
/o {
gsave
newpath
translate
0.5 setlinewidth
1 setlinejoin
0 setlinecap
0 0 m
2 0 l

gsave
0.000 setgray
fill
grestore
stroke
grestore
} bind def
582.101 93.421 o
grestore
gsave
/o {
gsave
newpath
translate
0.5 setlinewidth
1 setlinejoin
0 setlinecap
0 0 m
-2 0 l

gsave
0.000 setgray
fill
grestore
stroke
grestore
} bind def
1033.82 93.421 o
grestore
gsave
/o {
gsave
newpath
translate
0.5 setlinewidth
1 setlinejoin
0 setlinecap
0 0 m
2 0 l

gsave
0.000 setgray
fill
grestore
stroke
grestore
} bind def
582.101 97.7389 o
grestore
gsave
/o {
gsave
newpath
translate
0.5 setlinewidth
1 setlinejoin
0 setlinecap
0 0 m
-2 0 l

gsave
0.000 setgray
fill
grestore
stroke
grestore
} bind def
1033.82 97.7389 o
grestore
gsave
/o {
gsave
newpath
translate
0.5 setlinewidth
1 setlinejoin
0 setlinecap
0 0 m
2 0 l

gsave
0.000 setgray
fill
grestore
stroke
grestore
} bind def
582.101 111.492 o
grestore
gsave
/o {
gsave
newpath
translate
0.5 setlinewidth
1 setlinejoin
0 setlinecap
0 0 m
-2 0 l

gsave
0.000 setgray
fill
grestore
stroke
grestore
} bind def
1033.82 111.492 o
grestore
gsave
/o {
gsave
newpath
translate
0.5 setlinewidth
1 setlinejoin
0 setlinecap
0 0 m
2 0 l

gsave
0.000 setgray
fill
grestore
stroke
grestore
} bind def
582.101 121.895 o
grestore
gsave
/o {
gsave
newpath
translate
0.5 setlinewidth
1 setlinejoin
0 setlinecap
0 0 m
-2 0 l

gsave
0.000 setgray
fill
grestore
stroke
grestore
} bind def
1033.82 121.895 o
grestore
gsave
/o {
gsave
newpath
translate
0.5 setlinewidth
1 setlinejoin
0 setlinecap
0 0 m
2 0 l

gsave
0.000 setgray
fill
grestore
stroke
grestore
} bind def
582.101 127.981 o
grestore
gsave
/o {
gsave
newpath
translate
0.5 setlinewidth
1 setlinejoin
0 setlinecap
0 0 m
-2 0 l

gsave
0.000 setgray
fill
grestore
stroke
grestore
} bind def
1033.82 127.981 o
grestore
gsave
/o {
gsave
newpath
translate
0.5 setlinewidth
1 setlinejoin
0 setlinecap
0 0 m
2 0 l

gsave
0.000 setgray
fill
grestore
stroke
grestore
} bind def
582.101 132.299 o
grestore
gsave
/o {
gsave
newpath
translate
0.5 setlinewidth
1 setlinejoin
0 setlinecap
0 0 m
-2 0 l

gsave
0.000 setgray
fill
grestore
stroke
grestore
} bind def
1033.82 132.299 o
grestore
gsave
/o {
gsave
newpath
translate
0.5 setlinewidth
1 setlinejoin
0 setlinecap
0 0 m
2 0 l

gsave
0.000 setgray
fill
grestore
stroke
grestore
} bind def
582.101 146.052 o
grestore
gsave
/o {
gsave
newpath
translate
0.5 setlinewidth
1 setlinejoin
0 setlinecap
0 0 m
-2 0 l

gsave
0.000 setgray
fill
grestore
stroke
grestore
} bind def
1033.82 146.052 o
grestore
gsave
/o {
gsave
newpath
translate
0.5 setlinewidth
1 setlinejoin
0 setlinecap
0 0 m
2 0 l

gsave
0.000 setgray
fill
grestore
stroke
grestore
} bind def
582.101 156.455 o
grestore
gsave
/o {
gsave
newpath
translate
0.5 setlinewidth
1 setlinejoin
0 setlinecap
0 0 m
-2 0 l

gsave
0.000 setgray
fill
grestore
stroke
grestore
} bind def
1033.82 156.455 o
grestore
gsave
/o {
gsave
newpath
translate
0.5 setlinewidth
1 setlinejoin
0 setlinecap
0 0 m
2 0 l

gsave
0.000 setgray
fill
grestore
stroke
grestore
} bind def
582.101 162.541 o
grestore
gsave
/o {
gsave
newpath
translate
0.5 setlinewidth
1 setlinejoin
0 setlinecap
0 0 m
-2 0 l

gsave
0.000 setgray
fill
grestore
stroke
grestore
} bind def
1033.82 162.541 o
grestore
gsave
/o {
gsave
newpath
translate
0.5 setlinewidth
1 setlinejoin
0 setlinecap
0 0 m
2 0 l

gsave
0.000 setgray
fill
grestore
stroke
grestore
} bind def
582.101 166.859 o
grestore
gsave
/o {
gsave
newpath
translate
0.5 setlinewidth
1 setlinejoin
0 setlinecap
0 0 m
-2 0 l

gsave
0.000 setgray
fill
grestore
stroke
grestore
} bind def
1033.82 166.859 o
grestore
gsave
/o {
gsave
newpath
translate
0.5 setlinewidth
1 setlinejoin
0 setlinecap
0 0 m
2 0 l

gsave
0.000 setgray
fill
grestore
stroke
grestore
} bind def
582.101 180.612 o
grestore
gsave
/o {
gsave
newpath
translate
0.5 setlinewidth
1 setlinejoin
0 setlinecap
0 0 m
-2 0 l

gsave
0.000 setgray
fill
grestore
stroke
grestore
} bind def
1033.82 180.612 o
grestore
gsave
/o {
gsave
newpath
translate
0.5 setlinewidth
1 setlinejoin
0 setlinecap
0 0 m
2 0 l

gsave
0.000 setgray
fill
grestore
stroke
grestore
} bind def
582.101 191.015 o
grestore
gsave
/o {
gsave
newpath
translate
0.5 setlinewidth
1 setlinejoin
0 setlinecap
0 0 m
-2 0 l

gsave
0.000 setgray
fill
grestore
stroke
grestore
} bind def
1033.82 191.015 o
grestore
gsave
/o {
gsave
newpath
translate
0.5 setlinewidth
1 setlinejoin
0 setlinecap
0 0 m
2 0 l

gsave
0.000 setgray
fill
grestore
stroke
grestore
} bind def
582.101 197.101 o
grestore
gsave
/o {
gsave
newpath
translate
0.5 setlinewidth
1 setlinejoin
0 setlinecap
0 0 m
-2 0 l

gsave
0.000 setgray
fill
grestore
stroke
grestore
} bind def
1033.82 197.101 o
grestore
gsave
/o {
gsave
newpath
translate
0.5 setlinewidth
1 setlinejoin
0 setlinecap
0 0 m
2 0 l

gsave
0.000 setgray
fill
grestore
stroke
grestore
} bind def
582.101 201.419 o
grestore
gsave
/o {
gsave
newpath
translate
0.5 setlinewidth
1 setlinejoin
0 setlinecap
0 0 m
-2 0 l

gsave
0.000 setgray
fill
grestore
stroke
grestore
} bind def
1033.82 201.419 o
grestore
gsave
/o {
gsave
newpath
translate
0.5 setlinewidth
1 setlinejoin
0 setlinecap
0 0 m
2 0 l

gsave
0.000 setgray
fill
grestore
stroke
grestore
} bind def
582.101 215.172 o
grestore
gsave
/o {
gsave
newpath
translate
0.5 setlinewidth
1 setlinejoin
0 setlinecap
0 0 m
-2 0 l

gsave
0.000 setgray
fill
grestore
stroke
grestore
} bind def
1033.82 215.172 o
grestore
gsave
/o {
gsave
newpath
translate
0.5 setlinewidth
1 setlinejoin
0 setlinecap
0 0 m
2 0 l

gsave
0.000 setgray
fill
grestore
stroke
grestore
} bind def
582.101 225.575 o
grestore
gsave
/o {
gsave
newpath
translate
0.5 setlinewidth
1 setlinejoin
0 setlinecap
0 0 m
-2 0 l

gsave
0.000 setgray
fill
grestore
stroke
grestore
} bind def
1033.82 225.575 o
grestore
gsave
/o {
gsave
newpath
translate
0.5 setlinewidth
1 setlinejoin
0 setlinecap
0 0 m
2 0 l

gsave
0.000 setgray
fill
grestore
stroke
grestore
} bind def
582.101 231.661 o
grestore
gsave
/o {
gsave
newpath
translate
0.5 setlinewidth
1 setlinejoin
0 setlinecap
0 0 m
-2 0 l

gsave
0.000 setgray
fill
grestore
stroke
grestore
} bind def
1033.82 231.661 o
grestore
gsave
/o {
gsave
newpath
translate
0.5 setlinewidth
1 setlinejoin
0 setlinecap
0 0 m
2 0 l

gsave
0.000 setgray
fill
grestore
stroke
grestore
} bind def
582.101 235.979 o
grestore
gsave
/o {
gsave
newpath
translate
0.5 setlinewidth
1 setlinejoin
0 setlinecap
0 0 m
-2 0 l

gsave
0.000 setgray
fill
grestore
stroke
grestore
} bind def
1033.82 235.979 o
grestore
gsave
/o {
gsave
newpath
translate
0.5 setlinewidth
1 setlinejoin
0 setlinecap
0 0 m
2 0 l

gsave
0.000 setgray
fill
grestore
stroke
grestore
} bind def
582.101 249.732 o
grestore
gsave
/o {
gsave
newpath
translate
0.5 setlinewidth
1 setlinejoin
0 setlinecap
0 0 m
-2 0 l

gsave
0.000 setgray
fill
grestore
stroke
grestore
} bind def
1033.82 249.732 o
grestore
gsave
/o {
gsave
newpath
translate
0.5 setlinewidth
1 setlinejoin
0 setlinecap
0 0 m
2 0 l

gsave
0.000 setgray
fill
grestore
stroke
grestore
} bind def
582.101 260.135 o
grestore
gsave
/o {
gsave
newpath
translate
0.5 setlinewidth
1 setlinejoin
0 setlinecap
0 0 m
-2 0 l

gsave
0.000 setgray
fill
grestore
stroke
grestore
} bind def
1033.82 260.135 o
grestore
gsave
/o {
gsave
newpath
translate
0.5 setlinewidth
1 setlinejoin
0 setlinecap
0 0 m
2 0 l

gsave
0.000 setgray
fill
grestore
stroke
grestore
} bind def
582.101 266.221 o
grestore
gsave
/o {
gsave
newpath
translate
0.5 setlinewidth
1 setlinejoin
0 setlinecap
0 0 m
-2 0 l

gsave
0.000 setgray
fill
grestore
stroke
grestore
} bind def
1033.82 266.221 o
grestore
gsave
/o {
gsave
newpath
translate
0.5 setlinewidth
1 setlinejoin
0 setlinecap
0 0 m
2 0 l

gsave
0.000 setgray
fill
grestore
stroke
grestore
} bind def
582.101 270.539 o
grestore
gsave
/o {
gsave
newpath
translate
0.5 setlinewidth
1 setlinejoin
0 setlinecap
0 0 m
-2 0 l

gsave
0.000 setgray
fill
grestore
stroke
grestore
} bind def
1033.82 270.539 o
grestore
gsave
/o {
gsave
newpath
translate
0.5 setlinewidth
1 setlinejoin
0 setlinecap
0 0 m
2 0 l

gsave
0.000 setgray
fill
grestore
stroke
grestore
} bind def
582.101 284.292 o
grestore
gsave
/o {
gsave
newpath
translate
0.5 setlinewidth
1 setlinejoin
0 setlinecap
0 0 m
-2 0 l

gsave
0.000 setgray
fill
grestore
stroke
grestore
} bind def
1033.82 284.292 o
grestore
gsave
/o {
gsave
newpath
translate
0.5 setlinewidth
1 setlinejoin
0 setlinecap
0 0 m
2 0 l

gsave
0.000 setgray
fill
grestore
stroke
grestore
} bind def
582.101 294.695 o
grestore
gsave
/o {
gsave
newpath
translate
0.5 setlinewidth
1 setlinejoin
0 setlinecap
0 0 m
-2 0 l

gsave
0.000 setgray
fill
grestore
stroke
grestore
} bind def
1033.82 294.695 o
grestore
gsave
/o {
gsave
newpath
translate
0.5 setlinewidth
1 setlinejoin
0 setlinecap
0 0 m
2 0 l

gsave
0.000 setgray
fill
grestore
stroke
grestore
} bind def
582.101 300.781 o
grestore
gsave
/o {
gsave
newpath
translate
0.5 setlinewidth
1 setlinejoin
0 setlinecap
0 0 m
-2 0 l

gsave
0.000 setgray
fill
grestore
stroke
grestore
} bind def
1033.82 300.781 o
grestore
gsave
/o {
gsave
newpath
translate
0.5 setlinewidth
1 setlinejoin
0 setlinecap
0 0 m
2 0 l

gsave
0.000 setgray
fill
grestore
stroke
grestore
} bind def
582.101 305.099 o
grestore
gsave
/o {
gsave
newpath
translate
0.5 setlinewidth
1 setlinejoin
0 setlinecap
0 0 m
-2 0 l

gsave
0.000 setgray
fill
grestore
stroke
grestore
} bind def
1033.82 305.099 o
grestore
gsave
/o {
gsave
newpath
translate
0.5 setlinewidth
1 setlinejoin
0 setlinecap
0 0 m
2 0 l

gsave
0.000 setgray
fill
grestore
stroke
grestore
} bind def
582.101 318.852 o
grestore
gsave
/o {
gsave
newpath
translate
0.5 setlinewidth
1 setlinejoin
0 setlinecap
0 0 m
-2 0 l

gsave
0.000 setgray
fill
grestore
stroke
grestore
} bind def
1033.82 318.852 o
grestore
gsave
/o {
gsave
newpath
translate
0.5 setlinewidth
1 setlinejoin
0 setlinecap
0 0 m
2 0 l

gsave
0.000 setgray
fill
grestore
stroke
grestore
} bind def
582.101 329.255 o
grestore
gsave
/o {
gsave
newpath
translate
0.5 setlinewidth
1 setlinejoin
0 setlinecap
0 0 m
-2 0 l

gsave
0.000 setgray
fill
grestore
stroke
grestore
} bind def
1033.82 329.255 o
grestore
gsave
/o {
gsave
newpath
translate
0.5 setlinewidth
1 setlinejoin
0 setlinecap
0 0 m
2 0 l

gsave
0.000 setgray
fill
grestore
stroke
grestore
} bind def
582.101 335.341 o
grestore
gsave
/o {
gsave
newpath
translate
0.5 setlinewidth
1 setlinejoin
0 setlinecap
0 0 m
-2 0 l

gsave
0.000 setgray
fill
grestore
stroke
grestore
} bind def
1033.82 335.341 o
grestore
gsave
/o {
gsave
newpath
translate
0.5 setlinewidth
1 setlinejoin
0 setlinecap
0 0 m
2 0 l

gsave
0.000 setgray
fill
grestore
stroke
grestore
} bind def
582.101 339.659 o
grestore
gsave
/o {
gsave
newpath
translate
0.5 setlinewidth
1 setlinejoin
0 setlinecap
0 0 m
-2 0 l

gsave
0.000 setgray
fill
grestore
stroke
grestore
} bind def
1033.82 339.659 o
grestore
gsave
/o {
gsave
newpath
translate
0.5 setlinewidth
1 setlinejoin
0 setlinecap
0 0 m
2 0 l

gsave
0.000 setgray
fill
grestore
stroke
grestore
} bind def
582.101 353.412 o
grestore
gsave
/o {
gsave
newpath
translate
0.5 setlinewidth
1 setlinejoin
0 setlinecap
0 0 m
-2 0 l

gsave
0.000 setgray
fill
grestore
stroke
grestore
} bind def
1033.82 353.412 o
grestore
gsave
/o {
gsave
newpath
translate
0.5 setlinewidth
1 setlinejoin
0 setlinecap
0 0 m
2 0 l

gsave
0.000 setgray
fill
grestore
stroke
grestore
} bind def
582.101 363.815 o
grestore
gsave
/o {
gsave
newpath
translate
0.5 setlinewidth
1 setlinejoin
0 setlinecap
0 0 m
-2 0 l

gsave
0.000 setgray
fill
grestore
stroke
grestore
} bind def
1033.82 363.815 o
grestore
gsave
/o {
gsave
newpath
translate
0.5 setlinewidth
1 setlinejoin
0 setlinecap
0 0 m
2 0 l

gsave
0.000 setgray
fill
grestore
stroke
grestore
} bind def
582.101 369.901 o
grestore
gsave
/o {
gsave
newpath
translate
0.5 setlinewidth
1 setlinejoin
0 setlinecap
0 0 m
-2 0 l

gsave
0.000 setgray
fill
grestore
stroke
grestore
} bind def
1033.82 369.901 o
grestore
gsave
/o {
gsave
newpath
translate
0.5 setlinewidth
1 setlinejoin
0 setlinecap
0 0 m
2 0 l

gsave
0.000 setgray
fill
grestore
stroke
grestore
} bind def
582.101 374.219 o
grestore
gsave
/o {
gsave
newpath
translate
0.5 setlinewidth
1 setlinejoin
0 setlinecap
0 0 m
-2 0 l

gsave
0.000 setgray
fill
grestore
stroke
grestore
} bind def
1033.82 374.219 o
grestore
gsave
/o {
gsave
newpath
translate
0.5 setlinewidth
1 setlinejoin
0 setlinecap
0 0 m
2 0 l

gsave
0.000 setgray
fill
grestore
stroke
grestore
} bind def
582.101 387.972 o
grestore
gsave
/o {
gsave
newpath
translate
0.5 setlinewidth
1 setlinejoin
0 setlinecap
0 0 m
-2 0 l

gsave
0.000 setgray
fill
grestore
stroke
grestore
} bind def
1033.82 387.972 o
grestore
gsave
/o {
gsave
newpath
translate
0.5 setlinewidth
1 setlinejoin
0 setlinecap
0 0 m
2 0 l

gsave
0.000 setgray
fill
grestore
stroke
grestore
} bind def
582.101 398.375 o
grestore
gsave
/o {
gsave
newpath
translate
0.5 setlinewidth
1 setlinejoin
0 setlinecap
0 0 m
-2 0 l

gsave
0.000 setgray
fill
grestore
stroke
grestore
} bind def
1033.82 398.375 o
grestore
gsave
/o {
gsave
newpath
translate
0.5 setlinewidth
1 setlinejoin
0 setlinecap
0 0 m
2 0 l

gsave
0.000 setgray
fill
grestore
stroke
grestore
} bind def
582.101 404.461 o
grestore
gsave
/o {
gsave
newpath
translate
0.5 setlinewidth
1 setlinejoin
0 setlinecap
0 0 m
-2 0 l

gsave
0.000 setgray
fill
grestore
stroke
grestore
} bind def
1033.82 404.461 o
grestore
gsave
/o {
gsave
newpath
translate
0.5 setlinewidth
1 setlinejoin
0 setlinecap
0 0 m
2 0 l

gsave
0.000 setgray
fill
grestore
stroke
grestore
} bind def
582.101 408.779 o
grestore
gsave
/o {
gsave
newpath
translate
0.5 setlinewidth
1 setlinejoin
0 setlinecap
0 0 m
-2 0 l

gsave
0.000 setgray
fill
grestore
stroke
grestore
} bind def
1033.82 408.779 o
grestore
gsave
807.958482 369.901032 translate
0.000000 rotate
/STIXGeneral-Italic findfont
22.0 scalefont
setfont
0.000000 0.125000 moveto
/N glyphshow

/STIXGeneral-Italic findfont
15.4 scalefont
setfont
14.673996 -2.785937 moveto
/C glyphshow

24.945793 -2.785937 moveto
/V glyphshow

/STIXGeneral-Regular findfont
22.0 scalefont
setfont
38.502307 0.125000 moveto
/equal glyphshow

56.749115 0.125000 moveto
/one glyphshow

67.749115 0.125000 moveto
/zero glyphshow

78.749115 0.125000 moveto
/zero glyphshow

/STIXGeneral-Italic findfont
22.0 scalefont
setfont
89.749115 0.125000 moveto
/K glyphshow


grestore
1.000 setlinewidth
0 setlinejoin
gsave
969.134554 296.87375 m
1071.787054 296.87375 l
1071.787054 404.928125 l
969.134554 404.928125 l
cl
gsave
1.000 setgray
fill
grestore
stroke
grestore
1 setlinejoin
2 setlinecap
0.000 0.000 1.000 setrgbcolor
gsave
979.214554 393.5675 m
999.374554 393.5675 l
stroke
grestore
0.500 setlinewidth
0 setlinecap
0.000 setgray
gsave
/o {
gsave
newpath
translate
0.5 setlinewidth
1 setlinejoin
0 setlinecap
0 -4.5 m
1.193414 -4.5 2.338109 -4.025852 3.181981 -3.181981 c
4.025852 -2.338109 4.5 -1.193414 4.5 0 c
4.5 1.193414 4.025852 2.338109 3.181981 3.181981 c
2.338109 4.025852 1.193414 4.5 0 4.5 c
-1.193414 4.5 -2.338109 4.025852 -3.181981 3.181981 c
-4.025852 2.338109 -4.5 1.193414 -4.5 0 c
-4.5 -1.193414 -4.025852 -2.338109 -3.181981 -3.181981 c
-2.338109 -4.025852 -1.193414 -4.5 0 -4.5 c
cl

gsave
0.000 0.000 1.000 setrgbcolor
fill
grestore
stroke
grestore
} bind def
979.215 393.568 o
999.375 393.568 o
grestore
/BitstreamVeraSans-Roman findfont
14.400 scalefont
setfont
gsave
1015.214554 388.527500 translate
0.000000 rotate
0.000000 0.000000 m /C glyphshow
10.037231 0.000000 m /a glyphshow
18.846130 0.000000 m /s glyphshow
26.335449 0.000000 m /e glyphshow
35.179443 0.000000 m /space glyphshow
39.748840 0.000000 m /A glyphshow
grestore
1.000 setlinewidth
2 setlinecap
0.000 0.500 0.000 setrgbcolor
gsave
979.214554 372.820625 m
999.374554 372.820625 l
stroke
grestore
0.500 setlinewidth
0 setlinejoin
0 setlinecap
0.000 setgray
gsave
/o {
gsave
newpath
translate
0.5 setlinewidth
0 setlinejoin
0 setlinecap
0 5 m
-5 -5 l
5 -5 l
cl

gsave
0.000 0.500 0.000 setrgbcolor
fill
grestore
stroke
grestore
} bind def
979.215 372.821 o
999.375 372.821 o
grestore
gsave
1015.214554 367.780625 translate
0.000000 rotate
0.000000 0.000000 m /C glyphshow
10.037231 0.000000 m /a glyphshow
18.846130 0.000000 m /s glyphshow
26.335449 0.000000 m /e glyphshow
35.179443 0.000000 m /space glyphshow
39.748840 0.000000 m /B glyphshow
grestore
1.000 setlinewidth
1 setlinejoin
2 setlinecap
1.000 0.000 0.000 setrgbcolor
gsave
979.214554 352.07375 m
999.374554 352.07375 l
stroke
grestore
0.500 setlinewidth
0 setlinejoin
0 setlinecap
0.000 setgray
gsave
/o {
gsave
newpath
translate
0.5 setlinewidth
0 setlinejoin
0 setlinecap
-0 -5 m
5 5 l
-5 5 l
cl

gsave
1.000 0.000 0.000 setrgbcolor
fill
grestore
stroke
grestore
} bind def
979.215 352.074 o
999.375 352.074 o
grestore
gsave
1015.214554 347.033750 translate
0.000000 rotate
0.000000 0.000000 m /C glyphshow
10.037231 0.000000 m /a glyphshow
18.846130 0.000000 m /s glyphshow
26.335449 0.000000 m /e glyphshow
35.179443 0.000000 m /space glyphshow
39.748840 0.000000 m /C glyphshow
grestore
1.000 setlinewidth
1 setlinejoin
2 setlinecap
0.000 0.750 0.750 setrgbcolor
gsave
979.214554 331.326875 m
999.374554 331.326875 l
stroke
grestore
0.500 setlinewidth
0 setlinejoin
0 setlinecap
0.000 setgray
gsave
/o {
gsave
newpath
translate
0.5 setlinewidth
0 setlinejoin
0 setlinecap
-4 0 m
4 -4 l
4 4 l
cl

gsave
0.000 0.750 0.750 setrgbcolor
fill
grestore
stroke
grestore
} bind def
979.215 331.327 o
999.375 331.327 o
grestore
gsave
1015.214554 326.286875 translate
0.000000 rotate
0.000000 0.000000 m /C glyphshow
10.037231 0.000000 m /a glyphshow
18.846130 0.000000 m /s glyphshow
26.335449 0.000000 m /e glyphshow
35.179443 0.000000 m /space glyphshow
39.748840 0.000000 m /D glyphshow
grestore
1.000 setlinewidth
1 setlinejoin
2 setlinecap
gsave
979.214554 310.58 m
999.374554 310.58 l
stroke
grestore
0.500 setlinewidth
0 setlinejoin
0 setlinecap
gsave
/o {
gsave
newpath
translate
0.5 setlinewidth
0 setlinejoin
0 setlinecap
5 -0 m
-5 5 l
-5 -5 l
cl

gsave
0.000 setgray
fill
grestore
stroke
grestore
} bind def
979.215 310.58 o
999.375 310.58 o
grestore
gsave
1015.214554 305.540000 translate
0.000000 rotate
0.000000 0.000000 m /C glyphshow
10.037231 0.000000 m /a glyphshow
18.846130 0.000000 m /s glyphshow
26.335449 0.000000 m /e glyphshow
35.179443 0.000000 m /space glyphshow
39.748840 0.000000 m /E glyphshow
grestore

end
showpage
