%!PS-Adobe-3.0 EPSF-3.0
%%Title: plots/res_fine.eps
%%Creator: matplotlib version 1.5.1, http://matplotlib.org/
%%CreationDate: Thu May 11 11:28:47 2017
%%Orientation: portrait
%%BoundingBox: 18 188 593 603
%%EndComments
%%BeginProlog
/mpldict 11 dict def
mpldict begin
/m { moveto } bind def
/l { lineto } bind def
/r { rlineto } bind def
/c { curveto } bind def
/cl { closepath } bind def
/box {
m
1 index 0 r
0 exch r
neg 0 r
cl
} bind def
/clipbox {
box
clip
newpath
} bind def
%!PS-Adobe-3.0 Resource-Font
%%Title: Bitstream Vera Sans
%%Copyright: Copyright (c) 2003 by Bitstream, Inc. All Rights Reserved.
%%Creator: Converted from TrueType to type 3 by PPR
25 dict begin
/_d{bind def}bind def
/_m{moveto}_d
/_l{lineto}_d
/_cl{closepath eofill}_d
/_c{curveto}_d
/_sc{7 -1 roll{setcachedevice}{pop pop pop pop pop pop}ifelse}_d
/_e{exec}_d
/FontName /BitstreamVeraSans-Roman def
/PaintType 0 def
/FontMatrix[.001 0 0 .001 0 0]def
/FontBBox[-183 -236 1287 928]def
/FontType 3 def
/Encoding [ /space /parenleft /parenright /hyphen /zero /one /two /three /four /five /six /A /B /C /D /E /P /U /a /c /e /i /m /s /t ] def
/FontInfo 10 dict dup begin
/FamilyName (Bitstream Vera Sans) def
/FullName (Bitstream Vera Sans) def
/Notice (Copyright (c) 2003 by Bitstream, Inc. All Rights Reserved. Bitstream Vera is a trademark of Bitstream, Inc.) def
/Weight (Roman) def
/Version (Release 1.10) def
/ItalicAngle 0.0 def
/isFixedPitch false def
/UnderlinePosition -213 def
/UnderlineThickness 143 def
end readonly def
/CharStrings 25 dict dup begin
/space{318 0 0 0 0 0 _sc
}_d
/parenleft{390 0 86 -131 310 759 _sc
310 759 _m
266 683 234 609 213 536 _c
191 463 181 389 181 314 _c
181 238 191 164 213 91 _c
234 17 266 -56 310 -131 _c
232 -131 _l
183 -54 146 20 122 94 _c
98 168 86 241 86 314 _c
86 386 98 459 122 533 _c
146 607 182 682 232 759 _c
310 759 _l
_cl}_d
/parenright{390 0 80 -131 304 759 _sc
80 759 _m
158 759 _l
206 682 243 607 267 533 _c
291 459 304 386 304 314 _c
304 241 291 168 267 94 _c
243 20 206 -54 158 -131 _c
80 -131 _l
123 -56 155 17 177 91 _c
198 164 209 238 209 314 _c
209 389 198 463 177 536 _c
155 609 123 683 80 759 _c
_cl}_d
/hyphen{361 0 49 234 312 314 _sc
49 314 _m
312 314 _l
312 234 _l
49 234 _l
49 314 _l
_cl}_d
/zero{636 0 66 -13 570 742 _sc
318 664 _m
267 664 229 639 203 589 _c
177 539 165 464 165 364 _c
165 264 177 189 203 139 _c
229 89 267 64 318 64 _c
369 64 407 89 433 139 _c
458 189 471 264 471 364 _c
471 464 458 539 433 589 _c
407 639 369 664 318 664 _c
318 742 _m
399 742 461 709 505 645 _c
548 580 570 486 570 364 _c
570 241 548 147 505 83 _c
461 19 399 -13 318 -13 _c
236 -13 173 19 130 83 _c
87 147 66 241 66 364 _c
66 486 87 580 130 645 _c
173 709 236 742 318 742 _c
_cl}_d
/one{636 0 110 0 544 729 _sc
124 83 _m
285 83 _l
285 639 _l
110 604 _l
110 694 _l
284 729 _l
383 729 _l
383 83 _l
544 83 _l
544 0 _l
124 0 _l
124 83 _l
_cl}_d
/two{{636 0 73 0 536 742 _sc
192 83 _m
536 83 _l
536 0 _l
73 0 _l
73 83 _l
110 121 161 173 226 239 _c
290 304 331 346 348 365 _c
380 400 402 430 414 455 _c
426 479 433 504 433 528 _c
433 566 419 598 392 622 _c
365 646 330 659 286 659 _c
255 659 222 653 188 643 _c
154 632 117 616 78 594 _c
78 694 _l
118 710 155 722 189 730 _c
223 738 255 742 284 742 _c
}_e{359 742 419 723 464 685 _c
509 647 532 597 532 534 _c
532 504 526 475 515 449 _c
504 422 484 390 454 354 _c
446 344 420 317 376 272 _c
332 227 271 164 192 83 _c
_cl}_e}_d
/three{{636 0 76 -13 556 742 _sc
406 393 _m
453 383 490 362 516 330 _c
542 298 556 258 556 212 _c
556 140 531 84 482 45 _c
432 6 362 -13 271 -13 _c
240 -13 208 -10 176 -4 _c
144 1 110 10 76 22 _c
76 117 _l
103 101 133 89 166 81 _c
198 73 232 69 268 69 _c
330 69 377 81 409 105 _c
441 129 458 165 458 212 _c
458 254 443 288 413 312 _c
383 336 341 349 287 349 _c
}_e{202 349 _l
202 430 _l
291 430 _l
339 430 376 439 402 459 _c
428 478 441 506 441 543 _c
441 580 427 609 401 629 _c
374 649 336 659 287 659 _c
260 659 231 656 200 650 _c
169 644 135 635 98 623 _c
98 711 _l
135 721 170 729 203 734 _c
235 739 266 742 296 742 _c
370 742 429 725 473 691 _c
517 657 539 611 539 553 _c
539 513 527 479 504 451 _c
481 423 448 403 406 393 _c
_cl}_e}_d
/four{636 0 49 0 580 729 _sc
378 643 _m
129 254 _l
378 254 _l
378 643 _l
352 729 _m
476 729 _l
476 254 _l
580 254 _l
580 172 _l
476 172 _l
476 0 _l
378 0 _l
378 172 _l
49 172 _l
49 267 _l
352 729 _l
_cl}_d
/five{{636 0 77 -13 549 729 _sc
108 729 _m
495 729 _l
495 646 _l
198 646 _l
198 467 _l
212 472 227 476 241 478 _c
255 480 270 482 284 482 _c
365 482 429 459 477 415 _c
525 370 549 310 549 234 _c
549 155 524 94 475 51 _c
426 8 357 -13 269 -13 _c
238 -13 207 -10 175 -6 _c
143 -1 111 6 77 17 _c
77 116 _l
106 100 136 88 168 80 _c
199 72 232 69 267 69 _c
}_e{323 69 368 83 401 113 _c
433 143 450 183 450 234 _c
450 284 433 324 401 354 _c
368 384 323 399 267 399 _c
241 399 214 396 188 390 _c
162 384 135 375 108 363 _c
108 729 _l
_cl}_e}_d
/six{{636 0 70 -13 573 742 _sc
330 404 _m
286 404 251 388 225 358 _c
199 328 186 286 186 234 _c
186 181 199 139 225 109 _c
251 79 286 64 330 64 _c
374 64 409 79 435 109 _c
461 139 474 181 474 234 _c
474 286 461 328 435 358 _c
409 388 374 404 330 404 _c
526 713 _m
526 623 _l
501 635 476 644 451 650 _c
425 656 400 659 376 659 _c
310 659 260 637 226 593 _c
}_e{192 549 172 482 168 394 _c
187 422 211 444 240 459 _c
269 474 301 482 336 482 _c
409 482 467 459 509 415 _c
551 371 573 310 573 234 _c
573 159 550 99 506 54 _c
462 9 403 -13 330 -13 _c
246 -13 181 19 137 83 _c
92 147 70 241 70 364 _c
70 479 97 571 152 639 _c
206 707 280 742 372 742 _c
396 742 421 739 447 735 _c
472 730 498 723 526 713 _c
_cl}_e}_d
/A{684 0 8 0 676 729 _sc
342 632 _m
208 269 _l
476 269 _l
342 632 _l
286 729 _m
398 729 _l
676 0 _l
573 0 _l
507 187 _l
178 187 _l
112 0 _l
8 0 _l
286 729 _l
_cl}_d
/B{{686 0 98 0 615 729 _sc
197 348 _m
197 81 _l
355 81 _l
408 81 447 92 473 114 _c
498 136 511 169 511 215 _c
511 260 498 293 473 315 _c
447 337 408 348 355 348 _c
197 348 _l
197 648 _m
197 428 _l
343 428 _l
391 428 426 437 450 455 _c
474 473 486 500 486 538 _c
486 574 474 602 450 620 _c
426 638 391 648 343 648 _c
197 648 _l
98 729 _m
350 729 _l
}_e{425 729 483 713 524 682 _c
564 650 585 606 585 549 _c
585 504 574 468 553 442 _c
532 416 502 399 462 393 _c
510 382 548 360 575 327 _c
601 294 615 253 615 204 _c
615 138 592 88 548 53 _c
504 17 441 0 360 0 _c
98 0 _l
98 729 _l
_cl}_e}_d
/C{{698 0 56 -13 644 742 _sc
644 673 _m
644 569 _l
610 599 575 622 537 638 _c
499 653 460 661 418 661 _c
334 661 270 635 226 584 _c
182 533 160 460 160 364 _c
160 268 182 194 226 143 _c
270 92 334 67 418 67 _c
460 67 499 74 537 90 _c
575 105 610 128 644 159 _c
644 56 _l
609 32 572 15 534 4 _c
496 -7 455 -13 412 -13 _c
302 -13 215 20 151 87 _c
}_e{87 154 56 246 56 364 _c
56 481 87 573 151 641 _c
215 708 302 742 412 742 _c
456 742 497 736 535 725 _c
573 713 610 696 644 673 _c
_cl}_e}_d
/D{770 0 98 0 711 729 _sc
197 648 _m
197 81 _l
316 81 _l
416 81 490 103 537 149 _c
583 195 607 267 607 365 _c
607 463 583 534 537 580 _c
490 625 416 648 316 648 _c
197 648 _l
98 729 _m
301 729 _l
442 729 546 699 612 641 _c
678 582 711 490 711 365 _c
711 239 677 147 611 88 _c
545 29 441 0 301 0 _c
98 0 _l
98 729 _l
_cl}_d
/E{632 0 98 0 568 729 _sc
98 729 _m
559 729 _l
559 646 _l
197 646 _l
197 430 _l
544 430 _l
544 347 _l
197 347 _l
197 83 _l
568 83 _l
568 0 _l
98 0 _l
98 729 _l
_cl}_d
/P{603 0 98 0 569 729 _sc
197 648 _m
197 374 _l
321 374 _l
367 374 402 385 427 409 _c
452 433 465 467 465 511 _c
465 555 452 588 427 612 _c
402 636 367 648 321 648 _c
197 648 _l
98 729 _m
321 729 _l
402 729 464 710 506 673 _c
548 636 569 582 569 511 _c
569 439 548 384 506 348 _c
464 311 402 293 321 293 _c
197 293 _l
197 0 _l
98 0 _l
98 729 _l
_cl}_d
/U{732 0 87 -13 645 729 _sc
87 729 _m
186 729 _l
186 286 _l
186 208 200 151 228 117 _c
256 83 302 66 366 66 _c
429 66 475 83 503 117 _c
531 151 546 208 546 286 _c
546 729 _l
645 729 _l
645 274 _l
645 178 621 107 574 59 _c
527 11 458 -13 366 -13 _c
274 -13 204 11 157 59 _c
110 107 87 178 87 274 _c
87 729 _l
_cl}_d
/a{{613 0 60 -13 522 560 _sc
343 275 _m
270 275 220 266 192 250 _c
164 233 150 205 150 165 _c
150 133 160 107 181 89 _c
202 70 231 61 267 61 _c
317 61 357 78 387 114 _c
417 149 432 196 432 255 _c
432 275 _l
343 275 _l
522 312 _m
522 0 _l
432 0 _l
432 83 _l
411 49 385 25 355 10 _c
325 -5 287 -13 243 -13 _c
187 -13 142 2 109 33 _c
76 64 60 106 60 159 _c
}_e{60 220 80 266 122 298 _c
163 329 224 345 306 345 _c
432 345 _l
432 354 _l
432 395 418 427 391 450 _c
364 472 326 484 277 484 _c
245 484 215 480 185 472 _c
155 464 127 453 100 439 _c
100 522 _l
132 534 164 544 195 550 _c
226 556 256 560 286 560 _c
365 560 424 539 463 498 _c
502 457 522 395 522 312 _c
_cl}_e}_d
/c{{550 0 55 -13 488 560 _sc
488 526 _m
488 442 _l
462 456 437 466 411 473 _c
385 480 360 484 334 484 _c
276 484 230 465 198 428 _c
166 391 150 339 150 273 _c
150 206 166 154 198 117 _c
230 80 276 62 334 62 _c
360 62 385 65 411 72 _c
437 79 462 90 488 104 _c
488 21 _l
462 9 436 0 410 -5 _c
383 -10 354 -13 324 -13 _c
242 -13 176 12 128 64 _c
}_e{79 115 55 185 55 273 _c
55 362 79 432 128 483 _c
177 534 244 560 330 560 _c
358 560 385 557 411 551 _c
437 545 463 537 488 526 _c
_cl}_e}_d
/e{{615 0 55 -13 562 560 _sc
562 296 _m
562 252 _l
149 252 _l
153 190 171 142 205 110 _c
238 78 284 62 344 62 _c
378 62 412 66 444 74 _c
476 82 509 95 541 113 _c
541 28 _l
509 14 476 3 442 -3 _c
408 -9 373 -13 339 -13 _c
251 -13 182 12 131 62 _c
80 112 55 181 55 268 _c
55 357 79 428 127 481 _c
175 533 241 560 323 560 _c
397 560 455 536 498 489 _c
}_e{540 441 562 377 562 296 _c
472 322 _m
471 371 457 410 431 440 _c
404 469 368 484 324 484 _c
274 484 234 469 204 441 _c
174 413 156 373 152 322 _c
472 322 _l
_cl}_e}_d
/i{278 0 94 0 184 760 _sc
94 547 _m
184 547 _l
184 0 _l
94 0 _l
94 547 _l
94 760 _m
184 760 _l
184 646 _l
94 646 _l
94 760 _l
_cl}_d
/m{{974 0 91 0 889 560 _sc
520 442 _m
542 482 569 511 600 531 _c
631 550 668 560 711 560 _c
767 560 811 540 842 500 _c
873 460 889 403 889 330 _c
889 0 _l
799 0 _l
799 327 _l
799 379 789 418 771 444 _c
752 469 724 482 686 482 _c
639 482 602 466 575 435 _c
548 404 535 362 535 309 _c
535 0 _l
445 0 _l
445 327 _l
445 379 435 418 417 444 _c
398 469 369 482 331 482 _c
}_e{285 482 248 466 221 435 _c
194 404 181 362 181 309 _c
181 0 _l
91 0 _l
91 547 _l
181 547 _l
181 462 _l
201 495 226 520 255 536 _c
283 552 317 560 357 560 _c
397 560 430 550 458 530 _c
486 510 506 480 520 442 _c
_cl}_e}_d
/s{{521 0 54 -13 472 560 _sc
443 531 _m
443 446 _l
417 458 391 468 364 475 _c
336 481 308 485 279 485 _c
234 485 200 478 178 464 _c
156 450 145 430 145 403 _c
145 382 153 366 169 354 _c
185 342 217 330 265 320 _c
296 313 _l
360 299 405 279 432 255 _c
458 230 472 195 472 151 _c
472 100 452 60 412 31 _c
372 1 316 -13 246 -13 _c
216 -13 186 -10 154 -5 _c
}_e{122 0 89 8 54 20 _c
54 113 _l
87 95 120 82 152 74 _c
184 65 216 61 248 61 _c
290 61 323 68 346 82 _c
368 96 380 117 380 144 _c
380 168 371 187 355 200 _c
339 213 303 226 247 238 _c
216 245 _l
160 257 119 275 95 299 _c
70 323 58 356 58 399 _c
58 450 76 490 112 518 _c
148 546 200 560 268 560 _c
301 560 332 557 362 552 _c
391 547 418 540 443 531 _c
}_e{_cl}_e}_d
/t{392 0 27 0 368 702 _sc
183 702 _m
183 547 _l
368 547 _l
368 477 _l
183 477 _l
183 180 _l
183 135 189 106 201 94 _c
213 81 238 75 276 75 _c
368 75 _l
368 0 _l
276 0 _l
206 0 158 13 132 39 _c
106 65 93 112 93 180 _c
93 477 _l
27 477 _l
27 547 _l
93 547 _l
93 702 _l
183 702 _l
_cl}_d
end readonly def

/BuildGlyph
 {exch begin
 CharStrings exch
 2 copy known not{pop /.notdef}if
 true 3 1 roll get exec
 end}_d

/BuildChar {
 1 index /Encoding get exch get
 1 index /BuildGlyph get exec
}_d

FontName currentdict end definefont pop
%!PS-Adobe-3.0 Resource-Font
%%Title: cmr10
%%Copyright: Copyright (C) 1994, Basil K. Malyshev. All Rights Reserved.012BaKoMa Fonts Collection, Level-B.
%%Creator: Converted from TrueType to type 3 by PPR
25 dict begin
/_d{bind def}bind def
/_m{moveto}_d
/_l{lineto}_d
/_cl{closepath eofill}_d
/_c{curveto}_d
/_sc{7 -1 roll{setcachedevice}{pop pop pop pop pop pop}ifelse}_d
/_e{exec}_d
/FontName /Cmr10 def
/PaintType 0 def
/FontMatrix[.001 0 0 .001 0 0]def
/FontBBox[-44 -250 1009 750]def
/FontType 3 def
/Encoding [ /two /parenright /parenleft ] def
/FontInfo 10 dict dup begin
/FamilyName (cmr10) def
/FullName (cmr10) def
/Notice (Copyright (C) 1994, Basil K. Malyshev. All Rights Reserved.012BaKoMa Fonts Collection, Level-B. ) def
/Weight (Regular) def
/Version (1.1/12-Nov-94) def
/ItalicAngle 0.0 def
/isFixedPitch false def
/UnderlinePosition -133 def
/UnderlineThickness 20 def
end readonly def
/CharStrings 3 dict dup begin
/two{{500 0 50 0 449 666 _sc
50 0 _m
50 27 _l
50 28 50 30 52 32 _c
207 204 _l
230 229 249 250 264 268 _c
278 285 293 305 307 327 _c
321 349 333 372 341 396 _c
349 419 354 444 354 470 _c
354 497 349 523 339 548 _c
329 573 314 593 294 608 _c
274 623 249 631 221 631 _c
192 631 166 622 143 605 _c
119 587 103 565 94 537 _c
96 537 100 538 105 538 _c
}_e{119 538 132 533 143 523 _c
153 513 159 500 159 484 _c
159 468 153 455 143 445 _c
132 434 119 429 105 429 _c
89 429 76 434 66 445 _c
55 456 50 469 50 484 _c
50 508 54 532 64 554 _c
73 576 86 595 104 613 _c
122 630 142 643 164 652 _c
186 661 210 666 236 666 _c
274 666 309 658 342 642 _c
375 626 401 603 420 573 _c
439 543 449 509 449 470 _c
}_e{449 441 442 414 430 388 _c
417 362 401 338 381 317 _c
361 295 336 271 305 244 _c
274 217 254 199 244 190 _c
131 81 _l
227 81 _l
274 81 313 81 345 82 _c
377 82 394 84 396 86 _c
404 94 412 125 420 178 _c
449 178 _l
421 0 _l
50 0 _l
_cl}_e}_d
/parenright{{388 0 56 -249 291 750 _sc
65 -249 _m
59 -249 56 -246 56 -240 _c
56 -237 56 -235 58 -234 _c
172 -122 229 38 229 250 _c
229 462 172 623 60 733 _c
57 734 56 737 56 741 _c
56 743 57 745 59 747 _c
61 749 63 750 65 750 _c
74 750 _l
76 750 77 749 79 748 _c
127 710 167 664 199 610 _c
231 556 254 498 269 437 _c
283 376 291 314 291 250 _c
291 202 287 156 279 110 _c
}_e{271 64 258 20 241 -24 _c
223 -68 201 -108 175 -146 _c
148 -184 116 -217 79 -247 _c
77 -248 76 -249 74 -249 _c
65 -249 _l
_cl}_e}_d
/parenleft{{388 0 97 -249 332 750 _sc
310 -247 _m
272 -217 240 -184 214 -146 _c
187 -108 165 -67 148 -25 _c
131 17 118 62 110 109 _c
101 155 97 202 97 250 _c
97 298 101 345 110 392 _c
118 438 131 483 149 527 _c
166 570 188 611 215 649 _c
242 687 274 720 310 748 _c
310 749 311 750 315 750 _c
324 750 _l
326 750 327 749 329 747 _c
331 745 332 743 332 741 _c
332 738 331 736 330 735 _c
}_e{297 703 270 668 248 632 _c
226 596 209 557 196 516 _c
183 474 174 432 168 388 _c
162 344 159 298 159 250 _c
159 38 215 -122 329 -232 _c
331 -234 332 -236 332 -240 _c
332 -242 331 -244 329 -246 _c
327 -248 326 -249 324 -249 _c
315 -249 _l
311 -249 310 -248 310 -247 _c
_cl}_e}_d
end readonly def

/BuildGlyph
 {exch begin
 CharStrings exch
 2 copy known not{pop /.notdef}if
 true 3 1 roll get exec
 end}_d

/BuildChar {
 1 index /Encoding get exch get
 1 index /BuildGlyph get exec
}_d

FontName currentdict end definefont pop
%!PS-Adobe-3.0 Resource-Font
%%Title: cmmi10
%%Copyright: Copyright (C) 1994, Basil K. Malyshev. All Rights Reserved.012BaKoMa Fonts Collection, Level-B.
%%Creator: Converted from TrueType to type 3 by PPR
25 dict begin
/_d{bind def}bind def
/_m{moveto}_d
/_l{lineto}_d
/_cl{closepath eofill}_d
/_c{curveto}_d
/_sc{7 -1 roll{setcachedevice}{pop pop pop pop pop pop}ifelse}_d
/_e{exec}_d
/FontName /Cmmi10 def
/PaintType 0 def
/FontMatrix[.001 0 0 .001 0 0]def
/FontBBox[-34 -250 1048 750]def
/FontType 3 def
/Encoding [ /U /h /R ] def
/FontInfo 10 dict dup begin
/FamilyName (cmmi10) def
/FullName (cmmi10) def
/Notice (Copyright (C) 1994, Basil K. Malyshev. All Rights Reserved.012BaKoMa Fonts Collection, Level-B. ) def
/Weight (Regular) def
/Version (1.1/12-Nov-94) def
/ItalicAngle 0.0 def
/isFixedPitch false def
/UnderlinePosition -133 def
/UnderlineThickness 20 def
end readonly def
/CharStrings 3 dict dup begin
/U{{682 0 66 -21 762 683 _sc
147 139 _m
147 115 151 93 161 74 _c
171 54 185 39 203 29 _c
221 18 242 13 267 13 _c
295 13 323 18 351 30 _c
378 42 402 58 424 79 _c
446 100 464 124 480 151 _c
495 177 506 204 513 230 _c
603 591 _l
604 598 605 603 605 606 _c
605 634 579 648 528 648 _c
521 648 518 652 518 661 _c
520 669 521 675 523 678 _c
524 681 528 683 535 683 _c
}_e{752 683 _l
754 683 757 681 759 678 _c
761 675 762 672 762 670 _c
762 669 761 666 760 662 _c
758 657 757 653 755 651 _c
753 649 751 648 749 648 _c
685 648 648 627 638 587 _c
548 226 _l
540 194 528 164 510 135 _c
492 105 470 79 444 55 _c
418 31 390 12 359 -1 _c
328 -14 296 -21 264 -21 _c
227 -21 193 -13 163 2 _c
133 18 109 40 92 69 _c
74 98 66 132 66 170 _c
}_e{66 192 68 212 73 230 _c
170 618 _l
171 624 172 629 172 632 _c
172 639 168 643 160 644 _c
147 646 123 648 88 648 _c
81 648 78 652 78 661 _c
80 669 82 675 83 678 _c
84 681 88 683 95 683 _c
364 683 _l
370 683 374 678 374 670 _c
374 668 373 665 372 661 _c
371 657 370 654 368 652 _c
366 649 364 648 361 648 _c
320 648 292 645 276 641 _c
267 637 261 628 257 614 _c
}_e{160 226 _l
151 190 147 161 147 139 _c
_cl}_e}_d
/h{{576 0 53 -10 549 694 _sc
53 18 _m
53 22 53 25 54 27 _c
199 605 _l
201 616 203 625 204 632 _c
204 642 182 648 139 648 _c
132 648 129 652 129 661 _c
129 663 129 666 131 670 _c
132 674 133 677 135 679 _c
137 681 139 683 143 683 _c
278 694 _l
281 694 _l
281 693 282 692 284 691 _c
286 689 288 689 288 689 _c
289 685 290 683 290 681 _c
212 369 _l
252 417 301 442 358 442 _c
}_e{381 442 401 437 418 429 _c
435 421 448 408 458 392 _c
468 376 473 356 473 334 _c
473 306 467 273 455 235 _c
443 196 427 153 409 105 _c
399 83 395 63 395 45 _c
395 25 402 15 418 15 _c
444 15 465 29 483 57 _c
500 85 512 115 520 147 _c
521 151 524 153 528 153 _c
540 153 _l
542 153 544 152 546 150 _c
548 148 549 146 549 144 _c
549 143 548 142 548 141 _c
}_e{542 117 533 93 521 70 _c
509 46 495 27 478 12 _c
460 -2 440 -10 416 -10 _c
392 -10 372 -2 356 13 _c
339 29 331 48 331 72 _c
331 84 333 97 339 111 _c
357 161 373 205 386 245 _c
398 284 405 319 405 349 _c
405 368 401 384 393 397 _c
385 409 373 416 356 416 _c
320 416 288 405 262 383 _c
235 361 212 332 193 296 _c
125 23 _l
122 13 117 5 110 -1 _c
}_e{102 -7 94 -10 84 -10 _c
75 -10 68 -7 62 -2 _c
56 3 53 10 53 18 _c
_cl}_e}_d
/R{{759 0 39 -21 755 683 _sc
49 0 _m
42 0 39 4 39 13 _c
39 15 40 18 41 22 _c
41 26 43 29 45 31 _c
47 33 49 35 52 35 _c
92 35 121 37 137 42 _c
145 44 152 53 156 69 _c
293 618 _l
294 624 295 629 295 632 _c
295 639 291 643 283 644 _c
270 646 246 648 211 648 _c
204 648 201 652 201 661 _c
201 663 202 666 203 670 _c
204 674 205 677 207 679 _c
}_e{209 681 211 683 214 683 _c
517 683 _l
541 683 566 680 592 675 _c
618 669 642 661 664 649 _c
686 637 704 621 718 601 _c
732 581 739 558 739 532 _c
739 498 727 468 705 442 _c
683 416 655 394 621 376 _c
587 358 555 346 523 339 _c
549 329 570 314 587 294 _c
603 273 612 249 612 222 _c
612 218 611 216 611 214 _c
611 212 611 210 611 208 _c
603 119 _l
602 106 601 95 601 86 _c
}_e{600 76 600 69 600 64 _c
600 46 602 31 608 20 _c
613 9 624 4 640 4 _c
660 4 679 13 695 33 _c
711 52 721 73 726 96 _c
728 102 732 105 736 105 _c
745 105 _l
751 105 755 100 755 92 _c
750 72 742 54 732 37 _c
721 19 707 5 691 -5 _c
675 -15 657 -21 639 -21 _c
600 -21 567 -12 539 4 _c
511 21 498 48 498 86 _c
498 100 499 112 502 123 _c
524 212 _l
}_e{526 220 528 229 528 240 _c
528 268 518 289 500 305 _c
481 321 457 329 429 329 _c
306 329 _l
240 65 _l
238 59 238 55 238 51 _c
238 44 242 40 250 39 _c
262 36 286 35 322 35 _c
328 35 332 30 332 22 _c
330 12 328 6 327 4 _c
325 1 321 0 315 0 _c
49 0 _l
312 355 _m
423 355 _l
495 355 550 373 587 410 _c
603 427 617 449 627 475 _c
}_e{637 501 642 527 642 553 _c
642 577 634 597 620 611 _c
606 625 588 634 567 640 _c
545 645 522 648 496 648 _c
429 648 _l
411 648 399 646 393 643 _c
387 640 381 630 377 614 _c
312 355 _l
_cl}_e}_d
end readonly def

/BuildGlyph
 {exch begin
 CharStrings exch
 2 copy known not{pop /.notdef}if
 true 3 1 roll get exec
 end}_d

/BuildChar {
 1 index /Encoding get exch get
 1 index /BuildGlyph get exec
}_d

FontName currentdict end definefont pop
%!PS-Adobe-3.0 Resource-Font
%%Title: cmsy10
%%Copyright: Copyright (C) 1994, Basil K. Malyshev. All Rights Reserved.012BaKoMa Fonts Collection, Level-B.
%%Creator: Converted from TrueType to type 3 by PPR
25 dict begin
/_d{bind def}bind def
/_m{moveto}_d
/_l{lineto}_d
/_cl{closepath eofill}_d
/_c{curveto}_d
/_sc{7 -1 roll{setcachedevice}{pop pop pop pop pop pop}ifelse}_d
/_e{exec}_d
/FontName /Cmsy10 def
/PaintType 0 def
/FontMatrix[.001 0 0 .001 0 0]def
/FontBBox[-29 -960 1123 779]def
/FontType 3 def
/Encoding [ /bardbl ] def
/FontInfo 10 dict dup begin
/FamilyName (cmsy10) def
/FullName (cmsy10) def
/Notice (Copyright (C) 1994, Basil K. Malyshev. All Rights Reserved.012BaKoMa Fonts Collection, Level-B. ) def
/Weight (Regular) def
/Version (1.1/12-Nov-94) def
/ItalicAngle 0.0 def
/isFixedPitch false def
/UnderlinePosition -133 def
/UnderlineThickness 20 def
end readonly def
/CharStrings 1 dict dup begin
/bardbl{{500 0 133 -249 367 750 _sc
133 -231 _m
133 732 _l
133 737 135 741 139 745 _c
143 748 148 750 153 750 _c
158 750 163 748 167 745 _c
171 741 173 737 173 732 _c
173 -231 _l
173 -236 171 -240 167 -244 _c
163 -247 158 -249 153 -249 _c
148 -249 143 -247 139 -244 _c
135 -240 133 -236 133 -231 _c
327 -231 _m
327 732 _l
327 737 329 741 333 745 _c
337 748 341 750 347 750 _c
351 750 356 748 360 745 _c
}_e{364 741 367 737 367 732 _c
367 -231 _l
367 -236 364 -240 360 -244 _c
356 -247 351 -249 347 -249 _c
341 -249 337 -247 333 -244 _c
329 -240 327 -236 327 -231 _c
_cl}_e}_d
end readonly def

/BuildGlyph
 {exch begin
 CharStrings exch
 2 copy known not{pop /.notdef}if
 true 3 1 roll get exec
 end}_d

/BuildChar {
 1 index /Encoding get exch get
 1 index /BuildGlyph get exec
}_d

FontName currentdict end definefont pop
end
%%EndProlog
mpldict begin
18.334 188.266 translate
575.331 415.469 0 0 clipbox
100000 setmiterlimit
gsave
0 0 m
575.33125 0 l
575.33125 415.46875 l
0 415.46875 l
cl
1.000 setgray
fill
grestore
gsave
91.2 62.66875 m
537.6 62.66875 l
537.6 408.26875 l
91.2 408.26875 l
cl
1.000 setgray
fill
grestore
1.000 setlinewidth
1 setlinejoin
2 setlinecap
[] 0 setdash
0.000 0.000 1.000 setrgbcolor
gsave
446.4 345.6 91.2 62.67 clipbox
97.051552 359.11222 m
102.858915 356.252361 l
108.791911 353.473328 l
114.630078 351.156823 l
120.560122 349.00659 l
126.613341 346.167148 l
132.636836 342.851527 l
138.440591 339.447174 l
144.250478 335.325445 l
150.066583 330.508286 l
155.886002 325.688803 l
161.776865 320.633812 l
167.671434 316.042999 l
173.597993 312.914146 l
179.522785 306.269505 l
185.437714 304.20763 l
191.330938 304.187308 l
197.257556 303.044504 l
203.221448 299.395332 l
209.242139 300.196437 l
215.301648 310.22728 l
221.709502 322.245447 l
227.990265 356.48569 l
234.769853 365.373922 l
241.635439 370.660138 l
248.718648 367.122613 l
256.630219 342.992301 l
264.799627 307.815282 l
274.843947 283.283125 l
286.33812 263.531124 l
298.012954 256.779004 l
313.672931 235.946477 l
333.822312 218.188369 l
354.727349 218.907475 l
375.166625 205.911111 l
392.618295 187.964102 l
413.121751 153.533304 l
433.921078 112.333097 l
454.443532 74.96018 l
stroke
grestore
0.500 setlinewidth
0 setlinecap
0.000 setgray
gsave
446.4 345.6 91.2 62.67 clipbox
/o {
gsave
newpath
translate
0.5 setlinewidth
1 setlinejoin
0 setlinecap
0 -4.5 m
1.193414 -4.5 2.338109 -4.025852 3.181981 -3.181981 c
4.025852 -2.338109 4.5 -1.193414 4.5 0 c
4.5 1.193414 4.025852 2.338109 3.181981 3.181981 c
2.338109 4.025852 1.193414 4.5 0 4.5 c
-1.193414 4.5 -2.338109 4.025852 -3.181981 3.181981 c
-4.025852 2.338109 -4.5 1.193414 -4.5 0 c
-4.5 -1.193414 -4.025852 -2.338109 -3.181981 -3.181981 c
-2.338109 -4.025852 -1.193414 -4.5 0 -4.5 c
cl

gsave
0.000 0.000 1.000 setrgbcolor
fill
grestore
stroke
grestore
} bind def
97.0516 359.112 o
126.613 346.167 o
155.886 325.689 o
185.438 304.208 o
215.302 310.227 o
248.719 367.123 o
298.013 256.779 o
392.618 187.964 o
grestore
1.000 setlinewidth
2 setlinecap
0.000 0.500 0.000 setrgbcolor
gsave
446.4 345.6 91.2 62.67 clipbox
93.744396 359.111056 m
96.331332 356.251327 l
98.895446 353.47674 l
101.44708 351.158832 l
104.111482 349.007273 l
106.780743 346.166065 l
109.40071 342.850235 l
112.053455 339.447393 l
114.770243 335.324503 l
117.505858 330.506647 l
120.220328 325.686268 l
122.881876 320.625146 l
125.589986 315.939203 l
128.332703 312.307153 l
131.126004 304.982228 l
133.924061 300.407514 l
136.936042 297.192049 l
139.999892 294.834261 l
143.334182 293.136824 l
147.142144 291.334322 l
151.445104 305.626576 l
156.168201 344.05565 l
161.420898 373.957071 l
168.387337 366.251407 l
175.75843 357.463798 l
183.195692 343.458782 l
190.515229 306.253783 l
197.824503 279.991506 l
205.119266 256.884871 l
212.433289 253.009575 l
219.800933 240.685005 l
227.043104 239.049839 l
234.49335 240.331035 l
241.93586 241.358501 l
249.1703 240.859905 l
256.369773 240.19841 l
263.59205 240.603741 l
270.816179 241.033109 l
278.032133 241.31847 l
285.358649 241.515133 l
292.922464 241.742358 l
300.362306 241.880442 l
307.735757 242.41162 l
315.153339 243.315842 l
322.659564 245.732662 l
330.150685 246.07011 l
337.686843 246.095555 l
345.094714 246.091563 l
352.602074 245.868164 l
360.015599 245.839302 l
367.434528 245.793263 l
374.86598 245.707803 l
382.486532 245.741924 l
390.018983 245.746076 l
stroke
grestore
0.500 setlinewidth
0 setlinejoin
0 setlinecap
0.000 setgray
gsave
446.4 345.6 91.2 62.67 clipbox
/o {
gsave
newpath
translate
0.5 setlinewidth
0 setlinejoin
0 setlinecap
0 5 m
-5 -5 l
5 -5 l
cl

gsave
0.000 0.500 0.000 setrgbcolor
fill
grestore
stroke
grestore
} bind def
93.7444 359.111 o
106.781 346.166 o
120.22 325.686 o
133.924 300.408 o
151.445 305.627 o
183.196 343.459 o
219.801 240.685 o
256.37 240.198 o
292.922 241.742 o
330.151 246.07 o
367.435 245.793 o
grestore
1.000 setlinewidth
1 setlinejoin
2 setlinecap
1.000 0.000 0.000 setrgbcolor
gsave
446.4 345.6 91.2 62.67 clipbox
93.771052 359.111562 m
96.486311 356.253321 l
99.117458 353.477509 l
101.765444 351.159007 l
104.38941 349.009677 l
107.090086 346.165881 l
109.748472 342.850073 l
112.406497 339.44736 l
115.069165 335.325538 l
117.748166 330.507539 l
120.505367 325.693573 l
123.296014 320.633203 l
126.058466 315.955394 l
128.912741 312.326082 l
131.656982 305.124477 l
134.40346 300.485072 l
137.186192 298.715915 l
139.998176 296.187612 l
142.88851 293.260154 l
145.935435 291.788129 l
149.21306 304.988704 l
152.881136 342.565396 l
157.085245 373.735299 l
162.169291 366.134175 l
168.707214 357.433781 l
176.109113 342.751313 l
183.464652 304.820302 l
190.838974 278.808533 l
198.183245 242.634055 l
205.743582 240.125727 l
213.117967 238.590478 l
220.72554 238.677848 l
228.146787 232.73148 l
235.741857 232.302774 l
243.640979 234.051635 l
251.480057 236.03399 l
259.097791 235.180378 l
266.473082 233.524965 l
273.905832 227.064112 l
282.125255 229.714348 l
290.782502 231.667665 l
299.053314 233.268667 l
307.123722 235.818189 l
315.145027 237.226495 l
322.942241 239.71653 l
330.530379 241.400401 l
337.879969 232.626421 l
345.220274 234.807409 l
352.558725 234.664744 l
359.891322 234.516994 l
367.217653 234.428163 l
374.509947 234.428715 l
381.798283 234.641192 l
389.140058 234.773336 l
stroke
grestore
0.500 setlinewidth
0 setlinejoin
0 setlinecap
0.000 setgray
gsave
446.4 345.6 91.2 62.67 clipbox
/o {
gsave
newpath
translate
0.5 setlinewidth
0 setlinejoin
0 setlinecap
-0 -5 m
5 5 l
-5 5 l
cl

gsave
1.000 0.000 0.000 setrgbcolor
fill
grestore
stroke
grestore
} bind def
93.7711 359.112 o
107.09 346.166 o
120.505 325.694 o
134.403 300.485 o
149.213 304.989 o
176.109 342.751 o
213.118 238.59 o
251.48 236.034 o
290.783 231.668 o
330.53 241.4 o
367.218 234.428 o
grestore
1.000 setlinewidth
1 setlinejoin
2 setlinecap
0.750 0.000 0.750 setrgbcolor
gsave
446.4 345.6 91.2 62.67 clipbox
93.970294 359.112402 m
96.703325 356.25245 l
99.500852 353.473466 l
102.260308 351.156804 l
105.123613 349.006346 l
107.982739 346.166575 l
110.922356 342.85104 l
113.9601 339.446629 l
117.036933 335.324701 l
120.22807 330.504198 l
123.479122 325.67927 l
126.859393 320.618754 l
130.317778 315.916006 l
133.886992 312.238176 l
137.595742 304.92718 l
141.368845 300.350965 l
145.133631 296.965978 l
149.156194 294.529473 l
153.475052 292.873655 l
158.269384 291.465376 l
164.16843 304.847144 l
169.409905 342.509446 l
173.491707 373.891874 l
177.301282 365.14355 l
181.636193 358.925444 l
186.118548 342.632519 l
191.070349 305.294415 l
199.93431 278.569334 l
210.566025 237.517341 l
227.449675 224.468088 l
244.311345 214.280451 l
261.179649 199.169266 l
278.673801 186.502007 l
296.402317 156.124504 l
314.01699 151.714545 l
331.703101 151.559178 l
348.501427 151.553671 l
365.410858 151.558297 l
stroke
grestore
0.500 setlinewidth
0 setlinejoin
0 setlinecap
0.000 setgray
gsave
446.4 345.6 91.2 62.67 clipbox
/o {
gsave
newpath
translate
0.5 setlinewidth
0 setlinejoin
0 setlinecap
-4 -4 m
4 -4 l
4 4 l
-4 4 l
cl

gsave
0.750 0.000 0.750 setrgbcolor
fill
grestore
stroke
grestore
} bind def
93.9703 359.112 o
105.124 349.006 o
117.037 335.325 o
130.318 315.916 o
145.134 296.966 o
164.168 304.847 o
181.636 358.925 o
210.566 237.517 o
278.674 186.502 o
348.501 151.554 o
grestore
1.000 setlinewidth
1 setlinejoin
2 setlinecap
gsave
446.4 345.6 91.2 62.67 clipbox
93.782136 359.112402 m
96.422887 356.25245 l
99.07254 353.473466 l
101.731349 351.156804 l
104.418384 349.006346 l
107.181926 346.166575 l
109.95307 342.85104 l
112.722837 339.446629 l
115.559693 335.324701 l
118.493859 330.504198 l
121.482633 325.67927 l
124.63473 320.618754 l
127.991475 315.916007 l
131.604638 312.238197 l
135.250403 304.927214 l
138.965732 300.351011 l
142.771924 296.966106 l
146.692587 294.529343 l
150.780099 292.873784 l
155.102728 291.467542 l
159.673898 304.870703 l
164.069213 342.55869 l
167.806268 373.758758 l
171.288059 366.33738 l
175.05407 358.74881 l
178.787941 344.336226 l
182.704056 308.697724 l
187.755054 275.275048 l
194.948201 236.215172 l
206.809496 224.609069 l
219.825559 210.622969 l
236.087595 197.114556 l
252.247245 184.280078 l
268.411253 149.326329 l
284.695768 119.850768 l
300.895902 87.065151 l
stroke
grestore
0.500 setlinewidth
0 setlinejoin
0 setlinecap
gsave
446.4 345.6 91.2 62.67 clipbox
/o {
gsave
newpath
translate
0.5 setlinewidth
0 setlinejoin
0 setlinecap
-0 -7.071068 m
4.242641 0 l
-0 7.071068 l
-4.242641 0 l
cl

gsave
0.000 setgray
fill
grestore
stroke
grestore
} bind def
93.7821 359.112 o
107.182 346.167 o
121.483 325.679 o
138.966 300.351 o
159.674 304.871 o
178.788 344.336 o
219.826 210.623 o
300.896 87.0652 o
grestore
1.000 setlinewidth
2 setlinecap
gsave
91.2 408.26875 m
537.6 408.26875 l
stroke
grestore
gsave
537.6 62.66875 m
537.6 408.26875 l
stroke
grestore
gsave
91.2 62.66875 m
537.6 62.66875 l
stroke
grestore
gsave
91.2 62.66875 m
91.2 408.26875 l
stroke
grestore
0.500 setlinewidth
1 setlinejoin
0 setlinecap
gsave
/o {
gsave
newpath
translate
0.5 setlinewidth
1 setlinejoin
0 setlinecap
0 0 m
0 4 l

gsave
0.000 setgray
fill
grestore
stroke
grestore
} bind def
91.2 62.6688 o
grestore
gsave
/o {
gsave
newpath
translate
0.5 setlinewidth
1 setlinejoin
0 setlinecap
0 0 m
0 -4 l

gsave
0.000 setgray
fill
grestore
stroke
grestore
} bind def
91.2 408.269 o
grestore
/BitstreamVeraSans-Roman findfont
24.000 scalefont
setfont
gsave
83.567188 40.434375 translate
0.000000 rotate
0.000000 0.000000 m /zero glyphshow
grestore
gsave
/o {
gsave
newpath
translate
0.5 setlinewidth
1 setlinejoin
0 setlinecap
0 0 m
0 4 l

gsave
0.000 setgray
fill
grestore
stroke
grestore
} bind def
180.48 62.6688 o
grestore
gsave
/o {
gsave
newpath
translate
0.5 setlinewidth
1 setlinejoin
0 setlinecap
0 0 m
0 -4 l

gsave
0.000 setgray
fill
grestore
stroke
grestore
} bind def
180.48 408.269 o
grestore
gsave
149.948750 40.434375 translate
0.000000 rotate
0.000000 0.000000 m /one glyphshow
15.269531 0.000000 m /zero glyphshow
30.539062 0.000000 m /zero glyphshow
45.808594 0.000000 m /zero glyphshow
grestore
gsave
/o {
gsave
newpath
translate
0.5 setlinewidth
1 setlinejoin
0 setlinecap
0 0 m
0 4 l

gsave
0.000 setgray
fill
grestore
stroke
grestore
} bind def
269.76 62.6688 o
grestore
gsave
/o {
gsave
newpath
translate
0.5 setlinewidth
1 setlinejoin
0 setlinecap
0 0 m
0 -4 l

gsave
0.000 setgray
fill
grestore
stroke
grestore
} bind def
269.76 408.269 o
grestore
gsave
239.228750 40.434375 translate
0.000000 rotate
0.000000 0.000000 m /two glyphshow
15.269531 0.000000 m /zero glyphshow
30.539062 0.000000 m /zero glyphshow
45.808594 0.000000 m /zero glyphshow
grestore
gsave
/o {
gsave
newpath
translate
0.5 setlinewidth
1 setlinejoin
0 setlinecap
0 0 m
0 4 l

gsave
0.000 setgray
fill
grestore
stroke
grestore
} bind def
359.04 62.6688 o
grestore
gsave
/o {
gsave
newpath
translate
0.5 setlinewidth
1 setlinejoin
0 setlinecap
0 0 m
0 -4 l

gsave
0.000 setgray
fill
grestore
stroke
grestore
} bind def
359.04 408.269 o
grestore
gsave
328.508750 40.434375 translate
0.000000 rotate
0.000000 0.000000 m /three glyphshow
15.269531 0.000000 m /zero glyphshow
30.539062 0.000000 m /zero glyphshow
45.808594 0.000000 m /zero glyphshow
grestore
gsave
/o {
gsave
newpath
translate
0.5 setlinewidth
1 setlinejoin
0 setlinecap
0 0 m
0 4 l

gsave
0.000 setgray
fill
grestore
stroke
grestore
} bind def
448.32 62.6688 o
grestore
gsave
/o {
gsave
newpath
translate
0.5 setlinewidth
1 setlinejoin
0 setlinecap
0 0 m
0 -4 l

gsave
0.000 setgray
fill
grestore
stroke
grestore
} bind def
448.32 408.269 o
grestore
gsave
417.788750 40.434375 translate
0.000000 rotate
0.000000 0.000000 m /four glyphshow
15.269531 0.000000 m /zero glyphshow
30.539062 0.000000 m /zero glyphshow
45.808594 0.000000 m /zero glyphshow
grestore
gsave
/o {
gsave
newpath
translate
0.5 setlinewidth
1 setlinejoin
0 setlinecap
0 0 m
0 4 l

gsave
0.000 setgray
fill
grestore
stroke
grestore
} bind def
537.6 62.6688 o
grestore
gsave
/o {
gsave
newpath
translate
0.5 setlinewidth
1 setlinejoin
0 setlinecap
0 0 m
0 -4 l

gsave
0.000 setgray
fill
grestore
stroke
grestore
} bind def
537.6 408.269 o
grestore
gsave
507.068750 40.434375 translate
0.000000 rotate
0.000000 0.000000 m /five glyphshow
15.269531 0.000000 m /zero glyphshow
30.539062 0.000000 m /zero glyphshow
45.808594 0.000000 m /zero glyphshow
grestore
gsave
239.657813 12.200000 translate
0.000000 rotate
0.000000 0.000000 m /C glyphshow
16.757812 0.000000 m /P glyphshow
31.230469 0.000000 m /U glyphshow
48.796875 0.000000 m /space glyphshow
56.425781 0.000000 m /t glyphshow
65.835938 0.000000 m /i glyphshow
72.503906 0.000000 m /m glyphshow
95.882812 0.000000 m /e glyphshow
110.648438 0.000000 m /space glyphshow
118.277344 0.000000 m /parenleft glyphshow
127.640625 0.000000 m /s glyphshow
140.144531 0.000000 m /parenright glyphshow
grestore
gsave
/o {
gsave
newpath
translate
0.5 setlinewidth
1 setlinejoin
0 setlinecap
0 0 m
4 0 l

gsave
0.000 setgray
fill
grestore
stroke
grestore
} bind def
91.2 62.6687 o
grestore
gsave
/o {
gsave
newpath
translate
0.5 setlinewidth
1 setlinejoin
0 setlinecap
0 0 m
-4 0 l

gsave
0.000 setgray
fill
grestore
stroke
grestore
} bind def
537.6 62.6687 o
grestore
gsave
36.200000 55.168750 translate
0.000000 rotate
/BitstreamVeraSans-Roman findfont
24.0 scalefont
setfont
0.000000 0.191250 moveto
/one glyphshow

15.269531 0.191250 moveto
/zero glyphshow

/BitstreamVeraSans-Roman findfont
16.8 scalefont
setfont
31.862063 11.531250 moveto
/hyphen glyphshow

37.924172 11.531250 moveto
/six glyphshow


grestore
gsave
/o {
gsave
newpath
translate
0.5 setlinewidth
1 setlinejoin
0 setlinecap
0 0 m
4 0 l

gsave
0.000 setgray
fill
grestore
stroke
grestore
} bind def
91.2 166.349 o
grestore
gsave
/o {
gsave
newpath
translate
0.5 setlinewidth
1 setlinejoin
0 setlinecap
0 0 m
-4 0 l

gsave
0.000 setgray
fill
grestore
stroke
grestore
} bind def
537.6 166.349 o
grestore
gsave
36.200000 158.848750 translate
0.000000 rotate
/BitstreamVeraSans-Roman findfont
24.0 scalefont
setfont
0.000000 0.191250 moveto
/one glyphshow

15.269531 0.191250 moveto
/zero glyphshow

/BitstreamVeraSans-Roman findfont
16.8 scalefont
setfont
31.862063 11.531250 moveto
/hyphen glyphshow

37.924172 11.531250 moveto
/three glyphshow


grestore
gsave
/o {
gsave
newpath
translate
0.5 setlinewidth
1 setlinejoin
0 setlinecap
0 0 m
4 0 l

gsave
0.000 setgray
fill
grestore
stroke
grestore
} bind def
91.2 270.029 o
grestore
gsave
/o {
gsave
newpath
translate
0.5 setlinewidth
1 setlinejoin
0 setlinecap
0 0 m
-4 0 l

gsave
0.000 setgray
fill
grestore
stroke
grestore
} bind def
537.6 270.029 o
grestore
gsave
42.200000 262.528750 translate
0.000000 rotate
/BitstreamVeraSans-Roman findfont
24.0 scalefont
setfont
0.000000 0.191250 moveto
/one glyphshow

15.269531 0.191250 moveto
/zero glyphshow

/BitstreamVeraSans-Roman findfont
16.8 scalefont
setfont
31.862063 11.531250 moveto
/zero glyphshow


grestore
gsave
/o {
gsave
newpath
translate
0.5 setlinewidth
1 setlinejoin
0 setlinecap
0 0 m
4 0 l

gsave
0.000 setgray
fill
grestore
stroke
grestore
} bind def
91.2 373.709 o
grestore
gsave
/o {
gsave
newpath
translate
0.5 setlinewidth
1 setlinejoin
0 setlinecap
0 0 m
-4 0 l

gsave
0.000 setgray
fill
grestore
stroke
grestore
} bind def
537.6 373.709 o
grestore
gsave
42.200000 366.208750 translate
0.000000 rotate
/BitstreamVeraSans-Roman findfont
24.0 scalefont
setfont
0.000000 0.191250 moveto
/one glyphshow

15.269531 0.191250 moveto
/zero glyphshow

/BitstreamVeraSans-Roman findfont
16.8 scalefont
setfont
31.862063 11.531250 moveto
/three glyphshow


grestore
gsave
/o {
gsave
newpath
translate
0.5 setlinewidth
1 setlinejoin
0 setlinecap
0 0 m
2 0 l

gsave
0.000 setgray
fill
grestore
stroke
grestore
} bind def
91.2 73.0723 o
grestore
gsave
/o {
gsave
newpath
translate
0.5 setlinewidth
1 setlinejoin
0 setlinecap
0 0 m
-2 0 l

gsave
0.000 setgray
fill
grestore
stroke
grestore
} bind def
537.6 73.0723 o
grestore
gsave
/o {
gsave
newpath
translate
0.5 setlinewidth
1 setlinejoin
0 setlinecap
0 0 m
2 0 l

gsave
0.000 setgray
fill
grestore
stroke
grestore
} bind def
91.2 83.4759 o
grestore
gsave
/o {
gsave
newpath
translate
0.5 setlinewidth
1 setlinejoin
0 setlinecap
0 0 m
-2 0 l

gsave
0.000 setgray
fill
grestore
stroke
grestore
} bind def
537.6 83.4759 o
grestore
gsave
/o {
gsave
newpath
translate
0.5 setlinewidth
1 setlinejoin
0 setlinecap
0 0 m
2 0 l

gsave
0.000 setgray
fill
grestore
stroke
grestore
} bind def
91.2 89.5617 o
grestore
gsave
/o {
gsave
newpath
translate
0.5 setlinewidth
1 setlinejoin
0 setlinecap
0 0 m
-2 0 l

gsave
0.000 setgray
fill
grestore
stroke
grestore
} bind def
537.6 89.5617 o
grestore
gsave
/o {
gsave
newpath
translate
0.5 setlinewidth
1 setlinejoin
0 setlinecap
0 0 m
2 0 l

gsave
0.000 setgray
fill
grestore
stroke
grestore
} bind def
91.2 93.8795 o
grestore
gsave
/o {
gsave
newpath
translate
0.5 setlinewidth
1 setlinejoin
0 setlinecap
0 0 m
-2 0 l

gsave
0.000 setgray
fill
grestore
stroke
grestore
} bind def
537.6 93.8795 o
grestore
gsave
/o {
gsave
newpath
translate
0.5 setlinewidth
1 setlinejoin
0 setlinecap
0 0 m
2 0 l

gsave
0.000 setgray
fill
grestore
stroke
grestore
} bind def
91.2 107.632 o
grestore
gsave
/o {
gsave
newpath
translate
0.5 setlinewidth
1 setlinejoin
0 setlinecap
0 0 m
-2 0 l

gsave
0.000 setgray
fill
grestore
stroke
grestore
} bind def
537.6 107.632 o
grestore
gsave
/o {
gsave
newpath
translate
0.5 setlinewidth
1 setlinejoin
0 setlinecap
0 0 m
2 0 l

gsave
0.000 setgray
fill
grestore
stroke
grestore
} bind def
91.2 118.036 o
grestore
gsave
/o {
gsave
newpath
translate
0.5 setlinewidth
1 setlinejoin
0 setlinecap
0 0 m
-2 0 l

gsave
0.000 setgray
fill
grestore
stroke
grestore
} bind def
537.6 118.036 o
grestore
gsave
/o {
gsave
newpath
translate
0.5 setlinewidth
1 setlinejoin
0 setlinecap
0 0 m
2 0 l

gsave
0.000 setgray
fill
grestore
stroke
grestore
} bind def
91.2 124.122 o
grestore
gsave
/o {
gsave
newpath
translate
0.5 setlinewidth
1 setlinejoin
0 setlinecap
0 0 m
-2 0 l

gsave
0.000 setgray
fill
grestore
stroke
grestore
} bind def
537.6 124.122 o
grestore
gsave
/o {
gsave
newpath
translate
0.5 setlinewidth
1 setlinejoin
0 setlinecap
0 0 m
2 0 l

gsave
0.000 setgray
fill
grestore
stroke
grestore
} bind def
91.2 128.44 o
grestore
gsave
/o {
gsave
newpath
translate
0.5 setlinewidth
1 setlinejoin
0 setlinecap
0 0 m
-2 0 l

gsave
0.000 setgray
fill
grestore
stroke
grestore
} bind def
537.6 128.44 o
grestore
gsave
/o {
gsave
newpath
translate
0.5 setlinewidth
1 setlinejoin
0 setlinecap
0 0 m
2 0 l

gsave
0.000 setgray
fill
grestore
stroke
grestore
} bind def
91.2 142.192 o
grestore
gsave
/o {
gsave
newpath
translate
0.5 setlinewidth
1 setlinejoin
0 setlinecap
0 0 m
-2 0 l

gsave
0.000 setgray
fill
grestore
stroke
grestore
} bind def
537.6 142.192 o
grestore
gsave
/o {
gsave
newpath
translate
0.5 setlinewidth
1 setlinejoin
0 setlinecap
0 0 m
2 0 l

gsave
0.000 setgray
fill
grestore
stroke
grestore
} bind def
91.2 152.596 o
grestore
gsave
/o {
gsave
newpath
translate
0.5 setlinewidth
1 setlinejoin
0 setlinecap
0 0 m
-2 0 l

gsave
0.000 setgray
fill
grestore
stroke
grestore
} bind def
537.6 152.596 o
grestore
gsave
/o {
gsave
newpath
translate
0.5 setlinewidth
1 setlinejoin
0 setlinecap
0 0 m
2 0 l

gsave
0.000 setgray
fill
grestore
stroke
grestore
} bind def
91.2 158.682 o
grestore
gsave
/o {
gsave
newpath
translate
0.5 setlinewidth
1 setlinejoin
0 setlinecap
0 0 m
-2 0 l

gsave
0.000 setgray
fill
grestore
stroke
grestore
} bind def
537.6 158.682 o
grestore
gsave
/o {
gsave
newpath
translate
0.5 setlinewidth
1 setlinejoin
0 setlinecap
0 0 m
2 0 l

gsave
0.000 setgray
fill
grestore
stroke
grestore
} bind def
91.2 163 o
grestore
gsave
/o {
gsave
newpath
translate
0.5 setlinewidth
1 setlinejoin
0 setlinecap
0 0 m
-2 0 l

gsave
0.000 setgray
fill
grestore
stroke
grestore
} bind def
537.6 163 o
grestore
gsave
/o {
gsave
newpath
translate
0.5 setlinewidth
1 setlinejoin
0 setlinecap
0 0 m
2 0 l

gsave
0.000 setgray
fill
grestore
stroke
grestore
} bind def
91.2 176.752 o
grestore
gsave
/o {
gsave
newpath
translate
0.5 setlinewidth
1 setlinejoin
0 setlinecap
0 0 m
-2 0 l

gsave
0.000 setgray
fill
grestore
stroke
grestore
} bind def
537.6 176.752 o
grestore
gsave
/o {
gsave
newpath
translate
0.5 setlinewidth
1 setlinejoin
0 setlinecap
0 0 m
2 0 l

gsave
0.000 setgray
fill
grestore
stroke
grestore
} bind def
91.2 187.156 o
grestore
gsave
/o {
gsave
newpath
translate
0.5 setlinewidth
1 setlinejoin
0 setlinecap
0 0 m
-2 0 l

gsave
0.000 setgray
fill
grestore
stroke
grestore
} bind def
537.6 187.156 o
grestore
gsave
/o {
gsave
newpath
translate
0.5 setlinewidth
1 setlinejoin
0 setlinecap
0 0 m
2 0 l

gsave
0.000 setgray
fill
grestore
stroke
grestore
} bind def
91.2 193.242 o
grestore
gsave
/o {
gsave
newpath
translate
0.5 setlinewidth
1 setlinejoin
0 setlinecap
0 0 m
-2 0 l

gsave
0.000 setgray
fill
grestore
stroke
grestore
} bind def
537.6 193.242 o
grestore
gsave
/o {
gsave
newpath
translate
0.5 setlinewidth
1 setlinejoin
0 setlinecap
0 0 m
2 0 l

gsave
0.000 setgray
fill
grestore
stroke
grestore
} bind def
91.2 197.56 o
grestore
gsave
/o {
gsave
newpath
translate
0.5 setlinewidth
1 setlinejoin
0 setlinecap
0 0 m
-2 0 l

gsave
0.000 setgray
fill
grestore
stroke
grestore
} bind def
537.6 197.56 o
grestore
gsave
/o {
gsave
newpath
translate
0.5 setlinewidth
1 setlinejoin
0 setlinecap
0 0 m
2 0 l

gsave
0.000 setgray
fill
grestore
stroke
grestore
} bind def
91.2 211.312 o
grestore
gsave
/o {
gsave
newpath
translate
0.5 setlinewidth
1 setlinejoin
0 setlinecap
0 0 m
-2 0 l

gsave
0.000 setgray
fill
grestore
stroke
grestore
} bind def
537.6 211.312 o
grestore
gsave
/o {
gsave
newpath
translate
0.5 setlinewidth
1 setlinejoin
0 setlinecap
0 0 m
2 0 l

gsave
0.000 setgray
fill
grestore
stroke
grestore
} bind def
91.2 221.716 o
grestore
gsave
/o {
gsave
newpath
translate
0.5 setlinewidth
1 setlinejoin
0 setlinecap
0 0 m
-2 0 l

gsave
0.000 setgray
fill
grestore
stroke
grestore
} bind def
537.6 221.716 o
grestore
gsave
/o {
gsave
newpath
translate
0.5 setlinewidth
1 setlinejoin
0 setlinecap
0 0 m
2 0 l

gsave
0.000 setgray
fill
grestore
stroke
grestore
} bind def
91.2 227.802 o
grestore
gsave
/o {
gsave
newpath
translate
0.5 setlinewidth
1 setlinejoin
0 setlinecap
0 0 m
-2 0 l

gsave
0.000 setgray
fill
grestore
stroke
grestore
} bind def
537.6 227.802 o
grestore
gsave
/o {
gsave
newpath
translate
0.5 setlinewidth
1 setlinejoin
0 setlinecap
0 0 m
2 0 l

gsave
0.000 setgray
fill
grestore
stroke
grestore
} bind def
91.2 232.12 o
grestore
gsave
/o {
gsave
newpath
translate
0.5 setlinewidth
1 setlinejoin
0 setlinecap
0 0 m
-2 0 l

gsave
0.000 setgray
fill
grestore
stroke
grestore
} bind def
537.6 232.12 o
grestore
gsave
/o {
gsave
newpath
translate
0.5 setlinewidth
1 setlinejoin
0 setlinecap
0 0 m
2 0 l

gsave
0.000 setgray
fill
grestore
stroke
grestore
} bind def
91.2 245.872 o
grestore
gsave
/o {
gsave
newpath
translate
0.5 setlinewidth
1 setlinejoin
0 setlinecap
0 0 m
-2 0 l

gsave
0.000 setgray
fill
grestore
stroke
grestore
} bind def
537.6 245.872 o
grestore
gsave
/o {
gsave
newpath
translate
0.5 setlinewidth
1 setlinejoin
0 setlinecap
0 0 m
2 0 l

gsave
0.000 setgray
fill
grestore
stroke
grestore
} bind def
91.2 256.276 o
grestore
gsave
/o {
gsave
newpath
translate
0.5 setlinewidth
1 setlinejoin
0 setlinecap
0 0 m
-2 0 l

gsave
0.000 setgray
fill
grestore
stroke
grestore
} bind def
537.6 256.276 o
grestore
gsave
/o {
gsave
newpath
translate
0.5 setlinewidth
1 setlinejoin
0 setlinecap
0 0 m
2 0 l

gsave
0.000 setgray
fill
grestore
stroke
grestore
} bind def
91.2 262.362 o
grestore
gsave
/o {
gsave
newpath
translate
0.5 setlinewidth
1 setlinejoin
0 setlinecap
0 0 m
-2 0 l

gsave
0.000 setgray
fill
grestore
stroke
grestore
} bind def
537.6 262.362 o
grestore
gsave
/o {
gsave
newpath
translate
0.5 setlinewidth
1 setlinejoin
0 setlinecap
0 0 m
2 0 l

gsave
0.000 setgray
fill
grestore
stroke
grestore
} bind def
91.2 266.68 o
grestore
gsave
/o {
gsave
newpath
translate
0.5 setlinewidth
1 setlinejoin
0 setlinecap
0 0 m
-2 0 l

gsave
0.000 setgray
fill
grestore
stroke
grestore
} bind def
537.6 266.68 o
grestore
gsave
/o {
gsave
newpath
translate
0.5 setlinewidth
1 setlinejoin
0 setlinecap
0 0 m
2 0 l

gsave
0.000 setgray
fill
grestore
stroke
grestore
} bind def
91.2 280.432 o
grestore
gsave
/o {
gsave
newpath
translate
0.5 setlinewidth
1 setlinejoin
0 setlinecap
0 0 m
-2 0 l

gsave
0.000 setgray
fill
grestore
stroke
grestore
} bind def
537.6 280.432 o
grestore
gsave
/o {
gsave
newpath
translate
0.5 setlinewidth
1 setlinejoin
0 setlinecap
0 0 m
2 0 l

gsave
0.000 setgray
fill
grestore
stroke
grestore
} bind def
91.2 290.836 o
grestore
gsave
/o {
gsave
newpath
translate
0.5 setlinewidth
1 setlinejoin
0 setlinecap
0 0 m
-2 0 l

gsave
0.000 setgray
fill
grestore
stroke
grestore
} bind def
537.6 290.836 o
grestore
gsave
/o {
gsave
newpath
translate
0.5 setlinewidth
1 setlinejoin
0 setlinecap
0 0 m
2 0 l

gsave
0.000 setgray
fill
grestore
stroke
grestore
} bind def
91.2 296.922 o
grestore
gsave
/o {
gsave
newpath
translate
0.5 setlinewidth
1 setlinejoin
0 setlinecap
0 0 m
-2 0 l

gsave
0.000 setgray
fill
grestore
stroke
grestore
} bind def
537.6 296.922 o
grestore
gsave
/o {
gsave
newpath
translate
0.5 setlinewidth
1 setlinejoin
0 setlinecap
0 0 m
2 0 l

gsave
0.000 setgray
fill
grestore
stroke
grestore
} bind def
91.2 301.24 o
grestore
gsave
/o {
gsave
newpath
translate
0.5 setlinewidth
1 setlinejoin
0 setlinecap
0 0 m
-2 0 l

gsave
0.000 setgray
fill
grestore
stroke
grestore
} bind def
537.6 301.24 o
grestore
gsave
/o {
gsave
newpath
translate
0.5 setlinewidth
1 setlinejoin
0 setlinecap
0 0 m
2 0 l

gsave
0.000 setgray
fill
grestore
stroke
grestore
} bind def
91.2 314.992 o
grestore
gsave
/o {
gsave
newpath
translate
0.5 setlinewidth
1 setlinejoin
0 setlinecap
0 0 m
-2 0 l

gsave
0.000 setgray
fill
grestore
stroke
grestore
} bind def
537.6 314.992 o
grestore
gsave
/o {
gsave
newpath
translate
0.5 setlinewidth
1 setlinejoin
0 setlinecap
0 0 m
2 0 l

gsave
0.000 setgray
fill
grestore
stroke
grestore
} bind def
91.2 325.396 o
grestore
gsave
/o {
gsave
newpath
translate
0.5 setlinewidth
1 setlinejoin
0 setlinecap
0 0 m
-2 0 l

gsave
0.000 setgray
fill
grestore
stroke
grestore
} bind def
537.6 325.396 o
grestore
gsave
/o {
gsave
newpath
translate
0.5 setlinewidth
1 setlinejoin
0 setlinecap
0 0 m
2 0 l

gsave
0.000 setgray
fill
grestore
stroke
grestore
} bind def
91.2 331.482 o
grestore
gsave
/o {
gsave
newpath
translate
0.5 setlinewidth
1 setlinejoin
0 setlinecap
0 0 m
-2 0 l

gsave
0.000 setgray
fill
grestore
stroke
grestore
} bind def
537.6 331.482 o
grestore
gsave
/o {
gsave
newpath
translate
0.5 setlinewidth
1 setlinejoin
0 setlinecap
0 0 m
2 0 l

gsave
0.000 setgray
fill
grestore
stroke
grestore
} bind def
91.2 335.8 o
grestore
gsave
/o {
gsave
newpath
translate
0.5 setlinewidth
1 setlinejoin
0 setlinecap
0 0 m
-2 0 l

gsave
0.000 setgray
fill
grestore
stroke
grestore
} bind def
537.6 335.8 o
grestore
gsave
/o {
gsave
newpath
translate
0.5 setlinewidth
1 setlinejoin
0 setlinecap
0 0 m
2 0 l

gsave
0.000 setgray
fill
grestore
stroke
grestore
} bind def
91.2 349.552 o
grestore
gsave
/o {
gsave
newpath
translate
0.5 setlinewidth
1 setlinejoin
0 setlinecap
0 0 m
-2 0 l

gsave
0.000 setgray
fill
grestore
stroke
grestore
} bind def
537.6 349.552 o
grestore
gsave
/o {
gsave
newpath
translate
0.5 setlinewidth
1 setlinejoin
0 setlinecap
0 0 m
2 0 l

gsave
0.000 setgray
fill
grestore
stroke
grestore
} bind def
91.2 359.956 o
grestore
gsave
/o {
gsave
newpath
translate
0.5 setlinewidth
1 setlinejoin
0 setlinecap
0 0 m
-2 0 l

gsave
0.000 setgray
fill
grestore
stroke
grestore
} bind def
537.6 359.956 o
grestore
gsave
/o {
gsave
newpath
translate
0.5 setlinewidth
1 setlinejoin
0 setlinecap
0 0 m
2 0 l

gsave
0.000 setgray
fill
grestore
stroke
grestore
} bind def
91.2 366.042 o
grestore
gsave
/o {
gsave
newpath
translate
0.5 setlinewidth
1 setlinejoin
0 setlinecap
0 0 m
-2 0 l

gsave
0.000 setgray
fill
grestore
stroke
grestore
} bind def
537.6 366.042 o
grestore
gsave
/o {
gsave
newpath
translate
0.5 setlinewidth
1 setlinejoin
0 setlinecap
0 0 m
2 0 l

gsave
0.000 setgray
fill
grestore
stroke
grestore
} bind def
91.2 370.36 o
grestore
gsave
/o {
gsave
newpath
translate
0.5 setlinewidth
1 setlinejoin
0 setlinecap
0 0 m
-2 0 l

gsave
0.000 setgray
fill
grestore
stroke
grestore
} bind def
537.6 370.36 o
grestore
gsave
/o {
gsave
newpath
translate
0.5 setlinewidth
1 setlinejoin
0 setlinecap
0 0 m
2 0 l

gsave
0.000 setgray
fill
grestore
stroke
grestore
} bind def
91.2 384.112 o
grestore
gsave
/o {
gsave
newpath
translate
0.5 setlinewidth
1 setlinejoin
0 setlinecap
0 0 m
-2 0 l

gsave
0.000 setgray
fill
grestore
stroke
grestore
} bind def
537.6 384.112 o
grestore
gsave
/o {
gsave
newpath
translate
0.5 setlinewidth
1 setlinejoin
0 setlinecap
0 0 m
2 0 l

gsave
0.000 setgray
fill
grestore
stroke
grestore
} bind def
91.2 394.516 o
grestore
gsave
/o {
gsave
newpath
translate
0.5 setlinewidth
1 setlinejoin
0 setlinecap
0 0 m
-2 0 l

gsave
0.000 setgray
fill
grestore
stroke
grestore
} bind def
537.6 394.516 o
grestore
gsave
/o {
gsave
newpath
translate
0.5 setlinewidth
1 setlinejoin
0 setlinecap
0 0 m
2 0 l

gsave
0.000 setgray
fill
grestore
stroke
grestore
} bind def
91.2 400.602 o
grestore
gsave
/o {
gsave
newpath
translate
0.5 setlinewidth
1 setlinejoin
0 setlinecap
0 0 m
-2 0 l

gsave
0.000 setgray
fill
grestore
stroke
grestore
} bind def
537.6 400.602 o
grestore
gsave
/o {
gsave
newpath
translate
0.5 setlinewidth
1 setlinejoin
0 setlinecap
0 0 m
2 0 l

gsave
0.000 setgray
fill
grestore
stroke
grestore
} bind def
91.2 404.92 o
grestore
gsave
/o {
gsave
newpath
translate
0.5 setlinewidth
1 setlinejoin
0 setlinecap
0 0 m
-2 0 l

gsave
0.000 setgray
fill
grestore
stroke
grestore
} bind def
537.6 404.92 o
grestore
gsave
25.200000 185.468750 translate
90.000000 rotate
/Cmsy10 findfont
24.0 scalefont
setfont
0.000000 0.000000 moveto
/bardbl glyphshow

/Cmmi10 findfont
24.0 scalefont
setfont
12.000000 0.000000 moveto
/R glyphshow

/Cmr10 findfont
24.0 scalefont
setfont
30.210938 0.000000 moveto
/parenleft glyphshow

/Cmmi10 findfont
24.0 scalefont
setfont
39.527344 0.000000 moveto
/U glyphshow

/Cmmi10 findfont
16.8 scalefont
setfont
55.898438 -4.081500 moveto
/h glyphshow

/Cmr10 findfont
24.0 scalefont
setfont
67.108688 0.000000 moveto
/parenright glyphshow

/Cmsy10 findfont
24.0 scalefont
setfont
76.425094 0.000000 moveto
/bardbl glyphshow

/Cmr10 findfont
16.8 scalefont
setfont
89.496488 -4.081500 moveto
/two glyphshow


grestore
1.000 setlinewidth
0 setlinejoin
gsave
387.85 245.471875 m
527.6 245.471875 l
527.6 398.26875 l
387.85 398.26875 l
cl
gsave
1.000 setgray
fill
grestore
stroke
grestore
1 setlinejoin
2 setlinecap
0.000 0.000 1.000 setrgbcolor
gsave
401.85 382.065625 m
429.85 382.065625 l
stroke
grestore
0.500 setlinewidth
0 setlinecap
0.000 setgray
gsave
/o {
gsave
newpath
translate
0.5 setlinewidth
1 setlinejoin
0 setlinecap
0 -4.5 m
1.193414 -4.5 2.338109 -4.025852 3.181981 -3.181981 c
4.025852 -2.338109 4.5 -1.193414 4.5 0 c
4.5 1.193414 4.025852 2.338109 3.181981 3.181981 c
2.338109 4.025852 1.193414 4.5 0 4.5 c
-1.193414 4.5 -2.338109 4.025852 -3.181981 3.181981 c
-4.025852 2.338109 -4.5 1.193414 -4.5 0 c
-4.5 -1.193414 -4.025852 -2.338109 -3.181981 -3.181981 c
-2.338109 -4.025852 -1.193414 -4.5 0 -4.5 c
cl

gsave
0.000 0.000 1.000 setrgbcolor
fill
grestore
stroke
grestore
} bind def
401.85 382.066 o
429.85 382.066 o
grestore
/BitstreamVeraSans-Roman findfont
20.000 scalefont
setfont
gsave
451.850000 375.065625 translate
0.000000 rotate
0.000000 0.000000 m /c glyphshow
10.996094 0.000000 m /a glyphshow
23.251953 0.000000 m /s glyphshow
33.671875 0.000000 m /e glyphshow
45.976562 0.000000 m /space glyphshow
52.333984 0.000000 m /A glyphshow
grestore
1.000 setlinewidth
2 setlinecap
0.000 0.500 0.000 setrgbcolor
gsave
401.85 352.70625 m
429.85 352.70625 l
stroke
grestore
0.500 setlinewidth
0 setlinejoin
0 setlinecap
0.000 setgray
gsave
/o {
gsave
newpath
translate
0.5 setlinewidth
0 setlinejoin
0 setlinecap
0 5 m
-5 -5 l
5 -5 l
cl

gsave
0.000 0.500 0.000 setrgbcolor
fill
grestore
stroke
grestore
} bind def
401.85 352.706 o
429.85 352.706 o
grestore
gsave
451.850000 345.706250 translate
0.000000 rotate
0.000000 0.000000 m /c glyphshow
10.996094 0.000000 m /a glyphshow
23.251953 0.000000 m /s glyphshow
33.671875 0.000000 m /e glyphshow
45.976562 0.000000 m /space glyphshow
52.333984 0.000000 m /B glyphshow
grestore
1.000 setlinewidth
1 setlinejoin
2 setlinecap
1.000 0.000 0.000 setrgbcolor
gsave
401.85 323.346875 m
429.85 323.346875 l
stroke
grestore
0.500 setlinewidth
0 setlinejoin
0 setlinecap
0.000 setgray
gsave
/o {
gsave
newpath
translate
0.5 setlinewidth
0 setlinejoin
0 setlinecap
-0 -5 m
5 5 l
-5 5 l
cl

gsave
1.000 0.000 0.000 setrgbcolor
fill
grestore
stroke
grestore
} bind def
401.85 323.347 o
429.85 323.347 o
grestore
gsave
451.850000 316.346875 translate
0.000000 rotate
0.000000 0.000000 m /c glyphshow
10.996094 0.000000 m /a glyphshow
23.251953 0.000000 m /s glyphshow
33.671875 0.000000 m /e glyphshow
45.976562 0.000000 m /space glyphshow
52.333984 0.000000 m /C glyphshow
grestore
1.000 setlinewidth
1 setlinejoin
2 setlinecap
0.750 0.000 0.750 setrgbcolor
gsave
401.85 293.9875 m
429.85 293.9875 l
stroke
grestore
0.500 setlinewidth
0 setlinejoin
0 setlinecap
0.000 setgray
gsave
/o {
gsave
newpath
translate
0.5 setlinewidth
0 setlinejoin
0 setlinecap
-4 -4 m
4 -4 l
4 4 l
-4 4 l
cl

gsave
0.750 0.000 0.750 setrgbcolor
fill
grestore
stroke
grestore
} bind def
401.85 293.988 o
429.85 293.988 o
grestore
gsave
451.850000 286.987500 translate
0.000000 rotate
0.000000 0.000000 m /c glyphshow
10.996094 0.000000 m /a glyphshow
23.251953 0.000000 m /s glyphshow
33.671875 0.000000 m /e glyphshow
45.976562 0.000000 m /space glyphshow
52.333984 0.000000 m /D glyphshow
grestore
1.000 setlinewidth
1 setlinejoin
2 setlinecap
gsave
401.85 264.628125 m
429.85 264.628125 l
stroke
grestore
0.500 setlinewidth
0 setlinejoin
0 setlinecap
gsave
/o {
gsave
newpath
translate
0.5 setlinewidth
0 setlinejoin
0 setlinecap
-0 -7.071068 m
4.242641 0 l
-0 7.071068 l
-4.242641 0 l
cl

gsave
0.000 setgray
fill
grestore
stroke
grestore
} bind def
401.85 264.628 o
429.85 264.628 o
grestore
gsave
451.850000 257.628125 translate
0.000000 rotate
0.000000 0.000000 m /c glyphshow
10.996094 0.000000 m /a glyphshow
23.251953 0.000000 m /s glyphshow
33.671875 0.000000 m /e glyphshow
45.976562 0.000000 m /space glyphshow
52.333984 0.000000 m /E glyphshow
grestore

end
showpage
