%!PS-Adobe-3.0 EPSF-3.0
%%Title: naca0012_trunc_proc
%%Creator: GL2PS 1.3.8, (C) 1999-2012 C. Geuzaine
%%For: Gmsh
%%CreationDate: Mon Jun 19 20:16:46 2017
%%LanguageLevel: 3
%%DocumentData: Clean7Bit
%%Pages: 1
%%BoundingBox: 160 300 1530 700
%%EndComments
%%BeginProlog
/gl2psdict 64 dict def gl2psdict begin
0 setlinecap 0 setlinejoin
/tryPS3shading false def % set to false to force subdivision
/rThreshold 0.0666667 def % red component subdivision threshold
/gThreshold 0.05 def % green component subdivision threshold
/bThreshold 0.1 def % blue component subdivision threshold
/BD { bind def } bind def
/C  { setrgbcolor } BD
/G  { 0.082 mul exch 0.6094 mul add exch 0.3086 mul add neg 1.0 add setgray } BD
/W  { setlinewidth } BD
/FC { findfont exch /SH exch def SH scalefont setfont } BD
/SW { dup stringwidth pop } BD
/S  { FC moveto show } BD
/SBC{ FC moveto SW -2 div 0 rmoveto show } BD
/SBR{ FC moveto SW neg 0 rmoveto show } BD
/SCL{ FC moveto 0 SH -2 div rmoveto show } BD
/SCC{ FC moveto SW -2 div SH -2 div rmoveto show } BD
/SCR{ FC moveto SW neg SH -2 div rmoveto show } BD
/STL{ FC moveto 0 SH neg rmoveto show } BD
/STC{ FC moveto SW -2 div SH neg rmoveto show } BD
/STR{ FC moveto SW neg SH neg rmoveto show } BD
/FCT { FC translate 0 0 } BD
/SR  { gsave FCT moveto rotate show grestore } BD
/SBCR{ gsave FCT moveto rotate SW -2 div 0 rmoveto show grestore } BD
/SBRR{ gsave FCT moveto rotate SW neg 0 rmoveto show grestore } BD
/SCLR{ gsave FCT moveto rotate 0 SH -2 div rmoveto show grestore} BD
/SCCR{ gsave FCT moveto rotate SW -2 div SH -2 div rmoveto show grestore} BD
/SCRR{ gsave FCT moveto rotate SW neg SH -2 div rmoveto show grestore} BD
/STLR{ gsave FCT moveto rotate 0 SH neg rmoveto show grestore } BD
/STCR{ gsave FCT moveto rotate SW -2 div SH neg rmoveto show grestore } BD
/STRR{ gsave FCT moveto rotate SW neg SH neg rmoveto show grestore } BD
/P  { newpath 0.0 360.0 arc closepath fill } BD
/LS { newpath moveto } BD
/L  { lineto } BD
/LE { lineto stroke } BD
/T  { newpath moveto lineto lineto closepath fill } BD
/STshfill {
      /b1 exch def /g1 exch def /r1 exch def /y1 exch def /x1 exch def
      /b2 exch def /g2 exch def /r2 exch def /y2 exch def /x2 exch def
      /b3 exch def /g3 exch def /r3 exch def /y3 exch def /x3 exch def
      gsave << /ShadingType 4 /ColorSpace [/DeviceRGB]
      /DataSource [ 0 x1 y1 r1 g1 b1 0 x2 y2 r2 g2 b2 0 x3 y3 r3 g3 b3 ] >>
      shfill grestore } BD
/Tm { 3 -1 roll 8 -1 roll 13 -1 roll add add 3 div
      3 -1 roll 7 -1 roll 11 -1 roll add add 3 div
      3 -1 roll 6 -1 roll 9 -1 roll add add 3 div C T } BD
/STsplit {
      4 index 15 index add 0.5 mul
      4 index 15 index add 0.5 mul
      4 index 15 index add 0.5 mul
      4 index 15 index add 0.5 mul
      4 index 15 index add 0.5 mul
      5 copy 5 copy 25 15 roll
      9 index 30 index add 0.5 mul
      9 index 30 index add 0.5 mul
      9 index 30 index add 0.5 mul
      9 index 30 index add 0.5 mul
      9 index 30 index add 0.5 mul
      5 copy 5 copy 35 5 roll 25 5 roll 15 5 roll
      4 index 10 index add 0.5 mul
      4 index 10 index add 0.5 mul
      4 index 10 index add 0.5 mul
      4 index 10 index add 0.5 mul
      4 index 10 index add 0.5 mul
      5 copy 5 copy 40 5 roll 25 5 roll 15 5 roll 25 5 roll
      STnoshfill STnoshfill STnoshfill STnoshfill } BD
/STnoshfill {
      2 index 8 index sub abs rThreshold gt
      { STsplit }
      { 1 index 7 index sub abs gThreshold gt
        { STsplit }
        { dup 6 index sub abs bThreshold gt
          { STsplit }
          { 2 index 13 index sub abs rThreshold gt
            { STsplit }
            { 1 index 12 index sub abs gThreshold gt
              { STsplit }
              { dup 11 index sub abs bThreshold gt
                { STsplit }
                { 7 index 13 index sub abs rThreshold gt
                  { STsplit }
                  { 6 index 12 index sub abs gThreshold gt
                    { STsplit }
                    { 5 index 11 index sub abs bThreshold gt
                      { STsplit }
                      { Tm }
                      ifelse }
                    ifelse }
                  ifelse }
                ifelse }
              ifelse }
            ifelse }
          ifelse }
        ifelse }
      ifelse } BD
tryPS3shading
{ /shfill where
  { /ST { STshfill } BD }
  { /ST { STnoshfill } BD }
  ifelse }
{ /ST { STnoshfill } BD }
ifelse
end
%%EndProlog
%%BeginSetup
/DeviceRGB setcolorspace
gl2psdict begin
%%EndSetup
%%Page: 1 1
%%BeginPageSetup
%%EndPageSetup
mark
gsave
1.0 1.0 scale
1.0521 0.850049 0.0216444 C
1179.83 433.729 1465 468.789 1461.2 495.578 T
1177.43 460.682 1179.83 433.729 1461.2 495.578 T
893.628 408.62 1179.83 433.729 1177.43 460.682 T
892.622 435.67 893.628 408.62 1177.43 460.682 T
606.53 399.4 893.628 408.62 892.622 435.67 T
606.925 426.453 606.53 399.4 892.622 435.67 T
1182.36 405.429 1468.98 440.66 1465 468.789 T
1179.83 433.729 1182.36 405.429 1465 468.789 T
894.685 380.217 1182.36 405.429 1179.83 433.729 T
893.628 408.62 894.685 380.217 1179.83 433.729 T
606.115 370.994 894.685 380.217 893.628 408.62 T
606.53 399.4 606.115 370.994 893.628 408.62 T
1185.01 375.713 1473.17 411.126 1468.98 440.66 T
1182.36 405.429 1185.01 375.713 1468.98 440.66 T
895.795 350.395 1185.01 375.713 1182.36 405.429 T
894.685 380.217 895.795 350.395 1182.36 405.429 T
605.679 341.167 895.795 350.395 894.685 380.217 T
606.115 370.994 605.679 341.167 894.685 380.217 T
1187.79 344.512 1477.56 380.114 1473.17 411.126 T
1185.01 375.713 1187.79 344.512 1473.17 411.126 T
896.96 319.081 1187.79 344.512 1185.01 375.713 T
895.795 350.395 896.96 319.081 1185.01 375.713 T
605.221 309.849 896.96 319.081 895.795 350.395 T
605.679 341.167 605.221 309.849 895.795 350.395 T
485.126 405.636 606.53 399.4 606.925 426.453 T
507.546 430.477 485.126 405.636 606.925 426.453 T
374.319 424.449 485.126 405.636 507.546 430.477 T
408.759 441.784 374.319 424.449 507.546 430.477 T
297.373 456.604 374.319 424.449 408.759 441.784 T
328.977 463.088 297.373 456.604 408.759 441.784 T
267.977 495.578 297.373 456.604 328.977 463.088 T
295.034 495.578 267.977 495.578 328.977 463.088 T
461.585 379.553 606.115 370.994 606.53 399.4 T
485.126 405.636 461.585 379.553 606.53 399.4 T
338.157 406.247 461.585 379.553 485.126 405.636 T
374.319 424.449 338.157 406.247 485.126 405.636 T
264.188 449.794 338.157 406.247 374.319 424.449 T
297.373 456.604 264.188 449.794 374.319 424.449 T
239.568 495.578 264.188 449.794 297.373 456.604 T
267.977 495.578 239.568 495.578 297.373 456.604 T
436.867 352.166 605.679 341.167 606.115 370.994 T
461.585 379.553 436.867 352.166 606.115 370.994 T
300.186 387.135 436.867 352.166 461.585 379.553 T
338.157 406.247 300.186 387.135 461.585 379.553 T
229.344 442.645 300.186 387.135 338.157 406.247 T
264.188 449.794 229.344 442.645 338.157 406.247 T
209.738 495.578 229.344 442.645 264.188 449.794 T
239.568 495.578 209.738 495.578 264.188 449.794 T
410.913 323.41 605.221 309.849 605.679 341.167 T
436.867 352.166 410.913 323.41 605.679 341.167 T
260.318 367.067 410.913 323.41 436.867 352.166 T
300.186 387.135 260.318 367.067 436.867 352.166 T
192.757 435.138 260.318 367.067 300.186 387.135 T
229.344 442.645 192.757 435.138 300.186 387.135 T
178.417 495.578 192.757 435.138 229.344 442.645 T
209.738 495.578 178.417 495.578 229.344 442.645 T
0.0216444 0.0216444 0.599507 C
297.373 534.552 267.977 495.578 295.034 495.578 T
328.977 528.067 297.373 534.552 295.034 495.578 T
374.319 566.707 297.373 534.552 328.977 528.067 T
408.759 549.371 374.319 566.707 328.977 528.067 T
485.126 585.52 374.319 566.707 408.759 549.371 T
507.546 560.679 485.126 585.52 408.759 549.371 T
606.53 591.756 485.126 585.52 507.546 560.679 T
606.925 564.702 606.53 591.756 507.546 560.679 T
264.188 541.361 239.568 495.578 267.977 495.578 T
297.373 534.552 264.188 541.361 267.977 495.578 T
338.157 584.909 264.188 541.361 297.373 534.552 T
374.319 566.707 338.157 584.909 297.373 534.552 T
461.585 611.603 338.157 584.909 374.319 566.707 T
485.126 585.52 461.585 611.603 374.319 566.707 T
606.115 620.162 461.585 611.603 485.126 585.52 T
606.53 591.756 606.115 620.162 485.126 585.52 T
229.344 548.511 209.738 495.578 239.568 495.578 T
264.188 541.361 229.344 548.511 239.568 495.578 T
300.186 604.021 229.344 548.511 264.188 541.361 T
338.157 584.909 300.186 604.021 264.188 541.361 T
436.867 638.99 300.186 604.021 338.157 584.909 T
461.585 611.603 436.867 638.99 338.157 584.909 T
605.679 649.988 436.867 638.99 461.585 611.603 T
606.115 620.162 605.679 649.988 461.585 611.603 T
192.757 556.018 178.417 495.578 209.738 495.578 T
229.344 548.511 192.757 556.018 209.738 495.578 T
260.318 624.088 192.757 556.018 229.344 548.511 T
300.186 604.021 260.318 624.088 229.344 548.511 T
410.913 667.746 260.318 624.088 300.186 604.021 T
436.867 638.99 410.913 667.746 300.186 604.021 T
605.221 681.306 410.913 667.746 436.867 638.99 T
605.679 649.988 605.221 681.306 436.867 638.99 T
893.628 582.536 606.53 591.756 606.925 564.702 T
892.622 555.486 893.628 582.536 606.925 564.702 T
1179.83 557.427 893.628 582.536 892.622 555.486 T
1177.43 530.474 1179.83 557.427 892.622 555.486 T
1465 522.367 1179.83 557.427 1177.43 530.474 T
1461.2 495.578 1465 522.367 1177.43 530.474 T
894.685 610.938 606.115 620.162 606.53 591.756 T
893.628 582.536 894.685 610.938 606.53 591.756 T
1182.36 585.727 894.685 610.938 893.628 582.536 T
1179.83 557.427 1182.36 585.727 893.628 582.536 T
1468.98 550.495 1182.36 585.727 1179.83 557.427 T
1465 522.367 1468.98 550.495 1179.83 557.427 T
895.795 640.761 605.679 649.988 606.115 620.162 T
894.685 610.938 895.795 640.761 606.115 620.162 T
1185.01 615.442 895.795 640.761 894.685 610.938 T
1182.36 585.727 1185.01 615.442 894.685 610.938 T
1473.17 580.03 1185.01 615.442 1182.36 585.727 T
1468.98 550.495 1473.17 580.03 1182.36 585.727 T
896.96 672.075 605.221 681.306 605.679 649.988 T
895.795 640.761 896.96 672.075 605.679 649.988 T
1187.79 646.643 896.96 672.075 895.795 640.761 T
1185.01 615.442 1187.79 646.643 895.795 640.761 T
1477.56 611.042 1187.79 646.643 1185.01 615.442 T
1473.17 580.03 1477.56 611.042 1185.01 615.442 T
2 W
0 0 0 C
1461.2 495.578 LS
1465 468.789 L
1179.83 433.729 LE
1177.43 460.682 LS
1179.83 433.729 LE
1461.2 495.578 LS
1177.43 460.682 LE
1179.83 433.729 LS
893.628 408.62 LE
892.622 435.67 LS
893.628 408.62 LE
1177.43 460.682 LS
892.622 435.67 LE
893.628 408.62 LS
606.53 399.4 LE
606.925 426.453 LS
606.53 399.4 LE
892.622 435.67 LS
606.925 426.453 LE
1465 468.789 LS
1468.98 440.66 L
1182.36 405.429 L
1179.83 433.729 LE
1182.36 405.429 LS
894.685 380.217 L
893.628 408.62 LE
894.685 380.217 LS
606.115 370.994 L
606.53 399.4 LE
1468.98 440.66 LS
1473.17 411.126 L
1185.01 375.713 L
1182.36 405.429 LE
1185.01 375.713 LS
895.795 350.395 L
894.685 380.217 LE
895.795 350.395 LS
605.679 341.167 L
606.115 370.994 LE
1473.17 411.126 LS
1477.56 380.114 L
1187.79 344.512 LE
1185.01 375.713 LS
1187.79 344.512 L
896.96 319.081 LE
895.795 350.395 LS
896.96 319.081 L
605.221 309.849 LE
605.679 341.167 LS
605.221 309.849 LE
606.925 426.453 LS
606.53 399.4 L
485.126 405.636 LE
507.546 430.477 LS
485.126 405.636 LE
606.925 426.453 LS
507.546 430.477 LE
485.126 405.636 LS
374.319 424.449 LE
408.759 441.784 LS
374.319 424.449 LE
507.546 430.477 LS
408.759 441.784 LE
374.319 424.449 LS
297.373 456.604 LE
328.977 463.088 LS
297.373 456.604 LE
408.759 441.784 LS
328.977 463.088 LE
297.373 456.604 LS
267.977 495.578 LE
295.034 495.578 LS
267.977 495.578 LE
328.977 463.088 LS
295.034 495.578 LE
606.53 399.4 LS
606.115 370.994 L
461.585 379.553 L
485.126 405.636 LE
461.585 379.553 LS
338.157 406.247 L
374.319 424.449 LE
338.157 406.247 LS
264.188 449.794 L
297.373 456.604 LE
264.188 449.794 LS
239.568 495.578 L
267.977 495.578 LE
606.115 370.994 LS
605.679 341.167 L
436.867 352.166 L
461.585 379.553 LE
436.867 352.166 LS
300.186 387.135 L
338.157 406.247 LE
300.186 387.135 LS
229.344 442.645 L
264.188 449.794 LE
229.344 442.645 LS
209.738 495.578 L
239.568 495.578 LE
605.679 341.167 LS
605.221 309.849 L
410.913 323.41 LE
436.867 352.166 LS
410.913 323.41 L
260.318 367.067 LE
300.186 387.135 LS
260.318 367.067 L
192.757 435.138 LE
229.344 442.645 LS
192.757 435.138 L
178.417 495.578 LE
209.738 495.578 LS
178.417 495.578 LE
295.034 495.578 LS
267.977 495.578 L
297.373 534.552 LE
328.977 528.067 LS
297.373 534.552 LE
295.034 495.578 LS
328.977 528.067 LE
297.373 534.552 LS
374.319 566.707 LE
408.759 549.371 LS
374.319 566.707 LE
328.977 528.067 LS
408.759 549.371 LE
374.319 566.707 LS
485.126 585.52 LE
507.546 560.679 LS
485.126 585.52 LE
408.759 549.371 LS
507.546 560.679 LE
485.126 585.52 LS
606.53 591.756 LE
606.925 564.702 LS
606.53 591.756 LE
507.546 560.679 LS
606.925 564.702 LE
267.977 495.578 LS
239.568 495.578 L
264.188 541.361 L
297.373 534.552 LE
264.188 541.361 LS
338.157 584.909 L
374.319 566.707 LE
338.157 584.909 LS
461.585 611.603 L
485.126 585.52 LE
461.585 611.603 LS
606.115 620.162 L
606.53 591.756 LE
239.568 495.578 LS
209.738 495.578 L
229.344 548.511 L
264.188 541.361 LE
229.344 548.511 LS
300.186 604.021 L
338.157 584.909 LE
300.186 604.021 LS
436.867 638.99 L
461.585 611.603 LE
436.867 638.99 LS
605.679 649.988 L
606.115 620.162 LE
209.738 495.578 LS
178.417 495.578 L
192.757 556.018 LE
229.344 548.511 LS
192.757 556.018 L
260.318 624.088 LE
300.186 604.021 LS
260.318 624.088 L
410.913 667.746 LE
436.867 638.99 LS
410.913 667.746 L
605.221 681.306 LE
605.679 649.988 LS
605.221 681.306 LE
606.925 564.702 LS
606.53 591.756 L
893.628 582.536 LE
892.622 555.486 LS
893.628 582.536 LE
606.925 564.702 LS
892.622 555.486 LE
893.628 582.536 LS
1179.83 557.427 LE
1177.43 530.474 LS
1179.83 557.427 LE
892.622 555.486 LS
1177.43 530.474 LE
1179.83 557.427 LS
1465 522.367 LE
1461.2 495.578 LS
1465 522.367 LE
1177.43 530.474 LS
1461.2 495.578 LE
606.53 591.756 LS
606.115 620.162 L
894.685 610.938 L
893.628 582.536 LE
894.685 610.938 LS
1182.36 585.727 L
1179.83 557.427 LE
1182.36 585.727 LS
1468.98 550.495 L
1465 522.367 LE
606.115 620.162 LS
605.679 649.988 L
895.795 640.761 L
894.685 610.938 LE
895.795 640.761 LS
1185.01 615.442 L
1182.36 585.727 LE
1185.01 615.442 LS
1473.17 580.03 L
1468.98 550.495 LE
605.679 649.988 LS
605.221 681.306 L
896.96 672.075 LE
895.795 640.761 LS
896.96 672.075 L
1187.79 646.643 LE
1185.01 615.442 LS
1187.79 646.643 L
1477.56 611.042 LE
1473.17 580.03 LS
1477.56 611.042 LE
0 0 0.560784 C
430 36 516 20 430 20 T
430 36 516 36 516 20 T
0 0 1 C
516 36 602 20 516 20 T
516 36 602 36 602 20 T
0 0.443137 1 C
602 36 688 20 602 20 T
602 36 688 36 688 20 T
0 0.898039 1 C
688 36 774 20 688 20 T
688 36 774 36 774 20 T
0.341176 1 0.686275 C
774 36 860 20 774 20 T
774 36 860 36 860 20 T
0.780392 1 0.247059 C
860 36 946 20 860 20 T
860 36 946 36 946 20 T
1 0.803922 0 C
946 36 1032 20 946 20 T
946 36 1032 36 1032 20 T
1 0.34902 0 C
1032 36 1118 20 1032 20 T
1032 36 1118 36 1118 20 T
0.905882 0 0 C
1118 36 1204 20 1118 20 T
1118 36 1204 36 1204 20 T
0.466667 0 0 C
1204 36 1290 20 1204 20 T
1204 36 1290 36 1290 20 T
0 0 0 C
(0) 425 46 15 /Helvetica S
(0.15) 498.5 46 15 /Helvetica S
(0.3) 589.5 46 15 /Helvetica S
(0.45) 670.5 46 15 /Helvetica S
(0.6) 761.5 46 15 /Helvetica S
(0.75) 842.5 46 15 /Helvetica S
(0.9) 933.5 46 15 /Helvetica S
(1.05) 1014.5 46 15 /Helvetica S
(1.2) 1105.5 46 15 /Helvetica S
(1.35) 1186.5 46 15 /Helvetica S
(1.5) 1277.5 46 15 /Helvetica S
(Block Color) 809.5 71.2 18 /Helvetica S
(X) 1693 43 15 /Helvetica S
(Y) 1663 73 15 /Helvetica S
(Z) 1663 43 15 /Helvetica S
1 W
1660 40 LS
1690 40 LE
1660 40 LS
1660 70 LE
1660 40 LS
1660 40 LE
grestore
showpage
cleartomark
%%PageTrailer
%%Trailer
end
%%EOF
