 // 
 // Sharp NACA 0012 Profile
 // 
 // Angle of attack :    2.00000000000000      degrÃ©(s)
 // 
a=5;
  
Point(1) = { 1.000000000000000E+00,0.000000000000000E+00, 0., 1.E-02};
Point(2) = { 9.970300197601318E-01,-4.207300080452114E-04, 0., 5.E-02};
Point(3) = { 9.937499761581421E-01,-8.835400221869349E-04, 0., 5.E-02};
Point(4) = { 9.901300072669983E-01,-1.392400008626282E-03, 0., 5.E-02};
Point(5) = { 9.861299991607666E-01,-1.951699960045516E-03, 0., 5.E-02};
Point(6) = { 9.817100167274475E-01,-2.566199982538819E-03, 0., 5.E-02};
Point(7) = { 9.768300056457520E-01,-3.240799997001886E-03, 0., 5.E-02};
Point(8) = { 9.714400172233582E-01,-3.981099929660559E-03, 0., 5.E-02};
Point(9) = { 9.654899835586548E-01,-4.792999941855669E-03, 0., 5.E-02};
Point(10) = { 9.589200019836426E-01,-5.682699847966433E-03, 0., 5.E-02};
Point(11) = { 9.516599774360657E-01,-6.657199934124947E-03, 0., 5.E-02};
Point(12) = { 9.436399936676025E-01,-7.723500020802021E-03, 0., 5.E-02};
Point(13) = { 9.347800016403198E-01,-8.889400400221348E-03, 0., 5.E-02};
Point(14) = { 9.250000119209290E-01,-1.016299985349178E-02, 0., 5.E-02};
Point(15) = { 9.142000079154968E-01,-1.155200041830540E-02, 0., 5.E-02};
Point(16) = { 9.022700190544128E-01,-1.306699961423874E-02, 0., 5.E-02};
Point(17) = { 8.890900015830994E-01,-1.471399981528521E-02, 0., 5.E-02};
Point(18) = { 8.745399713516235E-01,-1.650499925017357E-02, 0., 5.E-02};
Point(19) = { 8.584600090980530E-01,-1.844800077378750E-02, 0., 5.E-02};
Point(20) = { 8.416299819946289E-01,-2.044299989938736E-02, 0., 5.E-02};
Point(21) = { 8.249099850654602E-01,-2.238800004124641E-02, 0., 5.E-02};
Point(22) = { 8.082900047302246E-01,-2.428100071847439E-02, 0., 5.E-02};
Point(23) = { 7.917699813842773E-01,-2.612599916756153E-02, 0., 5.E-02};
Point(24) = { 7.753499746322632E-01,-2.792399935424328E-02, 0., 5.E-02};
Point(25) = { 7.590299844741821E-01,-2.967499941587448E-02, 0., 5.E-02};
Point(26) = { 7.428100109100342E-01,-3.138099983334541E-02, 0., 5.E-02};
Point(27) = { 7.266700267791748E-01,-3.304199874401093E-02, 0., 5.E-02};
Point(28) = { 7.106199860572815E-01,-3.465899825096130E-02, 0., 5.E-02};
Point(29) = { 6.946499943733215E-01,-3.623199835419655E-02, 0., 5.E-02};
Point(30) = { 6.787599921226501E-01,-3.776200115680695E-02, 0., 5.E-02};
Point(31) = { 6.629499793052673E-01,-3.924899920821190E-02, 0., 5.E-02};
Point(32) = { 6.472100019454956E-01,-4.069200158119202E-02, 0., 5.E-02};
Point(33) = { 6.315400004386902E-01,-4.209100082516670E-02, 0., 5.E-02};
Point(34) = { 6.159300208091736E-01,-4.344699904322624E-02, 0., 5.E-02};
Point(35) = { 6.003900170326233E-01,-4.475900158286095E-02, 0., 5.E-02};
Point(36) = { 5.849099755287170E-01,-4.602500051259995E-02, 0., 5.E-02};
Point(37) = { 5.694800019264221E-01,-4.724600166082382E-02, 0., 5.E-02};
Point(38) = { 5.541099905967712E-01,-4.842000082135201E-02, 0., 5.E-02};
Point(39) = { 5.387799739837646E-01,-4.954700171947479E-02, 0., 5.E-02};
Point(40) = { 5.235000252723694E-01,-5.062500014901161E-02, 0., 5.E-02};
Point(41) = { 5.082700252532959E-01,-5.165300145745277E-02, 0., 5.E-02};
Point(42) = { 4.930700063705444E-01,-5.262900143861771E-02, 0., 5.E-02};
Point(43) = { 4.778999984264374E-01,-5.355200171470642E-02, 0., 5.E-02};
Point(44) = { 4.627699851989746E-01,-5.441899970173836E-02, 0., 5.E-02};
Point(45) = { 4.476700127124786E-01,-5.522900074720383E-02, 0., 5.E-02};
Point(46) = { 4.325900077819824E-01,-5.597800016403198E-02, 0., 5.E-02};
Point(47) = { 4.175300002098083E-01,-5.666499957442284E-02, 0., 5.E-02};
Point(48) = { 4.024899899959564E-01,-5.728600174188614E-02, 0., 5.E-02};
Point(49) = { 3.874700069427490E-01,-5.783800035715103E-02, 0., 5.E-02};
Point(50) = { 3.724600076675415E-01,-5.831800028681755E-02, 0., 5.E-02};
Point(51) = { 3.574599921703339E-01,-5.872299894690514E-02, 0., 5.E-02};
Point(52) = { 3.424600064754486E-01,-5.904699862003326E-02, 0., 5.E-02};
Point(53) = { 3.274700045585632E-01,-5.928599834442139E-02, 0., 5.E-02};
Point(54) = { 3.124699890613556E-01,-5.943400040268898E-02, 0., 5.E-02};
Point(55) = { 2.974700033664703E-01,-5.948600172996521E-02, 0., 5.E-02};
Point(56) = { 2.824699878692627E-01,-5.943600088357925E-02, 0., 5.E-02};
Point(57) = { 2.674500048160553E-01,-5.927500128746033E-02, 0., 5.E-02};
Point(58) = { 2.524299919605255E-01,-5.899700149893761E-02, 0., 5.E-02};
Point(59) = { 2.373899966478348E-01,-5.859300121665001E-02, 0., 5.E-02};
Point(60) = { 2.223400026559830E-01,-5.804999917745590E-02, 0., 5.E-02};
Point(61) = { 2.072599977254868E-01,-5.735800042748451E-02, 0., 5.E-02};
Point(62) = { 1.921699941158295E-01,-5.650499835610390E-02, 0., 5.E-02};
Point(63) = { 1.770599931478500E-01,-5.547099933028221E-02, 0., 5.E-02};
Point(64) = { 1.619299948215485E-01,-5.423900112509727E-02, 0., 5.E-02};
Point(65) = { 1.467899978160858E-01,-5.278500169515610E-02, 0., 5.E-02};
Point(66) = { 1.322900056838989E-01,-5.116200074553490E-02, 0., 5.E-02};
Point(67) = { 1.190399974584579E-01,-4.945399984717369E-02, 0., 5.E-02};
Point(68) = { 1.069300025701523E-01,-4.768000170588493E-02, 0., 5.E-02};
Point(69) = { 9.586799889802933E-02,-4.585599899291992E-02, 0., 5.E-02};
Point(70) = { 8.577000349760056E-02,-4.399599879980087E-02, 0., 5.E-02};
Point(71) = { 7.655599713325500E-02,-4.211099818348885E-02, 0., 5.E-02};
Point(72) = { 6.815300136804581E-02,-4.021200165152550E-02, 0., 5.E-02};
Point(73) = { 6.049599871039391E-02,-3.830600157380104E-02, 0., 5.E-02};
Point(74) = { 5.352399870753288E-02,-3.640000149607658E-02, 0., 5.E-02};
Point(75) = { 4.718200117349625E-02,-3.449999913573265E-02, 0., 5.E-02};
Point(76) = { 4.142000153660774E-02,-3.260999917984009E-02, 0., 5.E-02};
Point(77) = { 3.619199991226196E-02,-3.073300048708916E-02, 0., 5.E-02};
Point(78) = { 3.145699948072433E-02,-2.887200005352497E-02, 0., 5.E-02};
Point(79) = { 2.717700041830540E-02,-2.702900022268295E-02, 0., 5.E-02};
Point(80) = { 2.331699989736080E-02,-2.520499937236309E-02, 0., 5.E-02};
Point(81) = { 1.984800025820732E-02,-2.340300008654594E-02, 0., 5.E-02};
Point(82) = { 1.673999987542629E-02,-2.162200026214123E-02, 0., 5.E-02};
Point(83) = { 1.396999973803759E-02,-1.986500062048435E-02, 0., 5.E-02};
Point(84) = { 1.151499990373850E-02,-1.813299953937531E-02, 0., 5.E-02};
Point(85) = { 9.355300106108189E-03,-1.642799936234951E-02, 0., 5.E-02};
Point(86) = { 7.471399847418070E-03,-1.475299987941980E-02, 0., 5.E-02};
Point(87) = { 5.847000051289797E-03,-1.311200018972158E-02, 0., 5.E-02};
Point(88) = { 4.466100130230188E-03,-1.151099987328053E-02, 0., 5.E-02};
Point(89) = { 3.312600078061223E-03,-9.954700246453285E-03, 0., 5.E-02};
Point(90) = { 2.369200112298131E-03,-8.452000096440315E-03, 0., 5.E-02};
Point(91) = { 1.617899979464710E-03,-7.011000066995621E-03, 0., 5.E-02};
Point(92) = { 1.039199996739626E-03,-5.639600101858377E-03, 0., 5.E-02};
Point(93) = { 6.129799876362085E-04,-4.344400018453598E-03, 0., 5.E-02};
Point(94) = { 3.168400144204497E-04,-3.131099976599216E-03, 0., 5.E-02};
Point(95) = { 1.291899970965460E-04,-2.002600114792585E-03, 0., 5.E-02};
Point(96) = { 2.965000021504238E-05,-9.594199946150184E-04, 0., 5.E-02};
Point(97) = { 0.000000000000000E+00,0.000000000000000E+00, 0., 5.E-02};
Point(98) = { 2.965000021504238E-05,9.594199946150184E-04, 0., 5.E-02};
Point(99) = { 1.291899970965460E-04,2.002600114792585E-03, 0., 5.E-02};
Point(100) = { 3.168400144204497E-04,3.131099976599216E-03, 0., 5.E-02};
Point(101) = { 6.129799876362085E-04,4.344400018453598E-03, 0., 5.E-02};
Point(102) = { 1.039199996739626E-03,5.639600101858377E-03, 0., 5.E-02};
Point(103) = { 1.617899979464710E-03,7.011000066995621E-03, 0., 5.E-02};
Point(104) = { 2.369200112298131E-03,8.452000096440315E-03, 0., 5.E-02};
Point(105) = { 3.312600078061223E-03,9.954700246453285E-03, 0., 5.E-02};
Point(106) = { 4.466100130230188E-03,1.151099987328053E-02, 0., 5.E-02};
Point(107) = { 5.847000051289797E-03,1.311200018972158E-02, 0., 5.E-02};
Point(108) = { 7.471399847418070E-03,1.475299987941980E-02, 0., 5.E-02};
Point(109) = { 9.355300106108189E-03,1.642799936234951E-02, 0., 5.E-02};
Point(110) = { 1.151499990373850E-02,1.813299953937531E-02, 0., 5.E-02};
Point(111) = { 1.396999973803759E-02,1.986500062048435E-02, 0., 5.E-02};
Point(112) = { 1.673999987542629E-02,2.162200026214123E-02, 0., 5.E-02};
Point(113) = { 1.984800025820732E-02,2.340300008654594E-02, 0., 5.E-02};
Point(114) = { 2.331699989736080E-02,2.520499937236309E-02, 0., 5.E-02};
Point(115) = { 2.717700041830540E-02,2.702900022268295E-02, 0., 5.E-02};
Point(116) = { 3.145699948072433E-02,2.887200005352497E-02, 0., 5.E-02};
Point(117) = { 3.619199991226196E-02,3.073300048708916E-02, 0., 5.E-02};
Point(118) = { 4.142000153660774E-02,3.260999917984009E-02, 0., 5.E-02};
Point(119) = { 4.718200117349625E-02,3.449999913573265E-02, 0., 5.E-02};
Point(120) = { 5.352399870753288E-02,3.640000149607658E-02, 0., 5.E-02};
Point(121) = { 6.049599871039391E-02,3.830600157380104E-02, 0., 5.E-02};
Point(122) = { 6.815300136804581E-02,4.021200165152550E-02, 0., 5.E-02};
Point(123) = { 7.655599713325500E-02,4.211099818348885E-02, 0., 5.E-02};
Point(124) = { 8.577000349760056E-02,4.399599879980087E-02, 0., 5.E-02};
Point(125) = { 9.586799889802933E-02,4.585599899291992E-02, 0., 5.E-02};
Point(126) = { 1.069300025701523E-01,4.768000170588493E-02, 0., 5.E-02};
Point(127) = { 1.190399974584579E-01,4.945399984717369E-02, 0., 5.E-02};
Point(128) = { 1.322900056838989E-01,5.116200074553490E-02, 0., 5.E-02};
Point(129) = { 1.467899978160858E-01,5.278500169515610E-02, 0., 5.E-02};
Point(130) = { 1.619299948215485E-01,5.423900112509727E-02, 0., 5.E-02};
Point(131) = { 1.770599931478500E-01,5.547099933028221E-02, 0., 5.E-02};
Point(132) = { 1.921699941158295E-01,5.650499835610390E-02, 0., 5.E-02};
Point(133) = { 2.072599977254868E-01,5.735800042748451E-02, 0., 5.E-02};
Point(134) = { 2.223400026559830E-01,5.804999917745590E-02, 0., 5.E-02};
Point(135) = { 2.373899966478348E-01,5.859300121665001E-02, 0., 5.E-02};
Point(136) = { 2.524299919605255E-01,5.899700149893761E-02, 0., 5.E-02};
Point(137) = { 2.674500048160553E-01,5.927500128746033E-02, 0., 5.E-02};
Point(138) = { 2.824699878692627E-01,5.943600088357925E-02, 0., 5.E-02};
Point(139) = { 2.974700033664703E-01,5.948600172996521E-02, 0., 5.E-02};
Point(140) = { 3.124699890613556E-01,5.943400040268898E-02, 0., 5.E-02};
Point(141) = { 3.274700045585632E-01,5.928599834442139E-02, 0., 5.E-02};
Point(142) = { 3.424600064754486E-01,5.904699862003326E-02, 0., 5.E-02};
Point(143) = { 3.574599921703339E-01,5.872299894690514E-02, 0., 5.E-02};
Point(144) = { 3.724600076675415E-01,5.831800028681755E-02, 0., 5.E-02};
Point(145) = { 3.874700069427490E-01,5.783800035715103E-02, 0., 5.E-02};
Point(146) = { 4.024899899959564E-01,5.728600174188614E-02, 0., 5.E-02};
Point(147) = { 4.175300002098083E-01,5.666499957442284E-02, 0., 5.E-02};
Point(148) = { 4.325900077819824E-01,5.597800016403198E-02, 0., 5.E-02};
Point(149) = { 4.476700127124786E-01,5.522900074720383E-02, 0., 5.E-02};
Point(150) = { 4.627699851989746E-01,5.441899970173836E-02, 0., 5.E-02};
Point(151) = { 4.778999984264374E-01,5.355200171470642E-02, 0., 5.E-02};
Point(152) = { 4.930700063705444E-01,5.262900143861771E-02, 0., 5.E-02};
Point(153) = { 5.082700252532959E-01,5.165300145745277E-02, 0., 5.E-02};
Point(154) = { 5.235000252723694E-01,5.062500014901161E-02, 0., 5.E-02};
Point(155) = { 5.387799739837646E-01,4.954700171947479E-02, 0., 5.E-02};
Point(156) = { 5.541099905967712E-01,4.842000082135201E-02, 0., 5.E-02};
Point(157) = { 5.694800019264221E-01,4.724600166082382E-02, 0., 5.E-02};
Point(158) = { 5.849099755287170E-01,4.602500051259995E-02, 0., 5.E-02};
Point(159) = { 6.003900170326233E-01,4.475900158286095E-02, 0., 5.E-02};
Point(160) = { 6.159300208091736E-01,4.344699904322624E-02, 0., 5.E-02};
Point(161) = { 6.315400004386902E-01,4.209100082516670E-02, 0., 5.E-02};
Point(162) = { 6.472100019454956E-01,4.069200158119202E-02, 0., 5.E-02};
Point(163) = { 6.629499793052673E-01,3.924899920821190E-02, 0., 5.E-02};
Point(164) = { 6.787599921226501E-01,3.776200115680695E-02, 0., 5.E-02};
Point(165) = { 6.946499943733215E-01,3.623199835419655E-02, 0., 5.E-02};
Point(166) = { 7.106199860572815E-01,3.465899825096130E-02, 0., 5.E-02};
Point(167) = { 7.266700267791748E-01,3.304199874401093E-02, 0., 5.E-02};
Point(168) = { 7.428100109100342E-01,3.138099983334541E-02, 0., 5.E-02};
Point(169) = { 7.590299844741821E-01,2.967499941587448E-02, 0., 5.E-02};
Point(170) = { 7.753499746322632E-01,2.792399935424328E-02, 0., 5.E-02};
Point(171) = { 7.917699813842773E-01,2.612599916756153E-02, 0., 5.E-02};
Point(172) = { 8.082900047302246E-01,2.428100071847439E-02, 0., 5.E-02};
Point(173) = { 8.249099850654602E-01,2.238800004124641E-02, 0., 5.E-02};
Point(174) = { 8.416299819946289E-01,2.044299989938736E-02, 0., 5.E-02};
Point(175) = { 8.584600090980530E-01,1.844800077378750E-02, 0., 5.E-02};
Point(176) = { 8.745399713516235E-01,1.650499925017357E-02, 0., 5.E-02};
Point(177) = { 8.890900015830994E-01,1.471399981528521E-02, 0., 5.E-02};
Point(178) = { 9.022700190544128E-01,1.306699961423874E-02, 0., 5.E-02};
Point(179) = { 9.142000079154968E-01,1.155200041830540E-02, 0., 5.E-02};
Point(180) = { 9.250000119209290E-01,1.016299985349178E-02, 0., 5.E-02};
Point(181) = { 9.347800016403198E-01,8.889400400221348E-03, 0., 5.E-02};
Point(182) = { 9.436399936676025E-01,7.723500020802021E-03, 0., 5.E-02};
Point(183) = { 9.516599774360657E-01,6.657199934124947E-03, 0., 5.E-02};
Point(184) = { 9.589200019836426E-01,5.682699847966433E-03, 0., 5.E-02};
Point(185) = { 9.654899835586548E-01,4.792999941855669E-03, 0., 5.E-02};
Point(186) = { 9.714400172233582E-01,3.981099929660559E-03, 0., 5.E-02};
Point(187) = { 9.768300056457520E-01,3.240799997001886E-03, 0., 5.E-02};
Point(188) = { 9.817100167274475E-01,2.566199982538819E-03, 0., 5.E-02};
Point(189) = { 9.861299991607666E-01,1.951699960045516E-03, 0., 5.E-02};
Point(190) = { 9.901300072669983E-01,1.392400008626282E-03, 0., 5.E-02};
Point(191) = { 9.937499761581421E-01,8.835400221869349E-04, 0., 5.E-02};
Point(192) = { 9.970300197601318E-01,4.207300080452114E-04, 0., 5.E-02};
//Point(193) = { 1.000000000000000E+00,0.000000000000000E+00, 0., 1.E-02};
// 
 
Point(200) = { 0.101403E+01,-0.990115E-01, 0., 2.E-02};
Point(201) = { 0.101103E+01,-0.994362E-01, 0., 2.E-02};
Point(202) = { 0.100769E+01,-0.999065E-01, 0., 2.E-02};
Point(203) = { 0.100401E+01,-0.100424E+00, 0., 2.E-02};
Point(204) = { 0.999937E+00,-0.100994E+00, 0., 2.E-02};
Point(205) = { 0.995440E+00,-0.101619E+00, 0., 2.E-02};
Point(206) = { 0.990478E+00,-0.102305E+00, 0., 2.E-02};
Point(207) = { 0.985001E+00,-0.103057E+00, 0., 2.E-02};
Point(208) = { 0.978957E+00,-0.103882E+00, 0., 2.E-02};
Point(209) = { 0.972279E+00,-0.104786E+00, 0., 2.E-02};
Point(210) = { 0.964898E+00,-0.105777E+00, 0., 2.E-02};
Point(211) = { 0.956750E+00,-0.106860E+00, 0., 2.E-02};
Point(212) = { 0.947757E+00,-0.108044E+00, 0., 2.E-02};
Point(213) = { 0.937831E+00,-0.109336E+00, 0., 2.E-02};
Point(214) = { 0.926873E+00,-0.110746E+00, 0., 2.E-02};
Point(215) = { 0.914764E+00,-0.112283E+00, 0., 2.E-02};
Point(216) = { 0.901394E+00,-0.113954E+00, 0., 2.E-02};
Point(217) = { 0.886641E+00,-0.115770E+00, 0., 2.E-02};
Point(218) = { 0.870341E+00,-0.117740E+00, 0., 2.E-02};
Point(219) = { 0.853293E+00,-0.119760E+00, 0., 2.E-02};
Point(220) = { 0.836346E+00,-0.121732E+00, 0., 2.E-02};
Point(221) = { 0.819498E+00,-0.123651E+00, 0., 2.E-02};
Point(222) = { 0.802762E+00,-0.125520E+00, 0., 2.E-02};
Point(223) = { 0.786127E+00,-0.127342E+00, 0., 2.E-02};
Point(224) = { 0.769594E+00,-0.129115E+00, 0., 2.E-02};
Point(225) = { 0.753159E+00,-0.130844E+00, 0., 2.E-02};
Point(226) = { 0.736801E+00,-0.132528E+00, 0., 2.E-02};
Point(227) = { 0.720533E+00,-0.134166E+00, 0., 2.E-02};
Point(228) = { 0.704344E+00,-0.135761E+00, 0., 2.E-02};
Point(229) = { 0.688235E+00,-0.137312E+00, 0., 2.E-02};
Point(230) = { 0.672197E+00,-0.138821E+00, 0., 2.E-02};
Point(231) = { 0.656221E+00,-0.140285E+00, 0., 2.E-02};
Point(232) = { 0.640314E+00,-0.141705E+00, 0., 2.E-02};
Point(233) = { 0.624464E+00,-0.143082E+00, 0., 2.E-02};
Point(234) = { 0.608672E+00,-0.144415E+00, 0., 2.E-02};
Point(235) = { 0.592930E+00,-0.145703E+00, 0., 2.E-02};
Point(236) = { 0.577233E+00,-0.146945E+00, 0., 2.E-02};
Point(237) = { 0.561584E+00,-0.148140E+00, 0., 2.E-02};
Point(238) = { 0.545965E+00,-0.149289E+00, 0., 2.E-02};
Point(239) = { 0.530386E+00,-0.150388E+00, 0., 2.E-02};
Point(240) = { 0.514841E+00,-0.151437E+00, 0., 2.E-02};
Point(241) = { 0.499311E+00,-0.152434E+00, 0., 2.E-02};
Point(242) = { 0.483797E+00,-0.153378E+00, 0., 2.E-02};
Point(243) = { 0.468309E+00,-0.154265E+00, 0., 2.E-02};
Point(244) = { 0.452829E+00,-0.155096E+00, 0., 2.E-02};
Point(245) = { 0.437349E+00,-0.155865E+00, 0., 2.E-02};
Point(246) = { 0.421871E+00,-0.156571E+00, 0., 2.E-02};
Point(247) = { 0.406389E+00,-0.157210E+00, 0., 2.E-02};
Point(248) = { 0.390905E+00,-0.157779E+00, 0., 2.E-02};
Point(249) = { 0.375408E+00,-0.158275E+00, 0., 2.E-02};
Point(250) = { 0.359889E+00,-0.158693E+00, 0., 2.E-02};
Point(251) = { 0.344337E+00,-0.159029E+00, 0., 2.E-02};
Point(252) = { 0.328760E+00,-0.159278E+00, 0., 2.E-02};
Point(253) = { 0.313137E+00,-0.159432E+00, 0., 2.E-02};
Point(254) = { 0.297477E+00,-0.159486E+00, 0., 2.E-02};
Point(255) = { 0.281767E+00,-0.159434E+00, 0., 2.E-02};
Point(256) = { 0.265989E+00,-0.159264E+00, 0., 2.E-02};
Point(257) = { 0.250162E+00,-0.158971E+00, 0., 2.E-02};
Point(258) = { 0.234244E+00,-0.158544E+00, 0., 2.E-02};
Point(259) = { 0.218245E+00,-0.157966E+00, 0., 2.E-02};
Point(260) = { 0.202146E+00,-0.157227E+00, 0., 2.E-02};
Point(261) = { 0.185934E+00,-0.156310E+00, 0., 2.E-02};
Point(262) = { 0.169588E+00,-0.155191E+00, 0., 2.E-02};
Point(263) = { 0.153091E+00,-0.153848E+00, 0., 2.E-02};
Point(264) = { 0.136464E+00,-0.152250E+00, 0., 2.E-02};
Point(265) = { 0.120372E+00,-0.150449E+00, 0., 2.E-02};
Point(266) = { 0.105437E+00,-0.148525E+00, 0., 2.E-02};
Point(267) = { 0.915865E-01,-0.146496E+00, 0., 2.E-02};
Point(268) = { 0.787158E-01,-0.144374E+00, 0., 2.E-02};
Point(269) = { 0.667326E-01,-0.142167E+00, 0., 2.E-02};
Point(270) = { 0.555557E-01,-0.139881E+00, 0., 2.E-02};
Point(271) = { 0.450988E-01,-0.137518E+00, 0., 2.E-02};
Point(272) = { 0.352802E-01,-0.135075E+00, 0., 2.E-02};
Point(273) = { 0.260385E-01,-0.132549E+00, 0., 2.E-02};
Point(274) = { 0.173006E-01,-0.129931E+00, 0., 2.E-02};
Point(275) = { 0.899529E-02,-0.127207E+00, 0., 2.E-02};
Point(276) = { 0.106422E-02,-0.124360E+00, 0., 2.E-02};
Point(277) = { -0.654727E-02,-0.121369E+00, 0., 2.E-02};
Point(278) = { -0.138967E-01,-0.118204E+00, 0., 2.E-02};
Point(279) = { -0.210273E-01,-0.114835E+00, 0., 2.E-02};
Point(280) = { -0.279914E-01,-0.111218E+00, 0., 2.E-02};
Point(281) = { -0.348296E-01,-0.107299E+00, 0., 2.E-02};
Point(282) = { -0.415625E-01,-0.103028E+00, 0., 2.E-02};
Point(283) = { -0.482175E-01,-0.983330E-01, 0., 2.E-02};
Point(284) = { -0.547788E-01,-0.931536E-01, 0., 2.E-02};
Point(285) = { -0.612195E-01,-0.874274E-01, 0., 2.E-02};
Point(286) = { -0.674902E-01,-0.810948E-01, 0., 2.E-02};
Point(287) = { -0.735175E-01,-0.741093E-01, 0., 2.E-02};
Point(288) = { -0.791691E-01,-0.664947E-01, 0., 2.E-02};
Point(289) = { -0.842951E-01,-0.583450E-01, 0., 2.E-02};
Point(290) = { -0.887831E-01,-0.497621E-01, 0., 2.E-02};
Point(291) = { -0.925365E-01,-0.409040E-01, 0., 2.E-02};
Point(292) = { -0.954821E-01,-0.320164E-01, 0., 2.E-02};
Point(293) = { -0.976152E-01,-0.233628E-01, 0., 2.E-02};
Point(294) = { -0.990077E-01,-0.151128E-01, 0., 2.E-02};
Point(295) = { -0.997629E-01,-0.739715E-02, 0., 2.E-02};
Point(296) = { -0.100000E+00,0.000000E+00, 0., 2.E-02};
Point(297) = { -0.997629E-01,0.739715E-02, 0., 2.E-02};
Point(298) = { -0.990077E-01,0.151128E-01, 0., 2.E-02};
Point(299) = { -0.976152E-01,0.233628E-01, 0., 2.E-02};
Point(300) = { -0.954821E-01,0.320164E-01, 0., 2.E-02};
Point(301) = { -0.925365E-01,0.409040E-01, 0., 2.E-02};
Point(302) = { -0.887831E-01,0.497621E-01, 0., 2.E-02};
Point(303) = { -0.842951E-01,0.583450E-01, 0., 2.E-02};
Point(304) = { -0.791691E-01,0.664947E-01, 0., 2.E-02};
Point(305) = { -0.735175E-01,0.741093E-01, 0., 2.E-02};
Point(306) = { -0.674902E-01,0.810948E-01, 0., 2.E-02};
Point(307) = { -0.612195E-01,0.874274E-01, 0., 2.E-02};
Point(308) = { -0.547788E-01,0.931536E-01, 0., 2.E-02};
Point(309) = { -0.482175E-01,0.983330E-01, 0., 2.E-02};
Point(310) = { -0.415625E-01,0.103028E+00, 0., 2.E-02};
Point(311) = { -0.348296E-01,0.107299E+00, 0., 2.E-02};
Point(312) = { -0.279914E-01,0.111218E+00, 0., 2.E-02};
Point(313) = { -0.210273E-01,0.114835E+00, 0., 2.E-02};
Point(314) = { -0.138967E-01,0.118204E+00, 0., 2.E-02};
Point(315) = { -0.654727E-02,0.121369E+00, 0., 2.E-02};
Point(316) = { 0.106422E-02,0.124360E+00, 0., 2.E-02};
Point(317) = { 0.899529E-02,0.127207E+00, 0., 2.E-02};
Point(318) = { 0.173006E-01,0.129931E+00, 0., 2.E-02};
Point(319) = { 0.260385E-01,0.132549E+00, 0., 2.E-02};
Point(320) = { 0.352802E-01,0.135075E+00, 0., 2.E-02};
Point(321) = { 0.450988E-01,0.137518E+00, 0., 2.E-02};
Point(322) = { 0.555557E-01,0.139881E+00, 0., 2.E-02};
Point(323) = { 0.667326E-01,0.142167E+00, 0., 2.E-02};
Point(324) = { 0.787158E-01,0.144374E+00, 0., 2.E-02};
Point(325) = { 0.915865E-01,0.146496E+00, 0., 2.E-02};
Point(326) = { 0.105437E+00,0.148525E+00, 0., 2.E-02};
Point(327) = { 0.120372E+00,0.150449E+00, 0., 2.E-02};
Point(328) = { 0.136464E+00,0.152250E+00, 0., 2.E-02};
Point(329) = { 0.153091E+00,0.153848E+00, 0., 2.E-02};
Point(330) = { 0.169588E+00,0.155191E+00, 0., 2.E-02};
Point(331) = { 0.185934E+00,0.156310E+00, 0., 2.E-02};
Point(332) = { 0.202146E+00,0.157227E+00, 0., 2.E-02};
Point(333) = { 0.218245E+00,0.157966E+00, 0., 2.E-02};
Point(334) = { 0.234244E+00,0.158544E+00, 0., 2.E-02};
Point(335) = { 0.250162E+00,0.158971E+00, 0., 2.E-02};
Point(336) = { 0.265989E+00,0.159264E+00, 0., 2.E-02};
Point(337) = { 0.281767E+00,0.159434E+00, 0., 2.E-02};
Point(338) = { 0.297477E+00,0.159486E+00, 0., 2.E-02};
Point(339) = { 0.313137E+00,0.159432E+00, 0., 2.E-02};
Point(340) = { 0.328760E+00,0.159278E+00, 0., 2.E-02};
Point(341) = { 0.344337E+00,0.159029E+00, 0., 2.E-02};
Point(342) = { 0.359889E+00,0.158693E+00, 0., 2.E-02};
Point(343) = { 0.375408E+00,0.158275E+00, 0., 2.E-02};
Point(344) = { 0.390905E+00,0.157779E+00, 0., 2.E-02};
Point(345) = { 0.406389E+00,0.157210E+00, 0., 2.E-02};
Point(346) = { 0.421871E+00,0.156571E+00, 0., 2.E-02};
Point(347) = { 0.437349E+00,0.155865E+00, 0., 2.E-02};
Point(348) = { 0.452829E+00,0.155096E+00, 0., 2.E-02};
Point(349) = { 0.468309E+00,0.154265E+00, 0., 2.E-02};
Point(350) = { 0.483797E+00,0.153378E+00, 0., 2.E-02};
Point(351) = { 0.499311E+00,0.152434E+00, 0., 2.E-02};
Point(352) = { 0.514841E+00,0.151437E+00, 0., 2.E-02};
Point(353) = { 0.530386E+00,0.150388E+00, 0., 2.E-02};
Point(354) = { 0.545965E+00,0.149289E+00, 0., 2.E-02};
Point(355) = { 0.561584E+00,0.148140E+00, 0., 2.E-02};
Point(356) = { 0.577233E+00,0.146945E+00, 0., 2.E-02};
Point(357) = { 0.592930E+00,0.145703E+00, 0., 2.E-02};
Point(358) = { 0.608672E+00,0.144415E+00, 0., 2.E-02};
Point(359) = { 0.624464E+00,0.143082E+00, 0., 2.E-02};
Point(360) = { 0.640314E+00,0.141705E+00, 0., 2.E-02};
Point(361) = { 0.656221E+00,0.140285E+00, 0., 2.E-02};
Point(362) = { 0.672197E+00,0.138821E+00, 0., 2.E-02};
Point(363) = { 0.688235E+00,0.137312E+00, 0., 2.E-02};
Point(364) = { 0.704344E+00,0.135761E+00, 0., 2.E-02};
Point(365) = { 0.720533E+00,0.134166E+00, 0., 2.E-02};
Point(366) = { 0.736801E+00,0.132528E+00, 0., 2.E-02};
Point(367) = { 0.753159E+00,0.130844E+00, 0., 2.E-02};
Point(368) = { 0.769594E+00,0.129115E+00, 0., 2.E-02};
Point(369) = { 0.786127E+00,0.127342E+00, 0., 2.E-02};
Point(370) = { 0.802762E+00,0.125520E+00, 0., 2.E-02};
Point(371) = { 0.819498E+00,0.123651E+00, 0., 2.E-02};
Point(372) = { 0.836346E+00,0.121732E+00, 0., 2.E-02};
Point(373) = { 0.853293E+00,0.119760E+00, 0., 2.E-02};
Point(374) = { 0.870341E+00,0.117740E+00, 0., 2.E-02};
Point(375) = { 0.886641E+00,0.115770E+00, 0., 2.E-02};
Point(376) = { 0.901394E+00,0.113954E+00, 0., 2.E-02};
Point(377) = { 0.914764E+00,0.112283E+00, 0., 2.E-02};
Point(378) = { 0.926873E+00,0.110746E+00, 0., 2.E-02};
Point(379) = { 0.937831E+00,0.109336E+00, 0., 2.E-02};
Point(380) = { 0.947757E+00,0.108044E+00, 0., 2.E-02};
Point(381) = { 0.956750E+00,0.106860E+00, 0., 2.E-02};
Point(382) = { 0.964898E+00,0.105777E+00, 0., 2.E-02};
Point(383) = { 0.972279E+00,0.104786E+00, 0., 2.E-02};
Point(384) = { 0.978957E+00,0.103882E+00, 0., 2.E-02};
Point(385) = { 0.985001E+00,0.103057E+00, 0., 2.E-02};
Point(386) = { 0.990478E+00,0.102305E+00, 0., 2.E-02};
Point(387) = { 0.995440E+00,0.101619E+00, 0., 2.E-02};
Point(388) = { 0.999937E+00,0.100994E+00, 0., 2.E-02};
Point(389) = { 0.100401E+01,0.100424E+00, 0., 2.E-02};
Point(390) = { 0.100769E+01,0.999065E-01, 0., 2.E-02};
Point(391) = { 0.101103E+01,0.994362E-01, 0., 2.E-02};
Point(392) = { 0.101403E+01,0.990115E-01, 0., 2.E-02};

//
Line(1) = {
  1,  2,  3,  4,  5,  6,  7,  8,
  9, 10, 11, 12, 13, 14, 15, 16,
 17, 18, 19, 20, 21, 22, 23, 24,
 25, 26, 27, 28, 29, 30, 31, 32,
 33, 34, 35, 36, 37, 38, 39, 40,
 41, 42, 43, 44, 45, 46, 47, 48,
 49, 50, 51, 52, 53, 54, 55, 56,
 57};
//
Line(2) = { 
 57, 58, 59, 60, 61, 62, 63, 64,
 65, 66, 67, 68, 69, 70, 71, 72,
 73, 74, 75, 76, 77, 78, 79, 80,
 81, 82, 83, 84, 85, 86, 87, 88,
 89, 90, 91, 92, 93, 94, 95, 96,
 97};
//
Line(3) = {
 97, 98, 99,100,101,102,103,104,
105,106,107,108,109,110,111,112,
113,114,115,116,117,118,119,120,
121,122,123,124,125,126,127,128,
129,130,131,132,133,134,135,136,
137};
//
Line(4) = {
137,138,139,140,141,142,143,144,
145,146,147,148,149,150,151,152,
153,154,155,156,157,158,159,160,
161,162,163,164,165,166,167,168,
169,170,171,172,173,174,175,176,
177,178,179,180,181,182,183,184,
185,186,187,188,189,190,191,192,
1};
//
Line(5) = {
137,138,139,140,141,142,143,144,
145,146,147,148,149,150,151,152,
153,154,155,156,157,158,159,160,
161,162,163,164,165,166,167,168,
169,170,171,172,173,174,175,176,
177,178,179,180,181,182,183,184,
185,186,187,188,189,190,191,192,
1};
//
Line(6) = { 200,
201,202,203,204,205,206,207,208,
209,210,211,212,213,214,215,216,
217,218,219,220,221,222,223,224,
225,226,227,228,229,230,231,232,
233,234,235,236,237,238,239,240,
241,242,243,244,245,246,247,248,
249,250,251,252,253,254,255,256
};
//
Line(7) = { 256,
257,258,259,260,261,262,263,264,
265,266,267,268,269,270,271,272,
273,274,275,276,277,278,279,280,
281,282,283,284,285,286,287,288,
289,290,291,292,293,294,295,296};
//
Line(8) = { 296,
297,298,299,300,301,302,303,304,
305,306,307,308,309,310,311,312,
313,314,315,316,317,318,319,320,
321,322,323,324,325,326,327,328,
329,330,331,332,333,334,335,336
};
//
Line(9) = { 336,
337,338,339,340,341,342,343,344,
345,346,347,348,349,350,351,352,
353,354,355,356,357,358,359,360,
361,362,363,364,365,366,367,368,
369,370,371,372,373,374,375,376,
377,378,379,380,381,382,383,384,
385,386,387,388,389,390,391,392};
//
Line(10) = { 1,200 };
//Line(11) = { 193,392 };
Line(12) = { 1,392 };

//
// External boundary
//
Point(401) = { 0.00000E+00, 8.00000E+00, 0., 1.E+00};
Point(402) = { 0.00000E+00, 0.00000E+00, 0., 1.E+00};
Point(403) = { 0.00000E+00,-8.00000E+00, 0., 1.E+00};
Circle(13) = {401,402,403};
//
Point(404) = {10.00000E+00,-8.00000E+00,0., 1.E+00};
Line(14) = {403,404};
//
Point(405) = {10.00000E+00, 0.00000E+00,0., 1.E+01};
Line(15) = {404,405};
//
Point(406) = {10.00000E+00, 8.00000E+00,0., 1.E+00};

Line(16) = {405,406};
Line(17) = {406,401};
//
Point(407) = {1.20000E+00, 0.00000E+00,0., 1.E-02};
Point(408) = {2.00000E+00, 0.00000E+00,0., 1.E+01};
Point(409) = {3.00000E+00, 0.00000E+00,0., 1.E+01};
//
Line(18) = {1,407};
Line(19) = {407,408};
Line(20) = {408,409};
Line(21) = {409,405};
//
Line(22) = {57,256};
Line(23) = {97,296};
Line(24) = {137,336};
//
//Line Loop(1)={12,-9,-8,-7,-6,-10,18,19,20,21,16,17,13,14,15};
//Line Loop(1)={16,17,13,14,15,-21,-20,-19,-18,12,-9,-8,-7,-6,-10};
Line Loop(1)={16,17,13,14,15,-21,-20,-19,-18,10,6,7,8,9,-12};

//
Line Loop(2)={10,6,-22,-1};
Line Loop(3)={22,7,-23,-2};
Line Loop(4)={23,8,-3,-24};
Line Loop(5)={24,9,-5,-12};

Line Loop(6)={10,6,7,8,9,-12};
Line Loop(7)={16,17,13,14,15};


//
//- Controle des distributions profil et ligne-struct/non struct
//
Transfinite Line {1} = 30 Using Bump 0.1;
Transfinite Line {-2} = 51 Using Progression 1.03;
Transfinite Line {3} = 51 Using Progression 1.03;
Transfinite Line {-4} = 91 Using Progression 1.01;
Transfinite Line {-5} = 91 Using Progression 1.01;
//
Transfinite Line {6} = 30 Using Bump 0.1;
Transfinite Line {-7} = 51 Using Progression 1.01;
Transfinite Line {8} = 51 Using Progression 1.01;
Transfinite Line {-9} = 91 Using Progression 1.01;
//
Transfinite Line {10} = 15 Using Progression 1.05;
//Transfinite Line {11} = 15 Using Progression 1.05;
Transfinite Line {12} = 15 Using Progression 1.05;
Transfinite Line {22} = 15 Using Progression 1.05;
Transfinite Line {23} = 15 Using Progression 1.05;
Transfinite Line {24} = 15 Using Progression 1.05;
//
// Plane Surface
// 
 
Plane Surface(1) = {6,7};
Plane Surface(2) = {2};
Plane Surface(3) = {3};
Plane Surface(4) = {4};
Plane Surface(5) = {5};
//
Transfinite Surface {2};
Transfinite Surface {3};
Transfinite Surface {4};
Transfinite Surface {5};
//
// Recombine Surface {2};
// Recombine Surface {3};
// Recombine Surface {4};
// Recombine Surface {5};
//
//Plane Surface(2) = {2};
//Plane Surface(2) = {3};
//Plane Surface(1) = {1};
Physical Line(25) = {13,14,15,16,17};
Physical Line(26) = {3, 4, 1, 2};
