%!PS-Adobe-3.0 EPSF-3.0
%%Title: naca0012_trunc_cv
%%Creator: GL2PS 1.3.8, (C) 1999-2012 C. Geuzaine
%%For: Gmsh
%%CreationDate: Mon Apr 17 16:30:07 2017
%%LanguageLevel: 3
%%DocumentData: Clean7Bit
%%Pages: 1
%%BoundingBox: 130 170 1340 525
%%EndComments
%%BeginProlog
/gl2psdict 64 dict def gl2psdict begin
0 setlinecap 0 setlinejoin
/tryPS3shading false def % set to false to force subdivision
/rThreshold 0.0666667 def % red component subdivision threshold
/gThreshold 0.05 def % green component subdivision threshold
/bThreshold 0.1 def % blue component subdivision threshold
/BD { bind def } bind def
/C  { setrgbcolor } BD
/G  { 0.082 mul exch 0.6094 mul add exch 0.3086 mul add neg 1.0 add setgray } BD
/W  { setlinewidth } BD
/FC { findfont exch /SH exch def SH scalefont setfont } BD
/SW { dup stringwidth pop } BD
/S  { FC moveto show } BD
/SBC{ FC moveto SW -2 div 0 rmoveto show } BD
/SBR{ FC moveto SW neg 0 rmoveto show } BD
/SCL{ FC moveto 0 SH -2 div rmoveto show } BD
/SCC{ FC moveto SW -2 div SH -2 div rmoveto show } BD
/SCR{ FC moveto SW neg SH -2 div rmoveto show } BD
/STL{ FC moveto 0 SH neg rmoveto show } BD
/STC{ FC moveto SW -2 div SH neg rmoveto show } BD
/STR{ FC moveto SW neg SH neg rmoveto show } BD
/FCT { FC translate 0 0 } BD
/SR  { gsave FCT moveto rotate show grestore } BD
/SBCR{ gsave FCT moveto rotate SW -2 div 0 rmoveto show grestore } BD
/SBRR{ gsave FCT moveto rotate SW neg 0 rmoveto show grestore } BD
/SCLR{ gsave FCT moveto rotate 0 SH -2 div rmoveto show grestore} BD
/SCCR{ gsave FCT moveto rotate SW -2 div SH -2 div rmoveto show grestore} BD
/SCRR{ gsave FCT moveto rotate SW neg SH -2 div rmoveto show grestore} BD
/STLR{ gsave FCT moveto rotate 0 SH neg rmoveto show grestore } BD
/STCR{ gsave FCT moveto rotate SW -2 div SH neg rmoveto show grestore } BD
/STRR{ gsave FCT moveto rotate SW neg SH neg rmoveto show grestore } BD
/P  { newpath 0.0 360.0 arc closepath fill } BD
/LS { newpath moveto } BD
/L  { lineto } BD
/LE { lineto stroke } BD
/T  { newpath moveto lineto lineto closepath fill } BD
/STshfill {
      /b1 exch def /g1 exch def /r1 exch def /y1 exch def /x1 exch def
      /b2 exch def /g2 exch def /r2 exch def /y2 exch def /x2 exch def
      /b3 exch def /g3 exch def /r3 exch def /y3 exch def /x3 exch def
      gsave << /ShadingType 4 /ColorSpace [/DeviceRGB]
      /DataSource [ 0 x1 y1 r1 g1 b1 0 x2 y2 r2 g2 b2 0 x3 y3 r3 g3 b3 ] >>
      shfill grestore } BD
/Tm { 3 -1 roll 8 -1 roll 13 -1 roll add add 3 div
      3 -1 roll 7 -1 roll 11 -1 roll add add 3 div
      3 -1 roll 6 -1 roll 9 -1 roll add add 3 div C T } BD
/STsplit {
      4 index 15 index add 0.5 mul
      4 index 15 index add 0.5 mul
      4 index 15 index add 0.5 mul
      4 index 15 index add 0.5 mul
      4 index 15 index add 0.5 mul
      5 copy 5 copy 25 15 roll
      9 index 30 index add 0.5 mul
      9 index 30 index add 0.5 mul
      9 index 30 index add 0.5 mul
      9 index 30 index add 0.5 mul
      9 index 30 index add 0.5 mul
      5 copy 5 copy 35 5 roll 25 5 roll 15 5 roll
      4 index 10 index add 0.5 mul
      4 index 10 index add 0.5 mul
      4 index 10 index add 0.5 mul
      4 index 10 index add 0.5 mul
      4 index 10 index add 0.5 mul
      5 copy 5 copy 40 5 roll 25 5 roll 15 5 roll 25 5 roll
      STnoshfill STnoshfill STnoshfill STnoshfill } BD
/STnoshfill {
      2 index 8 index sub abs rThreshold gt
      { STsplit }
      { 1 index 7 index sub abs gThreshold gt
        { STsplit }
        { dup 6 index sub abs bThreshold gt
          { STsplit }
          { 2 index 13 index sub abs rThreshold gt
            { STsplit }
            { 1 index 12 index sub abs gThreshold gt
              { STsplit }
              { dup 11 index sub abs bThreshold gt
                { STsplit }
                { 7 index 13 index sub abs rThreshold gt
                  { STsplit }
                  { 6 index 12 index sub abs gThreshold gt
                    { STsplit }
                    { 5 index 11 index sub abs bThreshold gt
                      { STsplit }
                      { Tm }
                      ifelse }
                    ifelse }
                  ifelse }
                ifelse }
              ifelse }
            ifelse }
          ifelse }
        ifelse }
      ifelse } BD
tryPS3shading
{ /shfill where
  { /ST { STshfill } BD }
  { /ST { STnoshfill } BD }
  ifelse }
{ /ST { STnoshfill } BD }
ifelse
end
%%EndProlog
%%BeginSetup
/DeviceRGB setcolorspace
gl2psdict begin
%%EndSetup
%%Page: 1 1
%%BeginPageSetup
%%EndPageSetup
mark
gsave
1.0 1.0 scale
0.179243 1.0521 0.922787 C
1056.59 291.594 1317.65 323.69 1314.18 348.215 T
1054.39 316.268 1056.59 291.594 1314.18 348.215 T
0.0216442 0.0216442 0.599507 C
794.581 268.607 1056.59 291.594 1054.39 316.268 T
793.659 293.371 794.581 268.607 1054.39 316.268 T
1.00361 1.0521 0.0984233 C
531.749 260.167 794.581 268.607 793.659 293.371 T
532.111 284.933 531.749 260.167 793.659 293.371 T
1.0521 0.300473 0.0216442 C
1058.91 265.686 1321.3 297.939 1317.65 323.69 T
1056.59 291.594 1058.91 265.686 1317.65 323.69 T
0.502523 0.0216442 0.0216442 C
795.548 242.605 1058.91 265.686 1056.59 291.594 T
794.581 268.607 795.548 242.605 1056.59 291.594 T
1.0521 0.300473 0.0216442 C
531.369 234.161 795.548 242.605 794.581 268.607 T
531.749 260.167 531.369 234.161 794.581 268.607 T
0.179243 1.0521 0.922787 C
1061.33 238.482 1325.13 270.901 1321.3 297.939 T
1058.91 265.686 1061.33 238.482 1321.3 297.939 T
0.0216442 0.0216442 0.599507 C
796.564 215.303 1061.33 238.482 1058.91 265.686 T
795.548 242.605 796.564 215.303 1058.91 265.686 T
1.00361 1.0521 0.0984233 C
530.97 206.856 796.564 215.303 795.548 242.605 T
531.369 234.161 530.97 206.856 795.548 242.605 T
1.0521 0.300473 0.0216442 C
1063.88 209.918 1329.16 242.511 1325.13 270.901 T
1061.33 238.482 1063.88 209.918 1325.13 270.901 T
0.502523 0.0216442 0.0216442 C
797.631 186.636 1063.88 209.918 1061.33 238.482 T
796.564 215.303 797.631 186.636 1061.33 238.482 T
1.0521 0.300473 0.0216442 C
530.551 178.186 797.631 186.636 796.564 215.303 T
530.97 206.856 530.551 178.186 796.564 215.303 T
0.0216442 0.381293 1.0521 C
420.607 265.875 531.749 260.167 532.111 284.933 T
441.133 288.617 420.607 265.875 532.111 284.933 T
0.0216442 0.0216442 0.599507 C
319.166 283.098 420.607 265.875 441.133 288.617 T
350.696 298.968 319.166 283.098 441.133 288.617 T
0.179243 1.0521 0.922787 C
248.724 312.535 319.166 283.098 350.696 298.968 T
277.657 318.472 248.724 312.535 350.696 298.968 T
0.0216442 0.381293 1.0521 C
221.813 348.215 248.724 312.535 277.657 318.472 T
246.583 348.215 221.813 348.215 277.657 318.472 T
0.179243 1.0521 0.922787 C
399.056 241.997 531.369 234.161 531.749 260.167 T
420.607 265.875 399.056 241.997 531.749 260.167 T
1.0521 0.300473 0.0216442 C
286.061 266.435 399.056 241.997 420.607 265.875 T
319.166 283.098 286.061 266.435 420.607 265.875 T
0.502523 0.0216442 0.0216442 C
218.344 306.301 286.061 266.435 319.166 283.098 T
248.724 312.535 218.344 306.301 319.166 283.098 T
1.00361 1.0521 0.0984233 C
195.805 348.215 218.344 306.301 248.724 312.535 T
221.813 348.215 195.805 348.215 248.724 312.535 T
0.0216442 0.381293 1.0521 C
376.427 216.925 530.97 206.856 531.369 234.161 T
399.056 241.997 376.427 216.925 531.369 234.161 T
0.0216442 0.0216442 0.599507 C
251.3 248.938 376.427 216.925 399.056 241.997 T
286.061 266.435 251.3 248.938 399.056 241.997 T
0.179243 1.0521 0.922787 C
186.445 299.756 251.3 248.938 286.061 266.435 T
218.344 306.301 186.445 299.756 286.061 266.435 T
0.0216442 0.381293 1.0521 C
168.497 348.215 186.445 299.756 218.344 306.301 T
195.805 348.215 168.497 348.215 218.344 306.301 T
0.179243 1.0521 0.922787 C
352.667 190.6 530.551 178.186 530.97 206.856 T
376.427 216.925 352.667 190.6 530.97 206.856 T
1.0521 0.300473 0.0216442 C
214.801 230.567 352.667 190.6 376.427 216.925 T
251.3 248.938 214.801 230.567 376.427 216.925 T
0.502523 0.0216442 0.0216442 C
152.952 292.884 214.801 230.567 251.3 248.938 T
186.445 299.756 152.952 292.884 251.3 248.938 T
1.00361 1.0521 0.0984233 C
139.823 348.215 152.952 292.884 186.445 299.756 T
168.497 348.215 139.823 348.215 186.445 299.756 T
0.0216442 0.0216442 0.599507 C
248.724 383.895 221.813 348.215 246.583 348.215 T
277.657 377.958 248.724 383.895 246.583 348.215 T
0.179243 1.0521 0.922787 C
319.166 413.331 248.724 383.895 277.657 377.958 T
350.696 397.461 319.166 413.331 277.657 377.958 T
0.0216442 0.381293 1.0521 C
420.607 430.554 319.166 413.331 350.696 397.461 T
441.133 407.813 420.607 430.554 350.696 397.461 T
0.0216442 0.0216442 0.599507 C
531.749 436.263 420.607 430.554 441.133 407.813 T
532.111 411.497 531.749 436.263 441.133 407.813 T
1.0521 0.300473 0.0216442 C
218.344 390.128 195.805 348.215 221.813 348.215 T
248.724 383.895 218.344 390.128 221.813 348.215 T
0.502523 0.0216442 0.0216442 C
286.061 429.995 218.344 390.128 248.724 383.895 T
319.166 413.331 286.061 429.995 248.724 383.895 T
1.0521 0.300473 0.0216442 C
399.056 454.432 286.061 429.995 319.166 413.331 T
420.607 430.554 399.056 454.432 319.166 413.331 T
1.00361 1.0521 0.0984233 C
531.369 462.268 399.056 454.432 420.607 430.554 T
531.749 436.263 531.369 462.268 420.607 430.554 T
0.0216442 0.0216442 0.599507 C
186.445 396.673 168.497 348.215 195.805 348.215 T
218.344 390.128 186.445 396.673 195.805 348.215 T
0.179243 1.0521 0.922787 C
251.3 447.491 186.445 396.673 218.344 390.128 T
286.061 429.995 251.3 447.491 218.344 390.128 T
0.0216442 0.381293 1.0521 C
376.427 479.505 251.3 447.491 286.061 429.995 T
399.056 454.432 376.427 479.505 286.061 429.995 T
0.0216442 0.0216442 0.599507 C
530.97 489.574 376.427 479.505 399.056 454.432 T
531.369 462.268 530.97 489.574 399.056 454.432 T
1.0521 0.300473 0.0216442 C
152.952 403.546 139.823 348.215 168.497 348.215 T
186.445 396.673 152.952 403.546 168.497 348.215 T
0.502523 0.0216442 0.0216442 C
214.801 465.863 152.952 403.546 186.445 396.673 T
251.3 447.491 214.801 465.863 186.445 396.673 T
1.0521 0.300473 0.0216442 C
352.667 505.83 214.801 465.863 251.3 447.491 T
376.427 479.505 352.667 505.83 251.3 447.491 T
1.00361 1.0521 0.0984233 C
530.551 518.244 352.667 505.83 376.427 479.505 T
530.97 489.574 530.551 518.244 376.427 479.505 T
1.0521 0.300473 0.0216442 C
794.581 427.823 531.749 436.263 532.111 411.497 T
793.659 403.059 794.581 427.823 532.111 411.497 T
0.179243 1.0521 0.922787 C
1056.59 404.836 794.581 427.823 793.659 403.059 T
1054.39 380.161 1056.59 404.836 793.659 403.059 T
0.0216442 0.0216442 0.599507 C
1317.65 372.74 1056.59 404.836 1054.39 380.161 T
1314.18 348.215 1317.65 372.74 1054.39 380.161 T
0.502523 0.0216442 0.0216442 C
795.548 453.824 531.369 462.268 531.749 436.263 T
794.581 427.823 795.548 453.824 531.749 436.263 T
1.00361 1.0521 0.0984233 C
1058.91 430.744 795.548 453.824 794.581 427.823 T
1056.59 404.836 1058.91 430.744 794.581 427.823 T
0.0216442 0.381293 1.0521 C
1321.3 398.49 1058.91 430.744 1056.59 404.836 T
1317.65 372.74 1321.3 398.49 1056.59 404.836 T
1.0521 0.300473 0.0216442 C
796.564 481.126 530.97 489.574 531.369 462.268 T
795.548 453.824 796.564 481.126 531.369 462.268 T
0.179243 1.0521 0.922787 C
1061.33 457.948 796.564 481.126 795.548 453.824 T
1058.91 430.744 1061.33 457.948 795.548 453.824 T
0.0216442 0.0216442 0.599507 C
1325.13 425.529 1061.33 457.948 1058.91 430.744 T
1321.3 398.49 1325.13 425.529 1058.91 430.744 T
0.502523 0.0216442 0.0216442 C
797.631 509.793 530.551 518.244 530.97 489.574 T
796.564 481.126 797.631 509.793 530.97 489.574 T
1.00361 1.0521 0.0984233 C
1063.88 486.511 797.631 509.793 796.564 481.126 T
1061.33 457.948 1063.88 486.511 796.564 481.126 T
0.0216442 0.381293 1.0521 C
1329.16 453.919 1063.88 486.511 1061.33 457.948 T
1325.13 425.529 1329.16 453.919 1061.33 457.948 T
2 W
0 0 0 C
1314.18 348.215 LS
1317.65 323.69 L
1056.59 291.594 LE
1054.39 316.268 LS
1056.59 291.594 LE
1314.18 348.215 LS
1054.39 316.268 LE
1056.59 291.594 LS
794.581 268.607 LE
793.659 293.371 LS
794.581 268.607 LE
1054.39 316.268 LS
793.659 293.371 LE
794.581 268.607 LS
531.749 260.167 LE
532.111 284.933 LS
531.749 260.167 LE
793.659 293.371 LS
532.111 284.933 LE
1317.65 323.69 LS
1321.3 297.939 L
1058.91 265.686 L
1056.59 291.594 LE
1058.91 265.686 LS
795.548 242.605 L
794.581 268.607 LE
795.548 242.605 LS
531.369 234.161 L
531.749 260.167 LE
1321.3 297.939 LS
1325.13 270.901 L
1061.33 238.482 L
1058.91 265.686 LE
1061.33 238.482 LS
796.564 215.303 L
795.548 242.605 LE
796.564 215.303 LS
530.97 206.856 L
531.369 234.161 LE
1325.13 270.901 LS
1329.16 242.511 L
1063.88 209.918 LE
1061.33 238.482 LS
1063.88 209.918 L
797.631 186.636 LE
796.564 215.303 LS
797.631 186.636 L
530.551 178.186 LE
530.97 206.856 LS
530.551 178.186 LE
532.111 284.933 LS
531.749 260.167 L
420.607 265.875 LE
441.133 288.617 LS
420.607 265.875 LE
532.111 284.933 LS
441.133 288.617 LE
420.607 265.875 LS
319.166 283.098 LE
350.696 298.968 LS
319.166 283.098 LE
441.133 288.617 LS
350.696 298.968 LE
319.166 283.098 LS
248.724 312.535 LE
277.657 318.472 LS
248.724 312.535 LE
350.696 298.968 LS
277.657 318.472 LE
248.724 312.535 LS
221.813 348.215 LE
246.583 348.215 LS
221.813 348.215 LE
277.657 318.472 LS
246.583 348.215 LE
531.749 260.167 LS
531.369 234.161 L
399.056 241.997 L
420.607 265.875 LE
399.056 241.997 LS
286.061 266.435 L
319.166 283.098 LE
286.061 266.435 LS
218.344 306.301 L
248.724 312.535 LE
218.344 306.301 LS
195.805 348.215 L
221.813 348.215 LE
531.369 234.161 LS
530.97 206.856 L
376.427 216.925 L
399.056 241.997 LE
376.427 216.925 LS
251.3 248.938 L
286.061 266.435 LE
251.3 248.938 LS
186.445 299.756 L
218.344 306.301 LE
186.445 299.756 LS
168.497 348.215 L
195.805 348.215 LE
530.97 206.856 LS
530.551 178.186 L
352.667 190.6 LE
376.427 216.925 LS
352.667 190.6 L
214.801 230.567 LE
251.3 248.938 LS
214.801 230.567 L
152.952 292.884 LE
186.445 299.756 LS
152.952 292.884 L
139.823 348.215 LE
168.497 348.215 LS
139.823 348.215 LE
246.583 348.215 LS
221.813 348.215 L
248.724 383.895 LE
277.657 377.958 LS
248.724 383.895 LE
246.583 348.215 LS
277.657 377.958 LE
248.724 383.895 LS
319.166 413.331 LE
350.696 397.461 LS
319.166 413.331 LE
277.657 377.958 LS
350.696 397.461 LE
319.166 413.331 LS
420.607 430.554 LE
441.133 407.813 LS
420.607 430.554 LE
350.696 397.461 LS
441.133 407.813 LE
420.607 430.554 LS
531.749 436.263 LE
532.111 411.497 LS
531.749 436.263 LE
441.133 407.813 LS
532.111 411.497 LE
221.813 348.215 LS
195.805 348.215 L
218.344 390.128 L
248.724 383.895 LE
218.344 390.128 LS
286.061 429.995 L
319.166 413.331 LE
286.061 429.995 LS
399.056 454.432 L
420.607 430.554 LE
399.056 454.432 LS
531.369 462.268 L
531.749 436.263 LE
195.805 348.215 LS
168.497 348.215 L
186.445 396.673 L
218.344 390.128 LE
186.445 396.673 LS
251.3 447.491 L
286.061 429.995 LE
251.3 447.491 LS
376.427 479.505 L
399.056 454.432 LE
376.427 479.505 LS
530.97 489.574 L
531.369 462.268 LE
168.497 348.215 LS
139.823 348.215 L
152.952 403.546 LE
186.445 396.673 LS
152.952 403.546 L
214.801 465.863 LE
251.3 447.491 LS
214.801 465.863 L
352.667 505.83 LE
376.427 479.505 LS
352.667 505.83 L
530.551 518.244 LE
530.97 489.574 LS
530.551 518.244 LE
532.111 411.497 LS
531.749 436.263 L
794.581 427.823 LE
793.659 403.059 LS
794.581 427.823 LE
532.111 411.497 LS
793.659 403.059 LE
794.581 427.823 LS
1056.59 404.836 LE
1054.39 380.161 LS
1056.59 404.836 LE
793.659 403.059 LS
1054.39 380.161 LE
1056.59 404.836 LS
1317.65 372.74 LE
1314.18 348.215 LS
1317.65 372.74 LE
1054.39 380.161 LS
1314.18 348.215 LE
531.749 436.263 LS
531.369 462.268 L
795.548 453.824 L
794.581 427.823 LE
795.548 453.824 LS
1058.91 430.744 L
1056.59 404.836 LE
1058.91 430.744 LS
1321.3 398.49 L
1317.65 372.74 LE
531.369 462.268 LS
530.97 489.574 L
796.564 481.126 L
795.548 453.824 LE
796.564 481.126 LS
1061.33 457.948 L
1058.91 430.744 LE
1061.33 457.948 LS
1325.13 425.529 L
1321.3 398.49 LE
530.97 489.574 LS
530.551 518.244 L
797.631 509.793 LE
796.564 481.126 LS
797.631 509.793 L
1063.88 486.511 LE
1061.33 457.948 LS
1063.88 486.511 L
1329.16 453.919 LE
1325.13 425.529 LS
1329.16 453.919 LE
433.5 36 0 0 0.952941 361.25 20 0 0 0.560784 361.25 36 0 0 0.560784 ST
433.5 36 0 0 0.952941 433.5 20 0 0 0.952941 361.25 20 0 0 0.560784 ST
505.75 36 0 0.34902 1 433.5 20 0 0 0.952941 433.5 36 0 0 0.952941 ST
505.75 36 0 0.34902 1 505.75 20 0 0.34902 1 433.5 20 0 0 0.952941 ST
578 36 0 0.756863 1 505.75 20 0 0.34902 1 505.75 36 0 0.34902 1 ST
578 36 0 0.756863 1 578 20 0 0.756863 1 505.75 20 0 0.34902 1 ST
650.25 36 0.152941 1 0.87451 578 20 0 0.756863 1 578 36 0 0.756863 1 ST
650.25 36 0.152941 1 0.87451 650.25 20 0.152941 1 0.87451 578 20 0 0.756863 1 ST
722.5 36 0.560784 1 0.466667 650.25 20 0.152941 1 0.87451 650.25 36 0.152941 1 0.87451 ST
722.5 36 0.560784 1 0.466667 722.5 20 0.560784 1 0.466667 650.25 20 0.152941 1 0.87451 ST
794.75 36 0.952941 1 0.0745098 722.5 20 0.560784 1 0.466667 722.5 36 0.560784 1 0.466667 ST
794.75 36 0.952941 1 0.0745098 794.75 20 0.952941 1 0.0745098 722.5 20 0.560784 1 0.466667 ST
867 36 1 0.678431 0 794.75 20 0.952941 1 0.0745098 794.75 36 0.952941 1 0.0745098 ST
867 36 1 0.678431 0 867 20 1 0.678431 0 794.75 20 0.952941 1 0.0745098 ST
939.25 36 1 0.270588 0 867 20 1 0.678431 0 867 36 1 0.678431 0 ST
939.25 36 1 0.270588 0 939.25 20 1 0.270588 0 867 20 1 0.678431 0 ST
1011.5 36 0.87451 0 0 939.25 20 1 0.270588 0 939.25 36 1 0.270588 0 ST
1011.5 36 0.87451 0 0 1011.5 20 0.87451 0 0 939.25 20 1 0.270588 0 ST
1083.75 36 0.466667 0 0 1011.5 20 0.87451 0 0 1011.5 36 0.87451 0 0 ST
1083.75 36 0.466667 0 0 1083.75 20 0.466667 0 0 1011.5 20 0.87451 0 0 ST
0 0 0 C
(0) 356.25 46 15 /Helvetica S
(2.5) 710 46 15 /Helvetica S
(5) 1078.75 46 15 /Helvetica S
(Block Color) 672 71.2 18 /Helvetica S
(X) 1418 43 15 /Helvetica S
(Y) 1388 73 15 /Helvetica S
(Z) 1388 43 15 /Helvetica S
1 W
1385 40 LS
1415 40 LE
1385 40 LS
1385 70 LE
1385 40 LS
1385 40 LE
grestore
showpage
cleartomark
%%PageTrailer
%%Trailer
end
%%EOF
