%!PS-Adobe-3.0 EPSF-3.0
%%Title: ParaView GL2PS Export
%%Creator: GL2PS 1.3.8, (C) 1999-2012 C. Geuzaine
%%For: VTK
%%CreationDate: Wed Apr  5 18:20:38 2017
%%LanguageLevel: 3
%%DocumentData: Clean7Bit
%%Pages: 1
%%BoundingBox: 3 3 1226 831
%%EndComments
%%BeginProlog
/gl2psdict 64 dict def gl2psdict begin
0 setlinecap 0 setlinejoin
/tryPS3shading true def % set to false to force subdivision
/rThreshold 0.064 def % red component subdivision threshold
/gThreshold 0.034 def % green component subdivision threshold
/bThreshold 0.1 def % blue component subdivision threshold
/BD { bind def } bind def
/C  { setrgbcolor } BD
/G  { 0.082 mul exch 0.6094 mul add exch 0.3086 mul add neg 1.0 add setgray } BD
/W  { setlinewidth } BD
/FC { findfont exch /SH exch def SH scalefont setfont } BD
/SW { dup stringwidth pop } BD
/S  { FC moveto show } BD
/SBC{ FC moveto SW -2 div 0 rmoveto show } BD
/SBR{ FC moveto SW neg 0 rmoveto show } BD
/SCL{ FC moveto 0 SH -2 div rmoveto show } BD
/SCC{ FC moveto SW -2 div SH -2 div rmoveto show } BD
/SCR{ FC moveto SW neg SH -2 div rmoveto show } BD
/STL{ FC moveto 0 SH neg rmoveto show } BD
/STC{ FC moveto SW -2 div SH neg rmoveto show } BD
/STR{ FC moveto SW neg SH neg rmoveto show } BD
/FCT { FC translate 0 0 } BD
/SR  { gsave FCT moveto rotate show grestore } BD
/SBCR{ gsave FCT moveto rotate SW -2 div 0 rmoveto show grestore } BD
/SBRR{ gsave FCT moveto rotate SW neg 0 rmoveto show grestore } BD
/SCLR{ gsave FCT moveto rotate 0 SH -2 div rmoveto show grestore} BD
/SCCR{ gsave FCT moveto rotate SW -2 div SH -2 div rmoveto show grestore} BD
/SCRR{ gsave FCT moveto rotate SW neg SH -2 div rmoveto show grestore} BD
/STLR{ gsave FCT moveto rotate 0 SH neg rmoveto show grestore } BD
/STCR{ gsave FCT moveto rotate SW -2 div SH neg rmoveto show grestore } BD
/STRR{ gsave FCT moveto rotate SW neg SH neg rmoveto show grestore } BD
/P  { newpath 0.0 360.0 arc closepath fill } BD
/LS { newpath moveto } BD
/L  { lineto } BD
/LE { lineto stroke } BD
/T  { newpath moveto lineto lineto closepath fill } BD
/STshfill {
      /b1 exch def /g1 exch def /r1 exch def /y1 exch def /x1 exch def
      /b2 exch def /g2 exch def /r2 exch def /y2 exch def /x2 exch def
      /b3 exch def /g3 exch def /r3 exch def /y3 exch def /x3 exch def
      gsave << /ShadingType 4 /ColorSpace [/DeviceRGB]
      /DataSource [ 0 x1 y1 r1 g1 b1 0 x2 y2 r2 g2 b2 0 x3 y3 r3 g3 b3 ] >>
      shfill grestore } BD
/Tm { 3 -1 roll 8 -1 roll 13 -1 roll add add 3 div
      3 -1 roll 7 -1 roll 11 -1 roll add add 3 div
      3 -1 roll 6 -1 roll 9 -1 roll add add 3 div C T } BD
/STsplit {
      4 index 15 index add 0.5 mul
      4 index 15 index add 0.5 mul
      4 index 15 index add 0.5 mul
      4 index 15 index add 0.5 mul
      4 index 15 index add 0.5 mul
      5 copy 5 copy 25 15 roll
      9 index 30 index add 0.5 mul
      9 index 30 index add 0.5 mul
      9 index 30 index add 0.5 mul
      9 index 30 index add 0.5 mul
      9 index 30 index add 0.5 mul
      5 copy 5 copy 35 5 roll 25 5 roll 15 5 roll
      4 index 10 index add 0.5 mul
      4 index 10 index add 0.5 mul
      4 index 10 index add 0.5 mul
      4 index 10 index add 0.5 mul
      4 index 10 index add 0.5 mul
      5 copy 5 copy 40 5 roll 25 5 roll 15 5 roll 25 5 roll
      STnoshfill STnoshfill STnoshfill STnoshfill } BD
/STnoshfill {
      2 index 8 index sub abs rThreshold gt
      { STsplit }
      { 1 index 7 index sub abs gThreshold gt
        { STsplit }
        { dup 6 index sub abs bThreshold gt
          { STsplit }
          { 2 index 13 index sub abs rThreshold gt
            { STsplit }
            { 1 index 12 index sub abs gThreshold gt
              { STsplit }
              { dup 11 index sub abs bThreshold gt
                { STsplit }
                { 7 index 13 index sub abs rThreshold gt
                  { STsplit }
                  { 6 index 12 index sub abs gThreshold gt
                    { STsplit }
                    { 5 index 11 index sub abs bThreshold gt
                      { STsplit }
                      { Tm }
                      ifelse }
                    ifelse }
                  ifelse }
                ifelse }
              ifelse }
            ifelse }
          ifelse }
        ifelse }
      ifelse } BD
tryPS3shading
{ /shfill where
  { /ST { STshfill } BD }
  { /ST { STnoshfill } BD }
  ifelse }
{ /ST { STnoshfill } BD }
ifelse
end
%%EndProlog
%%BeginSetup
/DeviceRGB setcolorspace
gl2psdict begin
%%EndSetup
%%Page: 1 1
%%BeginPageSetup
%%EndPageSetup
mark
gsave
1.0 1.0 scale
1 W
0 0 0 C
0 626.687 LS
0 673.977 L
23.8002 763.026 L
65.4484 670.938 L
0 626.687 LE
128.791 262.302 LS
134.547 229.611 L
99.9769 256.131 L
128.791 262.302 LE
113.058 313.758 LS
123.396 300.385 L
97.5115 290.58 L
113.058 313.758 LE
351.99 512.646 LS
315.906 509.805 L
331.937 560.331 L
351.99 512.646 LE
315.833 234.202 LS
351.781 231.368 L
331.695 183.694 L
315.833 234.202 LE
85.0894 328.832 LS
71.0749 307.407 L
63.7643 337.896 L
85.0894 328.832 LE
113.058 430.242 LS
105.125 416.02 L
82.6411 437.884 L
113.058 430.242 LE
136.014 455.781 LS
123.396 443.615 L
108.593 471.593 L
136.014 455.781 LE
71.0749 307.407 LS
21.532 306.3 L
63.7643 337.896 L
71.0749 307.407 LE
1041.11 275.098 LS
1077.26 279.962 L
1062.24 236.469 L
1041.11 275.098 LE
1077.25 464.038 LS
1040.97 468.921 L
1062.17 507.569 L
1077.25 464.038 LE
167.349 268.206 LS
185.632 260.338 L
165.269 240.024 L
167.349 268.206 LE
469.091 150.211 LS
519.885 97.2187 L
416.593 106.242 L
469.091 150.211 LE
1160.77 419.626 LS
1204.66 430.673 L
1181.08 369.312 L
1160.77 419.626 LE
165.269 240.024 LS
166.911 210.345 L
134.547 229.611 L
165.269 240.024 LE
136.014 288.219 LS
150.737 277.471 L
128.791 262.302 L
136.014 288.219 LE
99.9769 256.131 LS
134.547 229.611 L
101.992 203.538 L
99.9769 256.131 LE
619.571 510.13 LS
555.85 513.318 L
582.83 577.376 L
619.571 510.13 LE
554.961 230.646 LS
619.409 233.86 L
585.177 158.881 L
554.961 230.646 LE
226.981 536.573 LS
255.533 558.2 L
246.478 522.396 L
226.981 536.573 LE
246.524 221.567 LS
255.534 185.781 L
226.992 207.389 L
246.524 221.567 LE
1112.51 316.034 LS
1129.47 331.021 L
1134.52 302.637 L
1112.51 316.034 LE
1134.78 441.299 LS
1131.04 412.591 L
1112.73 427.912 L
1134.78 441.299 LE
166.911 210.345 LS
131.907 178.887 L
134.547 229.611 L
166.911 210.345 LE
226.981 536.573 LS
218.055 573.731 L
255.533 558.2 L
226.981 536.573 LE
295.653 203.868 LS
290.919 145.139 L
255.534 185.781 L
295.653 203.868 LE
255.534 185.781 LS
218.061 170.199 L
226.992 207.389 L
255.534 185.781 LE
255.533 558.2 LS
290.966 598.957 L
295.687 540.147 L
255.533 558.2 LE
537.021 638.177 LS
467.185 670.626 L
567.233 726.972 L
537.021 638.177 LE
0 17.2375 LS
21.5259 0 L
0 0 L
0 17.2375 LE
218.061 170.199 LS
202.49 101.003 L
176.875 161.768 L
218.061 170.199 LE
175.688 575.543 LS
202.496 642.874 L
218.055 573.731 L
175.688 575.543 LE
63.7643 337.896 LS
21.532 306.3 L
40.0037 362.666 L
63.7643 337.896 LE
919.622 537.307 LS
978.948 598.849 L
974.323 524.576 L
919.622 537.307 LE
974.71 219.621 LS
979.301 145.476 L
920.135 206.873 L
974.71 219.621 LE
416.593 106.242 LS
519.885 97.2187 L
445.658 10.7441 L
416.593 106.242 LE
210.762 514.187 LS
225.991 495.779 L
205.266 490.263 L
210.762 514.187 LE
205.266 253.737 LS
225.991 248.221 L
210.757 229.784 L
205.266 253.737 LE
0 792.262 LS
23.8002 763.026 L
0 748.176 L
0 792.262 LE
139.592 102.618 LS
131.907 178.887 L
176.875 161.768 L
139.592 102.618 LE
242.937 129.807 LS
218.061 170.199 L
255.534 185.781 L
242.937 129.807 LE
255.533 558.2 LS
218.055 573.731 L
243.919 613.708 L
255.533 558.2 LE
175.688 575.543 LS
122.675 569.227 L
129.642 643.87 L
175.688 575.543 LE
331.695 183.694 LS
290.919 145.139 L
295.653 203.868 L
331.695 183.694 LE
77.0677 468.747 LS
33.4474 434.567 L
54.3682 509.253 L
77.0677 468.747 LE
989.266 716.849 LS
882.794 726.777 L
963.384 834 L
967.036 834 L
989.266 716.849 LE
295.687 540.147 LS
290.966 598.957 L
331.937 560.331 L
295.687 540.147 LE
895.962 0 LS
883.327 17.7397 L
989.722 27.7316 L
984.469 0 L
895.962 0 LE
730.398 652.286 LS
735.593 566.128 L
659.849 594.475 L
730.398 652.286 LE
600.326 91.9244 LS
585.177 158.881 L
659.271 155.945 L
600.326 91.9244 LE
105.383 513.202 LS
122.675 569.227 L
145.256 536.53 L
105.383 513.202 LE
96.4089 386.52 LS
95.3891 372 L
71.8688 380.948 L
96.4089 386.52 LE
659.271 155.945 LS
736.08 177.846 L
730.976 91.4843 L
659.271 155.945 LE
1160.77 419.626 LS
1181.08 369.312 L
1142.27 387.232 L
1160.77 419.626 LE
659.849 594.475 LS
582.83 577.376 L
600.8 655.257 L
659.849 594.475 LE
887.745 593.653 LS
978.948 598.849 L
919.622 537.307 L
887.745 593.653 LE
920.135 206.873 LS
979.301 145.476 L
888.286 150.603 L
920.135 206.873 LE
260.284 502.639 LS
240.657 499.007 L
246.478 522.396 L
260.284 502.639 LE
240.702 244.984 LS
260.338 241.351 L
246.524 221.567 L
240.702 244.984 LE
659.849 594.475 LS
664.762 688.626 L
730.398 652.286 L
659.849 594.475 LE
1094.28 490.2 LS
1098.12 461.12 L
1077.25 464.038 L
1094.28 490.2 LE
1077.26 279.962 LS
1098.12 282.88 L
1094.28 253.84 L
1077.26 279.962 LE
600.8 655.257 LS
664.762 688.626 L
659.849 594.475 L
600.8 655.257 LE
122.675 569.227 LS
105.383 513.202 L
62.7904 577.332 L
122.675 569.227 LE
664.849 55.4193 LS
659.271 155.945 L
730.976 91.4843 L
664.849 55.4193 LE
315.906 509.805 LS
295.687 540.147 L
331.937 560.331 L
315.906 509.805 LE
852.174 834 LS
851.215 830.172 L
843.016 834 L
852.174 834 LE
295.653 203.868 LS
315.833 234.202 L
331.695 183.694 L
295.653 203.868 LE
1094.95 305.213 LS
1092.31 323.823 L
1112.51 316.034 L
1094.95 305.213 LE
1112.73 427.912 LS
1092.31 420.177 L
1094.95 438.787 L
1112.73 427.912 LE
1104.19 381.353 LS
1118.34 371.803 L
1097.98 368.981 L
1104.19 381.353 LE
659.271 155.945 LS
664.849 55.4193 L
600.326 91.9244 L
659.271 155.945 LE
1062.24 236.469 LS
1103.52 214.658 L
1065.75 168.355 L
1062.24 236.469 L
1077.26 279.962 L
1094.28 253.84 L
1062.24 236.469 LE
1094.28 490.2 LS
1077.25 464.038 L
1062.17 507.569 L
1094.28 490.2 LE
1065.76 575.663 LS
1103.51 529.356 L
1062.17 507.569 L
1065.76 575.663 LE
176.875 161.768 LS
202.49 101.003 L
139.592 102.618 L
176.875 161.768 LE
129.642 643.87 LS
202.496 642.874 L
175.688 575.543 L
129.642 643.87 LE
972.856 834 LS
1090.8 764.217 L
989.266 716.849 L
967.036 834 L
972.856 834 LE
989.722 27.7316 LS
1048.48 0 L
984.469 0 L
989.722 27.7316 LE
752.865 500.323 LS
685.871 505.712 L
735.593 566.128 L
752.865 500.323 LE
686.206 238.312 LS
753.472 243.73 L
736.08 177.846 L
686.206 238.312 LE
0 748.176 LS
23.8002 763.026 L
0 673.977 L
0 748.176 LE
1160.77 419.626 LS
1131.04 412.591 L
1134.78 441.299 L
1160.77 419.626 LE
1134.52 302.637 LS
1129.47 331.021 L
1159.28 324.006 L
1134.52 302.637 LE
1118.52 351.477 LS
1107.11 333.829 L
1100.81 348.017 L
1118.52 351.477 LE
1100.84 395.189 LS
1107.11 410.171 L
1117.3 393.056 L
1100.84 395.189 LE
99.6038 342.675 LS
105.125 327.98 L
85.0894 328.832 L
99.6038 342.675 LE
345.669 751.103 LS
241.388 794.775 L
373.88 834 L
382.693 834 L
345.669 751.103 LE
854.854 537.594 LS
796.812 617.386 L
887.745 593.653 L
854.854 537.594 LE
888.286 150.603 LS
797.453 126.899 L
855.512 206.591 L
888.286 150.603 LE
1181.08 369.312 LS
1197.76 308.988 L
1159.28 324.006 L
1181.08 369.312 LE
442.162 515.525 LS
393.999 514.632 L
418.318 566.86 L
442.162 515.525 LE
8.38794 244.352 LS
63.4682 223.056 L
0 178.592 L
0 208.391 L
8.38794 244.352 LE
62.7328 267.715 LS
21.532 306.3 L
71.0749 307.407 L
62.7328 267.715 LE
791.101 550.312 LS
796.812 617.386 L
854.854 537.594 L
791.101 550.312 LE
855.512 206.591 LS
797.453 126.899 L
791.737 193.86 L
855.512 206.591 LE
520.647 175.132 LS
554.961 230.646 L
585.177 158.881 L
520.647 175.132 LE
1097.98 368.981 LS
1118.34 371.803 L
1106.53 360.229 L
1097.98 368.981 LE
1020.61 541.245 LS
978.948 598.849 L
1065.76 575.663 L
1020.61 541.245 LE
129.642 643.87 LS
122.675 569.227 L
62.7904 577.332 L
129.642 643.87 LE
582.83 577.376 LS
555.85 513.318 L
521.366 569.249 L
582.83 577.376 LE
242.937 129.807 LS
202.49 101.003 L
218.061 170.199 L
242.937 129.807 LE
1048.38 87.9577 LS
1115.52 127.587 L
1154.65 65.0683 L
1048.38 87.9577 LE
218.055 573.731 LS
202.496 642.874 L
243.919 613.708 L
218.055 573.731 LE
444.396 753.423 LS
379.739 688.504 L
345.669 751.103 L
444.396 753.423 LE
1154.6 679.08 LS
1115.51 616.543 L
1048.3 656.475 L
1154.6 679.08 LE
393.608 229.38 LS
439.244 228.493 L
418.192 179.485 L
393.608 229.38 LE
1065.75 168.355 LS
979.301 145.476 L
1020.82 202.893 L
1065.75 168.355 LE
285.36 237.635 LS
315.833 234.202 L
295.653 203.868 L
285.36 237.635 LE
139.592 102.618 LS
202.49 101.003 L
204.297 31.9764 L
139.592 102.618 LE
315.906 509.805 LS
285.345 506.363 L
295.687 540.147 L
315.906 509.805 LE
0 307.102 LS
21.532 306.3 L
8.38794 244.352 L
0 252.847 L
0 307.102 LE
207.787 718.26 LS
202.496 642.874 L
129.642 643.87 L
207.787 718.26 LE
1092.31 323.823 LS
1090.12 339.332 L
1107.11 333.829 L
1092.31 323.823 LE
1107.11 410.171 LS
1090.12 404.668 L
1092.31 420.177 L
1107.11 410.171 LE
278.786 681.807 LS
290.966 598.957 L
243.919 613.708 L
278.786 681.807 LE
1142.27 387.232 LS
1118.34 371.803 L
1117.3 393.056 L
1142.27 387.232 LE
242.937 129.807 LS
290.919 145.139 L
276.833 62.6057 L
242.937 129.807 LE
1141.12 357.463 LS
1181.08 369.312 L
1159.28 324.006 L
1141.12 357.463 LE
467.185 670.626 LS
444.396 753.423 L
567.233 726.972 L
467.185 670.626 LE
1159.28 324.006 LS
1129.47 331.021 L
1141.12 357.463 L
1159.28 324.006 LE
340.837 0 LS
364.284 57.8397 L
445.658 10.7441 L
387.734 0 L
340.837 0 LE
185.632 483.662 LS
167.349 475.794 L
167.103 501.54 L
185.632 483.662 LE
1130.26 246.019 LS
1103.52 214.658 L
1094.28 253.84 L
1130.26 246.019 LE
650.848 802.373 LS
690.546 834 L
752.45 834 L
766.668 719.515 L
650.848 802.373 LE
1094.28 490.2 LS
1103.51 529.356 L
1130.26 497.997 L
1094.28 490.2 LE
1086.76 363.025 LS
1085.49 372 L
1097.98 368.981 L
1086.76 363.025 LE
767.048 24.5641 LS
763.726 0 L
732.424 0 L
767.048 24.5641 LE
657.656 0 LS
664.849 55.4193 L
767.048 24.5641 L
732.424 0 L
657.656 0 LE
1130.26 246.019 LS
1166.61 214.274 L
1103.52 214.658 L
1130.26 246.019 LE
1103.51 529.356 LS
1166.61 529.734 L
1130.26 497.997 L
1103.51 529.356 LE
555.85 513.318 LS
496.325 515.122 L
521.366 569.249 L
555.85 513.318 LE
331.937 560.331 LS
290.966 598.957 L
335.477 634.226 L
331.937 560.331 LE
335.404 110.099 LS
290.919 145.139 L
331.695 183.694 L
335.404 110.099 LE
766.668 719.515 LS
664.762 688.626 L
650.848 802.373 L
766.668 719.515 LE
963.384 834 LS
882.794 726.777 L
851.215 830.172 L
908.372 834 L
963.384 834 LE
1065.75 168.355 LS
1020.82 202.893 L
1062.24 236.469 L
1065.75 168.355 LE
877.882 0 LS
883.327 17.7397 L
895.962 0 L
877.882 0 LE
1062.17 507.569 LS
1020.61 541.245 L
1065.76 575.663 L
1062.17 507.569 LE
407.414 628.857 LS
379.739 688.504 L
467.185 670.626 L
407.414 628.857 LE
471.69 834 LS
525.094 832.168 L
444.396 753.423 L
386.208 834 L
471.69 834 LE
1093.88 377.702 LS
1104.19 381.353 L
1097.98 368.981 L
1093.88 377.702 LE
1142.27 387.232 LS
1131.04 412.591 L
1160.77 419.626 L
1142.27 387.232 LE
33.4474 434.567 LS
0 521.528 L
0 523.415 L
54.3682 509.253 L
33.4474 434.567 LE
1181.08 369.312 LS
1204.66 430.673 L
1229 397.422 L
1229 389.724 L
1181.08 369.312 LE
373.88 834 LS
241.388 794.775 L
253.123 834 L
373.88 834 LE
33.4474 434.567 LS
82.6411 437.884 L
76.4106 414.67 L
33.4474 434.567 LE
445.658 10.7441 LS
454.227 0 L
439.205 0 L
445.658 10.7441 LE
1122.22 467.931 LS
1098.12 461.12 L
1094.28 490.2 L
1122.22 467.931 LE
331.695 183.694 LS
370.724 153.77 L
335.404 110.099 L
331.695 183.694 LE
1094.28 253.84 LS
1098.12 282.88 L
1121.96 275.951 L
1094.28 253.84 LE
335.477 634.226 LS
372.396 588.907 L
331.937 560.331 L
335.477 634.226 LE
445.658 10.7441 LS
364.284 57.8397 L
416.593 106.242 L
445.658 10.7441 LE
255.534 185.781 LS
290.919 145.139 L
242.937 129.807 L
255.534 185.781 LE
243.919 613.708 LS
290.966 598.957 L
255.533 558.2 L
243.919 613.708 LE
585.177 158.881 LS
619.409 233.86 L
659.271 155.945 L
585.177 158.881 LE
470.999 606.088 LS
537.021 638.177 L
521.366 569.249 L
470.999 606.088 LE
659.849 594.475 LS
619.571 510.13 L
582.83 577.376 L
659.849 594.475 LE
974.323 524.576 LS
978.948 598.849 L
1020.61 541.245 L
974.323 524.576 LE
1020.82 202.893 LS
979.301 145.476 L
974.71 219.621 L
1020.82 202.893 LE
101.992 203.538 LS
63.4682 223.056 L
99.9769 256.131 L
101.992 203.538 LE
0 178.592 LS
63.4682 223.056 L
78.3333 161.083 L
0 171.65 L
0 178.592 LE
766.668 719.515 LS
752.45 834 L
843.016 834 L
851.215 830.172 L
766.668 719.515 LE
445.658 10.7441 LS
519.885 97.2187 L
575.188 12.745 L
445.658 10.7441 LE
1099.13 834 LS
1090.8 764.217 L
972.856 834 L
1099.13 834 LE
93.9255 312.41 LS
113.058 313.758 L
97.5115 290.58 L
93.9255 312.41 LE
165.269 240.024 LS
185.632 260.338 L
189.354 233.631 L
165.269 240.024 LE
149.132 255.07 LS
167.349 268.206 L
165.269 240.024 L
149.132 255.07 LE
75.0614 359.636 LS
40.0037 362.666 L
71.8688 380.948 L
75.0614 359.636 LE
763.726 0 LS
767.048 24.5641 L
785.984 0 L
763.726 0 LE
494.502 228.844 LS
554.961 230.646 L
520.647 175.132 L
494.502 228.844 LE
253.123 834 LS
241.388 794.775 L
172.917 834 L
253.123 834 LE
851.215 830.172 LS
852.174 834 L
908.372 834 L
851.215 830.172 LE
78.3333 161.083 LS
131.907 178.887 L
139.592 102.618 L
78.3333 161.083 LE
989.722 27.7316 LS
979.301 145.476 L
1048.38 87.9577 L
989.722 27.7316 LE
1048.3 656.475 LS
978.948 598.849 L
989.266 716.849 L
1048.3 656.475 LE
56.1252 400.746 LS
33.4474 434.567 L
76.4106 414.67 L
56.1252 400.746 LE
335.477 634.226 LS
290.966 598.957 L
278.786 681.807 L
335.477 634.226 LE
276.833 62.6057 LS
290.919 145.139 L
335.404 110.099 L
276.833 62.6057 LE
767.048 24.5641 LS
797.453 126.899 L
851.185 81.6489 L
767.048 24.5641 LE
919.809 88.4402 LS
979.301 145.476 L
989.722 27.7316 L
919.809 88.4402 LE
989.266 716.849 LS
978.948 598.849 L
919.318 655.941 L
989.266 716.849 LE
850.667 662.654 LS
796.812 617.386 L
766.668 719.515 L
850.667 662.654 LE
994.013 474.907 LS
940.304 481.326 L
974.323 524.576 L
994.013 474.907 LE
940.803 262.731 LS
994.337 269.134 L
974.71 219.621 L
940.803 262.731 LE
1229 782.602 LS
1090.8 764.217 L
1099.13 834 L
1197.79 834 L
1229 799.454 L
1229 782.602 LE
371.292 549.642 LS
351.99 512.646 L
331.937 560.331 L
371.292 549.642 LE
331.695 183.694 LS
351.781 231.368 L
370.988 194.46 L
331.695 183.694 LE
524.163 834 LS
525.094 832.168 L
471.69 834 L
524.163 834 LE
123.396 300.385 LS
136.014 288.219 L
117.138 279.524 L
123.396 300.385 LE
1100.81 348.017 LS
1106.53 360.229 L
1118.52 351.477 L
1100.81 348.017 LE
1117.3 393.056 LS
1104.19 381.353 L
1100.84 395.189 L
1117.3 393.056 LE
243.919 613.708 LS
202.496 642.874 L
278.786 681.807 L
243.919 613.708 LE
97.5115 290.58 LS
123.396 300.385 L
117.138 279.524 L
97.5115 290.58 LE
276.833 62.6057 LS
202.49 101.003 L
242.937 129.807 L
276.833 62.6057 LE
105.125 416.02 LS
99.6038 401.325 L
76.4106 414.67 L
105.125 416.02 LE
1065.76 575.663 LS
978.948 598.849 L
1048.3 656.475 L
1065.76 575.663 LE
8.38794 244.352 LS
21.532 306.3 L
62.7328 267.715 L
8.38794 244.352 LE
1048.38 87.9577 LS
979.301 145.476 L
1065.75 168.355 L
1048.38 87.9577 LE
117.138 279.524 LS
136.014 288.219 L
128.791 262.302 L
117.138 279.524 LE
150.737 277.471 LS
167.349 268.206 L
149.132 255.07 L
150.737 277.471 LE
1112.51 316.034 LS
1092.31 323.823 L
1107.11 333.829 L
1112.51 316.034 LE
1107.11 410.171 LS
1092.31 420.177 L
1112.73 427.912 L
1107.11 410.171 LE
71.8688 380.948 LS
40.0037 362.666 L
56.1252 400.746 L
71.8688 380.948 LE
150.737 466.529 LS
136.014 455.781 L
131.486 480.561 L
150.737 466.529 LE
520.647 175.132 LS
519.885 97.2187 L
469.091 150.211 L
520.647 175.132 LE
619.409 233.86 LS
686.206 238.312 L
659.271 155.945 L
619.409 233.86 LE
685.871 505.712 LS
619.571 510.13 L
659.849 594.475 L
685.871 505.712 LE
1090.12 339.332 LS
1088.29 352.255 L
1100.81 348.017 L
1090.12 339.332 LE
1100.84 395.189 LS
1088.29 391.745 L
1090.12 404.668 L
1100.84 395.189 LE
128.791 262.302 LS
150.737 277.471 L
149.132 255.07 L
128.791 262.302 LE
1121.96 275.951 LS
1134.52 302.637 L
1162.24 274.565 L
1121.96 275.951 LE
230.174 513.588 LS
225.991 495.779 L
210.762 514.187 L
230.174 513.588 LE
1163.48 468.756 LS
1134.78 441.299 L
1122.22 467.931 L
1163.48 468.756 LE
210.757 229.784 LS
225.991 248.221 L
230.193 230.389 L
210.757 229.784 LE
467.185 670.626 LS
379.739 688.504 L
444.396 753.423 L
467.185 670.626 LE
919.318 655.941 LS
978.948 598.849 L
887.745 593.653 L
919.318 655.941 LE
888.286 150.603 LS
979.301 145.476 L
919.809 88.4402 L
888.286 150.603 LE
240.657 499.007 LS
225.991 495.779 L
230.174 513.588 L
240.657 499.007 LE
63.7643 337.896 LS
40.0037 362.666 L
75.0614 359.636 L
63.7643 337.896 LE
230.193 230.389 LS
225.991 248.221 L
240.702 244.984 L
230.193 230.389 LE
735.593 566.128 LS
685.871 505.712 L
659.849 594.475 L
735.593 566.128 LE
1117.3 393.056 LS
1131.04 412.591 L
1142.27 387.232 L
1117.3 393.056 LE
351.781 231.368 LS
393.608 229.38 L
370.988 194.46 L
351.781 231.368 LE
393.999 514.632 LS
351.99 512.646 L
371.292 549.642 L
393.999 514.632 LE
851.215 830.172 LS
882.794 726.777 L
766.668 719.515 L
851.215 830.172 LE
659.271 155.945 LS
686.206 238.312 L
736.08 177.846 L
659.271 155.945 LE
185.632 260.338 LS
205.266 253.737 L
189.354 233.631 L
185.632 260.338 LE
1162.24 274.565 LS
1134.52 302.637 L
1159.28 324.006 L
1162.24 274.565 LE
1160.77 419.626 LS
1134.78 441.299 L
1163.48 468.756 L
1160.77 419.626 LE
791.101 550.312 LS
752.865 500.323 L
735.593 566.128 L
791.101 550.312 LE
767.048 24.5641 LS
883.327 17.7397 L
877.882 0 L
785.984 0 L
767.048 24.5641 LE
736.08 177.846 LS
753.472 243.73 L
791.737 193.86 L
736.08 177.846 LE
123.396 443.615 LS
113.058 430.242 L
101.184 450.198 L
123.396 443.615 LE
418.318 566.86 LS
393.999 514.632 L
371.292 549.642 L
418.318 566.86 LE
269.944 219.928 LS
285.36 237.635 L
295.653 203.868 L
269.944 219.928 LE
295.687 540.147 LS
285.345 506.363 L
269.908 524.068 L
295.687 540.147 LE
1229 799.454 LS
1197.79 834 L
1229 834 L
1229 799.454 LE
77.0677 468.747 LS
105.383 513.202 L
108.593 471.593 L
77.0677 468.747 LE
585.177 158.881 LS
519.885 97.2187 L
520.647 175.132 L
585.177 158.881 LE
136.014 455.781 LS
108.593 471.593 L
131.486 480.561 L
136.014 455.781 LE
105.125 416.02 LS
76.4106 414.67 L
82.6411 437.884 L
105.125 416.02 LE
1118.34 371.803 LS
1142.27 387.232 L
1141.12 357.463 L
1118.34 371.803 LE
176.223 531.115 LS
167.103 501.54 L
145.256 536.53 L
176.223 531.115 LE
210.757 229.784 LS
200.182 204.817 L
189.354 233.631 L
210.757 229.784 LE
1154.65 65.0683 LS
1105.87 0 L
1083 0 L
1048.38 87.9577 L
1154.65 65.0683 LE
108.593 471.593 LS
123.396 443.615 L
101.184 450.198 L
108.593 471.593 LE
416.593 106.242 LS
370.724 153.77 L
418.192 179.485 L
416.593 106.242 LE
167.103 501.54 LS
176.223 531.115 L
189.112 505.81 L
167.103 501.54 LE
940.304 481.326 LS
881.559 487.848 L
919.622 537.307 L
940.304 481.326 LE
882.196 256.22 LS
940.803 262.731 L
920.135 206.873 L
882.196 256.22 LE
205.266 490.263 LS
185.632 483.662 L
189.112 505.81 L
205.266 490.263 LE
469.691 555.065 LS
470.999 606.088 L
521.366 569.249 L
469.691 555.065 LE
1048.3 656.475 LS
1090.8 764.217 L
1154.6 679.08 L
1048.3 656.475 LE
285.345 506.363 LS
260.284 502.639 L
269.908 524.068 L
285.345 506.363 LE
260.338 241.351 LS
285.36 237.635 L
269.944 219.928 L
260.338 241.351 LE
202.288 536.397 LS
210.762 514.187 L
189.112 505.81 L
202.288 536.397 LE
1112.34 295.762 LS
1098.12 282.88 L
1094.95 305.213 L
1112.34 295.762 LE
1094.95 438.787 LS
1098.12 461.12 L
1112.44 448.215 L
1094.95 438.787 LE
370.988 194.46 LS
393.608 229.38 L
418.192 179.485 L
370.988 194.46 LE
134.547 229.611 LS
131.907 178.887 L
101.992 203.538 L
134.547 229.611 LE
521.366 569.249 LS
496.325 515.122 L
469.691 555.065 L
521.366 569.249 LE
246.478 522.396 LS
255.533 558.2 L
269.908 524.068 L
246.478 522.396 LE
269.944 219.928 LS
255.534 185.781 L
246.524 221.567 L
269.944 219.928 LE
246.478 522.396 LS
240.657 499.007 L
230.174 513.588 L
246.478 522.396 LE
230.193 230.389 LS
240.702 244.984 L
246.524 221.567 L
230.193 230.389 LE
345.669 751.103 LS
382.693 834 L
386.208 834 L
444.396 753.423 L
345.669 751.103 LE
108.593 471.593 LS
105.383 513.202 L
131.486 480.561 L
108.593 471.593 LE
105.125 327.98 LS
113.058 313.758 L
93.9255 312.41 L
105.125 327.98 LE
1107.11 333.829 LS
1090.12 339.332 L
1100.81 348.017 L
1107.11 333.829 LE
1100.84 395.189 LS
1090.12 404.668 L
1107.11 410.171 L
1100.84 395.189 LE
1105.87 0 LS
1154.65 65.0683 L
1208.96 0 L
1105.87 0 LE
56.1252 400.746 LS
40.0037 362.666 L
0 395.337 L
0 395.633 L
56.1252 400.746 LE
1154.6 679.08 LS
1090.8 764.217 L
1229 782.602 L
1229 768.138 L
1154.6 679.08 LE
818.651 494.268 LS
752.865 500.323 L
791.101 550.312 L
818.651 494.268 LE
75.0614 359.636 LS
95.3891 372 L
96.4089 357.48 L
75.0614 359.636 LE
753.472 243.73 LS
819.344 249.8 L
791.737 193.86 L
753.472 243.73 LE
418.192 179.485 LS
469.091 150.211 L
416.593 106.242 L
418.192 179.485 LE
335.404 110.099 LS
370.724 153.77 L
416.593 106.242 L
335.404 110.099 LE
521.366 569.249 LS
537.021 638.177 L
582.83 577.376 L
521.366 569.249 LE
101.184 450.198 LS
113.058 430.242 L
82.6411 437.884 L
101.184 450.198 LE
1040.97 468.921 LS
994.013 474.907 L
1018.42 503.443 L
1040.97 468.921 LE
994.337 269.134 LS
1041.11 275.098 L
1018.64 240.643 L
994.337 269.134 LE
467.417 193.476 LS
494.502 228.844 L
520.647 175.132 L
467.417 193.476 LE
1018.42 503.443 LS
994.013 474.907 L
974.323 524.576 L
1018.42 503.443 LE
445.658 10.7441 LS
439.205 0 L
387.734 0 L
445.658 10.7441 LE
974.71 219.621 LS
994.337 269.134 L
1018.64 240.643 L
974.71 219.621 LE
418.318 566.86 LS
372.396 588.907 L
407.414 628.857 L
418.318 566.86 LE
1018.64 240.643 LS
1041.11 275.098 L
1062.24 236.469 L
1018.64 240.643 LE
93.9255 312.41 LS
71.0749 307.407 L
85.0894 328.832 L
93.9255 312.41 LE
1062.17 507.569 LS
1040.97 468.921 L
1018.42 503.443 L
1062.17 507.569 LE
851.185 81.6489 LS
883.327 17.7397 L
767.048 24.5641 L
851.185 81.6489 LE
766.668 719.515 LS
882.794 726.777 L
850.667 662.654 L
766.668 719.515 LE
1154.65 65.0683 LS
1229 83.3292 L
1229 0 L
1208.96 0 L
1154.65 65.0683 LE
1229 660.655 LS
1154.6 679.08 L
1229 768.138 L
1229 660.655 LE
1121.96 275.951 LS
1130.26 246.019 L
1094.28 253.84 L
1121.96 275.951 LE
175.688 575.543 LS
176.223 531.115 L
145.256 536.53 L
175.688 575.543 LE
1094.28 490.2 LS
1130.26 497.997 L
1122.22 467.931 L
1094.28 490.2 LE
131.486 480.561 LS
105.383 513.202 L
141.387 502.816 L
131.486 480.561 LE
167.103 501.54 LS
141.387 502.816 L
145.256 536.53 L
167.103 501.54 LE
257.266 0 LS
276.833 62.6057 L
329.161 0 L
257.266 0 LE
418.192 179.485 LS
439.244 228.493 L
467.417 193.476 L
418.192 179.485 LE
189.354 233.631 LS
205.266 253.737 L
210.757 229.784 L
189.354 233.631 LE
202.288 536.397 LS
176.223 531.115 L
175.688 575.543 L
202.288 536.397 LE
176.875 161.768 LS
166.911 210.345 L
200.182 204.817 L
176.875 161.768 LE
202.288 536.397 LS
218.055 573.731 L
226.981 536.573 L
202.288 536.397 LE
226.992 207.389 LS
218.061 170.199 L
200.182 204.817 L
226.992 207.389 LE
1229 343.317 LS
1197.76 308.988 L
1181.08 369.312 L
1229 350.721 L
1229 343.317 LE
175.688 575.543 LS
218.055 573.731 L
202.288 536.397 L
175.688 575.543 LE
200.182 204.817 LS
218.061 170.199 L
176.875 161.768 L
200.182 204.817 LE
278.786 681.807 LS
241.388 794.775 L
345.669 751.103 L
278.786 681.807 LE
96.4089 357.48 LS
99.6038 342.675 L
83.9858 345.304 L
96.4089 357.48 LE
82.6411 437.884 LS
33.4474 434.567 L
77.0677 468.747 L
82.6411 437.884 LE
1218.35 253.201 LS
1166.61 214.274 L
1162.24 274.565 L
1218.35 253.201 LE
1163.48 468.756 LS
1166.61 529.734 L
1219.93 489.645 L
1163.48 468.756 LE
1048.38 87.9577 LS
1083 0 L
1048.48 0 L
989.722 27.7316 L
1048.38 87.9577 LE
496.325 515.122 LS
442.162 515.525 L
469.691 555.065 L
496.325 515.122 LE
469.691 555.065 LS
442.162 515.525 L
418.318 566.86 L
469.691 555.065 LE
989.266 716.849 LS
1090.8 764.217 L
1048.3 656.475 L
989.266 716.849 LE
210.762 514.187 LS
205.266 490.263 L
189.112 505.81 L
210.762 514.187 LE
0 243.781 LS
8.38794 244.352 L
0 208.391 L
0 243.781 LE
439.244 228.493 LS
494.502 228.844 L
467.417 193.476 L
439.244 228.493 LE
176.875 161.768 LS
131.907 178.887 L
166.911 210.345 L
176.875 161.768 LE
134.204 740.216 LS
65.4484 670.938 L
23.8002 763.026 L
134.204 740.216 LE
44.4451 0 LS
54.2116 78.7506 L
130.442 0.652283 L
127.131 0 L
44.4451 0 LE
1112.34 295.762 LS
1094.95 305.213 L
1112.51 316.034 L
1112.34 295.762 LE
1112.73 427.912 LS
1094.95 438.787 L
1112.44 448.215 L
1112.73 427.912 LE
0 521.528 LS
33.4474 434.567 L
0 447.46 L
0 521.528 LE
1094.97 385.201 LS
1104.19 381.353 L
1093.88 377.702 L
1094.97 385.201 LE
62.7904 577.332 LS
105.383 513.202 L
54.3682 509.253 L
62.7904 577.332 LE
40.0037 362.666 LS
21.532 306.3 L
0 332.675 L
0 353.149 L
40.0037 362.666 LE
130.442 0.652283 LS
54.2116 78.7506 L
139.592 102.618 L
130.442 0.652283 LE
129.642 643.87 LS
65.4484 670.938 L
134.204 740.216 L
129.642 643.87 LE
269.908 524.068 LS
260.284 502.639 L
246.478 522.396 L
269.908 524.068 LE
246.524 221.567 LS
260.338 241.351 L
269.944 219.928 L
246.524 221.567 LE
0 62.1485 LS
54.2116 78.7506 L
44.4451 0 L
21.5259 0 L
0 17.2375 L
0 62.1485 LE
974.323 524.576 LS
940.304 481.326 L
919.622 537.307 L
974.323 524.576 LE
920.135 206.873 LS
940.803 262.731 L
974.71 219.621 L
920.135 206.873 LE
97.5115 290.58 LS
99.9769 256.131 L
62.7328 267.715 L
97.5115 290.58 LE
881.559 487.848 LS
818.651 494.268 L
854.854 537.594 L
881.559 487.848 LE
819.344 249.8 LS
882.196 256.22 L
855.512 206.591 L
819.344 249.8 LE
276.833 62.6057 LS
257.266 0 L
218.628 0 L
204.297 31.9764 L
276.833 62.6057 LE
99.6038 401.325 LS
96.4089 386.52 L
80.4935 397.024 L
99.6038 401.325 LE
62.7904 577.332 LS
65.4484 670.938 L
129.642 643.87 L
62.7904 577.332 LE
1088.29 352.255 LS
1086.76 363.025 L
1096.08 358.501 L
1088.29 352.255 LE
1094.97 385.201 LS
1086.76 380.975 L
1088.29 391.745 L
1094.97 385.201 LE
8.38794 244.352 LS
0 243.781 L
0 252.847 L
8.38794 244.352 LE
887.745 593.653 LS
796.812 617.386 L
850.667 662.654 L
887.745 593.653 LE
172.917 834 LS
241.388 794.775 L
134.204 740.216 L
120.71 834 L
172.917 834 LE
130.442 0.652283 LS
131.849 0 L
130.365 0 L
130.442 0.652283 LE
851.185 81.6489 LS
797.453 126.899 L
888.286 150.603 L
851.185 81.6489 LE
204.297 31.9764 LS
130.442 0.652283 L
139.592 102.618 L
204.297 31.9764 LE
189.354 233.631 LS
166.911 210.345 L
165.269 240.024 L
189.354 233.631 LE
129.642 643.87 LS
134.204 740.216 L
207.787 718.26 L
129.642 643.87 LE
207.787 718.26 LS
241.388 794.775 L
278.786 681.807 L
207.787 718.26 LE
139.592 102.618 LS
54.2116 78.7506 L
78.3333 161.083 L
139.592 102.618 LE
62.7328 267.715 LS
71.0749 307.407 L
97.5115 290.58 L
62.7328 267.715 LE
189.112 505.81 LS
185.632 483.662 L
167.103 501.54 L
189.112 505.81 LE
1103.52 214.658 LS
1166.61 214.274 L
1127.73 174.808 L
1103.52 214.658 LE
1127.72 569.228 LS
1166.61 529.734 L
1103.51 529.356 L
1127.72 569.228 LE
1162.24 274.565 LS
1166.61 214.274 L
1130.26 246.019 L
1162.24 274.565 LE
1130.26 497.997 LS
1166.61 529.734 L
1163.48 468.756 L
1130.26 497.997 LE
407.414 628.857 LS
470.999 606.088 L
418.318 566.86 L
407.414 628.857 LE
1065.75 168.355 LS
1103.52 214.658 L
1127.73 174.808 L
1065.75 168.355 LE
1048.3 656.475 LS
1115.51 616.543 L
1065.76 575.663 L
1048.3 656.475 LE
919.318 655.941 LS
882.794 726.777 L
989.266 716.849 L
919.318 655.941 LE
1127.72 569.228 LS
1103.51 529.356 L
1065.76 575.663 L
1127.72 569.228 LE
989.722 27.7316 LS
883.327 17.7397 L
919.809 88.4402 L
989.722 27.7316 LE
167.103 501.54 LS
167.349 475.794 L
150.823 485.899 L
167.103 501.54 LE
1118.52 351.477 LS
1129.47 331.021 L
1107.11 333.829 L
1118.52 351.477 LE
1107.11 410.171 LS
1131.04 412.591 L
1117.3 393.056 L
1107.11 410.171 LE
1229 397.422 LS
1204.66 430.673 L
1229 434.078 L
1229 397.422 LE
1065.75 168.355 LS
1115.52 127.587 L
1048.38 87.9577 L
1065.75 168.355 LE
83.9858 345.304 LS
99.6038 342.675 L
85.0894 328.832 L
83.9858 345.304 LE
71.8688 380.948 LS
95.3891 372 L
75.0614 359.636 L
71.8688 380.948 LE
1096.08 358.501 LS
1086.76 363.025 L
1097.98 368.981 L
1096.08 358.501 LE
167.349 475.794 LS
150.737 466.529 L
150.823 485.899 L
167.349 475.794 LE
1097.98 368.981 LS
1085.49 372 L
1093.88 377.702 L
1097.98 368.981 LE
1100.81 348.017 LS
1088.29 352.255 L
1096.08 358.501 L
1100.81 348.017 LE
1094.97 385.201 LS
1088.29 391.745 L
1100.84 395.189 L
1094.97 385.201 LE
278.786 681.807 LS
379.739 688.504 L
335.477 634.226 L
278.786 681.807 LE
23.8002 763.026 LS
0 792.262 L
0 834 L
86.9971 834 L
23.8002 763.026 LE
335.404 110.099 LS
364.284 57.8397 L
276.833 62.6057 L
335.404 110.099 LE
62.7328 267.715 LS
63.4682 223.056 L
8.38794 244.352 L
62.7328 267.715 LE
1229 306.09 LS
1197.76 308.988 L
1229 343.317 L
1229 306.09 LE
1094.28 253.84 LS
1103.52 214.658 L
1062.24 236.469 L
1094.28 253.84 LE
1062.17 507.569 LS
1103.51 529.356 L
1094.28 490.2 L
1062.17 507.569 LE
575.188 12.745 LS
568.677 0 L
454.227 0 L
445.658 10.7441 L
575.188 12.745 LE
141.387 502.816 LS
105.383 513.202 L
145.256 536.53 L
141.387 502.816 LE
85.0894 328.832 LS
105.125 327.98 L
93.9255 312.41 L
85.0894 328.832 LE
78.3333 161.083 LS
54.2116 78.7506 L
0 160.276 L
0 171.65 L
78.3333 161.083 LE
444.396 753.423 LS
525.094 832.168 L
567.233 726.972 L
444.396 753.423 LE
730.976 91.4843 LS
797.453 126.899 L
767.048 24.5641 L
730.976 91.4843 LE
766.668 719.515 LS
796.812 617.386 L
730.398 652.286 L
766.668 719.515 LE
854.854 537.594 LS
818.651 494.268 L
791.101 550.312 L
854.854 537.594 LE
791.737 193.86 LS
819.344 249.8 L
855.512 206.591 L
791.737 193.86 LE
1162.24 274.565 LS
1197.76 308.988 L
1218.35 253.201 L
1162.24 274.565 LE
1219.93 489.645 LS
1204.66 430.673 L
1163.48 468.756 L
1219.93 489.645 LE
919.622 537.307 LS
881.559 487.848 L
854.854 537.594 L
919.622 537.307 LE
855.512 206.591 LS
882.196 256.22 L
920.135 206.873 L
855.512 206.591 LE
80.4935 397.024 LS
96.4089 386.52 L
71.8688 380.948 L
80.4935 397.024 LE
467.185 670.626 LS
537.021 638.177 L
470.999 606.088 L
467.185 670.626 LE
1142.27 387.232 LS
1181.08 369.312 L
1141.12 357.463 L
1142.27 387.232 LE
200.182 204.817 LS
166.911 210.345 L
189.354 233.631 L
200.182 204.817 LE
650.848 802.373 LS
664.762 688.626 L
567.233 726.972 L
650.848 802.373 LE
575.188 12.745 LS
664.849 55.4193 L
657.656 0 L
588.599 0 L
575.188 12.745 LE
189.112 505.81 LS
176.223 531.115 L
202.288 536.397 L
189.112 505.81 LE
97.5115 290.58 LS
71.0749 307.407 L
93.9255 312.41 L
97.5115 290.58 LE
526.8 834 LS
525.094 832.168 L
524.163 834 L
526.8 834 LE
1121.96 275.951 LS
1098.12 282.88 L
1112.34 295.762 L
1121.96 275.951 LE
1112.44 448.215 LS
1098.12 461.12 L
1122.22 467.931 L
1112.44 448.215 LE
1218.35 253.201 LS
1197.76 308.988 L
1229 306.09 L
1229 264.312 L
1218.35 253.201 LE
1229 434.078 LS
1204.66 430.673 L
1219.93 489.645 L
1229 480.02 L
1229 434.078 LE
1106.53 360.229 LS
1118.34 371.803 L
1118.52 351.477 L
1106.53 360.229 LE
1117.3 393.056 LS
1118.34 371.803 L
1104.19 381.353 L
1117.3 393.056 LE
1018.42 503.443 LS
1020.61 541.245 L
1062.17 507.569 L
1018.42 503.443 LE
974.323 524.576 LS
1020.61 541.245 L
1018.42 503.443 L
974.323 524.576 LE
54.3682 509.253 LS
105.383 513.202 L
77.0677 468.747 L
54.3682 509.253 LE
1018.64 240.643 LS
1020.82 202.893 L
974.71 219.621 L
1018.64 240.643 LE
345.669 751.103 LS
379.739 688.504 L
278.786 681.807 L
345.669 751.103 LE
735.593 566.128 LS
796.812 617.386 L
791.101 550.312 L
735.593 566.128 LE
791.737 193.86 LS
797.453 126.899 L
736.08 177.846 L
791.737 193.86 LE
1062.24 236.469 LS
1020.82 202.893 L
1018.64 240.643 L
1062.24 236.469 LE
690.546 834 LS
650.848 802.373 L
640.84 834 L
690.546 834 LE
520.647 175.132 LS
469.091 150.211 L
467.417 193.476 L
520.647 175.132 LE
101.992 203.538 LS
131.907 178.887 L
78.3333 161.083 L
101.992 203.538 LE
0 332.675 LS
21.532 306.3 L
0 307.102 L
0 332.675 LE
1162.24 274.565 LS
1130.26 246.019 L
1121.96 275.951 L
1162.24 274.565 LE
1122.22 467.931 LS
1130.26 497.997 L
1163.48 468.756 L
1122.22 467.931 LE
276.833 62.6057 LS
364.284 57.8397 L
340.837 0 L
329.161 0 L
276.833 62.6057 LE
78.3333 161.083 LS
63.4682 223.056 L
101.992 203.538 L
78.3333 161.083 LE
269.908 524.068 LS
255.533 558.2 L
295.687 540.147 L
269.908 524.068 LE
295.653 203.868 LS
255.534 185.781 L
269.944 219.928 L
295.653 203.868 LE
372.396 588.907 LS
335.477 634.226 L
407.414 628.857 L
372.396 588.907 LE
202.496 642.874 LS
207.787 718.26 L
278.786 681.807 L
202.496 642.874 LE
202.49 101.003 LS
276.833 62.6057 L
204.297 31.9764 L
202.49 101.003 LE
120.71 834 LS
134.204 740.216 L
23.8002 763.026 L
86.9971 834 L
120.71 834 LE
149.132 255.07 LS
134.547 229.611 L
128.791 262.302 L
149.132 255.07 LE
127.131 0 LS
130.442 0.652283 L
130.365 0 L
127.131 0 LE
1118.52 351.477 LS
1118.34 371.803 L
1141.12 357.463 L
1118.52 351.477 LE
467.417 193.476 LS
469.091 150.211 L
418.192 179.485 L
467.417 193.476 LE
0 395.979 LS
33.4474 434.567 L
56.1252 400.746 L
0 395.633 L
0 395.979 LE
1154.65 65.0683 LS
1115.52 127.587 L
1176.09 143.168 L
1154.65 65.0683 LE
1176.06 600.877 LS
1115.51 616.543 L
1154.6 679.08 L
1176.06 600.877 LE
650.848 802.373 LS
525.094 832.168 L
526.8 834 L
640.84 834 L
650.848 802.373 LE
1093.88 377.702 LS
1085.49 372 L
1086.76 380.975 L
1093.88 377.702 LE
150.823 485.899 LS
150.737 466.529 L
131.486 480.561 L
150.823 485.899 LE
767.048 24.5641 LS
664.849 55.4193 L
730.976 91.4843 L
767.048 24.5641 LE
600.326 91.9244 LS
519.885 97.2187 L
585.177 158.881 L
600.326 91.9244 LE
730.398 652.286 LS
664.762 688.626 L
766.668 719.515 L
730.398 652.286 LE
371.292 549.642 LS
372.396 588.907 L
418.318 566.86 L
371.292 549.642 LE
582.83 577.376 LS
537.021 638.177 L
600.8 655.257 L
582.83 577.376 LE
165.269 240.024 LS
134.547 229.611 L
149.132 255.07 L
165.269 240.024 LE
416.593 106.242 LS
364.284 57.8397 L
335.404 110.099 L
416.593 106.242 LE
736.08 177.846 LS
797.453 126.899 L
730.976 91.4843 L
736.08 177.846 LE
1107.11 333.829 LS
1129.47 331.021 L
1112.51 316.034 L
1107.11 333.829 LE
1112.73 427.912 LS
1131.04 412.591 L
1107.11 410.171 L
1112.73 427.912 LE
730.398 652.286 LS
796.812 617.386 L
735.593 566.128 L
730.398 652.286 LE
0 447.46 LS
33.4474 434.567 L
0 395.979 L
0 447.46 LE
418.192 179.485 LS
370.724 153.77 L
370.988 194.46 L
418.192 179.485 LE
331.937 560.331 LS
372.396 588.907 L
371.292 549.642 L
331.937 560.331 LE
370.988 194.46 LS
370.724 153.77 L
331.695 183.694 L
370.988 194.46 LE
1093.88 377.702 LS
1086.76 380.975 L
1094.97 385.201 L
1093.88 377.702 LE
145.256 536.53 LS
122.675 569.227 L
175.688 575.543 L
145.256 536.53 LE
1163.48 468.756 LS
1204.66 430.673 L
1160.77 419.626 L
1163.48 468.756 LE
1159.28 324.006 LS
1197.76 308.988 L
1162.24 274.565 L
1159.28 324.006 LE
75.0614 359.636 LS
96.4089 357.48 L
83.9858 345.304 L
75.0614 359.636 LE
600.8 655.257 LS
537.021 638.177 L
567.233 726.972 L
600.8 655.257 LE
1112.51 316.034 LS
1134.52 302.637 L
1112.34 295.762 L
1112.51 316.034 LE
1112.44 448.215 LS
1134.78 441.299 L
1112.73 427.912 L
1112.44 448.215 LE
567.233 726.972 LS
525.094 832.168 L
650.848 802.373 L
567.233 726.972 LE
568.677 0 LS
575.188 12.745 L
588.599 0 L
568.677 0 LE
1229 185.748 LS
1166.61 214.274 L
1218.35 253.201 L
1229 197.873 L
1229 185.748 LE
1219.93 489.645 LS
1166.61 529.734 L
1229 558.239 L
1229 544.022 L
1219.93 489.645 LE
76.4106 414.67 LS
99.6038 401.325 L
80.4935 397.024 L
76.4106 414.67 LE
1112.34 295.762 LS
1134.52 302.637 L
1121.96 275.951 L
1112.34 295.762 LE
1122.22 467.931 LS
1134.78 441.299 L
1112.44 448.215 L
1122.22 467.931 LE
210.762 514.187 LS
226.981 536.573 L
230.174 513.588 L
210.762 514.187 LE
230.193 230.389 LS
226.992 207.389 L
210.757 229.784 L
230.193 230.389 LE
575.188 12.745 LS
519.885 97.2187 L
600.326 91.9244 L
575.188 12.745 LE
0 626.687 LS
65.4484 670.938 L
62.7904 577.332 L
0 608.579 L
0 626.687 LE
204.297 31.9764 LS
218.628 0 L
131.849 0 L
130.442 0.652283 L
204.297 31.9764 LE
134.204 740.216 LS
241.388 794.775 L
207.787 718.26 L
134.204 740.216 LE
418.318 566.86 LS
470.999 606.088 L
469.691 555.065 L
418.318 566.86 LE
0 160.276 LS
54.2116 78.7506 L
0 62.1485 L
0 160.276 LE
920.135 206.873 LS
888.286 150.603 L
855.512 206.591 L
920.135 206.873 LE
854.854 537.594 LS
887.745 593.653 L
919.622 537.307 L
854.854 537.594 LE
99.9769 256.131 LS
63.4682 223.056 L
62.7328 267.715 L
99.9769 256.131 LE
128.791 262.302 LS
99.9769 256.131 L
117.138 279.524 L
128.791 262.302 LE
1229 350.721 LS
1181.08 369.312 L
1229 389.724 L
1229 350.721 LE
117.138 279.524 LS
99.9769 256.131 L
97.5115 290.58 L
117.138 279.524 LE
230.174 513.588 LS
226.981 536.573 L
246.478 522.396 L
230.174 513.588 LE
246.524 221.567 LS
226.992 207.389 L
230.193 230.389 L
246.524 221.567 LE
1141.12 357.463 LS
1129.47 331.021 L
1118.52 351.477 L
1141.12 357.463 LE
1127.73 174.808 LS
1115.52 127.587 L
1065.75 168.355 L
1127.73 174.808 LE
1065.76 575.663 LS
1115.51 616.543 L
1127.72 569.228 L
1065.76 575.663 LE
62.7904 577.332 LS
0 524.306 L
0 608.579 L
62.7904 577.332 LE
1229 107.264 LS
1176.09 143.168 L
1229 182.668 L
1229 107.264 LE
1176.06 600.877 LS
1229 636.813 L
1229 561.33 L
1176.06 600.877 LE
1096.08 358.501 LS
1106.53 360.229 L
1100.81 348.017 L
1096.08 358.501 LE
1100.84 395.189 LS
1104.19 381.353 L
1094.97 385.201 L
1100.84 395.189 LE
0 395.337 LS
40.0037 362.666 L
0 353.149 L
0 395.337 LE
567.233 726.972 LS
664.762 688.626 L
600.8 655.257 L
567.233 726.972 LE
919.318 655.941 LS
887.745 593.653 L
850.667 662.654 L
919.318 655.941 LE
202.288 536.397 LS
226.981 536.573 L
210.762 514.187 L
202.288 536.397 LE
851.185 81.6489 LS
888.286 150.603 L
919.809 88.4402 L
851.185 81.6489 LE
210.757 229.784 LS
226.992 207.389 L
200.182 204.817 L
210.757 229.784 LE
467.185 670.626 LS
470.999 606.088 L
407.414 628.857 L
467.185 670.626 LE
1176.09 143.168 LS
1229 107.264 L
1229 83.3292 L
1154.65 65.0683 L
1176.09 143.168 LE
1154.6 679.08 LS
1229 660.655 L
1229 636.813 L
1176.06 600.877 L
1154.6 679.08 LE
600.326 91.9244 LS
664.849 55.4193 L
575.188 12.745 L
600.326 91.9244 LE
335.477 634.226 LS
379.739 688.504 L
407.414 628.857 L
335.477 634.226 LE
54.3682 509.253 LS
0 523.415 L
0 524.306 L
62.7904 577.332 L
54.3682 509.253 LE
1176.09 143.168 LS
1166.61 214.274 L
1229 185.748 L
1229 182.668 L
1176.09 143.168 LE
1229 558.239 LS
1166.61 529.734 L
1176.06 600.877 L
1229 561.33 L
1229 558.239 LE
1097.98 368.981 LS
1106.53 360.229 L
1096.08 358.501 L
1097.98 368.981 LE
83.9858 345.304 LS
63.7643 337.896 L
75.0614 359.636 L
83.9858 345.304 LE
131.486 480.561 LS
141.387 502.816 L
150.823 485.899 L
131.486 480.561 LE
1229 250.206 LS
1218.35 253.201 L
1229 264.312 L
1229 250.206 LE
1219.93 489.645 LS
1229 492.422 L
1229 480.02 L
1219.93 489.645 LE
150.823 485.899 LS
141.387 502.816 L
167.103 501.54 L
150.823 485.899 LE
101.184 450.198 LS
77.0677 468.747 L
108.593 471.593 L
101.184 450.198 LE
80.4935 397.024 LS
56.1252 400.746 L
76.4106 414.67 L
80.4935 397.024 LE
1127.73 174.808 LS
1166.61 214.274 L
1176.09 143.168 L
1127.73 174.808 LE
1176.06 600.877 LS
1166.61 529.734 L
1127.72 569.228 L
1176.06 600.877 LE
82.6411 437.884 LS
77.0677 468.747 L
101.184 450.198 L
82.6411 437.884 LE
1218.35 253.201 LS
1229 250.206 L
1229 197.873 L
1218.35 253.201 LE
1229 492.422 LS
1219.93 489.645 L
1229 544.022 L
1229 492.422 LE
850.667 662.654 LS
882.794 726.777 L
919.318 655.941 L
850.667 662.654 LE
919.809 88.4402 LS
883.327 17.7397 L
851.185 81.6489 L
919.809 88.4402 LE
1176.09 143.168 LS
1115.52 127.587 L
1127.73 174.808 L
1176.09 143.168 LE
1127.72 569.228 LS
1115.51 616.543 L
1176.06 600.877 L
1127.72 569.228 LE
85.0894 328.832 LS
63.7643 337.896 L
83.9858 345.304 L
85.0894 328.832 LE
71.8688 380.948 LS
56.1252 400.746 L
80.4935 397.024 L
71.8688 380.948 LE
1070.47 369.891 LS
1085.49 372 L
1086.76 363.025 L
1070.47 369.891 L
1086.76 363.025 L
1071.16 360.834 L
1070.47 369.891 LE
1039.68 365.702 LS
1070.47 369.891 L
1071.16 360.834 L
1039.68 365.702 L
1071.16 360.834 L
1039.83 356.577 L
1039.68 365.702 LE
996.017 360.049 LS
1039.68 365.702 L
1039.83 356.577 L
996.017 360.049 L
1039.83 356.577 L
995.847 350.893 L
996.017 360.049 LE
943.904 353.712 LS
996.017 360.049 L
995.847 350.893 L
943.904 353.712 L
995.847 350.893 L
943.592 344.55 L
943.904 353.712 LE
885.82 347.141 LS
943.904 353.712 L
943.592 344.55 L
885.82 347.141 L
943.592 344.55 L
885.455 337.985 L
885.82 347.141 LE
822.736 340.576 LS
885.82 347.141 L
885.455 337.985 L
822.736 340.576 L
885.455 337.985 L
822.394 331.435 L
822.736 340.576 LE
756.021 334.306 LS
822.736 340.576 L
822.394 331.435 L
756.021 334.306 L
822.394 331.435 L
755.765 325.185 L
756.021 334.306 LE
687.58 328.676 LS
756.021 334.306 L
755.765 325.185 L
687.58 328.676 L
755.765 325.185 L
687.441 319.576 L
687.58 328.676 LE
619.664 324.043 LS
687.58 328.676 L
687.441 319.576 L
619.664 324.043 L
687.441 319.576 L
619.639 314.961 L
619.664 324.043 LE
554.571 320.714 LS
619.664 324.043 L
619.639 314.961 L
554.571 320.714 L
619.639 314.961 L
554.609 311.644 L
554.571 320.714 LE
494.285 318.864 LS
554.571 320.714 L
554.609 311.644 L
494.285 318.864 L
554.609 311.644 L
494.308 309.799 L
494.285 318.864 LE
440.227 318.498 LS
494.285 318.864 L
494.308 309.799 L
440.227 318.498 L
494.308 309.799 L
440.128 309.434 L
440.227 318.498 LE
393.185 310.388 LS
440.227 318.498 L
440.128 309.434 L
393.185 310.388 LE
393.137 319.459 LS
440.227 318.498 L
393.185 310.388 L
393.137 319.459 LE
352.997 312.404 LS
393.137 319.459 L
393.185 310.388 L
352.997 312.404 LE
353.132 321.479 LS
393.137 319.459 L
352.997 312.404 L
353.132 321.479 LE
319.451 315.181 LS
353.132 321.479 L
352.997 312.404 L
319.451 315.181 LE
319.856 324.25 LS
353.132 321.479 L
319.451 315.181 L
319.856 324.25 LE
292.054 318.406 LS
319.856 324.25 L
319.451 315.181 L
292.054 318.406 LE
292.804 327.451 LS
319.856 324.25 L
292.054 318.406 L
292.804 327.451 LE
270.747 321.69 LS
292.804 327.451 L
292.054 318.406 L
270.747 321.69 LE
271.913 330.686 LS
292.804 327.451 L
270.747 321.69 L
271.913 330.686 LE
255.224 324.637 LS
271.913 330.686 L
270.747 321.69 L
255.224 324.637 LE
256.85 333.557 LS
271.913 330.686 L
255.224 324.637 L
256.85 333.557 LE
244.653 326.985 LS
256.85 333.557 L
255.224 324.637 L
244.653 326.985 LE
246.742 335.805 LS
256.85 333.557 L
244.653 326.985 L
246.742 335.805 LE
1071.16 360.834 LS
1086.76 363.025 L
1088.29 352.255 L
1071.16 360.834 L
1088.29 352.255 L
1071.98 349.967 L
1071.16 360.834 LE
1039.83 356.577 LS
1071.16 360.834 L
1071.98 349.967 L
1039.83 356.577 L
1071.98 349.967 L
1040 345.628 L
1039.83 356.577 LE
995.847 350.893 LS
1039.83 356.577 L
1040 345.628 L
995.847 350.893 L
1040 345.628 L
995.644 339.906 L
995.847 350.893 LE
943.592 344.55 LS
995.847 350.893 L
995.644 339.906 L
943.592 344.55 L
995.644 339.906 L
943.217 333.555 L
943.592 344.55 LE
885.455 337.985 LS
943.592 344.55 L
943.217 333.555 L
885.455 337.985 L
943.217 333.555 L
885.017 326.997 L
885.455 337.985 LE
822.394 331.435 LS
885.455 337.985 L
885.017 326.997 L
822.394 331.435 L
885.017 326.997 L
821.985 320.464 L
822.394 331.435 LE
755.765 325.185 LS
822.394 331.435 L
821.985 320.464 L
755.765 325.185 L
821.985 320.464 L
755.457 314.239 L
755.765 325.185 LE
687.441 319.576 LS
755.765 325.185 L
755.457 314.239 L
687.441 319.576 L
755.457 314.239 L
687.276 308.656 L
687.441 319.576 LE
619.639 314.961 LS
687.441 319.576 L
687.276 308.656 L
619.639 314.961 L
687.276 308.656 L
619.608 304.063 L
619.639 314.961 LE
554.609 311.644 LS
619.639 314.961 L
619.608 304.063 L
554.609 311.644 L
619.608 304.063 L
554.657 300.76 L
554.609 311.644 LE
494.308 309.799 LS
554.609 311.644 L
554.657 300.76 L
494.308 309.799 L
554.657 300.76 L
494.334 298.92 L
494.308 309.799 LE
440.128 309.434 LS
494.308 309.799 L
494.334 298.92 L
440.128 309.434 L
494.334 298.92 L
440.009 298.557 L
440.128 309.434 LE
393.242 299.502 LS
440.128 309.434 L
440.009 298.557 L
393.242 299.502 LE
393.185 310.388 LS
440.128 309.434 L
393.242 299.502 L
393.185 310.388 LE
352.834 301.514 LS
393.185 310.388 L
393.242 299.502 L
352.834 301.514 LE
352.997 312.404 LS
393.185 310.388 L
352.834 301.514 L
352.997 312.404 LE
318.965 304.299 LS
352.997 312.404 L
352.834 301.514 L
318.965 304.299 LE
319.451 315.181 LS
352.997 312.404 L
318.965 304.299 L
319.451 315.181 LE
291.155 307.552 LS
319.451 315.181 L
318.965 304.299 L
291.155 307.552 LE
292.054 318.406 LS
319.451 315.181 L
291.155 307.552 L
292.054 318.406 LE
269.349 310.894 LS
292.054 318.406 L
291.155 307.552 L
269.349 310.894 LE
270.747 321.69 LS
292.054 318.406 L
269.349 310.894 L
270.747 321.69 LE
253.273 313.934 LS
270.747 321.69 L
269.349 310.894 L
253.273 313.934 LE
255.224 324.637 LS
270.747 321.69 L
253.273 313.934 L
255.224 324.637 LE
242.145 316.401 LS
255.224 324.637 L
253.273 313.934 L
242.145 316.401 LE
244.653 326.985 LS
255.224 324.637 L
242.145 316.401 L
244.653 326.985 LE
1071.98 349.967 LS
1088.29 352.255 L
1090.12 339.332 L
1071.98 349.967 L
1090.12 339.332 L
1072.96 336.926 L
1071.98 349.967 LE
1040 345.628 LS
1071.98 349.967 L
1072.96 336.926 L
1040 345.628 L
1072.96 336.926 L
1040.21 332.489 L
1040 345.628 LE
995.644 339.906 LS
1040 345.628 L
1040.21 332.489 L
995.644 339.906 L
1040.21 332.489 L
995.401 326.722 L
995.644 339.906 LE
943.217 333.555 LS
995.644 339.906 L
995.401 326.722 L
943.217 333.555 L
995.401 326.722 L
942.767 320.362 L
943.217 333.555 LE
885.017 326.997 LS
943.217 333.555 L
942.767 320.362 L
885.017 326.997 L
942.767 320.362 L
884.491 313.812 L
885.017 326.997 LE
821.985 320.464 LS
885.017 326.997 L
884.491 313.812 L
821.985 320.464 L
884.491 313.812 L
821.492 307.3 L
821.985 320.464 LE
755.457 314.239 LS
821.985 320.464 L
821.492 307.3 L
755.457 314.239 L
821.492 307.3 L
755.087 301.104 L
755.457 314.239 LE
687.276 308.656 LS
755.457 314.239 L
755.087 301.104 L
687.276 308.656 L
755.087 301.104 L
687.076 295.551 L
687.276 308.656 LE
619.608 304.063 LS
687.276 308.656 L
687.076 295.551 L
619.608 304.063 L
687.076 295.551 L
619.571 290.985 L
619.608 304.063 LE
554.657 300.76 LS
619.608 304.063 L
619.571 290.985 L
554.657 300.76 L
619.571 290.985 L
554.714 287.698 L
554.657 300.76 LE
494.334 298.92 LS
554.657 300.76 L
554.714 287.698 L
494.334 298.92 L
554.714 287.698 L
494.365 285.866 L
494.334 298.92 LE
440.009 298.557 LS
494.334 298.92 L
494.365 285.866 L
440.009 298.557 L
494.365 285.866 L
439.867 285.505 L
440.009 298.557 LE
393.31 286.439 LS
440.009 298.557 L
439.867 285.505 L
393.31 286.439 LE
393.242 299.502 LS
440.009 298.557 L
393.31 286.439 L
393.242 299.502 LE
352.637 288.447 LS
393.242 299.502 L
393.31 286.439 L
352.637 288.447 LE
352.834 301.514 LS
393.242 299.502 L
352.637 288.447 L
352.834 301.514 LE
318.382 291.241 LS
352.834 301.514 L
352.637 288.447 L
318.382 291.241 LE
318.965 304.299 LS
352.834 301.514 L
318.382 291.241 L
318.965 304.299 LE
290.076 294.527 LS
318.965 304.299 L
318.382 291.241 L
290.076 294.527 LE
291.155 307.552 LS
318.965 304.299 L
290.076 294.527 L
291.155 307.552 LE
267.67 297.939 LS
291.155 307.552 L
290.076 294.527 L
267.67 297.939 LE
269.349 310.894 LS
291.155 307.552 L
267.67 297.939 L
269.349 310.894 LE
250.931 301.089 LS
269.349 310.894 L
267.67 297.939 L
250.931 301.089 LE
253.273 313.934 LS
269.349 310.894 L
250.931 301.089 L
253.273 313.934 LE
239.136 303.7 LS
253.273 313.934 L
250.931 301.089 L
239.136 303.7 LE
242.145 316.401 LS
253.273 313.934 L
239.136 303.7 L
242.145 316.401 LE
1072.96 336.926 LS
1090.12 339.332 L
1092.31 323.823 L
1072.96 336.926 L
1092.31 323.823 L
1074.14 321.276 L
1072.96 336.926 LE
1040.21 332.489 LS
1072.96 336.926 L
1074.14 321.276 L
1040.21 332.489 L
1074.14 321.276 L
1040.46 316.722 L
1040.21 332.489 LE
995.401 326.722 LS
1040.21 332.489 L
1040.46 316.722 L
995.401 326.722 L
1040.46 316.722 L
995.108 310.901 L
995.401 326.722 LE
942.767 320.362 LS
995.401 326.722 L
995.108 310.901 L
942.767 320.362 L
995.108 310.901 L
942.228 304.529 L
942.767 320.362 LE
884.491 313.812 LS
942.767 320.362 L
942.228 304.529 L
884.491 313.812 L
942.228 304.529 L
883.861 297.99 L
884.491 313.812 LE
821.492 307.3 LS
884.491 313.812 L
883.861 297.99 L
821.492 307.3 L
883.861 297.99 L
820.902 291.503 L
821.492 307.3 LE
755.087 301.104 LS
821.492 307.3 L
820.902 291.503 L
755.087 301.104 L
820.902 291.503 L
754.643 285.342 L
755.087 301.104 LE
687.076 295.551 LS
755.087 301.104 L
754.643 285.342 L
687.076 295.551 L
754.643 285.342 L
686.837 279.826 L
687.076 295.551 LE
619.571 290.985 LS
687.076 295.551 L
686.837 279.826 L
619.571 290.985 L
686.837 279.826 L
619.527 275.291 L
619.571 290.985 LE
554.714 287.698 LS
619.571 290.985 L
619.527 275.291 L
554.714 287.698 L
619.527 275.291 L
554.781 272.025 L
554.714 287.698 LE
494.365 285.866 LS
554.714 287.698 L
554.781 272.025 L
494.365 285.866 L
554.781 272.025 L
494.403 270.2 L
494.365 285.866 LE
439.867 285.505 LS
494.365 285.866 L
494.403 270.2 L
439.867 285.505 LE
494.403 270.2 LS
439.696 269.842 L
439.867 285.505 L
494.403 270.2 LE
439.867 285.505 LS
439.696 269.842 L
393.392 270.764 L
439.867 285.505 L
393.392 270.764 L
393.31 286.439 L
439.867 285.505 LE
393.31 286.439 LS
393.392 270.764 L
352.402 272.766 L
393.31 286.439 L
352.402 272.766 L
352.637 288.447 L
393.31 286.439 LE
352.637 288.447 LS
352.402 272.766 L
317.681 275.571 L
352.637 288.447 L
317.681 275.571 L
318.382 291.241 L
352.637 288.447 LE
318.382 291.241 LS
317.681 275.571 L
288.78 278.898 L
318.382 291.241 L
288.78 278.898 L
290.076 294.527 L
318.382 291.241 LE
290.076 294.527 LS
288.78 278.898 L
265.656 282.393 L
290.076 294.527 L
265.656 282.393 L
267.67 297.939 L
290.076 294.527 LE
267.67 297.939 LS
265.656 282.393 L
248.121 285.676 L
267.67 297.939 L
248.121 285.676 L
250.931 301.089 L
267.67 297.939 LE
250.931 301.089 LS
248.121 285.676 L
235.525 288.458 L
250.931 301.089 L
235.525 288.458 L
239.136 303.7 L
250.931 301.089 LE
1092.31 323.823 LS
1094.95 305.213 L
1074.14 321.276 L
1092.31 323.823 LE
1094.95 305.213 LS
1075.56 302.497 L
1074.14 321.276 L
1094.95 305.213 LE
1074.14 321.276 LS
1075.56 302.497 L
1040.46 316.722 L
1074.14 321.276 LE
1075.56 302.497 LS
1040.76 297.802 L
1040.46 316.722 L
1075.56 302.497 LE
1040.46 316.722 LS
1040.76 297.802 L
995.108 310.901 L
1040.46 316.722 LE
1040.76 297.802 LS
994.758 291.916 L
995.108 310.901 L
1040.76 297.802 LE
995.108 310.901 LS
994.758 291.916 L
942.228 304.529 L
995.108 310.901 LE
994.758 291.916 LS
941.58 285.53 L
942.228 304.529 L
994.758 291.916 LE
942.228 304.529 LS
941.58 285.53 L
883.861 297.99 L
942.228 304.529 LE
941.58 285.53 LS
883.104 279.004 L
883.861 297.99 L
941.58 285.53 LE
883.861 297.99 LS
883.104 279.004 L
820.902 291.503 L
883.861 297.99 LE
883.104 279.004 LS
820.193 272.547 L
820.902 291.503 L
883.104 279.004 LE
820.902 291.503 LS
820.193 272.547 L
754.643 285.342 L
820.902 291.503 LE
820.193 272.547 LS
754.111 266.427 L
754.643 285.342 L
820.193 272.547 LE
754.643 285.342 LS
754.111 266.427 L
686.837 279.826 L
754.643 285.342 LE
754.111 266.427 LS
686.55 260.956 L
686.837 279.826 L
754.111 266.427 LE
686.837 279.826 LS
686.55 260.956 L
619.527 275.291 L
686.837 279.826 LE
686.55 260.956 LS
619.474 256.459 L
619.527 275.291 L
686.55 260.956 LE
619.527 275.291 LS
619.474 256.459 L
554.781 272.025 L
619.527 275.291 LE
619.474 256.459 LS
554.863 253.217 L
554.781 272.025 L
619.474 256.459 LE
554.781 272.025 LS
554.863 253.217 L
494.403 270.2 L
554.781 272.025 LE
554.863 253.217 LS
494.448 251.402 L
494.403 270.2 L
554.863 253.217 LE
494.403 270.2 LS
494.448 251.402 L
439.696 269.842 L
494.403 270.2 LE
494.448 251.402 LS
439.49 251.047 L
439.696 269.842 L
494.448 251.402 LE
439.696 269.842 LS
439.49 251.047 L
393.49 251.954 L
439.696 269.842 L
393.49 251.954 L
393.392 270.764 L
439.696 269.842 LE
393.392 270.764 LS
393.49 251.954 L
352.12 253.948 L
393.392 270.764 L
352.12 253.948 L
352.402 272.766 L
393.392 270.764 LE
352.402 272.766 LS
352.12 253.948 L
316.841 256.767 L
352.402 272.766 L
316.841 256.767 L
317.681 275.571 L
352.402 272.766 LE
317.681 275.571 LS
316.841 256.767 L
287.226 260.142 L
317.681 275.571 L
287.226 260.142 L
288.78 278.898 L
317.681 275.571 LE
288.78 278.898 LS
287.226 260.142 L
263.239 263.738 L
288.78 278.898 L
263.239 263.738 L
265.656 282.393 L
288.78 278.898 LE
265.656 282.393 LS
263.239 263.738 L
244.749 267.18 L
265.656 282.393 L
244.749 267.18 L
248.121 285.676 L
265.656 282.393 LE
248.121 285.676 LS
244.749 267.18 L
231.191 270.169 L
248.121 285.676 L
231.191 270.169 L
235.525 288.458 L
248.121 285.676 LE
1094.95 305.213 LS
1098.12 282.88 L
1075.56 302.497 L
1094.95 305.213 LE
1098.12 282.88 LS
1077.26 279.962 L
1075.56 302.497 L
1098.12 282.88 LE
1075.56 302.497 LS
1077.26 279.962 L
1040.76 297.802 L
1075.56 302.497 LE
1077.26 279.962 LS
1041.11 275.098 L
1040.76 297.802 L
1077.26 279.962 LE
1040.76 297.802 LS
1041.11 275.098 L
994.758 291.916 L
1040.76 297.802 LE
1041.11 275.098 LS
994.337 269.134 L
994.758 291.916 L
1041.11 275.098 LE
994.758 291.916 LS
994.337 269.134 L
941.58 285.53 L
994.758 291.916 LE
994.337 269.134 LS
940.803 262.731 L
941.58 285.53 L
994.337 269.134 LE
941.58 285.53 LS
940.803 262.731 L
883.104 279.004 L
941.58 285.53 LE
940.803 262.731 LS
882.196 256.22 L
883.104 279.004 L
940.803 262.731 LE
883.104 279.004 LS
882.196 256.22 L
820.193 272.547 L
883.104 279.004 LE
882.196 256.22 LS
819.344 249.8 L
820.193 272.547 L
882.196 256.22 LE
820.193 272.547 LS
819.344 249.8 L
754.111 266.427 L
820.193 272.547 LE
819.344 249.8 LS
753.472 243.73 L
754.111 266.427 L
819.344 249.8 LE
754.111 266.427 LS
753.472 243.73 L
686.55 260.956 L
754.111 266.427 LE
753.472 243.73 LS
686.206 238.312 L
686.55 260.956 L
753.472 243.73 LE
686.55 260.956 LS
686.206 238.312 L
619.474 256.459 L
686.55 260.956 LE
686.206 238.312 LS
619.409 233.86 L
619.474 256.459 L
686.206 238.312 LE
619.474 256.459 LS
619.409 233.86 L
554.863 253.217 L
619.474 256.459 LE
619.409 233.86 LS
554.961 230.646 L
554.863 253.217 L
619.409 233.86 LE
554.863 253.217 LS
554.961 230.646 L
494.448 251.402 L
554.863 253.217 LE
554.961 230.646 LS
494.502 228.844 L
494.448 251.402 L
554.961 230.646 LE
494.448 251.402 LS
494.502 228.844 L
439.49 251.047 L
494.448 251.402 LE
494.502 228.844 LS
439.244 228.493 L
439.49 251.047 L
494.502 228.844 LE
439.49 251.047 LS
439.244 228.493 L
393.608 229.38 L
439.49 251.047 L
393.608 229.38 L
393.49 251.954 L
439.49 251.047 LE
393.49 251.954 LS
393.608 229.38 L
351.781 231.368 L
393.49 251.954 L
351.781 231.368 L
352.12 253.948 L
393.49 251.954 LE
352.12 253.948 LS
351.781 231.368 L
315.833 234.202 L
352.12 253.948 L
315.833 234.202 L
316.841 256.767 L
352.12 253.948 LE
316.841 256.767 LS
315.833 234.202 L
285.36 237.635 L
316.841 256.767 L
285.36 237.635 L
287.226 260.142 L
316.841 256.767 LE
287.226 260.142 LS
285.36 237.635 L
260.338 241.351 L
287.226 260.142 L
260.338 241.351 L
263.239 263.738 L
287.226 260.142 LE
263.239 263.738 LS
260.338 241.351 L
240.702 244.984 L
263.239 263.738 L
240.702 244.984 L
244.749 267.18 L
263.239 263.738 LE
244.749 267.18 LS
240.702 244.984 L
225.991 248.221 L
244.749 267.18 L
225.991 248.221 L
231.191 270.169 L
244.749 267.18 LE
246.742 335.805 LS
244.653 326.985 L
239.306 337.664 L
246.742 335.805 LE
244.653 326.985 LS
235.878 329.212 L
239.306 337.664 L
244.653 326.985 LE
239.306 337.664 LS
235.878 329.212 L
231.921 339.716 L
239.306 337.664 LE
235.878 329.212 LS
227.259 331.722 L
231.921 339.716 L
235.878 329.212 LE
231.921 339.716 LS
227.259 331.722 L
224.783 341.94 L
231.921 339.716 LE
227.259 331.722 LS
218.999 334.514 L
224.783 341.94 L
227.259 331.722 LE
224.783 341.94 LS
218.999 334.514 L
217.833 344.391 L
224.783 341.94 LE
218.999 334.514 LS
211.076 337.652 L
217.833 344.391 L
218.999 334.514 LE
217.833 344.391 LS
211.076 337.652 L
211.206 347.075 L
217.833 344.391 LE
211.076 337.652 LS
203.634 341.147 L
211.206 347.075 L
211.076 337.652 LE
211.206 347.075 LS
203.634 341.147 L
204.876 350.078 L
211.206 347.075 LE
203.634 341.147 LS
196.671 345.074 L
204.876 350.078 L
203.634 341.147 LE
204.876 350.078 LS
196.671 345.074 L
198.99 353.455 L
204.876 350.078 LE
196.671 345.074 LS
190.336 349.457 L
198.99 353.455 L
196.671 345.074 LE
198.99 353.455 LS
190.336 349.457 L
193.725 357.292 L
198.99 353.455 LE
190.336 349.457 LS
184.803 354.34 L
193.725 357.292 L
190.336 349.457 LE
193.725 357.292 LS
184.803 354.34 L
189.363 361.708 L
193.725 357.292 LE
184.803 354.34 LS
180.324 359.791 L
189.363 361.708 L
184.803 354.34 LE
189.363 361.708 LS
180.324 359.791 L
186.403 366.743 L
189.363 361.708 LE
180.324 359.791 LS
177.34 365.81 L
186.403 366.743 L
180.324 359.791 LE
186.403 366.743 LS
177.34 365.81 L
185.398 372 L
186.403 366.743 LE
177.34 365.81 LS
176.334 372 L
185.398 372 L
177.34 365.81 LE
244.653 326.985 LS
242.145 316.401 L
235.878 329.212 L
244.653 326.985 LE
242.145 316.401 LS
231.764 319.069 L
235.878 329.212 L
242.145 316.401 LE
235.878 329.212 LS
231.764 319.069 L
227.259 331.722 L
235.878 329.212 LE
231.764 319.069 LS
221.665 322.13 L
227.259 331.722 L
231.764 319.069 LE
227.259 331.722 LS
221.665 322.13 L
218.999 334.514 L
227.259 331.722 LE
221.665 322.13 LS
212.058 325.604 L
218.999 334.514 L
221.665 322.13 LE
218.999 334.514 LS
212.058 325.604 L
211.076 337.652 L
218.999 334.514 LE
212.058 325.604 LS
202.967 329.565 L
211.076 337.652 L
212.058 325.604 LE
211.076 337.652 LS
202.967 329.565 L
203.634 341.147 L
211.076 337.652 LE
202.967 329.565 LS
194.547 334.035 L
203.634 341.147 L
202.967 329.565 LE
203.634 341.147 LS
194.547 334.035 L
196.671 345.074 L
203.634 341.147 LE
194.547 334.035 LS
186.824 339.068 L
196.671 345.074 L
194.547 334.035 LE
196.671 345.074 LS
186.824 339.068 L
190.336 349.457 L
196.671 345.074 LE
186.824 339.068 LS
179.951 344.66 L
190.336 349.457 L
186.824 339.068 LE
190.336 349.457 LS
179.951 344.66 L
184.803 354.34 L
190.336 349.457 LE
179.951 344.66 LS
174.096 350.798 L
184.803 354.34 L
179.951 344.66 LE
184.803 354.34 LS
174.096 350.798 L
180.324 359.791 L
184.803 354.34 LE
174.096 350.798 LS
169.477 357.491 L
180.324 359.791 L
174.096 350.798 LE
180.324 359.791 LS
169.477 357.491 L
177.34 365.81 L
180.324 359.791 LE
169.477 357.491 LS
166.465 364.691 L
177.34 365.81 L
169.477 357.491 LE
177.34 365.81 LS
166.465 364.691 L
176.334 372 L
177.34 365.81 LE
166.465 364.691 LS
165.457 372 L
176.334 372 L
166.465 364.691 LE
242.145 316.401 LS
239.136 303.7 L
231.764 319.069 L
242.145 316.401 LE
239.136 303.7 LS
226.828 306.899 L
231.764 319.069 L
239.136 303.7 LE
231.764 319.069 LS
226.828 306.899 L
221.665 322.13 L
231.764 319.069 LE
226.828 306.899 LS
214.953 310.618 L
221.665 322.13 L
226.828 306.899 LE
221.665 322.13 LS
214.953 310.618 L
212.058 325.604 L
221.665 322.13 LE
214.953 310.618 LS
203.729 314.911 L
212.058 325.604 L
214.953 310.618 LE
212.058 325.604 LS
203.729 314.911 L
202.967 329.565 L
212.058 325.604 LE
203.729 314.911 LS
193.237 319.86 L
202.967 329.565 L
203.729 314.911 LE
202.967 329.565 LS
193.237 319.86 L
194.547 334.035 L
202.967 329.565 LE
193.237 319.86 LS
183.643 325.5 L
194.547 334.035 L
193.237 319.86 LE
194.547 334.035 LS
183.643 325.5 L
186.824 339.068 L
194.547 334.035 LE
183.643 325.5 LS
175.008 331.862 L
186.824 339.068 L
183.643 325.5 LE
186.824 339.068 LS
175.008 331.862 L
179.951 344.66 L
186.824 339.068 LE
175.008 331.862 LS
167.49 338.903 L
179.951 344.66 L
175.008 331.862 LE
179.951 344.66 LS
167.49 338.903 L
174.096 350.798 L
179.951 344.66 LE
167.49 338.903 LS
161.247 346.547 L
174.096 350.798 L
167.49 338.903 LE
174.096 350.798 LS
161.247 346.547 L
169.477 357.491 L
174.096 350.798 LE
161.247 346.547 LS
156.46 354.731 L
169.477 357.491 L
161.247 346.547 LE
169.477 357.491 LS
156.46 354.731 L
166.465 364.691 L
169.477 357.491 LE
156.46 354.731 LS
153.414 363.347 L
166.465 364.691 L
156.46 354.731 LE
166.465 364.691 LS
153.414 363.347 L
165.457 372 L
166.465 364.691 LE
153.414 363.347 LS
152.404 372 L
165.457 372 L
153.414 363.347 LE
239.136 303.7 LS
235.525 288.458 L
226.828 306.899 L
239.136 303.7 LE
235.525 288.458 LS
220.904 292.294 L
226.828 306.899 L
235.525 288.458 LE
226.828 306.899 LS
220.904 292.294 L
214.953 310.618 L
226.828 306.899 LE
220.904 292.294 LS
206.898 296.805 L
214.953 310.618 L
220.904 292.294 LE
214.953 310.618 LS
206.898 296.805 L
203.729 314.911 L
214.953 310.618 LE
206.898 296.805 LS
193.735 302.08 L
203.729 314.911 L
206.898 296.805 LE
203.729 314.911 LS
193.735 302.08 L
193.237 319.86 L
203.729 314.911 LE
193.735 302.08 LS
181.562 308.215 L
193.237 319.86 L
193.735 302.08 LE
193.237 319.86 LS
181.562 308.215 L
183.643 325.5 L
193.237 319.86 LE
181.562 308.215 LS
170.558 315.258 L
183.643 325.5 L
181.562 308.215 LE
183.643 325.5 LS
170.558 315.258 L
175.008 331.862 L
183.643 325.5 LE
170.558 315.258 LS
160.829 323.215 L
175.008 331.862 L
170.558 315.258 LE
175.008 331.862 LS
160.829 323.215 L
167.49 338.903 L
175.008 331.862 LE
160.829 323.215 LS
152.536 331.995 L
167.49 338.903 L
160.829 323.215 LE
167.49 338.903 LS
152.536 331.995 L
161.247 346.547 L
167.49 338.903 LE
152.536 331.995 LS
145.829 341.446 L
161.247 346.547 L
152.536 331.995 LE
161.247 346.547 LS
145.829 341.446 L
156.46 354.731 L
161.247 346.547 LE
145.829 341.446 LS
140.84 351.419 L
156.46 354.731 L
145.829 341.446 LE
156.46 354.731 LS
140.84 351.419 L
153.414 363.347 L
156.46 354.731 LE
140.84 351.419 LS
137.753 361.736 L
153.414 363.347 L
140.84 351.419 LE
153.414 363.347 LS
137.753 361.736 L
152.404 372 L
153.414 363.347 LE
137.753 361.736 LS
136.74 372 L
152.404 372 L
137.753 361.736 LE
235.525 288.458 LS
231.191 270.169 L
220.904 292.294 L
235.525 288.458 LE
231.191 270.169 LS
213.796 274.767 L
220.904 292.294 L
231.191 270.169 LE
220.904 292.294 LS
213.796 274.767 L
206.898 296.805 L
220.904 292.294 LE
213.796 274.767 LS
197.231 280.229 L
206.898 296.805 L
213.796 274.767 LE
206.898 296.805 LS
197.231 280.229 L
193.735 302.08 L
206.898 296.805 LE
197.231 280.229 LS
181.741 286.683 L
193.735 302.08 L
197.231 280.229 LE
193.735 302.08 LS
181.741 286.683 L
181.562 308.215 L
193.735 302.08 LE
181.741 286.683 LS
167.55 294.241 L
181.562 308.215 L
181.741 286.683 LE
181.562 308.215 LS
167.55 294.241 L
170.558 315.258 L
181.562 308.215 LE
167.55 294.241 LS
154.856 302.967 L
170.558 315.258 L
167.55 294.241 LE
170.558 315.258 LS
154.856 302.967 L
160.829 323.215 L
170.558 315.258 LE
154.856 302.967 LS
143.814 312.838 L
160.829 323.215 L
154.856 302.967 LE
160.829 323.215 LS
143.814 312.838 L
152.536 331.995 L
160.829 323.215 LE
143.814 312.838 LS
134.591 323.706 L
152.536 331.995 L
143.814 312.838 LE
152.536 331.995 LS
134.591 323.706 L
145.829 341.446 L
152.536 331.995 LE
134.591 323.706 LS
127.327 335.325 L
145.829 341.446 L
134.591 323.706 LE
145.829 341.446 LS
127.327 335.325 L
140.84 351.419 L
145.829 341.446 LE
127.327 335.325 LS
122.096 347.444 L
140.84 351.419 L
127.327 335.325 LE
140.84 351.419 LS
122.096 347.444 L
137.753 361.736 L
140.84 351.419 LE
122.096 347.444 LS
118.96 359.801 L
137.753 361.736 L
122.096 347.444 LE
137.753 361.736 LS
118.96 359.801 L
136.74 372 L
137.753 361.736 LE
118.96 359.801 LS
117.944 372 L
136.74 372 L
118.96 359.801 LE
231.191 270.169 LS
225.991 248.221 L
213.796 274.767 L
231.191 270.169 LE
225.991 248.221 LS
205.266 253.737 L
213.796 274.767 L
225.991 248.221 LE
213.796 274.767 LS
205.266 253.737 L
197.231 280.229 L
213.796 274.767 LE
205.266 253.737 LS
185.632 260.338 L
197.231 280.229 L
205.266 253.737 LE
197.231 280.229 LS
185.632 260.338 L
181.741 286.683 L
197.231 280.229 LE
185.632 260.338 LS
167.349 268.206 L
181.741 286.683 L
185.632 260.338 LE
181.741 286.683 LS
167.349 268.206 L
167.55 294.241 L
181.741 286.683 LE
167.349 268.206 LS
150.737 277.471 L
167.55 294.241 L
167.349 268.206 LE
167.55 294.241 LS
150.737 277.471 L
154.856 302.967 L
167.55 294.241 LE
150.737 277.471 LS
136.014 288.219 L
154.856 302.967 L
150.737 277.471 LE
154.856 302.967 LS
136.014 288.219 L
143.814 312.838 L
154.856 302.967 LE
136.014 288.219 LS
123.396 300.385 L
143.814 312.838 L
136.014 288.219 LE
143.814 312.838 LS
123.396 300.385 L
134.591 323.706 L
143.814 312.838 LE
123.396 300.385 LS
113.058 313.758 L
134.591 323.706 L
123.396 300.385 LE
134.591 323.706 LS
113.058 313.758 L
127.327 335.325 L
134.591 323.706 LE
113.058 313.758 LS
105.125 327.98 L
127.327 335.325 L
113.058 313.758 LE
127.327 335.325 LS
105.125 327.98 L
122.096 347.444 L
127.327 335.325 LE
105.125 327.98 LS
99.6038 342.675 L
122.096 347.444 L
105.125 327.98 LE
122.096 347.444 LS
99.6038 342.675 L
118.96 359.801 L
122.096 347.444 LE
99.6038 342.675 LS
96.4089 357.48 L
118.96 359.801 L
99.6038 342.675 LE
118.96 359.801 LS
96.4089 357.48 L
117.944 372 L
118.96 359.801 LE
96.4089 357.48 LS
95.3891 372 L
117.944 372 L
96.4089 357.48 LE
185.398 372 LS
176.334 372 L
177.34 378.19 L
185.398 372 L
177.34 378.19 L
186.403 377.257 L
185.398 372 LE
186.403 377.257 LS
177.34 378.19 L
180.324 384.209 L
186.403 377.257 L
180.324 384.209 L
189.363 382.292 L
186.403 377.257 LE
189.363 382.292 LS
180.324 384.209 L
184.803 389.66 L
189.363 382.292 L
184.803 389.66 L
193.725 386.708 L
189.363 382.292 LE
193.725 386.708 LS
184.803 389.66 L
190.336 394.543 L
193.725 386.708 L
190.336 394.543 L
198.99 390.545 L
193.725 386.708 LE
198.99 390.545 LS
190.336 394.543 L
196.671 398.926 L
198.99 390.545 L
196.671 398.926 L
204.876 393.922 L
198.99 390.545 LE
204.876 393.922 LS
196.671 398.926 L
203.634 402.853 L
204.876 393.922 L
203.634 402.853 L
211.206 396.925 L
204.876 393.922 LE
211.206 396.925 LS
203.634 402.853 L
211.076 406.348 L
211.206 396.925 L
211.076 406.348 L
217.833 399.609 L
211.206 396.925 LE
217.833 399.609 LS
211.076 406.348 L
218.999 409.486 L
217.833 399.609 L
218.999 409.486 L
224.783 402.06 L
217.833 399.609 LE
224.783 402.06 LS
218.999 409.486 L
227.259 412.278 L
224.783 402.06 L
227.259 412.278 L
231.921 404.284 L
224.783 402.06 LE
231.921 404.284 LS
227.259 412.278 L
235.878 414.788 L
231.921 404.284 L
235.878 414.788 L
239.306 406.336 L
231.921 404.284 LE
239.306 406.336 LS
235.878 414.788 L
244.653 417.015 L
239.306 406.336 L
244.653 417.015 L
246.742 408.195 L
239.306 406.336 LE
176.334 372 LS
165.457 372 L
166.465 379.309 L
176.334 372 L
166.465 379.309 L
177.34 378.19 L
176.334 372 LE
177.34 378.19 LS
166.465 379.309 L
169.477 386.509 L
177.34 378.19 L
169.477 386.509 L
180.324 384.209 L
177.34 378.19 LE
180.324 384.209 LS
169.477 386.509 L
174.096 393.202 L
180.324 384.209 L
174.096 393.202 L
184.803 389.66 L
180.324 384.209 LE
184.803 389.66 LS
174.096 393.202 L
179.951 399.34 L
184.803 389.66 L
179.951 399.34 L
190.336 394.543 L
184.803 389.66 LE
190.336 394.543 LS
179.951 399.34 L
186.824 404.932 L
190.336 394.543 L
186.824 404.932 L
196.671 398.926 L
190.336 394.543 LE
196.671 398.926 LS
186.824 404.932 L
194.547 409.965 L
196.671 398.926 L
194.547 409.965 L
203.634 402.853 L
196.671 398.926 LE
203.634 402.853 LS
194.547 409.965 L
202.967 414.435 L
203.634 402.853 L
202.967 414.435 L
211.076 406.348 L
203.634 402.853 LE
211.076 406.348 LS
202.967 414.435 L
212.058 418.396 L
211.076 406.348 L
212.058 418.396 L
218.999 409.486 L
211.076 406.348 LE
218.999 409.486 LS
212.058 418.396 L
221.665 421.87 L
218.999 409.486 L
221.665 421.87 L
227.259 412.278 L
218.999 409.486 LE
227.259 412.278 LS
221.665 421.87 L
231.764 424.931 L
227.259 412.278 L
231.764 424.931 L
235.878 414.788 L
227.259 412.278 LE
235.878 414.788 LS
231.764 424.931 L
242.145 427.599 L
235.878 414.788 L
242.145 427.599 L
244.653 417.015 L
235.878 414.788 LE
165.457 372 LS
152.404 372 L
153.414 380.653 L
165.457 372 L
153.414 380.653 L
166.465 379.309 L
165.457 372 LE
166.465 379.309 LS
153.414 380.653 L
156.46 389.269 L
166.465 379.309 L
156.46 389.269 L
169.477 386.509 L
166.465 379.309 LE
169.477 386.509 LS
156.46 389.269 L
161.247 397.453 L
169.477 386.509 L
161.247 397.453 L
174.096 393.202 L
169.477 386.509 LE
174.096 393.202 LS
161.247 397.453 L
167.49 405.097 L
174.096 393.202 L
167.49 405.097 L
179.951 399.34 L
174.096 393.202 LE
179.951 399.34 LS
167.49 405.097 L
175.008 412.138 L
179.951 399.34 L
175.008 412.138 L
186.824 404.932 L
179.951 399.34 LE
186.824 404.932 LS
175.008 412.138 L
183.643 418.5 L
186.824 404.932 L
183.643 418.5 L
194.547 409.965 L
186.824 404.932 LE
194.547 409.965 LS
183.643 418.5 L
193.237 424.14 L
194.547 409.965 L
193.237 424.14 L
202.967 414.435 L
194.547 409.965 LE
202.967 414.435 LS
193.237 424.14 L
203.729 429.089 L
202.967 414.435 L
203.729 429.089 L
212.058 418.396 L
202.967 414.435 LE
212.058 418.396 LS
203.729 429.089 L
214.953 433.382 L
212.058 418.396 L
214.953 433.382 L
221.665 421.87 L
212.058 418.396 LE
221.665 421.87 LS
214.953 433.382 L
226.828 437.101 L
221.665 421.87 L
226.828 437.101 L
231.764 424.931 L
221.665 421.87 LE
231.764 424.931 LS
226.828 437.101 L
239.136 440.3 L
231.764 424.931 L
239.136 440.3 L
242.145 427.599 L
231.764 424.931 LE
152.404 372 LS
136.74 372 L
137.753 382.264 L
152.404 372 L
137.753 382.264 L
153.414 380.653 L
152.404 372 LE
153.414 380.653 LS
137.753 382.264 L
140.84 392.581 L
153.414 380.653 L
140.84 392.581 L
156.46 389.269 L
153.414 380.653 LE
156.46 389.269 LS
140.84 392.581 L
145.829 402.554 L
156.46 389.269 L
145.829 402.554 L
161.247 397.453 L
156.46 389.269 LE
161.247 397.453 LS
145.829 402.554 L
152.536 412.005 L
161.247 397.453 L
152.536 412.005 L
167.49 405.097 L
161.247 397.453 LE
167.49 405.097 LS
152.536 412.005 L
160.829 420.785 L
167.49 405.097 L
160.829 420.785 L
175.008 412.138 L
167.49 405.097 LE
175.008 412.138 LS
160.829 420.785 L
170.558 428.742 L
175.008 412.138 L
170.558 428.742 L
183.643 418.5 L
175.008 412.138 LE
183.643 418.5 LS
170.558 428.742 L
181.562 435.785 L
183.643 418.5 L
181.562 435.785 L
193.237 424.14 L
183.643 418.5 LE
193.237 424.14 LS
181.562 435.785 L
193.735 441.92 L
193.237 424.14 L
193.735 441.92 L
203.729 429.089 L
193.237 424.14 LE
203.729 429.089 LS
193.735 441.92 L
206.898 447.195 L
203.729 429.089 L
206.898 447.195 L
214.953 433.382 L
203.729 429.089 LE
214.953 433.382 LS
206.898 447.195 L
220.904 451.706 L
214.953 433.382 L
220.904 451.706 L
226.828 437.101 L
214.953 433.382 LE
226.828 437.101 LS
220.904 451.706 L
235.525 455.542 L
226.828 437.101 L
235.525 455.542 L
239.136 440.3 L
226.828 437.101 LE
136.74 372 LS
117.944 372 L
118.96 384.199 L
136.74 372 L
118.96 384.199 L
137.753 382.264 L
136.74 372 LE
137.753 382.264 LS
118.96 384.199 L
122.096 396.556 L
137.753 382.264 L
122.096 396.556 L
140.84 392.581 L
137.753 382.264 LE
140.84 392.581 LS
122.096 396.556 L
127.327 408.675 L
140.84 392.581 L
127.327 408.675 L
145.829 402.554 L
140.84 392.581 LE
145.829 402.554 LS
127.327 408.675 L
134.591 420.294 L
145.829 402.554 L
134.591 420.294 L
152.536 412.005 L
145.829 402.554 LE
152.536 412.005 LS
134.591 420.294 L
143.814 431.162 L
152.536 412.005 L
143.814 431.162 L
160.829 420.785 L
152.536 412.005 LE
160.829 420.785 LS
143.814 431.162 L
154.856 441.033 L
160.829 420.785 L
154.856 441.033 L
170.558 428.742 L
160.829 420.785 LE
170.558 428.742 LS
154.856 441.033 L
167.55 449.759 L
170.558 428.742 L
167.55 449.759 L
181.562 435.785 L
170.558 428.742 LE
181.562 435.785 LS
167.55 449.759 L
181.741 457.317 L
181.562 435.785 L
181.741 457.317 L
193.735 441.92 L
181.562 435.785 LE
193.735 441.92 LS
181.741 457.317 L
197.231 463.771 L
193.735 441.92 L
197.231 463.771 L
206.898 447.195 L
193.735 441.92 LE
206.898 447.195 LS
197.231 463.771 L
213.796 469.233 L
206.898 447.195 L
213.796 469.233 L
220.904 451.706 L
206.898 447.195 LE
220.904 451.706 LS
213.796 469.233 L
231.191 473.831 L
220.904 451.706 L
231.191 473.831 L
235.525 455.542 L
220.904 451.706 LE
117.944 372 LS
95.3891 372 L
96.4089 386.52 L
117.944 372 L
96.4089 386.52 L
118.96 384.199 L
117.944 372 LE
118.96 384.199 LS
96.4089 386.52 L
99.6038 401.325 L
118.96 384.199 L
99.6038 401.325 L
122.096 396.556 L
118.96 384.199 LE
122.096 396.556 LS
99.6038 401.325 L
105.125 416.02 L
122.096 396.556 L
105.125 416.02 L
127.327 408.675 L
122.096 396.556 LE
127.327 408.675 LS
105.125 416.02 L
113.058 430.242 L
127.327 408.675 L
113.058 430.242 L
134.591 420.294 L
127.327 408.675 LE
134.591 420.294 LS
113.058 430.242 L
123.396 443.615 L
134.591 420.294 L
123.396 443.615 L
143.814 431.162 L
134.591 420.294 LE
143.814 431.162 LS
123.396 443.615 L
136.014 455.781 L
143.814 431.162 L
136.014 455.781 L
154.856 441.033 L
143.814 431.162 LE
154.856 441.033 LS
136.014 455.781 L
150.737 466.529 L
154.856 441.033 L
150.737 466.529 L
167.55 449.759 L
154.856 441.033 LE
167.55 449.759 LS
150.737 466.529 L
167.349 475.794 L
167.55 449.759 L
167.349 475.794 L
181.741 457.317 L
167.55 449.759 LE
181.741 457.317 LS
167.349 475.794 L
185.632 483.662 L
181.741 457.317 L
185.632 483.662 L
197.231 463.771 L
181.741 457.317 LE
197.231 463.771 LS
185.632 483.662 L
205.266 490.263 L
197.231 463.771 L
205.266 490.263 L
213.796 469.233 L
197.231 463.771 LE
213.796 469.233 LS
205.266 490.263 L
225.991 495.779 L
213.796 469.233 L
225.991 495.779 L
231.191 473.831 L
213.796 469.233 LE
246.742 408.195 LS
244.653 417.015 L
256.85 410.443 L
246.742 408.195 LE
244.653 417.015 LS
255.22 419.362 L
256.85 410.443 L
244.653 417.015 LE
256.85 410.443 LS
255.22 419.362 L
271.913 413.314 L
256.85 410.443 LE
255.22 419.362 LS
270.742 422.309 L
271.913 413.314 L
255.22 419.362 LE
271.913 413.314 LS
270.742 422.309 L
292.804 416.549 L
271.913 413.314 LE
270.742 422.309 LS
292.053 425.594 L
292.804 416.549 L
270.742 422.309 LE
292.804 416.549 LS
292.053 425.594 L
319.856 419.75 L
292.804 416.549 LE
292.053 425.594 LS
319.458 428.819 L
319.856 419.75 L
292.053 425.594 LE
319.856 419.75 LS
319.458 428.819 L
353.132 422.521 L
319.856 419.75 LE
319.458 428.819 LS
353.018 431.597 L
353.132 422.521 L
319.458 428.819 LE
353.132 422.521 LS
353.018 431.597 L
393.137 424.541 L
353.132 422.521 LE
353.018 431.597 LS
393.224 433.614 L
393.137 424.541 L
353.018 431.597 LE
393.137 424.541 LS
393.224 433.614 L
440.227 425.502 L
393.137 424.541 LE
393.224 433.614 LS
440.422 434.568 L
440.227 425.502 L
393.224 433.614 LE
440.227 425.502 LS
440.422 434.568 L
494.285 425.136 L
440.227 425.502 LE
440.422 434.568 LS
494.49 434.198 L
494.285 425.136 L
440.422 434.568 LE
494.285 425.136 LS
494.49 434.198 L
554.699 432.352 L
494.285 425.136 L
554.699 432.352 L
554.571 423.286 L
494.285 425.136 LE
554.571 423.286 LS
554.699 432.352 L
619.655 429.038 L
554.571 423.286 L
619.655 429.038 L
619.664 419.957 L
554.571 423.286 LE
619.664 419.957 LS
619.655 429.038 L
687.408 424.427 L
619.664 419.957 L
687.408 424.427 L
687.58 415.324 L
619.664 419.957 LE
687.58 415.324 LS
687.408 424.427 L
755.703 418.82 L
687.58 415.324 L
755.703 418.82 L
756.021 409.694 L
687.58 415.324 LE
756.021 409.694 LS
755.703 418.82 L
822.325 412.572 L
756.021 409.694 L
822.325 412.572 L
822.736 403.424 L
756.021 409.694 LE
822.736 403.424 LS
822.325 412.572 L
885.391 406.022 L
822.736 403.424 L
885.391 406.022 L
885.82 396.859 L
822.736 403.424 LE
885.82 396.859 LS
885.391 406.022 L
943.541 399.456 L
885.82 396.859 L
943.541 399.456 L
943.904 390.288 L
885.82 396.859 LE
943.904 390.288 LS
943.541 399.456 L
995.815 393.111 L
943.904 390.288 L
995.815 393.111 L
996.017 383.951 L
943.904 390.288 LE
996.017 383.951 LS
995.815 393.111 L
1039.82 387.425 L
996.017 383.951 L
1039.82 387.425 L
1039.68 378.298 L
996.017 383.951 LE
1039.68 378.298 LS
1039.82 387.425 L
1071.16 383.166 L
1039.68 378.298 L
1071.16 383.166 L
1070.47 374.109 L
1039.68 378.298 LE
1070.47 374.109 LS
1071.16 383.166 L
1086.76 380.975 L
1070.47 374.109 L
1086.76 380.975 L
1085.49 372 L
1070.47 374.109 LE
244.653 417.015 LS
242.145 427.599 L
255.22 419.362 L
244.653 417.015 LE
242.145 427.599 LS
253.263 430.064 L
255.22 419.362 L
242.145 427.599 LE
255.22 419.362 LS
253.263 430.064 L
270.742 422.309 L
255.22 419.362 LE
253.263 430.064 LS
269.337 433.104 L
270.742 422.309 L
253.263 430.064 LE
270.742 422.309 LS
269.337 433.104 L
292.053 425.594 L
270.742 422.309 LE
269.337 433.104 LS
291.151 436.447 L
292.053 425.594 L
269.337 433.104 LE
292.053 425.594 LS
291.151 436.447 L
319.458 428.819 L
292.053 425.594 LE
291.151 436.447 LS
318.981 439.702 L
319.458 428.819 L
291.151 436.447 LE
319.458 428.819 LS
318.981 439.702 L
353.018 431.597 L
319.458 428.819 LE
318.981 439.702 LS
352.88 442.489 L
353.018 431.597 L
318.981 439.702 LE
353.018 431.597 LS
352.88 442.489 L
393.224 433.614 L
353.018 431.597 LE
352.88 442.489 LS
393.328 444.501 L
393.224 433.614 L
352.88 442.489 LE
393.224 433.614 LS
393.328 444.501 L
440.422 434.568 L
393.224 433.614 LE
393.328 444.501 LS
440.656 445.447 L
440.422 434.568 L
393.328 444.501 LE
440.422 434.568 LS
440.656 445.447 L
494.49 434.198 L
440.422 434.568 LE
440.656 445.447 LS
494.737 445.072 L
494.49 434.198 L
440.656 445.447 LE
494.49 434.198 LS
494.737 445.072 L
554.854 443.233 L
494.49 434.198 L
554.854 443.233 L
554.699 432.352 L
494.49 434.198 LE
554.699 432.352 LS
554.854 443.233 L
619.644 439.935 L
554.699 432.352 L
619.644 439.935 L
619.655 429.038 L
554.699 432.352 LE
619.655 429.038 LS
619.644 439.935 L
687.201 435.35 L
619.655 429.038 L
687.201 435.35 L
687.408 424.427 L
619.655 429.038 LE
687.408 424.427 LS
687.201 435.35 L
755.322 429.773 L
687.408 424.427 L
755.322 429.773 L
755.703 418.82 L
687.408 424.427 LE
755.703 418.82 LS
755.322 429.773 L
821.832 423.55 L
755.703 418.82 L
821.832 423.55 L
822.325 412.572 L
755.703 418.82 LE
822.325 412.572 LS
821.832 423.55 L
884.876 417.018 L
822.325 412.572 L
884.876 417.018 L
885.391 406.022 L
822.325 412.572 LE
885.391 406.022 LS
884.876 417.018 L
943.106 410.458 L
885.391 406.022 L
943.106 410.458 L
943.541 399.456 L
885.391 406.022 LE
943.541 399.456 LS
943.106 410.458 L
995.573 404.103 L
943.541 399.456 L
995.573 404.103 L
995.815 393.111 L
943.541 399.456 LE
995.815 393.111 LS
995.573 404.103 L
1039.97 398.376 L
995.815 393.111 L
1039.97 398.376 L
1039.82 387.425 L
995.815 393.111 LE
1039.82 387.425 LS
1039.97 398.376 L
1071.98 394.033 L
1039.82 387.425 L
1071.98 394.033 L
1071.16 383.166 L
1039.82 387.425 LE
1071.16 383.166 LS
1071.98 394.033 L
1088.29 391.745 L
1071.16 383.166 L
1088.29 391.745 L
1086.76 380.975 L
1071.16 383.166 LE
242.145 427.599 LS
239.136 440.3 L
253.263 430.064 L
242.145 427.599 LE
239.136 440.3 LS
250.914 442.908 L
253.263 430.064 L
239.136 440.3 LE
253.263 430.064 LS
250.914 442.908 L
269.337 433.104 L
253.263 430.064 LE
250.914 442.908 LS
267.65 446.058 L
269.337 433.104 L
250.914 442.908 LE
269.337 433.104 LS
267.65 446.058 L
291.151 436.447 L
269.337 433.104 LE
267.65 446.058 LS
290.069 449.472 L
291.151 436.447 L
267.65 446.058 LE
291.151 436.447 LS
290.069 449.472 L
318.981 439.702 L
291.151 436.447 LE
290.069 449.472 LS
318.408 452.761 L
318.981 439.702 L
290.069 449.472 LE
318.981 439.702 LS
318.408 452.761 L
352.88 442.489 L
318.981 439.702 LE
318.408 452.761 LS
352.714 455.558 L
352.88 442.489 L
318.408 452.761 LE
352.88 442.489 LS
352.714 455.558 L
393.328 444.501 L
352.88 442.489 LE
352.714 455.558 LS
393.453 457.566 L
393.328 444.501 L
352.714 455.558 LE
393.328 444.501 LS
393.453 457.566 L
440.656 445.447 L
393.328 444.501 LE
393.453 457.566 LS
440.937 458.501 L
440.656 445.447 L
393.453 457.566 LE
440.656 445.447 LS
440.937 458.501 L
494.737 445.072 L
440.656 445.447 LE
440.937 458.501 LS
495.033 458.122 L
494.737 445.072 L
440.937 458.501 LE
494.737 445.072 LS
495.033 458.122 L
555.04 456.289 L
494.737 445.072 L
555.04 456.289 L
554.854 443.233 L
494.737 445.072 LE
554.854 443.233 LS
555.04 456.289 L
619.63 453.012 L
554.854 443.233 L
619.63 453.012 L
619.644 439.935 L
554.854 443.233 LE
619.644 439.935 LS
619.63 453.012 L
686.953 448.458 L
619.644 439.935 L
686.953 448.458 L
687.201 435.35 L
619.644 439.935 LE
687.201 435.35 LS
686.953 448.458 L
754.865 442.915 L
687.201 435.35 L
754.865 442.915 L
755.322 429.773 L
687.201 435.35 LE
755.322 429.773 LS
754.865 442.915 L
821.239 436.724 L
755.322 429.773 L
821.239 436.724 L
821.832 423.55 L
755.322 429.773 LE
821.832 423.55 LS
821.239 436.724 L
884.258 430.213 L
821.832 423.55 L
884.258 430.213 L
884.876 417.018 L
821.832 423.55 LE
884.876 417.018 LS
884.258 430.213 L
942.584 423.66 L
884.876 417.018 L
942.584 423.66 L
943.106 410.458 L
884.876 417.018 LE
943.106 410.458 LS
942.584 423.66 L
995.282 417.293 L
943.106 410.458 L
995.282 417.293 L
995.573 404.103 L
943.106 410.458 LE
995.573 404.103 LS
995.282 417.293 L
1040.16 411.518 L
995.573 404.103 L
1040.16 411.518 L
1039.97 398.376 L
995.573 404.103 LE
1039.97 398.376 LS
1040.16 411.518 L
1072.96 407.075 L
1039.97 398.376 L
1072.96 407.075 L
1071.98 394.033 L
1039.97 398.376 LE
1071.98 394.033 LS
1072.96 407.075 L
1090.12 404.668 L
1071.98 394.033 L
1090.12 404.668 L
1088.29 391.745 L
1071.98 394.033 LE
239.136 440.3 LS
235.525 455.542 L
250.914 442.908 L
239.136 440.3 LE
235.525 455.542 LS
248.097 458.319 L
250.914 442.908 L
235.525 455.542 LE
250.914 442.908 LS
248.097 458.319 L
267.65 446.058 L
250.914 442.908 LE
248.097 458.319 LS
265.627 461.602 L
267.65 446.058 L
248.097 458.319 LE
267.65 446.058 LS
265.627 461.602 L
290.069 449.472 L
267.65 446.058 LE
265.627 461.602 LS
288.771 465.101 L
290.069 449.472 L
265.627 461.602 LE
290.069 449.472 LS
288.771 465.101 L
318.408 452.761 L
290.069 449.472 LE
288.771 465.101 LS
317.72 468.432 L
318.408 452.761 L
288.771 465.101 LE
318.408 452.761 LS
317.72 468.432 L
352.714 455.558 L
318.408 452.761 LE
317.72 468.432 LS
352.515 471.242 L
352.714 455.558 L
317.72 468.432 LE
352.714 455.558 LS
352.515 471.242 L
393.453 457.566 L
352.714 455.558 LE
352.515 471.242 LS
393.602 473.243 L
393.453 457.566 L
352.515 471.242 LE
393.453 457.566 LS
393.602 473.243 L
440.937 458.501 L
393.453 457.566 LE
393.602 473.243 LS
441.272 474.167 L
440.937 458.501 L
393.602 473.243 LE
440.937 458.501 LS
441.272 474.167 L
495.033 458.122 L
440.937 458.501 LE
441.272 474.167 LS
495.388 473.782 L
495.033 458.122 L
441.272 474.167 LE
495.033 458.122 LS
495.388 473.782 L
555.262 471.956 L
495.033 458.122 L
555.262 471.956 L
555.04 456.289 L
495.033 458.122 LE
555.04 456.289 LS
555.262 471.956 L
619.614 468.703 L
555.04 456.289 L
619.614 468.703 L
619.63 453.012 L
555.04 456.289 LE
619.63 453.012 LS
619.614 468.703 L
686.656 464.188 L
619.63 453.012 L
686.656 464.188 L
686.953 448.458 L
619.63 453.012 LE
686.953 448.458 LS
686.656 464.188 L
754.315 458.687 L
686.953 448.458 L
754.315 458.687 L
754.865 442.915 L
686.953 448.458 LE
754.865 442.915 LS
754.315 458.687 L
820.528 452.533 L
754.865 442.915 L
820.528 452.533 L
821.239 436.724 L
754.865 442.915 LE
821.239 436.724 LS
820.528 452.533 L
883.517 446.047 L
821.239 436.724 L
883.517 446.047 L
884.258 430.213 L
821.239 436.724 LE
884.258 430.213 LS
883.517 446.047 L
941.958 439.502 L
884.258 430.213 L
941.958 439.502 L
942.584 423.66 L
884.258 430.213 LE
942.584 423.66 LS
941.958 439.502 L
994.933 433.121 L
942.584 423.66 L
994.933 433.121 L
995.282 417.293 L
942.584 423.66 LE
995.282 417.293 LS
994.933 433.121 L
1040.38 427.288 L
995.282 417.293 L
1040.38 427.288 L
1040.16 411.518 L
995.282 417.293 LE
1040.16 411.518 LS
1040.38 427.288 L
1074.14 422.724 L
1040.16 411.518 L
1074.14 422.724 L
1072.96 407.075 L
1040.16 411.518 LE
1072.96 407.075 LS
1074.14 422.724 L
1092.31 420.177 L
1072.96 407.075 L
1092.31 420.177 L
1090.12 404.668 L
1072.96 407.075 LE
235.525 455.542 LS
231.191 473.831 L
248.097 458.319 L
235.525 455.542 LE
231.191 473.831 LS
244.715 476.814 L
248.097 458.319 L
231.191 473.831 LE
248.097 458.319 LS
244.715 476.814 L
265.627 461.602 L
248.097 458.319 LE
244.715 476.814 LS
263.198 480.256 L
265.627 461.602 L
244.715 476.814 LE
265.627 461.602 LS
263.198 480.256 L
288.771 465.101 L
265.627 461.602 LE
263.198 480.256 LS
287.214 483.856 L
288.771 465.101 L
263.198 480.256 LE
288.771 465.101 LS
287.214 483.856 L
317.72 468.432 L
288.771 465.101 LE
287.214 483.856 LS
316.896 487.238 L
317.72 468.432 L
287.214 483.856 LE
317.72 468.432 LS
316.896 487.238 L
352.515 471.242 L
317.72 468.432 LE
316.896 487.238 LS
352.276 490.062 L
352.515 471.242 L
316.896 487.238 LE
352.515 471.242 LS
352.276 490.062 L
393.602 473.243 L
352.515 471.242 LE
352.276 490.062 LS
393.783 492.056 L
393.602 473.243 L
352.276 490.062 LE
393.602 473.243 LS
393.783 492.056 L
441.272 474.167 L
393.602 473.243 LE
393.783 492.056 LS
441.676 492.966 L
441.272 474.167 L
393.783 492.056 LE
441.272 474.167 LS
441.676 492.966 L
495.388 473.782 L
441.272 474.167 LE
441.676 492.966 LS
495.813 492.573 L
495.388 473.782 L
441.676 492.966 LE
495.388 473.782 LS
495.813 492.573 L
555.529 490.757 L
495.388 473.782 L
555.529 490.757 L
555.262 471.956 L
495.388 473.782 LE
555.262 471.956 LS
555.529 490.757 L
619.594 487.534 L
555.262 471.956 L
619.594 487.534 L
619.614 468.703 L
555.262 471.956 LE
619.614 468.703 LS
619.594 487.534 L
686.299 483.062 L
619.614 468.703 L
686.299 483.062 L
686.656 464.188 L
619.614 468.703 LE
686.656 464.188 LS
686.299 483.062 L
753.656 477.612 L
686.656 464.188 L
753.656 477.612 L
754.315 458.687 L
686.656 464.188 LE
754.315 458.687 LS
753.656 477.612 L
819.675 471.503 L
754.315 458.687 L
819.675 471.503 L
820.528 452.533 L
754.315 458.687 LE
820.528 452.533 LS
819.675 471.503 L
882.627 465.047 L
820.528 452.533 L
882.627 465.047 L
883.517 446.047 L
820.528 452.533 LE
883.517 446.047 LS
882.627 465.047 L
941.205 458.513 L
883.517 446.047 L
941.205 458.513 L
941.958 439.502 L
883.517 446.047 LE
941.958 439.502 LS
941.205 458.513 L
994.515 452.114 L
941.958 439.502 L
994.515 452.114 L
994.933 433.121 L
941.958 439.502 LE
994.933 433.121 LS
994.515 452.114 L
1040.65 446.212 L
994.933 433.121 L
1040.65 446.212 L
1040.38 427.288 L
994.933 433.121 LE
1040.38 427.288 LS
1040.65 446.212 L
1075.55 441.503 L
1040.38 427.288 L
1075.55 441.503 L
1074.14 422.724 L
1040.38 427.288 LE
1074.14 422.724 LS
1075.55 441.503 L
1094.95 438.787 L
1074.14 422.724 L
1094.95 438.787 L
1092.31 420.177 L
1074.14 422.724 LE
231.191 473.831 LS
225.991 495.779 L
244.715 476.814 L
231.191 473.831 LE
225.991 495.779 LS
240.657 499.007 L
244.715 476.814 L
225.991 495.779 LE
244.715 476.814 LS
240.657 499.007 L
263.198 480.256 L
244.715 476.814 LE
240.657 499.007 LS
260.284 502.639 L
263.198 480.256 L
240.657 499.007 LE
263.198 480.256 LS
260.284 502.639 L
287.214 483.856 L
263.198 480.256 LE
260.284 502.639 LS
285.345 506.363 L
287.214 483.856 L
260.284 502.639 LE
287.214 483.856 LS
285.345 506.363 L
316.896 487.238 L
287.214 483.856 LE
285.345 506.363 LS
315.906 509.805 L
316.896 487.238 L
285.345 506.363 LE
316.896 487.238 LS
315.906 509.805 L
352.276 490.062 L
316.896 487.238 LE
315.906 509.805 LS
351.99 512.646 L
352.276 490.062 L
315.906 509.805 LE
352.276 490.062 LS
351.99 512.646 L
393.783 492.056 L
352.276 490.062 LE
351.99 512.646 LS
393.999 514.632 L
393.783 492.056 L
351.99 512.646 LE
393.783 492.056 LS
393.999 514.632 L
441.676 492.966 L
393.783 492.056 LE
393.999 514.632 LS
442.162 515.525 L
441.676 492.966 L
393.999 514.632 LE
441.676 492.966 LS
442.162 515.525 L
495.813 492.573 L
441.676 492.966 LE
442.162 515.525 LS
496.325 515.122 L
495.813 492.573 L
442.162 515.525 LE
495.813 492.573 LS
496.325 515.122 L
555.85 513.318 L
495.813 492.573 L
555.85 513.318 L
555.529 490.757 L
495.813 492.573 LE
555.529 490.757 LS
555.85 513.318 L
619.571 510.13 L
555.529 490.757 L
619.571 510.13 L
619.594 487.534 L
555.529 490.757 LE
619.594 487.534 LS
619.571 510.13 L
685.871 505.712 L
619.594 487.534 L
685.871 505.712 L
686.299 483.062 L
619.594 487.534 LE
686.299 483.062 LS
685.871 505.712 L
752.865 500.323 L
686.299 483.062 L
752.865 500.323 L
753.656 477.612 L
686.299 483.062 LE
753.656 477.612 LS
752.865 500.323 L
818.651 494.268 L
753.656 477.612 L
818.651 494.268 L
819.675 471.503 L
753.656 477.612 LE
819.675 471.503 LS
818.651 494.268 L
881.559 487.848 L
819.675 471.503 L
881.559 487.848 L
882.627 465.047 L
819.675 471.503 LE
882.627 465.047 LS
881.559 487.848 L
940.304 481.326 L
882.627 465.047 L
940.304 481.326 L
941.205 458.513 L
882.627 465.047 LE
941.205 458.513 LS
940.304 481.326 L
994.013 474.907 L
941.205 458.513 L
994.013 474.907 L
994.515 452.114 L
941.205 458.513 LE
994.515 452.114 LS
994.013 474.907 L
1040.97 468.921 L
994.515 452.114 L
1040.97 468.921 L
1040.65 446.212 L
994.515 452.114 LE
1040.65 446.212 LS
1040.97 468.921 L
1077.25 464.038 L
1040.65 446.212 L
1077.25 464.038 L
1075.55 441.503 L
1040.65 446.212 LE
1075.55 441.503 LS
1077.25 464.038 L
1098.12 461.12 L
1075.55 441.503 L
1098.12 461.12 L
1094.95 438.787 L
1075.55 441.503 LE
grestore
showpage
cleartomark
%%PageTrailer
%%Trailer
end
%%EOF
