%!PS-Adobe-3.0 EPSF-3.0
%%BoundingBox: -12 -9 534 402
%%HiResBoundingBox: -11.621 -8.039 533.454 401.618
%%Title: glps_renderer figure
%%Creator: GL2PS 1.3.8, (C) 1999-2012 C. Geuzaine
%%For: Octave
%%CreationDate: Thu Jun  1 17:39:39 2017
%%LanguageLevel: 3
%%DocumentData: Clean7Bit
%%Pages: 1
%%EndComments
%%BeginProlog
/gl2psdict 64 dict def gl2psdict begin
0 setlinecap 0 setlinejoin
/tryPS3shading false def % set to false to force subdivision
/rThreshold 0.064 def % red component subdivision threshold
/gThreshold 0.034 def % green component subdivision threshold
/bThreshold 0.1 def % blue component subdivision threshold
/BD { bind def } bind def
/C  { setrgbcolor } BD
/G  { 0.082 mul exch 0.6094 mul add exch 0.3086 mul add neg 1.0 add setgray } BD
/W  { setlinewidth } BD
/FC { findfont exch /SH exch def SH scalefont setfont } BD
/SW { dup stringwidth pop } BD
/S  { FC moveto show } BD
/SBC{ FC moveto SW -2 div 0 rmoveto show } BD
/SBR{ FC moveto SW neg 0 rmoveto show } BD
/SCL{ FC moveto 0 SH -2 div rmoveto show } BD
/SCC{ FC moveto SW -2 div SH -2 div rmoveto show } BD
/SCR{ FC moveto SW neg SH -2 div rmoveto show } BD
/STL{ FC moveto 0 SH neg rmoveto show } BD
/STC{ FC moveto SW -2 div SH neg rmoveto show } BD
/STR{ FC moveto SW neg SH neg rmoveto show } BD
/FCT { FC translate 0 0 } BD
/SR  { gsave FCT moveto rotate show grestore } BD
/SBCR{ gsave FCT moveto rotate SW -2 div 0 rmoveto show grestore } BD
/SBRR{ gsave FCT moveto rotate SW neg 0 rmoveto show grestore } BD
/SCLR{ gsave FCT moveto rotate 0 SH -2 div rmoveto show grestore} BD
/SCCR{ gsave FCT moveto rotate SW -2 div SH -2 div rmoveto show grestore} BD
/SCRR{ gsave FCT moveto rotate SW neg SH -2 div rmoveto show grestore} BD
/STLR{ gsave FCT moveto rotate 0 SH neg rmoveto show grestore } BD
/STCR{ gsave FCT moveto rotate SW -2 div SH neg rmoveto show grestore } BD
/STRR{ gsave FCT moveto rotate SW neg SH neg rmoveto show grestore } BD
/P  { newpath 0.0 360.0 arc closepath fill } BD
/LS { newpath moveto } BD
/L  { lineto } BD
/LE { lineto stroke } BD
/T  { newpath moveto lineto lineto closepath fill } BD
/STshfill {
      /b1 exch def /g1 exch def /r1 exch def /y1 exch def /x1 exch def
      /b2 exch def /g2 exch def /r2 exch def /y2 exch def /x2 exch def
      /b3 exch def /g3 exch def /r3 exch def /y3 exch def /x3 exch def
      gsave << /ShadingType 4 /ColorSpace [/DeviceRGB]
      /DataSource [ 0 x1 y1 r1 g1 b1 0 x2 y2 r2 g2 b2 0 x3 y3 r3 g3 b3 ] >>
      shfill grestore } BD
/Tm { 3 -1 roll 8 -1 roll 13 -1 roll add add 3 div
      3 -1 roll 7 -1 roll 11 -1 roll add add 3 div
      3 -1 roll 6 -1 roll 9 -1 roll add add 3 div C T } BD
/STsplit {
      4 index 15 index add 0.5 mul
      4 index 15 index add 0.5 mul
      4 index 15 index add 0.5 mul
      4 index 15 index add 0.5 mul
      4 index 15 index add 0.5 mul
      5 copy 5 copy 25 15 roll
      9 index 30 index add 0.5 mul
      9 index 30 index add 0.5 mul
      9 index 30 index add 0.5 mul
      9 index 30 index add 0.5 mul
      9 index 30 index add 0.5 mul
      5 copy 5 copy 35 5 roll 25 5 roll 15 5 roll
      4 index 10 index add 0.5 mul
      4 index 10 index add 0.5 mul
      4 index 10 index add 0.5 mul
      4 index 10 index add 0.5 mul
      4 index 10 index add 0.5 mul
      5 copy 5 copy 40 5 roll 25 5 roll 15 5 roll 25 5 roll
      STnoshfill STnoshfill STnoshfill STnoshfill } BD
/STnoshfill {
      2 index 8 index sub abs rThreshold gt
      { STsplit }
      { 1 index 7 index sub abs gThreshold gt
        { STsplit }
        { dup 6 index sub abs bThreshold gt
          { STsplit }
          { 2 index 13 index sub abs rThreshold gt
            { STsplit }
            { 1 index 12 index sub abs gThreshold gt
              { STsplit }
              { dup 11 index sub abs bThreshold gt
                { STsplit }
                { 7 index 13 index sub abs rThreshold gt
                  { STsplit }
                  { 6 index 12 index sub abs gThreshold gt
                    { STsplit }
                    { 5 index 11 index sub abs bThreshold gt
                      { STsplit }
                      { Tm }
                      ifelse }
                    ifelse }
                  ifelse }
                ifelse }
              ifelse }
            ifelse }
          ifelse }
        ifelse }
      ifelse } BD
tryPS3shading
{ /shfill where
  { /ST { STshfill } BD }
  { /ST { STnoshfill } BD }
  ifelse }
{ /ST { STnoshfill } BD }
ifelse
end
%%EndProlog
%%BeginSetup
/DeviceRGB setcolorspace
gl2psdict begin
%%EndSetup
%%Page: 1 1
%%BeginPageSetup
%%EndPageSetup
mark
gsave
1.0 1.0 scale
1 1 1 C
74.88 400.6 521.28 48.52 74.88 48.52 T
74.88 400.6 521.28 400.6 521.28 48.52 T
438.322 397.858 518.538 334.775 438.322 334.775 T
438.322 397.858 518.538 397.858 518.538 334.775 T
0.5 W
[16 0] 0 setdash
0 0 0 C
74.88 48.52 LS
521.28 48.52 LE
74.88 400.6 LS
521.28 400.6 LE
74.88 48.52 LS
74.88 400.6 LE
521.28 48.52 LS
521.28 400.6 LE
74.88 48.52 LS
74.88 52.985 LE
74.88 400.6 LS
74.88 396.135 LE
149.28 48.52 LS
149.28 52.985 LE
149.28 400.6 LS
149.28 396.135 LE
223.68 48.52 LS
223.68 52.985 LE
223.68 400.6 LS
223.68 396.135 LE
298.08 48.52 LS
298.08 52.985 LE
298.08 400.6 LS
298.08 396.135 LE
372.48 48.52 LS
372.48 52.985 LE
372.48 400.6 LS
372.48 396.135 LE
446.88 48.52 LS
446.88 52.985 LE
446.88 400.6 LS
446.88 396.135 LE
521.28 48.52 LS
521.28 52.985 LE
521.28 400.6 LS
521.28 396.135 LE
(0) 74.88 43.5189 24 /Helvetica STC
(5) 149.28 43.5189 24 /Helvetica STC
(10) 223.68 43.5189 24 /Helvetica STC
(15) 298.08 43.5189 24 /Helvetica STC
(20) 372.48 43.5189 24 /Helvetica STC
(25) 446.88 43.5189 24 /Helvetica STC
(30) 521.28 43.5189 24 /Helvetica STC
74.88 48.52 LS
79.348 48.52 LE
521.28 48.52 LS
516.812 48.52 LE
74.88 112.535 LS
79.348 112.535 LE
521.28 112.535 LS
516.812 112.535 LE
74.88 176.549 LS
79.348 176.549 LE
521.28 176.549 LS
516.812 176.549 LE
74.88 240.564 LS
79.348 240.564 LE
521.28 240.564 LS
516.812 240.564 LE
74.88 304.578 LS
79.348 304.578 LE
521.28 304.578 LS
516.812 304.578 LE
74.88 368.593 LS
79.348 368.593 LE
521.28 368.593 LS
516.812 368.593 LE
(1e-12) 69.8755 48.52 24 /Helvetica SCR
(1e-10) 69.8755 112.535 24 /Helvetica SCR
(1e-8) 69.8755 176.549 24 /Helvetica SCR
(1e-6) 69.8755 240.564 24 /Helvetica SCR
(1e-4) 69.8755 304.578 24 /Helvetica SCR
(1e-2) 69.8755 368.593 24 /Helvetica SCR
(CG iteration) 298.08 16.5188 24 /Helvetica STC
(Residual) 90 5.87552 224.56 24 /Helvetica SBCR
3 W
[] 0 setdash
0 0 1 C
89.76 381.845 LS
104.64 347.171 L
119.52 329.57 L
134.4 320.281 L
149.28 314.98 L
164.16 300.768 L
179.04 282.208 L
193.92 268.126 L
208.8 259.224 L
223.68 249.125 L
238.56 228.601 L
253.44 207.428 L
268.32 184.534 L
283.2 161.729 L
298.08 148.099 L
312.96 127.241 L
327.84 101.512 L
342.72 86.446 L
357.6 73.575 LE
97.26 381.845 LS
95.8276 377.437 L
92.0776 374.712 L
87.4424 374.712 L
83.6924 377.437 L
82.26 381.845 L
83.6924 386.254 L
87.4424 388.978 L
92.0776 388.978 L
95.8276 386.254 L
97.26 381.845 LE
141.9 320.281 LS
140.468 315.872 L
136.718 313.148 L
132.082 313.148 L
128.332 315.872 L
126.9 320.281 L
128.332 324.689 L
132.082 327.414 L
136.718 327.414 L
140.468 324.689 L
141.9 320.281 LE
186.54 282.208 LS
185.108 277.8 L
181.358 275.075 L
176.722 275.075 L
172.972 277.8 L
171.54 282.208 L
172.972 286.616 L
176.722 289.341 L
181.358 289.341 L
185.108 286.616 L
186.54 282.208 LE
231.18 249.125 LS
229.748 244.717 L
225.998 241.992 L
221.362 241.992 L
217.612 244.717 L
216.18 249.125 L
217.612 253.534 L
221.362 256.258 L
225.998 256.258 L
229.748 253.534 L
231.18 249.125 LE
275.82 184.534 LS
274.388 180.125 L
270.638 177.401 L
266.002 177.401 L
262.252 180.125 L
260.82 184.534 L
262.252 188.942 L
266.002 191.667 L
270.638 191.667 L
274.388 188.942 L
275.82 184.534 LE
320.46 127.241 LS
319.028 122.833 L
315.278 120.108 L
310.642 120.108 L
306.892 122.833 L
305.46 127.241 L
306.892 131.65 L
310.642 134.374 L
315.278 134.374 L
319.028 131.65 L
320.46 127.241 LE
365.1 73.575 LS
363.668 69.1666 L
359.918 66.4421 L
355.282 66.4421 L
351.532 69.1666 L
350.1 73.575 L
351.532 77.9834 L
355.282 80.7079 L
359.918 80.7079 L
363.668 77.9834 L
365.1 73.575 LE
1 0 0 C
89.76 393.447 LS
104.64 366.181 L
119.52 355.488 L
134.4 349.746 L
149.28 352.379 L
164.16 337.927 L
179.04 328.681 L
193.92 319.328 L
208.8 307.501 L
223.68 303.626 L
238.56 290.089 L
253.44 285.669 L
268.32 265.669 L
283.2 260.479 L
298.08 241.747 L
312.96 220.916 L
327.84 202.414 L
342.72 190.627 L
357.6 176.43 L
372.48 160.956 L
387.36 145.668 L
402.24 136.496 L
417.12 123.481 L
432 102.319 L
446.88 89.9637 L
461.76 68.745 LE
89.76 400.947 LS
82.26 385.947 L
97.26 385.947 L
89.76 400.947 LE
134.4 357.246 LS
126.9 342.246 L
141.9 342.246 L
134.4 357.246 LE
179.04 336.181 LS
171.54 321.181 L
186.54 321.181 L
179.04 336.181 LE
223.68 311.126 LS
216.18 296.126 L
231.18 296.126 L
223.68 311.126 LE
268.32 273.169 LS
260.82 258.169 L
275.82 258.169 L
268.32 273.169 LE
312.96 228.416 LS
305.46 213.416 L
320.46 213.416 L
312.96 228.416 LE
357.6 183.93 LS
350.1 168.93 L
365.1 168.93 L
357.6 183.93 LE
402.24 143.996 LS
394.74 128.996 L
409.74 128.996 L
402.24 143.996 LE
446.88 97.4637 LS
439.38 82.4637 L
454.38 82.4637 L
446.88 97.4637 LE
2 W
[16 0] 0 setdash
0 0 0 C
438.322 334.775 LS
518.538 334.775 LE
438.322 397.858 LS
518.538 397.858 LE
438.322 334.775 LS
438.322 397.858 LE
518.538 334.775 LS
518.538 397.858 LE
(p=2) 464.368 382.088 24 /Helvetica SCL
(p=3) 464.368 350.546 24 /Helvetica SCL
3 W
[] 0 setdash
0 0 1 C
456.345 382.088 LS
455.39 379.149 L
452.89 377.332 L
449.8 377.332 L
447.3 379.149 L
446.345 382.088 L
447.3 385.026 L
449.8 386.843 L
452.89 386.843 L
455.39 385.026 L
456.345 382.088 LE
1 0 0 C
451.345 355.546 LS
446.345 345.546 L
456.345 345.546 L
451.345 355.546 LE
grestore
showpage
cleartomark
%%PageTrailer
%%Trailer
end
%%EOF
