Point(1) = {0.0000000000000000, 0.0000000000000000, 0.0000000000000000, 1.000000e+00}; 
Point(2) = {0.5700431611845991, -0.5700431611845990, -0.5916938302647228, 5.000000e-01}; 
Point(3) = {0.5700431611845991, 0.5700431611845990, -0.5916938302647228, 5.000000e-01}; 
Point(4) = {-0.5700431611845990, 0.5700431611845991, -0.5916938302647228, 5.000000e-01}; 
Point(5) = {-0.5700431611845990, -0.5700431611845991, -0.5916938302647228, 5.000000e-01}; 
Point(6) = {0.0000000000000000, 0.0000000000000000, -0.5916938302647227, 5.000000e-01}; 
Point(7) = {0.5700431611845991, -0.5700431611845990, 0.5916938302647227, 5.000000e-01}; 
Point(8) = {0.5700431611845991, 0.5700431611845990, 0.5916938302647227, 5.000000e-01}; 
Point(9) = {-0.5700431611845990, 0.5700431611845991, 0.5916938302647227, 5.000000e-01}; 
Point(10) = {-0.5700431611845990, -0.5700431611845991, 0.5916938302647227, 5.000000e-01}; 
Point(11) = {0.0000000000000000, 0.0000000000000000, 0.5916938302647227, 5.000000e-01}; 
Circle(12) = { 3, 1, 2}; 
Circle(13) = { 2, 1, 5}; 
Circle(14) = { 5, 1, 4}; 
Circle(15) = { 4, 1, 3}; 
Circle(16) = { 7, 1, 8}; 
Circle(17) = { 8, 1, 9}; 
Circle(18) = { 9, 1, 10}; 
Circle(19) = { 10, 1, 7}; 
Circle(20) = { 2, 1, 7}; 
Circle(21) = { 3, 1, 8}; 
Circle(22) = { 4, 1, 9}; 
Circle(23) = { 5, 1, 10}; 
Line Loop(24) = { 20, -19, -23, -13}; 
Ruled Surface(24) = {24}; 
Line Loop(25) = { 22, -17, -21, -15}; 
Ruled Surface(25) = {25}; 
Line Loop(26) = { 12, 13, 14, 15}; 
Ruled Surface(26) = {26}; 
Line Loop(27) = { 16, 17, 18, 19}; 
Ruled Surface(27) = {27}; 
Line Loop(28) = { 21, -16, -20, -12}; 
Ruled Surface(28) = {28}; 
Line Loop(29) = { 23, -18, -22, -14}; 
Ruled Surface(29) = {29}; 
Point(30) = {3.4202589671075949, -3.4202589671075940, -3.5501629815883367, 5.000000e-01}; 
Point(31) = {3.4202589671075949, 3.4202589671075940, -3.5501629815883367, 5.000000e-01}; 
Point(32) = {-3.4202589671075940, 3.4202589671075949, -3.5501629815883367, 5.000000e-01}; 
Point(33) = {-3.4202589671075940, -3.4202589671075949, -3.5501629815883367, 5.000000e-01}; 
Point(34) = {0.0000000000000000, 0.0000000000000000, -3.5501629815883362, 5.000000e-01}; 
Point(35) = {3.4202589671075949, -3.4202589671075940, 3.5501629815883362, 5.000000e-01}; 
Point(36) = {3.4202589671075949, 3.4202589671075940, 3.5501629815883362, 5.000000e-01}; 
Point(37) = {-3.4202589671075940, 3.4202589671075949, 3.5501629815883362, 5.000000e-01}; 
Point(38) = {-3.4202589671075940, -3.4202589671075949, 3.5501629815883362, 5.000000e-01}; 
Point(39) = {0.0000000000000000, 0.0000000000000000, 3.5501629815883362, 5.000000e-01}; 
Circle(40) = { 31, 1, 30}; 
Circle(41) = { 30, 1, 33}; 
Circle(42) = { 33, 1, 32}; 
Circle(43) = { 32, 1, 31}; 
Circle(44) = { 35, 1, 36}; 
Circle(45) = { 36, 1, 37}; 
Circle(46) = { 37, 1, 38}; 
Circle(47) = { 38, 1, 35}; 
Circle(48) = { 30, 1, 35}; 
Circle(49) = { 31, 1, 36}; 
Circle(50) = { 32, 1, 37}; 
Circle(51) = { 33, 1, 38}; 
Line Loop(52) = { 48, -47, -51, -41}; 
Ruled Surface(52) = {52}; 
Line Loop(53) = { 50, -45, -49, -43}; 
Ruled Surface(53) = {53}; 
Line Loop(54) = { 40, 41, 42, 43}; 
Ruled Surface(54) = {54}; 
Line Loop(55) = { 44, 45, 46, 47}; 
Ruled Surface(55) = {55}; 
Line Loop(56) = { 49, -44, -48, -40}; 
Ruled Surface(56) = {56}; 
Line Loop(57) = { 51, -46, -50, -42}; 
Ruled Surface(57) = {57}; 
Point(58) = {57.0043161184599043, -57.0043161184598972, -59.1693830264722749, 5.000000e-01}; 
Point(59) = {57.0043161184599043, 57.0043161184598972, -59.1693830264722749, 5.000000e-01}; 
Point(60) = {-57.0043161184598972, 57.0043161184599043, -59.1693830264722749, 5.000000e-01}; 
Point(61) = {-57.0043161184598972, -57.0043161184599043, -59.1693830264722749, 5.000000e-01}; 
Point(62) = {0.0000000000000000, 0.0000000000000000, -59.1693830264722678, 5.000000e-01}; 
Point(63) = {57.0043161184599043, -57.0043161184598972, 59.1693830264722678, 5.000000e-01}; 
Point(64) = {57.0043161184599043, 57.0043161184598972, 59.1693830264722678, 5.000000e-01}; 
Point(65) = {-57.0043161184598972, 57.0043161184599043, 59.1693830264722678, 5.000000e-01}; 
Point(66) = {-57.0043161184598972, -57.0043161184599043, 59.1693830264722678, 5.000000e-01}; 
Point(67) = {0.0000000000000000, 0.0000000000000000, 59.1693830264722678, 5.000000e-01}; 
Circle(68) = { 59, 1, 58}; 
Circle(69) = { 58, 1, 61}; 
Circle(70) = { 61, 1, 60}; 
Circle(71) = { 60, 1, 59}; 
Circle(72) = { 63, 1, 64}; 
Circle(73) = { 64, 1, 65}; 
Circle(74) = { 65, 1, 66}; 
Circle(75) = { 66, 1, 63}; 
Circle(76) = { 58, 1, 63}; 
Circle(77) = { 59, 1, 64}; 
Circle(78) = { 60, 1, 65}; 
Circle(79) = { 61, 1, 66}; 
Line Loop(80) = { 76, -75, -79, -69}; 
Ruled Surface(80) = {80}; 
Line Loop(81) = { 78, -73, -77, -71}; 
Ruled Surface(81) = {81}; 
Line Loop(82) = { 68, 69, 70, 71}; 
Ruled Surface(82) = {82}; 
Line Loop(83) = { 72, 73, 74, 75}; 
Ruled Surface(83) = {83}; 
Line Loop(84) = { 77, -72, -76, -68}; 
Ruled Surface(84) = {84}; 
Line Loop(85) = { 79, -74, -78, -70}; 
Ruled Surface(85) = {85}; 
Line(86) = { 2, 30}; 
Line(87) = { 3, 31}; 
Line(88) = { 4, 32}; 
Line(89) = { 5, 33}; 
Line(90) = { 7, 35}; 
Line(91) = { 8, 36}; 
Line(92) = { 9, 37}; 
Line(93) = { 10, 38}; 
Line Loop(94) = { 12, 86, -40, -87}; 
Plane Surface(94) = {94}; 
Line Loop(95) = { 13, 89, -41, -86}; 
Plane Surface(95) = {95}; 
Line Loop(96) = { 14, 88, -42, -89}; 
Plane Surface(96) = {96}; 
Line Loop(97) = { 15, 87, -43, -88}; 
Plane Surface(97) = {97}; 
Line Loop(98) = { 16, 91, -44, -90}; 
Plane Surface(98) = {98}; 
Line Loop(99) = { 17, 92, -45, -91}; 
Plane Surface(99) = {99}; 
Line Loop(100) = { 18, 93, -46, -92}; 
Plane Surface(100) = {100}; 
Line Loop(101) = { 19, 90, -47, -93}; 
Plane Surface(101) = {101}; 
Line Loop(102) = { 20, 90, -48, -86}; 
Plane Surface(102) = {102}; 
Line Loop(103) = { 21, 91, -49, -87}; 
Plane Surface(103) = {103}; 
Line Loop(104) = { 22, 92, -50, -88}; 
Plane Surface(104) = {104}; 
Line Loop(105) = { 23, 93, -51, -89}; 
Plane Surface(105) = {105}; 
Surface Loop(106) = { -24, 52, 102, -105, -95, -101}; 
Volume(106) = {106}; 
Surface Loop(107) = { -25, 53, 104, -103, -99, -97}; 
Volume(107) = {107}; 
Surface Loop(108) = { -28, 56, 103, -102, -98, -94}; 
Volume(108) = {108}; 
Surface Loop(109) = { -29, 57, 105, -104, -100, -96}; 
Volume(109) = {109}; 
Surface Loop(110) = { -26, 54, 94, 95, 96, 97}; 
Volume(110) = {110}; 
Surface Loop(111) = { -27, 55, 98, 99, 100, 101}; 
Volume(111) = {111}; 
Line(112) = { 30, 58}; 
Line(113) = { 31, 59}; 
Line(114) = { 32, 60}; 
Line(115) = { 33, 61}; 
Line(116) = { 35, 63}; 
Line(117) = { 36, 64}; 
Line(118) = { 37, 65}; 
Line(119) = { 38, 66}; 
Line Loop(120) = { 40, 112, -68, -113}; 
Plane Surface(120) = {120}; 
Line Loop(121) = { 41, 115, -69, -112}; 
Plane Surface(121) = {121}; 
Line Loop(122) = { 42, 114, -70, -115}; 
Plane Surface(122) = {122}; 
Line Loop(123) = { 43, 113, -71, -114}; 
Plane Surface(123) = {123}; 
Line Loop(124) = { 44, 117, -72, -116}; 
Plane Surface(124) = {124}; 
Line Loop(125) = { 45, 118, -73, -117}; 
Plane Surface(125) = {125}; 
Line Loop(126) = { 46, 119, -74, -118}; 
Plane Surface(126) = {126}; 
Line Loop(127) = { 47, 116, -75, -119}; 
Plane Surface(127) = {127}; 
Line Loop(128) = { 48, 116, -76, -112}; 
Plane Surface(128) = {128}; 
Line Loop(129) = { 49, 117, -77, -113}; 
Plane Surface(129) = {129}; 
Line Loop(130) = { 50, 118, -78, -114}; 
Plane Surface(130) = {130}; 
Line Loop(131) = { 51, 119, -79, -115}; 
Plane Surface(131) = {131}; 
Surface Loop(132) = { -52, 80, 128, -131, -121, -127}; 
Volume(132) = {132}; 
Surface Loop(133) = { -53, 81, 130, -129, -125, -123}; 
Volume(133) = {133}; 
Surface Loop(134) = { -56, 84, 129, -128, -124, -120}; 
Volume(134) = {134}; 
Surface Loop(135) = { -57, 85, 131, -130, -126, -122}; 
Volume(135) = {135}; 
Surface Loop(136) = { -54, 82, 120, 121, 122, 123}; 
Volume(136) = {136}; 
Surface Loop(137) = { -55, 83, 124, 125, 126, 127}; 
Volume(137) = {137}; 
Transfinite Line { 12, 13, 14, 15}  = 9 Using Bump 1.200000 ;
Transfinite Line { 16, 17, 18, 19}  = 9 Using Bump 1.200000 ;
Transfinite Line { 20, 21, 22, 23}  = 9 Using Bump 1.200000 ;
Transfinite Line { 40, 41, 42, 43}  = 9 Using Bump 1.200000 ;
Transfinite Line { 44, 45, 46, 47}  = 9 Using Bump 1.200000 ;
Transfinite Line { 48, 49, 50, 51}  = 9 Using Bump 1.200000 ;
Transfinite Line { 68, 69, 70, 71}  = 9 Using Bump 1.200000 ;
Transfinite Line { 72, 73, 74, 75}  = 9 Using Bump 1.200000 ;
Transfinite Line { 76, 77, 78, 79}  = 9 Using Bump 1.200000 ;
Transfinite Line { 86, 87, 88, 89}  = 9 Using Progression 1.220000 ;
Transfinite Line { 90, 91, 92, 93}  = 9 Using Progression 1.220000 ;
Transfinite Line { 112, 113, 114, 115}  = 13 Using Progression 1.300000 ;
Transfinite Line { 116, 117, 118, 119}  = 13 Using Progression 1.300000 ;
Transfinite Surface { 24, 25, 28, 27, 26, 29} ;
Transfinite Surface { 52, 53, 56, 55, 54, 57} ;
Transfinite Surface { 80, 81, 84, 83, 82, 85} ;
Transfinite Surface { 94, 95, 96, 97} ;
Recombine Surface { 94, 95, 96, 97} ;
Transfinite Surface { 98, 99, 100, 101} ;
Recombine Surface { 98, 99, 100, 101} ;
Transfinite Surface { 102, 103, 104, 105} ;
Recombine Surface { 102, 103, 104, 105} ;
Transfinite Surface { 120, 121, 122, 123} ;
Recombine Surface { 120, 121, 122, 123} ;
Transfinite Surface { 124, 125, 126, 127} ;
Recombine Surface { 124, 125, 126, 127} ;
Transfinite Surface { 128, 129, 130, 131} ;
Recombine Surface { 128, 129, 130, 131} ;
Transfinite Volume { 106, 107, 108, 111, 110, 109} ;
Transfinite Volume { 132, 133, 134, 137, 136, 135} ;
Coherence Mesh; 
Physical Volume(1) = { 106, 107, 111, 110, 108, 109,132, 133, 137, 136, 134, 135}; 
Physical Surface(5) = { 80, 81, 83, 82, 84, 85}; 
Physical Surface(1) = { 24, 25, 27, 26, 28, 29}; 
Hide "*";
Show {
Point{9,10,37,38};
Line{18,46,92,93};
Surface{100};
}

Hide "*";
Show {
Point{30,31,58,59};
Line{40,68,112,113};
Surface{120};
}

Show "*";
Hide {
Point{1,6,11,34,39,62,67};
}

